Nov 29 18:59:15.833 HYPERVISOR: Release 0.2.17-amd64/Linux (tag 2017072410)
Nov 29 18:59:15.833 HYPERVISOR: Started on IP = 127.0.0.1, TCP port = 46011.
Nov 29 18:59:15.842 HYPERVISOR: exec_cmd: hypervisor version 
Nov 29 18:59:15.843 HYPERVISOR: exec_cmd: hypervisor working_dir /media/actionmystique/SAMSUNG5-VMs/Labs/GNS3/git-Public-Labs-Collection/CCNP/TBSHOOT/L3-Technologies/IPv6/Addressing/Jean-Christophe_Manciot/1+/TT 2-solutions-linux/project-files/dynamips 
Nov 29 18:59:15.843 GENERAL: working_dir=/media/actionmystique/SAMSUNG5-VMs/Labs/GNS3/git-Public-Labs-Collection/CCNP/TBSHOOT/L3-Technologies/IPv6/Addressing/Jean-Christophe_Manciot/1+/TT 2-solutions-linux/project-files/dynamips
Nov 29 18:59:15.843 HYPERVISOR: exec_cmd: vm create ESW1 1 c3725 
Nov 29 18:59:15.843 VM: VM ESW1 created.
Nov 29 18:59:15.843 HYPERVISOR: exec_cmd: vm set_con_tcp_port ESW1 2001 
Nov 29 18:59:15.844 HYPERVISOR: exec_cmd: vm set_aux_tcp_port ESW1 2501 
Nov 29 18:59:15.844 HYPERVISOR: exec_cmd: c3725 get_mac_addr ESW1 
Nov 29 18:59:15.844 HYPERVISOR: exec_cmd: vm slot_add_binding ESW1 0 16 WIC-2T 
Nov 29 18:59:15.845 HYPERVISOR: exec_cmd: vm set_ios ESW1 /media/actionmystique/SAMSUNG5-VMs/Images/GNS3/IOS/c3725-adventerprisek9-mz.124-15.T10.image 
Nov 29 18:59:15.845 HYPERVISOR: exec_cmd: vm get_status ESW1 
Nov 29 18:59:15.845 HYPERVISOR: exec_cmd: vm set_idle_pc ESW1 0x6026b804 
Nov 29 18:59:15.846 HYPERVISOR: exec_cmd: vm get_status ESW1 
Nov 29 18:59:15.846 HYPERVISOR: exec_cmd: vm slot_add_binding ESW1 1 0 NM-16ESW 
Nov 29 18:59:15.846 HYPERVISOR: exec_cmd: c3725 set_mac_addr ESW1 c201.281a.0000 
Nov 29 18:59:15.847 HYPERVISOR: exec_cmd: vm set_disk0 ESW1 1 
Nov 29 18:59:15.847 HYPERVISOR: exec_cmd: vm set_nvram ESW1 256 
Nov 29 18:59:15.848 HYPERVISOR: exec_cmd: vm set_config ESW1 configs/i1_startup-config.cfg 
Nov 29 18:59:15.848 HYPERVISOR: exec_cmd: vm set_config ESW1 configs/i1_startup-config.cfg configs/i1_private-config.cfg 
Nov 29 18:59:15.980 HYPERVISOR: exec_cmd: nio create_udp udp-b8b9a334-54fc-44c3-bd2e-60b26cfa5276 15005 127.0.0.1 15004 
Nov 29 18:59:15.981 HYPERVISOR: exec_cmd: vm slot_add_nio_binding ESW1 1 2 udp-b8b9a334-54fc-44c3-bd2e-60b26cfa5276 
Nov 29 18:59:15.981 HYPERVISOR: exec_cmd: vm get_status ESW1 
Nov 29 18:59:16.009 HYPERVISOR: exec_cmd: nio create_udp udp-bf613acd-c839-44b6-9525-2aa370670905 15006 127.0.0.1 15002 
Nov 29 18:59:16.020 HYPERVISOR: exec_cmd: vm slot_add_nio_binding ESW1 1 1 udp-bf613acd-c839-44b6-9525-2aa370670905 
Nov 29 18:59:16.022 HYPERVISOR: exec_cmd: vm get_status ESW1 
Nov 29 18:59:16.027 HYPERVISOR: exec_cmd: nio create_udp udp-6534eba5-3841-4507-846e-c2a49781b83c 15003 127.0.0.1 15007 
Nov 29 18:59:16.034 HYPERVISOR: exec_cmd: vm slot_add_nio_binding ESW1 1 0 udp-6534eba5-3841-4507-846e-c2a49781b83c 
Nov 29 18:59:16.035 HYPERVISOR: exec_cmd: vm get_status ESW1 
Nov 29 18:59:16.073 HYPERVISOR: exec_cmd: nio create_udp udp-eace185c-c055-4260-8c21-6fc300abc7c7 15008 127.0.0.1 15011 
Nov 29 18:59:16.073 HYPERVISOR: exec_cmd: vm slot_add_nio_binding ESW1 1 3 udp-eace185c-c055-4260-8c21-6fc300abc7c7 
Nov 29 18:59:16.074 HYPERVISOR: exec_cmd: vm get_status ESW1 
