Nov 26 21:56:31.263 HYPERVISOR: Release 0.2.17-amd64/Linux (tag 2017072410)
Nov 26 21:56:31.263 HYPERVISOR: Started on IP = 127.0.0.1, TCP port = 34685.
Nov 26 21:56:31.283 HYPERVISOR: exec_cmd: hypervisor version 
Nov 26 21:56:31.284 HYPERVISOR: exec_cmd: hypervisor working_dir /media/actionmystique/SAMSUNG5-VMs/Labs/GNS3/v1-solutions-linux-/project-files/dynamips 
Nov 26 21:56:31.285 GENERAL: working_dir=/media/actionmystique/SAMSUNG5-VMs/Labs/GNS3/v1-solutions-linux-/project-files/dynamips
Nov 26 21:56:31.286 HYPERVISOR: exec_cmd: vm create R3 7 c7200 
Nov 26 21:56:31.286 VM: VM R3 created.
Nov 26 21:56:31.287 HYPERVISOR: exec_cmd: vm set_con_tcp_port R3 2002 
Nov 26 21:56:31.289 HYPERVISOR: exec_cmd: c7200 get_mac_addr R3 
Nov 26 21:56:31.290 HYPERVISOR: exec_cmd: vm get_status R3 
Nov 26 21:56:31.292 HYPERVISOR: exec_cmd: vm slot_add_binding R3 0 0 C7200-IO-FE 
Nov 26 21:56:31.293 HYPERVISOR: exec_cmd: vm get_status R3 
Nov 26 21:56:31.295 HYPERVISOR: exec_cmd: vm set_idle_pc R3 0x6062f0e0 
Nov 26 21:56:31.303 HYPERVISOR: exec_cmd: vm get_status R3 
Nov 26 21:56:31.308 HYPERVISOR: exec_cmd: vm slot_add_binding R3 1 0 PA-GE 
Nov 26 21:56:31.319 HYPERVISOR: exec_cmd: vm set_nvram R3 256 
Nov 26 21:56:31.321 HYPERVISOR: exec_cmd: vm get_status R3 
Nov 26 21:56:31.329 HYPERVISOR: exec_cmd: vm slot_add_binding R3 3 0 PA-GE 
Nov 26 21:56:31.333 HYPERVISOR: exec_cmd: vm get_status R3 
Nov 26 21:56:31.343 HYPERVISOR: exec_cmd: vm slot_remove_binding R3 0 0 
Nov 26 21:56:31.347 HYPERVISOR: exec_cmd: vm get_status R3 
Nov 26 21:56:31.348 HYPERVISOR: exec_cmd: vm slot_add_binding R3 0 0 C7200-IO-GE-E 
Nov 26 21:56:31.350 HYPERVISOR: exec_cmd: vm get_status R3 
Nov 26 21:56:31.353 HYPERVISOR: exec_cmd: vm slot_add_binding R3 4 0 PA-4T+ 
Nov 26 21:56:31.355 HYPERVISOR: exec_cmd: vm get_status R3 
Nov 26 21:56:31.356 HYPERVISOR: exec_cmd: vm slot_add_binding R3 2 0 PA-GE 
Nov 26 21:56:31.362 HYPERVISOR: exec_cmd: vm set_ram R3 512 
Nov 26 21:56:31.364 HYPERVISOR: exec_cmd: vm get_status R3 
Nov 26 21:56:31.365 HYPERVISOR: exec_cmd: vm slot_add_binding R3 6 0 PA-POS-OC3 
Nov 26 21:56:31.374 HYPERVISOR: exec_cmd: c7200 set_mac_addr R3 ca07.2e65.0000 
Nov 26 21:56:31.386 HYPERVISOR: exec_cmd: vm set_disk0 R3 1 
Nov 26 21:56:31.396 HYPERVISOR: exec_cmd: vm set_ios R3 /media/actionmystique/SAMSUNG5-VMs/Images/GNS3/IOS/c7200-adventerprisek9-mz.152-4.M2.image 
Nov 26 21:56:31.398 HYPERVISOR: exec_cmd: vm get_status R3 
Nov 26 21:56:31.400 HYPERVISOR: exec_cmd: vm slot_add_binding R3 5 0 PA-POS-OC3 
Nov 26 21:56:31.401 HYPERVISOR: exec_cmd: vm set_config R3 configs/i7_startup-config.cfg 
Nov 26 21:56:31.403 HYPERVISOR: exec_cmd: vm set_config R3 configs/i7_startup-config.cfg configs/i7_private-config.cfg 
Nov 26 21:56:31.816 HYPERVISOR: exec_cmd: nio create_tap tap-ea42a8d7-1e84-4970-8de9-26fd2d0d5749 tap0 
Nov 26 21:56:31.817 HYPERVISOR: exec_cmd: vm slot_add_nio_binding R3 0 0 tap-ea42a8d7-1e84-4970-8de9-26fd2d0d5749 
Nov 26 21:56:31.817 HYPERVISOR: exec_cmd: vm get_status R3 
Nov 26 21:56:32.393 HYPERVISOR: exec_cmd: nio create_udp udp-b9dbc59e-1bd9-4c5f-b22e-e3e46ad248e0 15032 127.0.0.1 15033 
Nov 26 21:56:32.393 HYPERVISOR: exec_cmd: vm slot_add_nio_binding R3 4 0 udp-b9dbc59e-1bd9-4c5f-b22e-e3e46ad248e0 
Nov 26 21:56:32.394 HYPERVISOR: exec_cmd: vm get_status R3 
Nov 26 21:56:42.441 HYPERVISOR: exec_cmd: vm get_status R3 
Nov 26 21:56:42.446 HYPERVISOR: exec_cmd: vm extract_config R3 
Nov 26 21:56:42.459 HYPERVISOR: exec_cmd: vm delete R3 
Nov 26 21:56:42.459 VM: VM R3 destroyed.
Nov 26 21:56:42.462 HYPERVISOR: exec_cmd: hypervisor stop 
Nov 26 21:56:42.792 HYPERVISOR: Stopped.
Nov 26 21:56:42.792 GENERAL: reset done.
