Nov 26 21:56:31.223 HYPERVISOR: Release 0.2.17-amd64/Linux (tag 2017072410)
Nov 26 21:56:31.223 HYPERVISOR: Started on IP = 127.0.0.1, TCP port = 51175.
Nov 26 21:56:31.241 HYPERVISOR: exec_cmd: hypervisor version 
Nov 26 21:56:31.241 HYPERVISOR: exec_cmd: hypervisor working_dir /media/actionmystique/SAMSUNG5-VMs/Labs/GNS3/v1-solutions-linux-/project-files/dynamips 
Nov 26 21:56:31.241 GENERAL: working_dir=/media/actionmystique/SAMSUNG5-VMs/Labs/GNS3/v1-solutions-linux-/project-files/dynamips
Nov 26 21:56:31.242 HYPERVISOR: exec_cmd: vm create R1 5 c7200 
Nov 26 21:56:31.242 VM: VM R1 created.
Nov 26 21:56:31.244 HYPERVISOR: exec_cmd: vm set_con_tcp_port R1 2012 
Nov 26 21:56:31.251 HYPERVISOR: exec_cmd: c7200 get_mac_addr R1 
Nov 26 21:56:31.264 HYPERVISOR: exec_cmd: vm get_status R1 
Nov 26 21:56:31.265 HYPERVISOR: exec_cmd: vm slot_add_binding R1 0 0 C7200-IO-FE 
Nov 26 21:56:31.267 HYPERVISOR: exec_cmd: vm get_status R1 
Nov 26 21:56:31.268 HYPERVISOR: exec_cmd: vm set_idle_pc R1 0x6062f0e0 
Nov 26 21:56:31.269 HYPERVISOR: exec_cmd: vm get_status R1 
Nov 26 21:56:31.270 HYPERVISOR: exec_cmd: vm slot_add_binding R1 1 0 PA-GE 
Nov 26 21:56:31.271 HYPERVISOR: exec_cmd: vm set_nvram R1 256 
Nov 26 21:56:31.272 HYPERVISOR: exec_cmd: vm get_status R1 
Nov 26 21:56:31.273 HYPERVISOR: exec_cmd: vm slot_add_binding R1 3 0 PA-GE 
Nov 26 21:56:31.274 HYPERVISOR: exec_cmd: vm get_status R1 
Nov 26 21:56:31.275 HYPERVISOR: exec_cmd: vm slot_remove_binding R1 0 0 
Nov 26 21:56:31.278 HYPERVISOR: exec_cmd: vm get_status R1 
Nov 26 21:56:31.280 HYPERVISOR: exec_cmd: vm slot_add_binding R1 0 0 C7200-IO-GE-E 
Nov 26 21:56:31.281 HYPERVISOR: exec_cmd: vm get_status R1 
Nov 26 21:56:31.283 HYPERVISOR: exec_cmd: vm slot_add_binding R1 4 0 PA-4T+ 
Nov 26 21:56:31.284 HYPERVISOR: exec_cmd: vm get_status R1 
Nov 26 21:56:31.285 HYPERVISOR: exec_cmd: vm slot_add_binding R1 2 0 PA-GE 
Nov 26 21:56:31.287 HYPERVISOR: exec_cmd: vm set_ram R1 512 
Nov 26 21:56:31.288 HYPERVISOR: exec_cmd: vm get_status R1 
Nov 26 21:56:31.290 HYPERVISOR: exec_cmd: vm slot_add_binding R1 6 0 PA-POS-OC3 
Nov 26 21:56:31.291 HYPERVISOR: exec_cmd: c7200 set_mac_addr R1 ca05.2e32.0000 
Nov 26 21:56:31.293 HYPERVISOR: exec_cmd: vm set_disk0 R1 1 
Nov 26 21:56:31.294 HYPERVISOR: exec_cmd: vm set_ios R1 /media/actionmystique/SAMSUNG5-VMs/Images/GNS3/IOS/c7200-adventerprisek9-mz.152-4.M2.image 
Nov 26 21:56:31.302 HYPERVISOR: exec_cmd: vm get_status R1 
Nov 26 21:56:31.307 HYPERVISOR: exec_cmd: vm slot_add_binding R1 5 0 PA-POS-OC3 
Nov 26 21:56:31.318 HYPERVISOR: exec_cmd: vm set_config R1 configs/i5_startup-config.cfg 
Nov 26 21:56:31.321 HYPERVISOR: exec_cmd: vm set_config R1 configs/i5_startup-config.cfg configs/i5_private-config.cfg 
Nov 26 21:56:32.230 HYPERVISOR: exec_cmd: nio create_udp udp-59a90b42-d279-4f55-bb32-86920b4c1d21 15017 127.0.0.1 15016 
Nov 26 21:56:32.231 HYPERVISOR: exec_cmd: vm slot_add_nio_binding R1 3 0 udp-59a90b42-d279-4f55-bb32-86920b4c1d21 
Nov 26 21:56:32.231 HYPERVISOR: exec_cmd: vm get_status R1 
Nov 26 21:56:32.244 HYPERVISOR: exec_cmd: nio create_udp udp-84bdc913-1f77-478a-9a83-1d033a5c41aa 15018 127.0.0.1 15020 
Nov 26 21:56:32.245 HYPERVISOR: exec_cmd: vm slot_add_nio_binding R1 4 0 udp-84bdc913-1f77-478a-9a83-1d033a5c41aa 
Nov 26 21:56:32.245 HYPERVISOR: exec_cmd: vm get_status R1 
Nov 26 21:56:32.360 HYPERVISOR: exec_cmd: nio create_udp udp-c4edba22-6a81-420a-acca-a4e12e2f4358 15030 127.0.0.1 15028 
Nov 26 21:56:32.361 HYPERVISOR: exec_cmd: vm slot_add_nio_binding R1 2 0 udp-c4edba22-6a81-420a-acca-a4e12e2f4358 
Nov 26 21:56:32.361 HYPERVISOR: exec_cmd: vm get_status R1 
Nov 26 21:56:32.577 HYPERVISOR: exec_cmd: nio create_udp udp-fd8b394c-e7f3-48d8-a0be-15f2c3a7b414 15049 127.0.0.1 15048 
Nov 26 21:56:32.578 HYPERVISOR: exec_cmd: vm slot_add_nio_binding R1 1 0 udp-fd8b394c-e7f3-48d8-a0be-15f2c3a7b414 
Nov 26 21:56:32.578 HYPERVISOR: exec_cmd: vm get_status R1 
Nov 26 21:56:42.442 HYPERVISOR: exec_cmd: vm get_status R1 
Nov 26 21:56:42.447 HYPERVISOR: exec_cmd: vm extract_config R1 
Nov 26 21:56:42.459 HYPERVISOR: exec_cmd: vm delete R1 
Nov 26 21:56:42.459 VM: VM R1 destroyed.
Nov 26 21:56:42.462 HYPERVISOR: exec_cmd: hypervisor stop 
Nov 26 21:56:42.751 HYPERVISOR: Stopped.
Nov 26 21:56:42.751 GENERAL: reset done.
