Nov 28 08:11:46.276 HYPERVISOR: Release 0.2.17-amd64/Linux (tag 2017072410)
Nov 28 08:11:46.276 HYPERVISOR: Started on IP = 127.0.0.1, TCP port = 48651.
Nov 28 08:11:46.317 HYPERVISOR: exec_cmd: hypervisor version 
Nov 28 08:11:46.318 HYPERVISOR: exec_cmd: hypervisor working_dir /media/actionmystique/SAMSUNG5-VMs/Labs/GNS3/git-Public-Labs-Collection/CCNP/TBSHOOT/L3-Technologies/IPv4/PBR/Jean-Christophe_Manciot/1+/TT 1-linux/project-files/dynamips 
Nov 28 08:11:46.318 GENERAL: working_dir=/media/actionmystique/SAMSUNG5-VMs/Labs/GNS3/git-Public-Labs-Collection/CCNP/TBSHOOT/L3-Technologies/IPv4/PBR/Jean-Christophe_Manciot/1+/TT 1-linux/project-files/dynamips
Nov 28 08:11:46.319 HYPERVISOR: exec_cmd: vm create ESW3 3 c3725 
Nov 28 08:11:46.319 VM: VM ESW3 created.
Nov 28 08:11:46.320 HYPERVISOR: exec_cmd: vm set_con_tcp_port ESW3 2006 
Nov 28 08:11:46.320 HYPERVISOR: exec_cmd: c3725 get_mac_addr ESW3 
Nov 28 08:11:46.325 HYPERVISOR: exec_cmd: vm set_disk0 ESW3 1 
Nov 28 08:11:46.333 HYPERVISOR: exec_cmd: vm get_status ESW3 
Nov 28 08:11:46.333 HYPERVISOR: exec_cmd: vm slot_add_binding ESW3 1 0 NM-16ESW 
Nov 28 08:11:46.334 HYPERVISOR: exec_cmd: vm set_ios ESW3 /media/actionmystique/SAMSUNG5-VMs/Images/GNS3/IOS/c3725-adventerprisek9-mz.124-15.T10.image 
Nov 28 08:11:46.334 HYPERVISOR: exec_cmd: c3725 set_mac_addr ESW3 c203.1bfb.0000 
Nov 28 08:11:46.335 HYPERVISOR: exec_cmd: vm slot_add_binding ESW3 0 16 WIC-2T 
Nov 28 08:11:46.335 HYPERVISOR: exec_cmd: vm get_status ESW3 
Nov 28 08:11:46.336 HYPERVISOR: exec_cmd: vm set_idle_pc ESW3 0x614ac27c 
Nov 28 08:11:46.336 HYPERVISOR: exec_cmd: vm set_nvram ESW3 256 
Nov 28 08:11:46.351 HYPERVISOR: exec_cmd: vm set_config ESW3 configs/ios_base_startup-config.txt 
Nov 28 08:11:46.353 HYPERVISOR: exec_cmd: vm set_config ESW3 configs/ios_base_startup-config.txt configs/ios_base_private-config.txt 
Nov 28 08:11:46.603 HYPERVISOR: exec_cmd: nio create_udp udp-b8d77f62-f87c-4e02-80c8-8f356fdeb2ea 15019 127.0.0.1 15018 
Nov 28 08:11:46.605 HYPERVISOR: exec_cmd: vm slot_add_nio_binding ESW3 1 0 udp-b8d77f62-f87c-4e02-80c8-8f356fdeb2ea 
Nov 28 08:11:46.605 HYPERVISOR: exec_cmd: vm get_status ESW3 
Nov 28 08:11:53.986 HYPERVISOR: exec_cmd: nio create_tap tap-c05c9347-f31d-49fc-9130-95dd6043dd90 tap0 
Nov 28 08:11:53.988 HYPERVISOR: exec_cmd: vm slot_add_nio_binding ESW3 1 1 tap-c05c9347-f31d-49fc-9130-95dd6043dd90 
Nov 28 08:11:53.989 HYPERVISOR: exec_cmd: vm get_status ESW3 
