Nov 28 08:11:46.240 HYPERVISOR: Release 0.2.17-amd64/Linux (tag 2017072410)
Nov 28 08:11:46.240 HYPERVISOR: Started on IP = 127.0.0.1, TCP port = 53983.
Nov 28 08:11:46.258 HYPERVISOR: exec_cmd: hypervisor version 
Nov 28 08:11:46.260 HYPERVISOR: exec_cmd: hypervisor working_dir /media/actionmystique/SAMSUNG5-VMs/Labs/GNS3/git-Public-Labs-Collection/CCNP/TBSHOOT/L3-Technologies/IPv4/PBR/Jean-Christophe_Manciot/1+/TT 1-linux/project-files/dynamips 
Nov 28 08:11:46.260 GENERAL: working_dir=/media/actionmystique/SAMSUNG5-VMs/Labs/GNS3/git-Public-Labs-Collection/CCNP/TBSHOOT/L3-Technologies/IPv4/PBR/Jean-Christophe_Manciot/1+/TT 1-linux/project-files/dynamips
Nov 28 08:11:46.261 HYPERVISOR: exec_cmd: vm create ESW1 1 c3725 
Nov 28 08:11:46.261 VM: VM ESW1 created.
Nov 28 08:11:46.262 HYPERVISOR: exec_cmd: vm set_con_tcp_port ESW1 2004 
Nov 28 08:11:46.263 HYPERVISOR: exec_cmd: c3725 get_mac_addr ESW1 
Nov 28 08:11:46.264 HYPERVISOR: exec_cmd: vm set_disk0 ESW1 1 
Nov 28 08:11:46.265 HYPERVISOR: exec_cmd: vm get_status ESW1 
Nov 28 08:11:46.267 HYPERVISOR: exec_cmd: vm slot_add_binding ESW1 1 0 NM-16ESW 
Nov 28 08:11:46.268 HYPERVISOR: exec_cmd: vm set_ios ESW1 /media/actionmystique/SAMSUNG5-VMs/Images/GNS3/IOS/c3725-adventerprisek9-mz.124-15.T10.image 
Nov 28 08:11:46.270 HYPERVISOR: exec_cmd: c3725 set_mac_addr ESW1 c201.1b91.0000 
Nov 28 08:11:46.271 HYPERVISOR: exec_cmd: vm slot_add_binding ESW1 0 16 WIC-2T 
Nov 28 08:11:46.272 HYPERVISOR: exec_cmd: vm get_status ESW1 
Nov 28 08:11:46.274 HYPERVISOR: exec_cmd: vm set_idle_pc ESW1 0x614ac27c 
Nov 28 08:11:46.275 HYPERVISOR: exec_cmd: vm set_nvram ESW1 256 
Nov 28 08:11:46.277 HYPERVISOR: exec_cmd: vm set_config ESW1 configs/ios_base_startup-config.txt 
Nov 28 08:11:46.278 HYPERVISOR: exec_cmd: vm set_config ESW1 configs/ios_base_startup-config.txt configs/ios_base_private-config.txt 
Nov 28 08:11:46.499 HYPERVISOR: exec_cmd: nio create_udp udp-fedf1812-551b-40d7-9723-070ed1e5055e 15009 127.0.0.1 15010 
Nov 28 08:11:46.500 HYPERVISOR: exec_cmd: vm slot_add_nio_binding ESW1 1 0 udp-fedf1812-551b-40d7-9723-070ed1e5055e 
Nov 28 08:11:46.500 HYPERVISOR: exec_cmd: vm get_status ESW1 
Nov 28 08:11:46.519 HYPERVISOR: exec_cmd: nio create_udp udp-c0f71f25-c232-4412-851b-9662035a6699 15008 127.0.0.1 15011 
Nov 28 08:11:46.519 HYPERVISOR: exec_cmd: vm slot_add_nio_binding ESW1 1 1 udp-c0f71f25-c232-4412-851b-9662035a6699 
Nov 28 08:11:46.519 HYPERVISOR: exec_cmd: vm get_status ESW1 
