Mar 20 16:56:39.115 HYPERVISOR: Release 0.2.14-amd64/Linux (tag 2014092320)
Mar 20 16:56:39.115 HYPERVISOR: Started on IP = 127.0.0.1, TCP port = 7201.
Mar 20 16:56:39.121 HYPERVISOR: exec_cmd: hypervisor version 
Mar 20 16:56:39.122 HYPERVISOR: exec_cmd: hypervisor uuid 
Mar 20 16:56:39.122 HYPERVISOR: exec_cmd: hypervisor working_dir /home/actionmystique/Google Drive/Missions/Certifications/Cisco/Labs/GNS3/CCNP-SP/SPROUTE/EIGRP/Jean-Christophe/1+/K2 Load Metric Weight with CSR 1000V-linux/K2 Load Metric Weight with CSR 1000V-linux-files/dynamips 
Mar 20 16:56:39.122 GENERAL: working_dir=/home/actionmystique/Google Drive/Missions/Certifications/Cisco/Labs/GNS3/CCNP-SP/SPROUTE/EIGRP/Jean-Christophe/1+/K2 Load Metric Weight with CSR 1000V-linux/K2 Load Metric Weight with CSR 1000V-linux-files/dynamips
Mar 20 16:56:39.122 HYPERVISOR: exec_cmd: vm create SW1_Management 2 c3725 
Mar 20 16:56:39.122 VM: VM SW1_Management created.
Mar 20 16:56:39.122 HYPERVISOR: exec_cmd: vm set_con_tcp_port SW1_Management 2001 
Mar 20 16:56:39.122 HYPERVISOR: exec_cmd: vm set_aux_tcp_port SW1_Management 2502 
Mar 20 16:56:39.123 HYPERVISOR: exec_cmd: c3725 get_mac_addr SW1_Management 
Mar 20 16:56:39.123 HYPERVISOR: exec_cmd: vm set_ram SW1_Management 256 
Mar 20 16:56:39.123 HYPERVISOR: exec_cmd: vm set_ios SW1_Management /media/actionmystique/SAMSUNG-Ext4/Images/GNS3/IOS/c3725-adventerprisek9-mz.124-15.T10.image 
Mar 20 16:56:39.123 HYPERVISOR: exec_cmd: vm set_sparse_mem SW1_Management 1 
Mar 20 16:56:39.123 HYPERVISOR: exec_cmd: vm set_ram_mmap SW1_Management 1 
Mar 20 16:56:39.124 HYPERVISOR: exec_cmd: vm set_aux_tcp_port SW1_Management 2102 
Mar 20 16:56:39.124 HYPERVISOR: exec_cmd: c3725 set_mac_addr SW1_Management c202.1316.0000 
Mar 20 16:56:39.124 HYPERVISOR: exec_cmd: vm set_ghost_status SW1_Management 2 
Mar 20 16:56:39.124 HYPERVISOR: exec_cmd: vm set_ghost_file SW1_Management c3725-adventerprisek9-mz.124-15.T10.image-256.ghost 
Mar 20 16:56:39.145 HYPERVISOR: exec_cmd: vm set_config SW1_Management configs/i2_startup-config.cfg 
Mar 20 16:56:39.145 HYPERVISOR: exec_cmd: vm get_status SW1_Management 
Mar 20 16:56:39.145 HYPERVISOR: exec_cmd: vm slot_add_binding SW1_Management 1 0 NM-16ESW 
Mar 20 16:56:39.145 HYPERVISOR: exec_cmd: vm get_status SW1_Management 
Mar 20 16:56:39.145 HYPERVISOR: exec_cmd: vm get_status SW1_Management 
Mar 20 16:56:39.145 HYPERVISOR: exec_cmd: vm set_idle_pc SW1_Management 0x6026b804 
Mar 20 16:56:39.169 HYPERVISOR: exec_cmd: nio create_tap nio_tap1 tap0 
Mar 20 16:56:39.169 HYPERVISOR: exec_cmd: vm slot_add_nio_binding SW1_Management 1 1 nio_tap1 
Mar 20 16:56:39.169 HYPERVISOR: exec_cmd: vm get_status SW1_Management 
Mar 20 16:56:39.170 HYPERVISOR: exec_cmd: nio create_udp_auto nio_udp_auto2 127.0.0.1 10001 20000 
Mar 20 16:56:39.171 HYPERVISOR: exec_cmd: nio create_udp_auto nio_udp_auto3 127.0.0.1 10001 20000 
Mar 20 16:56:39.219 HYPERVISOR: exec_cmd: nio connect_udp_auto nio_udp_auto2 127.0.0.1 40015 
Mar 20 16:56:39.219 HYPERVISOR: exec_cmd: vm slot_add_nio_binding SW1_Management 1 0 nio_udp_auto2 
Mar 20 16:56:39.220 HYPERVISOR: exec_cmd: vm get_status SW1_Management 
Mar 20 16:56:39.226 HYPERVISOR: exec_cmd: nio connect_udp_auto nio_udp_auto3 127.0.0.1 40016 
Mar 20 16:56:39.226 HYPERVISOR: exec_cmd: vm slot_add_nio_binding SW1_Management 1 2 nio_udp_auto3 
Mar 20 16:56:39.226 HYPERVISOR: exec_cmd: vm get_status SW1_Management 
Mar 20 16:58:43.239 HYPERVISOR: exec_cmd: vm extract_config SW1_Management 
Mar 20 16:58:43.252 HYPERVISOR: exec_cmd: hypervisor stop 
