Nov 26 22:07:48.720 HYPERVISOR: Release 0.2.17-amd64/Linux (tag 2017072410)
Nov 26 22:07:48.720 HYPERVISOR: Started on IP = 127.0.0.1, TCP port = 58201.
Nov 26 22:07:48.733 HYPERVISOR: exec_cmd: hypervisor version 
Nov 26 22:07:48.733 HYPERVISOR: exec_cmd: hypervisor working_dir /media/actionmystique/SAMSUNG5-VMs/Labs/GNS3/TT 2-linux-/project-files/dynamips 
Nov 26 22:07:48.733 GENERAL: working_dir=/media/actionmystique/SAMSUNG5-VMs/Labs/GNS3/TT 2-linux-/project-files/dynamips
Nov 26 22:07:48.733 HYPERVISOR: exec_cmd: vm create ESW1 1 c3725 
Nov 26 22:07:48.734 VM: VM ESW1 created.
Nov 26 22:07:48.734 HYPERVISOR: exec_cmd: vm set_con_tcp_port ESW1 2001 
Nov 26 22:07:48.734 HYPERVISOR: exec_cmd: vm set_aux_tcp_port ESW1 2501 
Nov 26 22:07:48.734 HYPERVISOR: exec_cmd: c3725 get_mac_addr ESW1 
Nov 26 22:07:48.735 HYPERVISOR: exec_cmd: vm slot_add_binding ESW1 0 16 WIC-2T 
Nov 26 22:07:48.735 HYPERVISOR: exec_cmd: vm get_status ESW1 
Nov 26 22:07:48.735 HYPERVISOR: exec_cmd: vm set_idle_pc ESW1 0x614ac27c 
Nov 26 22:07:48.736 HYPERVISOR: exec_cmd: vm set_nvram ESW1 256 
Nov 26 22:07:48.736 HYPERVISOR: exec_cmd: vm get_status ESW1 
Nov 26 22:07:48.736 HYPERVISOR: exec_cmd: vm slot_add_binding ESW1 1 0 NM-16ESW 
Nov 26 22:07:48.737 HYPERVISOR: exec_cmd: vm set_ios ESW1 /media/actionmystique/SAMSUNG5-VMs/Images/GNS3/IOS/c3725-adventerprisek9-mz.124-15.T10.image 
Nov 26 22:07:48.737 HYPERVISOR: exec_cmd: vm set_disk0 ESW1 1 
Nov 26 22:07:48.738 HYPERVISOR: exec_cmd: c3725 set_mac_addr ESW1 c201.281a.0000 
Nov 26 22:07:48.738 HYPERVISOR: exec_cmd: vm set_config ESW1 configs/i1_startup-config.cfg 
Nov 26 22:07:48.739 HYPERVISOR: exec_cmd: vm set_config ESW1 configs/i1_startup-config.cfg configs/i1_private-config.cfg 
Nov 26 22:07:48.869 HYPERVISOR: exec_cmd: nio create_udp udp-0dc8c2d1-797b-41d6-a007-c77911d93e56 15001 127.0.0.1 15000 
Nov 26 22:07:48.869 HYPERVISOR: exec_cmd: vm slot_add_nio_binding ESW1 1 2 udp-0dc8c2d1-797b-41d6-a007-c77911d93e56 
Nov 26 22:07:48.870 HYPERVISOR: exec_cmd: vm get_status ESW1 
Nov 26 22:07:48.945 HYPERVISOR: exec_cmd: nio create_udp udp-06c68316-9729-4d44-9dde-281d19618a63 15003 127.0.0.1 15002 
Nov 26 22:07:48.945 HYPERVISOR: exec_cmd: vm slot_add_nio_binding ESW1 1 1 udp-06c68316-9729-4d44-9dde-281d19618a63 
Nov 26 22:07:48.946 HYPERVISOR: exec_cmd: vm get_status ESW1 
Nov 26 22:07:48.964 HYPERVISOR: exec_cmd: nio create_udp udp-ce610a9a-f767-4e3f-a671-3c154240fce7 15006 127.0.0.1 15007 
Nov 26 22:07:48.970 HYPERVISOR: exec_cmd: vm slot_add_nio_binding ESW1 1 0 udp-ce610a9a-f767-4e3f-a671-3c154240fce7 
Nov 26 22:07:48.970 HYPERVISOR: exec_cmd: vm get_status ESW1 
Nov 26 22:08:09.768 HYPERVISOR: exec_cmd: vm get_status ESW1 
Nov 26 22:08:09.770 HYPERVISOR: exec_cmd: vm extract_config ESW1 
Nov 26 22:08:09.770 HYPERVISOR: exec_cmd: vm delete ESW1 
Nov 26 22:08:09.770 VM: VM ESW1 destroyed.
Nov 26 22:08:09.771 HYPERVISOR: exec_cmd: hypervisor stop 
Nov 26 22:08:10.255 HYPERVISOR: Stopped.
Nov 26 22:08:10.255 GENERAL: reset done.
