Dec 04 11:07:14.098 HYPERVISOR: Release 0.2.17-amd64/Linux (tag 2017072410)
Dec 04 11:07:14.098 HYPERVISOR: Started on IP = 127.0.0.1, TCP port = 38067.
Dec 04 11:07:14.120 HYPERVISOR: exec_cmd: hypervisor version 
Dec 04 11:07:14.120 HYPERVISOR: exec_cmd: hypervisor working_dir /media/actionmystique/SAMSUNG5-VMs/Labs/GNS3/TT 1-solutions-linux-/project-files/dynamips 
Dec 04 11:07:14.120 GENERAL: working_dir=/media/actionmystique/SAMSUNG5-VMs/Labs/GNS3/TT 1-solutions-linux-/project-files/dynamips
Dec 04 11:07:14.129 HYPERVISOR: exec_cmd: vm create ESW4 4 c3725 
Dec 04 11:07:14.130 VM: VM ESW4 created.
Dec 04 11:07:14.135 HYPERVISOR: exec_cmd: vm set_con_tcp_port ESW4 2009 
Dec 04 11:07:14.137 HYPERVISOR: exec_cmd: c3725 get_mac_addr ESW4 
Dec 04 11:07:14.137 HYPERVISOR: exec_cmd: vm set_nvram ESW4 256 
Dec 04 11:07:14.138 HYPERVISOR: exec_cmd: vm set_ios ESW4 /media/actionmystique/SAMSUNG5-VMs/Images/GNS3/IOS/c3725-adventerprisek9-mz.124-15.T10.image 
Dec 04 11:07:14.138 HYPERVISOR: exec_cmd: c3725 set_mac_addr ESW4 c204.68ae.0000 
Dec 04 11:07:14.138 HYPERVISOR: exec_cmd: vm get_status ESW4 
Dec 04 11:07:14.139 HYPERVISOR: exec_cmd: vm slot_add_binding ESW4 1 0 NM-16ESW 
Dec 04 11:07:14.139 HYPERVISOR: exec_cmd: vm get_status ESW4 
Dec 04 11:07:14.140 HYPERVISOR: exec_cmd: vm set_idle_pc ESW4 0x6026b804 
Dec 04 11:07:14.140 HYPERVISOR: exec_cmd: vm set_disk0 ESW4 1 
Dec 04 11:07:14.140 HYPERVISOR: exec_cmd: vm slot_add_binding ESW4 0 16 WIC-2T 
Dec 04 11:07:14.141 HYPERVISOR: exec_cmd: vm set_config ESW4 configs/ios_base_startup-config.txt 
Dec 04 11:07:14.143 HYPERVISOR: exec_cmd: vm set_config ESW4 configs/ios_base_startup-config.txt configs/ios_base_private-config.txt 
Dec 04 11:07:14.461 HYPERVISOR: exec_cmd: nio create_udp udp-4b3708f8-078a-4bb3-98f6-b16760d71889 15013 127.0.0.1 15012 
Dec 04 11:07:14.462 HYPERVISOR: exec_cmd: vm slot_add_nio_binding ESW4 1 0 udp-4b3708f8-078a-4bb3-98f6-b16760d71889 
Dec 04 11:07:14.463 HYPERVISOR: exec_cmd: vm get_status ESW4 
Dec 04 11:07:14.469 HYPERVISOR: exec_cmd: nio create_udp udp-71b4b726-ce7c-49d9-9ae0-79dba65fae5d 15014 127.0.0.1 15015 
Dec 04 11:07:14.475 HYPERVISOR: exec_cmd: vm slot_add_nio_binding ESW4 1 1 udp-71b4b726-ce7c-49d9-9ae0-79dba65fae5d 
Dec 04 11:07:14.482 HYPERVISOR: exec_cmd: vm get_status ESW4 
Dec 04 11:07:27.335 HYPERVISOR: exec_cmd: vm get_status ESW4 
Dec 04 11:07:27.336 HYPERVISOR: exec_cmd: vm extract_config ESW4 
Dec 04 11:07:27.339 HYPERVISOR: exec_cmd: vm delete ESW4 
Dec 04 11:07:27.339 VM: VM ESW4 destroyed.
Dec 04 11:07:27.341 HYPERVISOR: exec_cmd: hypervisor stop 
Dec 04 11:07:27.635 HYPERVISOR: Stopped.
Dec 04 11:07:27.635 GENERAL: reset done.
