Dec 04 11:06:58.671 HYPERVISOR: Release 0.2.17-amd64/Linux (tag 2017072410)
Dec 04 11:06:58.671 HYPERVISOR: Started on IP = 127.0.0.1, TCP port = 36699.
Dec 04 11:06:58.683 HYPERVISOR: exec_cmd: hypervisor version 
Dec 04 11:06:58.684 HYPERVISOR: exec_cmd: hypervisor working_dir /media/actionmystique/SAMSUNG5-VMs/Labs/GNS3/git-Public-Labs-Collection/CCNP/TBSHOOT/L3-Technologies/IPv6/Routing-Protocols/OSPFv3/Jean-Christophe_Manciot/1+/TT 1-solutions-linux/project-files/dynamips 
Dec 04 11:06:58.684 GENERAL: working_dir=/media/actionmystique/SAMSUNG5-VMs/Labs/GNS3/git-Public-Labs-Collection/CCNP/TBSHOOT/L3-Technologies/IPv6/Routing-Protocols/OSPFv3/Jean-Christophe_Manciot/1+/TT 1-solutions-linux/project-files/dynamips
Dec 04 11:06:58.685 HYPERVISOR: exec_cmd: vm create ESW4 4 c3725 
Dec 04 11:06:58.685 VM: VM ESW4 created.
Dec 04 11:06:58.685 HYPERVISOR: exec_cmd: vm set_con_tcp_port ESW4 2009 
Dec 04 11:06:58.686 HYPERVISOR: exec_cmd: c3725 get_mac_addr ESW4 
Dec 04 11:06:58.686 HYPERVISOR: exec_cmd: vm set_nvram ESW4 256 
Dec 04 11:06:58.687 HYPERVISOR: exec_cmd: vm set_ios ESW4 /media/actionmystique/SAMSUNG5-VMs/Images/GNS3/IOS/c3725-adventerprisek9-mz.124-15.T10.image 
Dec 04 11:06:58.687 HYPERVISOR: exec_cmd: c3725 set_mac_addr ESW4 c204.68ae.0000 
Dec 04 11:06:58.688 HYPERVISOR: exec_cmd: vm get_status ESW4 
Dec 04 11:06:58.688 HYPERVISOR: exec_cmd: vm slot_add_binding ESW4 1 0 NM-16ESW 
Dec 04 11:06:58.689 HYPERVISOR: exec_cmd: vm get_status ESW4 
Dec 04 11:06:58.689 HYPERVISOR: exec_cmd: vm set_idle_pc ESW4 0x6026b804 
Dec 04 11:06:58.689 HYPERVISOR: exec_cmd: vm set_disk0 ESW4 1 
Dec 04 11:06:58.690 HYPERVISOR: exec_cmd: vm slot_add_binding ESW4 0 16 WIC-2T 
Dec 04 11:06:58.690 HYPERVISOR: exec_cmd: vm set_config ESW4 configs/ios_base_startup-config.txt 
Dec 04 11:06:58.691 HYPERVISOR: exec_cmd: vm set_config ESW4 configs/ios_base_startup-config.txt configs/ios_base_private-config.txt 
Dec 04 11:06:59.001 HYPERVISOR: exec_cmd: nio create_udp udp-f056ced5-aaed-4bef-a228-ba0988606176 15017 127.0.0.1 15016 
Dec 04 11:06:59.009 HYPERVISOR: exec_cmd: vm slot_add_nio_binding ESW4 1 0 udp-f056ced5-aaed-4bef-a228-ba0988606176 
Dec 04 11:06:59.015 HYPERVISOR: exec_cmd: vm get_status ESW4 
Dec 04 11:06:59.021 HYPERVISOR: exec_cmd: nio create_udp udp-11d039cc-7320-465a-8867-2d853dd64543 15018 127.0.0.1 15019 
Dec 04 11:06:59.021 HYPERVISOR: exec_cmd: vm slot_add_nio_binding ESW4 1 1 udp-11d039cc-7320-465a-8867-2d853dd64543 
Dec 04 11:06:59.022 HYPERVISOR: exec_cmd: vm get_status ESW4 
