Nov 26 20:53:21.527 HYPERVISOR: Release 0.2.17-amd64/Linux (tag 2017072410)
Nov 26 20:53:21.527 HYPERVISOR: Started on IP = 127.0.0.1, TCP port = 52821.
Nov 26 20:53:21.548 HYPERVISOR: exec_cmd: hypervisor version 
Nov 26 20:53:21.550 HYPERVISOR: exec_cmd: hypervisor working_dir /media/actionmystique/SAMSUNG5-VMs/Labs/GNS3/VPN Tunnels/project-files/dynamips 
Nov 26 20:53:21.550 GENERAL: working_dir=/media/actionmystique/SAMSUNG5-VMs/Labs/GNS3/VPN Tunnels/project-files/dynamips
Nov 26 20:53:21.556 HYPERVISOR: exec_cmd: vm create I105 18 c7200 
Nov 26 20:53:21.556 VM: VM I105 created.
Nov 26 20:53:21.568 HYPERVISOR: exec_cmd: vm set_con_tcp_port I105 2018 
Nov 26 20:53:21.570 HYPERVISOR: exec_cmd: vm set_aux_tcp_port I105 2118 
Nov 26 20:53:21.576 HYPERVISOR: exec_cmd: c7200 get_mac_addr I105 
Nov 26 20:53:21.586 HYPERVISOR: exec_cmd: vm get_status I105 
Nov 26 20:53:21.590 HYPERVISOR: exec_cmd: vm slot_add_binding I105 0 0 C7200-IO-FE 
Nov 26 20:53:21.596 HYPERVISOR: exec_cmd: vm get_status I105 
Nov 26 20:53:21.608 HYPERVISOR: exec_cmd: vm slot_remove_binding I105 0 0 
Nov 26 20:53:21.611 HYPERVISOR: exec_cmd: vm get_status I105 
Nov 26 20:53:21.613 HYPERVISOR: exec_cmd: vm slot_add_binding I105 0 0 C7200-IO-GE-E 
Nov 26 20:53:21.615 HYPERVISOR: exec_cmd: vm set_ram I105 512 
Nov 26 20:53:21.616 HYPERVISOR: exec_cmd: vm get_status I105 
Nov 26 20:53:21.618 HYPERVISOR: exec_cmd: vm set_idle_pc I105 0x60188e14 
Nov 26 20:53:21.620 HYPERVISOR: exec_cmd: vm get_status I105 
Nov 26 20:53:21.621 HYPERVISOR: exec_cmd: vm slot_add_binding I105 1 0 PA-8T 
Nov 26 20:53:21.627 HYPERVISOR: exec_cmd: vm set_ios I105 /media/actionmystique/SAMSUNG5-VMs/Images/GNS3/IOS/c7200-adventerprisek9-mz.152-4.M2.image 
Nov 26 20:53:21.638 HYPERVISOR: exec_cmd: vm set_config I105 configs/i18_startup-config.cfg 
Nov 26 20:53:23.202 HYPERVISOR: exec_cmd: nio create_udp udp-e8def6cb-912b-47e2-9881-197e21e6723c 15063 127.0.0.1 15062 
Nov 26 20:53:23.203 HYPERVISOR: exec_cmd: vm slot_add_nio_binding I105 1 0 udp-e8def6cb-912b-47e2-9881-197e21e6723c 
Nov 26 20:53:23.203 HYPERVISOR: exec_cmd: vm get_status I105 
Nov 26 20:53:23.227 HYPERVISOR: exec_cmd: nio create_udp udp-767e7aa1-428b-444f-9f0a-ecebee740198 15065 127.0.0.1 15064 
Nov 26 20:53:23.228 HYPERVISOR: exec_cmd: vm slot_add_nio_binding I105 1 1 udp-767e7aa1-428b-444f-9f0a-ecebee740198 
Nov 26 20:53:23.229 HYPERVISOR: exec_cmd: vm get_status I105 
Nov 26 20:53:23.336 HYPERVISOR: exec_cmd: nio create_udp udp-ccf8a42c-93ba-4f13-a246-767ebf8246a0 15075 127.0.0.1 15074 
Nov 26 20:53:23.337 HYPERVISOR: exec_cmd: vm slot_add_nio_binding I105 0 0 udp-ccf8a42c-93ba-4f13-a246-767ebf8246a0 
Nov 26 20:53:23.337 HYPERVISOR: exec_cmd: vm get_status I105 
Nov 26 20:53:27.554 HYPERVISOR: exec_cmd: vm extract_config I105 
Nov 26 20:54:29.870 HYPERVISOR: exec_cmd: vm get_status I105 
Nov 26 20:54:29.876 HYPERVISOR: exec_cmd: vm extract_config I105 
Nov 26 20:54:29.882 HYPERVISOR: exec_cmd: vm delete I105 
Nov 26 20:54:29.882 VM: VM I105 destroyed.
Nov 26 20:54:29.887 HYPERVISOR: exec_cmd: hypervisor stop 
Nov 26 20:54:30.112 HYPERVISOR: Stopped.
Nov 26 20:54:30.112 GENERAL: reset done.
