Nov 26 20:53:21.659 HYPERVISOR: Release 0.2.17-amd64/Linux (tag 2017072410)
Nov 26 20:53:21.659 HYPERVISOR: Started on IP = 127.0.0.1, TCP port = 56751.
Nov 26 20:53:21.692 HYPERVISOR: exec_cmd: hypervisor version 
Nov 26 20:53:21.694 HYPERVISOR: exec_cmd: hypervisor working_dir /media/actionmystique/SAMSUNG5-VMs/Labs/GNS3/VPN Tunnels/project-files/dynamips 
Nov 26 20:53:21.694 GENERAL: working_dir=/media/actionmystique/SAMSUNG5-VMs/Labs/GNS3/VPN Tunnels/project-files/dynamips
Nov 26 20:53:21.695 HYPERVISOR: exec_cmd: vm create I16 23 c7200 
Nov 26 20:53:21.695 VM: VM I16 created.
Nov 26 20:53:21.696 HYPERVISOR: exec_cmd: vm set_con_tcp_port I16 2024 
Nov 26 20:53:21.697 HYPERVISOR: exec_cmd: vm set_aux_tcp_port I16 2124 
Nov 26 20:53:21.702 HYPERVISOR: exec_cmd: c7200 get_mac_addr I16 
Nov 26 20:53:21.703 HYPERVISOR: exec_cmd: vm get_status I16 
Nov 26 20:53:21.709 HYPERVISOR: exec_cmd: vm slot_add_binding I16 0 0 C7200-IO-FE 
Nov 26 20:53:21.710 HYPERVISOR: exec_cmd: vm get_status I16 
Nov 26 20:53:21.710 HYPERVISOR: exec_cmd: vm slot_remove_binding I16 0 0 
Nov 26 20:53:21.711 HYPERVISOR: exec_cmd: vm get_status I16 
Nov 26 20:53:21.712 HYPERVISOR: exec_cmd: vm slot_add_binding I16 0 0 C7200-IO-GE-E 
Nov 26 20:53:21.713 HYPERVISOR: exec_cmd: vm set_ram I16 512 
Nov 26 20:53:21.714 HYPERVISOR: exec_cmd: vm get_status I16 
Nov 26 20:53:21.720 HYPERVISOR: exec_cmd: vm set_idle_pc I16 0x60188e14 
Nov 26 20:53:21.721 HYPERVISOR: exec_cmd: vm get_status I16 
Nov 26 20:53:21.722 HYPERVISOR: exec_cmd: vm slot_add_binding I16 1 0 PA-8T 
Nov 26 20:53:21.723 HYPERVISOR: exec_cmd: vm set_ios I16 /media/actionmystique/SAMSUNG5-VMs/Images/GNS3/IOS/c7200-adventerprisek9-mz.152-4.M2.image 
Nov 26 20:53:21.726 HYPERVISOR: exec_cmd: vm set_config I16 configs/i23_startup-config.cfg 
Nov 26 20:53:23.425 HYPERVISOR: exec_cmd: nio create_udp udp-a0525bf6-e653-4671-a042-c5b499a3320f 15082 127.0.0.1 15083 
Nov 26 20:53:23.425 HYPERVISOR: exec_cmd: vm slot_add_nio_binding I16 1 1 udp-a0525bf6-e653-4671-a042-c5b499a3320f 
Nov 26 20:53:23.425 HYPERVISOR: exec_cmd: vm get_status I16 
Nov 26 20:53:23.440 HYPERVISOR: exec_cmd: nio create_udp udp-35fe0b70-4bb7-45a9-a878-9d3367a70e4f 15085 127.0.0.1 15084 
Nov 26 20:53:23.441 HYPERVISOR: exec_cmd: vm slot_add_nio_binding I16 1 2 udp-35fe0b70-4bb7-45a9-a878-9d3367a70e4f 
Nov 26 20:53:23.441 HYPERVISOR: exec_cmd: vm get_status I16 
Nov 26 20:53:23.461 HYPERVISOR: exec_cmd: nio create_udp udp-c482c08a-6ea6-4936-b871-89a69e8521c7 15086 127.0.0.1 15088 
Nov 26 20:53:23.461 HYPERVISOR: exec_cmd: vm slot_add_nio_binding I16 1 0 udp-c482c08a-6ea6-4936-b871-89a69e8521c7 
Nov 26 20:53:23.461 HYPERVISOR: exec_cmd: vm get_status I16 
Nov 26 20:53:23.475 HYPERVISOR: exec_cmd: nio create_udp udp-a28329ee-f16f-49a1-914b-af7346b0ca95 15087 127.0.0.1 15089 
Nov 26 20:53:23.475 HYPERVISOR: exec_cmd: vm slot_add_nio_binding I16 1 3 udp-a28329ee-f16f-49a1-914b-af7346b0ca95 
Nov 26 20:53:23.476 HYPERVISOR: exec_cmd: vm get_status I16 
Nov 26 20:53:27.557 HYPERVISOR: exec_cmd: vm extract_config I16 
Nov 26 20:54:29.868 HYPERVISOR: exec_cmd: vm get_status I16 
Nov 26 20:54:29.875 HYPERVISOR: exec_cmd: vm extract_config I16 
Nov 26 20:54:29.880 HYPERVISOR: exec_cmd: vm delete I16 
Nov 26 20:54:29.880 VM: VM I16 destroyed.
Nov 26 20:54:29.885 HYPERVISOR: exec_cmd: hypervisor stop 
Nov 26 20:54:30.249 HYPERVISOR: Stopped.
Nov 26 20:54:30.249 GENERAL: reset done.
