Nov 26 20:53:21.211 HYPERVISOR: Release 0.2.17-amd64/Linux (tag 2017072410)
Nov 26 20:53:21.211 HYPERVISOR: Started on IP = 127.0.0.1, TCP port = 33379.
Nov 26 20:53:21.261 HYPERVISOR: exec_cmd: hypervisor version 
Nov 26 20:53:21.265 HYPERVISOR: exec_cmd: hypervisor working_dir /media/actionmystique/SAMSUNG5-VMs/Labs/GNS3/VPN Tunnels/project-files/dynamips 
Nov 26 20:53:21.265 GENERAL: working_dir=/media/actionmystique/SAMSUNG5-VMs/Labs/GNS3/VPN Tunnels/project-files/dynamips
Nov 26 20:53:21.267 HYPERVISOR: exec_cmd: vm create ASBR3 4 c7200 
Nov 26 20:53:21.267 VM: VM ASBR3 created.
Nov 26 20:53:21.268 HYPERVISOR: exec_cmd: vm set_con_tcp_port ASBR3 2002 
Nov 26 20:53:21.270 HYPERVISOR: exec_cmd: vm set_aux_tcp_port ASBR3 2101 
Nov 26 20:53:21.271 HYPERVISOR: exec_cmd: c7200 get_mac_addr ASBR3 
Nov 26 20:53:21.272 HYPERVISOR: exec_cmd: vm get_status ASBR3 
Nov 26 20:53:21.273 HYPERVISOR: exec_cmd: vm slot_add_binding ASBR3 0 0 C7200-IO-FE 
Nov 26 20:53:21.274 HYPERVISOR: exec_cmd: vm get_status ASBR3 
Nov 26 20:53:21.276 HYPERVISOR: exec_cmd: vm slot_remove_binding ASBR3 0 0 
Nov 26 20:53:21.278 HYPERVISOR: exec_cmd: vm get_status ASBR3 
Nov 26 20:53:21.281 HYPERVISOR: exec_cmd: vm slot_add_binding ASBR3 0 0 C7200-IO-GE-E 
Nov 26 20:53:21.282 HYPERVISOR: exec_cmd: vm set_ram ASBR3 512 
Nov 26 20:53:21.284 HYPERVISOR: exec_cmd: vm get_status ASBR3 
Nov 26 20:53:21.285 HYPERVISOR: exec_cmd: vm set_idle_pc ASBR3 0x60188e14 
Nov 26 20:53:21.287 HYPERVISOR: exec_cmd: vm get_status ASBR3 
Nov 26 20:53:21.288 HYPERVISOR: exec_cmd: vm slot_add_binding ASBR3 1 0 PA-8T 
Nov 26 20:53:21.290 HYPERVISOR: exec_cmd: vm set_con_tcp_port ASBR3 2002 
Nov 26 20:53:21.292 HYPERVISOR: exec_cmd: vm set_ios ASBR3 /media/actionmystique/SAMSUNG5-VMs/Images/GNS3/IOS/c7200-adventerprisek9-mz.152-4.M2.image 
Nov 26 20:53:21.293 HYPERVISOR: exec_cmd: vm set_config ASBR3 configs/i4_startup-config.cfg 
Nov 26 20:53:22.537 HYPERVISOR: exec_cmd: nio create_udp udp-6045dec1-bd8d-4fe1-80c5-02f9db098b14 15003 127.0.0.1 15004 
Nov 26 20:53:22.537 HYPERVISOR: exec_cmd: vm slot_add_nio_binding ASBR3 1 0 udp-6045dec1-bd8d-4fe1-80c5-02f9db098b14 
Nov 26 20:53:22.538 HYPERVISOR: exec_cmd: vm get_status ASBR3 
Nov 26 20:53:22.560 HYPERVISOR: exec_cmd: nio create_udp udp-cb192625-8661-45cb-bcc9-c82fd87078fe 15008 127.0.0.1 15007 
Nov 26 20:53:22.561 HYPERVISOR: exec_cmd: vm slot_add_nio_binding ASBR3 0 0 udp-cb192625-8661-45cb-bcc9-c82fd87078fe 
Nov 26 20:53:22.565 HYPERVISOR: exec_cmd: vm get_status ASBR3 
Nov 26 20:53:22.953 HYPERVISOR: exec_cmd: nio create_udp udp-b164f600-0799-420c-8ccc-67fd489180a3 15037 127.0.0.1 15040 
Nov 26 20:53:22.953 HYPERVISOR: exec_cmd: vm slot_add_nio_binding ASBR3 1 1 udp-b164f600-0799-420c-8ccc-67fd489180a3 
Nov 26 20:53:22.953 HYPERVISOR: exec_cmd: vm get_status ASBR3 
Nov 26 20:53:22.977 HYPERVISOR: exec_cmd: nio create_udp udp-5b716900-c038-4b65-b611-f45fdbb1befc 15039 127.0.0.1 15041 
Nov 26 20:53:22.977 HYPERVISOR: exec_cmd: vm slot_add_nio_binding ASBR3 1 3 udp-5b716900-c038-4b65-b611-f45fdbb1befc 
Nov 26 20:53:22.977 HYPERVISOR: exec_cmd: vm get_status ASBR3 
Nov 26 20:53:23.008 HYPERVISOR: exec_cmd: nio create_udp udp-9e5cedd9-875c-4840-b7c5-90ed86869505 15045 127.0.0.1 15044 
Nov 26 20:53:23.009 HYPERVISOR: exec_cmd: vm slot_add_nio_binding ASBR3 1 2 udp-9e5cedd9-875c-4840-b7c5-90ed86869505 
Nov 26 20:53:23.010 HYPERVISOR: exec_cmd: vm get_status ASBR3 
Nov 26 20:53:27.557 HYPERVISOR: exec_cmd: vm extract_config ASBR3 
Nov 26 20:54:29.869 HYPERVISOR: exec_cmd: vm get_status ASBR3 
Nov 26 20:54:29.875 HYPERVISOR: exec_cmd: vm extract_config ASBR3 
Nov 26 20:54:29.881 HYPERVISOR: exec_cmd: vm delete ASBR3 
Nov 26 20:54:29.881 VM: VM ASBR3 destroyed.
Nov 26 20:54:29.886 HYPERVISOR: exec_cmd: hypervisor stop 
Nov 26 20:54:30.305 HYPERVISOR: Stopped.
Nov 26 20:54:30.305 GENERAL: reset done.
