Nov 26 20:53:21.343 HYPERVISOR: Release 0.2.17-amd64/Linux (tag 2017072410)
Nov 26 20:53:21.343 HYPERVISOR: Started on IP = 127.0.0.1, TCP port = 49795.
Nov 26 20:53:21.378 HYPERVISOR: exec_cmd: hypervisor version 
Nov 26 20:53:21.390 HYPERVISOR: exec_cmd: hypervisor working_dir /media/actionmystique/SAMSUNG5-VMs/Labs/GNS3/VPN Tunnels/project-files/dynamips 
Nov 26 20:53:21.390 GENERAL: working_dir=/media/actionmystique/SAMSUNG5-VMs/Labs/GNS3/VPN Tunnels/project-files/dynamips
Nov 26 20:53:21.393 HYPERVISOR: exec_cmd: vm create R16 11 c7200 
Nov 26 20:53:21.393 VM: VM R16 created.
Nov 26 20:53:21.395 HYPERVISOR: exec_cmd: vm set_con_tcp_port R16 2016 
Nov 26 20:53:21.396 HYPERVISOR: exec_cmd: vm set_aux_tcp_port R16 2116 
Nov 26 20:53:21.398 HYPERVISOR: exec_cmd: c7200 get_mac_addr R16 
Nov 26 20:53:21.400 HYPERVISOR: exec_cmd: vm get_status R16 
Nov 26 20:53:21.401 HYPERVISOR: exec_cmd: vm slot_add_binding R16 0 0 C7200-IO-FE 
Nov 26 20:53:21.403 HYPERVISOR: exec_cmd: vm get_status R16 
Nov 26 20:53:21.405 HYPERVISOR: exec_cmd: vm slot_remove_binding R16 0 0 
Nov 26 20:53:21.406 HYPERVISOR: exec_cmd: vm get_status R16 
Nov 26 20:53:21.408 HYPERVISOR: exec_cmd: vm slot_add_binding R16 0 0 C7200-IO-GE-E 
Nov 26 20:53:21.410 HYPERVISOR: exec_cmd: vm get_status R16 
Nov 26 20:53:21.411 HYPERVISOR: exec_cmd: vm slot_add_binding R16 2 0 PA-8T 
Nov 26 20:53:21.413 HYPERVISOR: exec_cmd: vm set_ram R16 512 
Nov 26 20:53:21.415 HYPERVISOR: exec_cmd: vm get_status R16 
Nov 26 20:53:21.418 HYPERVISOR: exec_cmd: vm set_idle_pc R16 0x60188e14 
Nov 26 20:53:21.423 HYPERVISOR: exec_cmd: vm get_status R16 
Nov 26 20:53:21.441 HYPERVISOR: exec_cmd: vm slot_add_binding R16 1 0 PA-2FE-TX 
Nov 26 20:53:21.454 HYPERVISOR: exec_cmd: vm set_ios R16 /media/actionmystique/SAMSUNG5-VMs/Images/GNS3/IOS/c7200-adventerprisek9-mz.152-4.M2.image 
Nov 26 20:53:21.457 HYPERVISOR: exec_cmd: vm set_config R16 configs/i11_startup-config.cfg 
Nov 26 20:53:22.843 HYPERVISOR: exec_cmd: nio create_udp udp-f490d678-875a-442c-b55e-0d9b12da25ab 15028 127.0.0.1 15026 
Nov 26 20:53:22.845 HYPERVISOR: exec_cmd: vm slot_add_nio_binding R16 2 0 udp-f490d678-875a-442c-b55e-0d9b12da25ab 
Nov 26 20:53:22.848 HYPERVISOR: exec_cmd: vm get_status R16 
Nov 26 20:53:22.877 HYPERVISOR: exec_cmd: nio create_udp udp-ea172514-281a-46b1-9143-c45cd3a2023c 15029 127.0.0.1 15027 
Nov 26 20:53:22.877 HYPERVISOR: exec_cmd: vm slot_add_nio_binding R16 1 1 udp-ea172514-281a-46b1-9143-c45cd3a2023c 
Nov 26 20:53:22.878 HYPERVISOR: exec_cmd: vm get_status R16 
Nov 26 20:53:22.885 HYPERVISOR: exec_cmd: nio create_udp udp-4b2d631a-5aa1-4690-a03b-4c15e92b30b3 15031 127.0.0.1 15030 
Nov 26 20:53:22.885 HYPERVISOR: exec_cmd: vm slot_add_nio_binding R16 2 2 udp-4b2d631a-5aa1-4690-a03b-4c15e92b30b3 
Nov 26 20:53:22.886 HYPERVISOR: exec_cmd: vm get_status R16 
Nov 26 20:53:23.172 HYPERVISOR: exec_cmd: nio create_udp udp-3c170c98-e8d7-4f58-ae0e-09ef0d5773fb 15060 127.0.0.1 15057 
Nov 26 20:53:23.176 HYPERVISOR: exec_cmd: vm slot_add_nio_binding R16 1 0 udp-3c170c98-e8d7-4f58-ae0e-09ef0d5773fb 
Nov 26 20:53:23.177 HYPERVISOR: exec_cmd: vm get_status R16 
Nov 26 20:53:23.482 HYPERVISOR: exec_cmd: nio create_udp udp-baaa7124-9f98-48a9-81dc-624bd0a9afb7 15089 127.0.0.1 15087 
Nov 26 20:53:23.482 HYPERVISOR: exec_cmd: vm slot_add_nio_binding R16 2 1 udp-baaa7124-9f98-48a9-81dc-624bd0a9afb7 
Nov 26 20:53:23.482 HYPERVISOR: exec_cmd: vm get_status R16 
Nov 26 20:53:27.561 HYPERVISOR: exec_cmd: vm extract_config R16 
Nov 26 20:54:29.870 HYPERVISOR: exec_cmd: vm get_status R16 
Nov 26 20:54:29.877 HYPERVISOR: exec_cmd: vm extract_config R16 
Nov 26 20:54:29.882 HYPERVISOR: exec_cmd: vm delete R16 
Nov 26 20:54:29.882 VM: VM R16 destroyed.
Nov 26 20:54:29.888 HYPERVISOR: exec_cmd: hypervisor stop 
Nov 26 20:54:29.937 HYPERVISOR: Stopped.
Nov 26 20:54:29.937 GENERAL: reset done.
