Nov 28 08:39:34.728 HYPERVISOR: Release 0.2.17-amd64/Linux (tag 2017072410)
Nov 28 08:39:34.728 HYPERVISOR: Started on IP = 127.0.0.1, TCP port = 46617.
Nov 28 08:39:34.766 HYPERVISOR: exec_cmd: hypervisor version 
Nov 28 08:39:34.766 HYPERVISOR: exec_cmd: hypervisor working_dir /media/actionmystique/SAMSUNG5-VMs/Labs/GNS3/TT 1-linux-/project-files/dynamips 
Nov 28 08:39:34.766 GENERAL: working_dir=/media/actionmystique/SAMSUNG5-VMs/Labs/GNS3/TT 1-linux-/project-files/dynamips
Nov 28 08:39:34.767 HYPERVISOR: exec_cmd: vm create ESW1 1 c3725 
Nov 28 08:39:34.767 VM: VM ESW1 created.
Nov 28 08:39:34.767 HYPERVISOR: exec_cmd: vm set_con_tcp_port ESW1 2004 
Nov 28 08:39:34.767 HYPERVISOR: exec_cmd: c3725 get_mac_addr ESW1 
Nov 28 08:39:34.768 HYPERVISOR: exec_cmd: vm set_disk0 ESW1 1 
Nov 28 08:39:34.768 HYPERVISOR: exec_cmd: vm get_status ESW1 
Nov 28 08:39:34.769 HYPERVISOR: exec_cmd: vm slot_add_binding ESW1 1 0 NM-16ESW 
Nov 28 08:39:34.769 HYPERVISOR: exec_cmd: vm set_ios ESW1 /media/actionmystique/SAMSUNG5-VMs/Images/GNS3/IOS/c3725-adventerprisek9-mz.124-15.T10.image 
Nov 28 08:39:34.769 HYPERVISOR: exec_cmd: c3725 set_mac_addr ESW1 c201.1b91.0000 
Nov 28 08:39:34.770 HYPERVISOR: exec_cmd: vm slot_add_binding ESW1 0 16 WIC-2T 
Nov 28 08:39:34.770 HYPERVISOR: exec_cmd: vm get_status ESW1 
Nov 28 08:39:34.771 HYPERVISOR: exec_cmd: vm set_idle_pc ESW1 0x614ac27c 
Nov 28 08:39:34.771 HYPERVISOR: exec_cmd: vm set_nvram ESW1 256 
Nov 28 08:39:34.772 HYPERVISOR: exec_cmd: vm set_config ESW1 configs/ios_base_startup-config.txt 
Nov 28 08:39:34.772 HYPERVISOR: exec_cmd: vm set_config ESW1 configs/ios_base_startup-config.txt configs/ios_base_private-config.txt 
Nov 28 08:39:35.076 HYPERVISOR: exec_cmd: nio create_udp udp-9454b7d5-4568-473a-9342-bdfcf0d91a7e 15006 127.0.0.1 15007 
Nov 28 08:39:35.076 HYPERVISOR: exec_cmd: vm slot_add_nio_binding ESW1 1 0 udp-9454b7d5-4568-473a-9342-bdfcf0d91a7e 
Nov 28 08:39:35.077 HYPERVISOR: exec_cmd: vm get_status ESW1 
Nov 28 08:39:35.095 HYPERVISOR: exec_cmd: nio create_udp udp-2b1d9d09-4b99-4d66-9dc8-983b7e517135 15009 127.0.0.1 15008 
Nov 28 08:39:35.095 HYPERVISOR: exec_cmd: vm slot_add_nio_binding ESW1 1 1 udp-2b1d9d09-4b99-4d66-9dc8-983b7e517135 
Nov 28 08:39:35.096 HYPERVISOR: exec_cmd: vm get_status ESW1 
Nov 28 08:39:49.727 HYPERVISOR: exec_cmd: vm get_status ESW1 
Nov 28 08:39:49.728 HYPERVISOR: exec_cmd: vm extract_config ESW1 
Nov 28 08:39:49.730 HYPERVISOR: exec_cmd: vm delete ESW1 
Nov 28 08:39:49.730 VM: VM ESW1 destroyed.
Nov 28 08:39:49.731 HYPERVISOR: exec_cmd: hypervisor stop 
Nov 28 08:39:49.782 HYPERVISOR: Stopped.
Nov 28 08:39:49.782 GENERAL: reset done.
