Nov 28 08:20:13.874 HYPERVISOR: Release 0.2.17-amd64/Linux (tag 2017072410)
Nov 28 08:20:13.874 HYPERVISOR: Started on IP = 127.0.0.1, TCP port = 55709.
Nov 28 08:20:13.895 HYPERVISOR: exec_cmd: hypervisor version 
Nov 28 08:20:13.896 HYPERVISOR: exec_cmd: hypervisor working_dir /media/actionmystique/SAMSUNG5-VMs/Labs/GNS3/TT 1-solutions-linux-/project-files/dynamips 
Nov 28 08:20:13.896 GENERAL: working_dir=/media/actionmystique/SAMSUNG5-VMs/Labs/GNS3/TT 1-solutions-linux-/project-files/dynamips
Nov 28 08:20:13.896 HYPERVISOR: exec_cmd: vm create ESW1 1 c3725 
Nov 28 08:20:13.896 VM: VM ESW1 created.
Nov 28 08:20:13.896 HYPERVISOR: exec_cmd: vm set_con_tcp_port ESW1 2001 
Nov 28 08:20:13.897 HYPERVISOR: exec_cmd: vm set_aux_tcp_port ESW1 2501 
Nov 28 08:20:13.897 HYPERVISOR: exec_cmd: c3725 get_mac_addr ESW1 
Nov 28 08:20:13.897 HYPERVISOR: exec_cmd: vm set_disk0 ESW1 1 
Nov 28 08:20:13.898 HYPERVISOR: exec_cmd: vm get_status ESW1 
Nov 28 08:20:13.898 HYPERVISOR: exec_cmd: vm slot_add_binding ESW1 1 0 NM-16ESW 
Nov 28 08:20:13.898 HYPERVISOR: exec_cmd: vm set_ios ESW1 /media/actionmystique/SAMSUNG5-VMs/Images/GNS3/IOS/c3725-adventerprisek9-mz.124-15.T10.image 
Nov 28 08:20:13.899 HYPERVISOR: exec_cmd: c3725 set_mac_addr ESW1 c201.3297.0000 
Nov 28 08:20:13.900 HYPERVISOR: exec_cmd: vm slot_add_binding ESW1 0 16 WIC-2T 
Nov 28 08:20:13.901 HYPERVISOR: exec_cmd: vm get_status ESW1 
Nov 28 08:20:13.902 HYPERVISOR: exec_cmd: vm set_idle_pc ESW1 0x6026b804 
Nov 28 08:20:13.902 HYPERVISOR: exec_cmd: vm set_nvram ESW1 256 
Nov 28 08:20:13.903 HYPERVISOR: exec_cmd: vm set_config ESW1 configs/i1_startup-config.cfg 
Nov 28 08:20:13.904 HYPERVISOR: exec_cmd: vm set_config ESW1 configs/i1_startup-config.cfg configs/i1_private-config.cfg 
Nov 28 08:20:14.041 HYPERVISOR: exec_cmd: nio create_udp udp-8e8953b3-9bef-4e8b-9c47-826cbf16703f 15000 127.0.0.1 15002 
Nov 28 08:20:14.042 HYPERVISOR: exec_cmd: vm slot_add_nio_binding ESW1 1 2 udp-8e8953b3-9bef-4e8b-9c47-826cbf16703f 
Nov 28 08:20:14.043 HYPERVISOR: exec_cmd: vm get_status ESW1 
Nov 28 08:20:14.053 HYPERVISOR: exec_cmd: nio create_udp udp-f9e16ecb-c63b-472e-a799-57e670dcc1bf 15004 127.0.0.1 15003 
Nov 28 08:20:14.054 HYPERVISOR: exec_cmd: vm slot_add_nio_binding ESW1 1 1 udp-f9e16ecb-c63b-472e-a799-57e670dcc1bf 
Nov 28 08:20:14.054 HYPERVISOR: exec_cmd: vm get_status ESW1 
Nov 28 08:20:14.091 HYPERVISOR: exec_cmd: nio create_udp udp-bc0e2dd8-2d2f-4115-a4af-e5f7bd06a140 15006 127.0.0.1 15001 
Nov 28 08:20:14.092 HYPERVISOR: exec_cmd: vm slot_add_nio_binding ESW1 1 0 udp-bc0e2dd8-2d2f-4115-a4af-e5f7bd06a140 
Nov 28 08:20:14.092 HYPERVISOR: exec_cmd: vm get_status ESW1 
Nov 28 08:20:32.780 HYPERVISOR: exec_cmd: vm get_status ESW1 
Nov 28 08:20:32.781 HYPERVISOR: exec_cmd: vm extract_config ESW1 
Nov 28 08:20:32.782 HYPERVISOR: exec_cmd: vm delete ESW1 
Nov 28 08:20:32.782 VM: VM ESW1 destroyed.
Nov 28 08:20:32.783 HYPERVISOR: exec_cmd: hypervisor stop 
Nov 28 08:20:32.915 HYPERVISOR: Stopped.
Nov 28 08:20:32.915 GENERAL: reset done.
