Apr 11 14:04:22.427 HYPERVISOR: Release 0.2.14-amd64/Linux (tag 2014092320)
Apr 11 14:04:22.427 HYPERVISOR: Started on IP = 127.0.0.1, TCP port = 7201.
Apr 11 14:04:22.433 HYPERVISOR: exec_cmd: hypervisor version 
Apr 11 14:04:22.434 HYPERVISOR: exec_cmd: hypervisor uuid 
Apr 11 14:04:22.434 HYPERVISOR: exec_cmd: hypervisor working_dir /home/actionmystique/Google Drive/Missions/Certifications/Cisco/Labs/GNS3/CCNP/TBSHOOT/L3 Technologies/Routing/Jean-Christophe/1+/Routed Port/TT 1-linux/TT 1-linux-files/dynamips 
Apr 11 14:04:22.434 GENERAL: working_dir=/home/actionmystique/Google Drive/Missions/Certifications/Cisco/Labs/GNS3/CCNP/TBSHOOT/L3 Technologies/Routing/Jean-Christophe/1+/Routed Port/TT 1-linux/TT 1-linux-files/dynamips
Apr 11 14:04:22.434 HYPERVISOR: exec_cmd: vm create ESW2 2 c3725 
Apr 11 14:04:22.434 VM: VM ESW2 created.
Apr 11 14:04:22.434 HYPERVISOR: exec_cmd: vm set_con_tcp_port ESW2 2002 
Apr 11 14:04:22.434 HYPERVISOR: exec_cmd: vm set_aux_tcp_port ESW2 2502 
Apr 11 14:04:22.434 HYPERVISOR: exec_cmd: c3725 get_mac_addr ESW2 
Apr 11 14:04:22.434 HYPERVISOR: exec_cmd: vm set_ios ESW2 /media/actionmystique/SAMSUNG-Ext4/Images/GNS3/IOS/c3725-adventerprisek9-mz.124-15.T10.image 
Apr 11 14:04:22.434 HYPERVISOR: exec_cmd: vm set_sparse_mem ESW2 1 
Apr 11 14:04:22.434 HYPERVISOR: exec_cmd: vm set_ram_mmap ESW2 1 
Apr 11 14:04:22.435 HYPERVISOR: exec_cmd: c3725 set_mac_addr ESW2 c202.109b.0000 
Apr 11 14:04:22.435 HYPERVISOR: exec_cmd: vm set_ghost_status ESW2 2 
Apr 11 14:04:22.435 HYPERVISOR: exec_cmd: vm set_ghost_file ESW2 c3725-adventerprisek9-mz.124-15.T10.image-128.ghost 
Apr 11 14:04:22.455 HYPERVISOR: exec_cmd: vm set_config ESW2 configs/i2_startup-config.cfg 
Apr 11 14:04:22.455 HYPERVISOR: exec_cmd: vm set_config ESW2 configs/i2_startup-config.cfg configs/i2_private-config.cfg 
Apr 11 14:04:22.455 HYPERVISOR: exec_cmd: vm set_nvram ESW2 256 
Apr 11 14:04:22.455 HYPERVISOR: exec_cmd: vm get_status ESW2 
Apr 11 14:04:22.455 HYPERVISOR: exec_cmd: vm set_idle_pc ESW2 0x614ac2c4 
Apr 11 14:04:22.455 HYPERVISOR: exec_cmd: vm get_status ESW2 
Apr 11 14:04:22.455 HYPERVISOR: exec_cmd: vm slot_add_binding ESW2 1 0 NM-16ESW 
Apr 11 14:04:22.455 HYPERVISOR: exec_cmd: vm get_status ESW2 
Apr 11 14:04:22.455 HYPERVISOR: exec_cmd: vm slot_add_binding ESW2 0 16 WIC-2T 
Apr 11 14:04:22.456 HYPERVISOR: exec_cmd: vm set_disk0 ESW2 1 
Apr 11 14:04:22.465 HYPERVISOR: exec_cmd: nio create_udp_auto nio_udp_auto3 127.0.0.1 10001 20000 
Apr 11 14:04:22.474 HYPERVISOR: exec_cmd: nio create_tap nio_tap0 tap0 
Apr 11 14:04:22.475 HYPERVISOR: exec_cmd: vm slot_add_nio_binding ESW2 1 1 nio_tap0 
Apr 11 14:04:22.475 HYPERVISOR: exec_cmd: vm get_status ESW2 
Apr 11 14:04:22.501 HYPERVISOR: exec_cmd: nio connect_udp_auto nio_udp_auto3 127.0.0.1 40002 
Apr 11 14:04:22.501 HYPERVISOR: exec_cmd: vm slot_add_nio_binding ESW2 1 0 nio_udp_auto3 
Apr 11 14:04:22.502 HYPERVISOR: exec_cmd: vm get_status ESW2 
Apr 11 14:04:50.375 HYPERVISOR: exec_cmd: vm get_status ESW2 
Apr 11 14:04:50.375 HYPERVISOR: exec_cmd: vm slot_remove_nio_binding ESW2 1 1 
Apr 11 14:04:50.376 HYPERVISOR: exec_cmd: nio delete nio_tap0 
Apr 11 14:05:03.614 HYPERVISOR: exec_cmd: nio create_gen_eth nio_gen_eth0 virbr0 
Apr 11 14:05:03.632 HYPERVISOR: exec_cmd: vm slot_add_nio_binding ESW2 1 1 nio_gen_eth0 
Apr 11 14:05:03.632 HYPERVISOR: exec_cmd: vm get_status ESW2 
Apr 11 14:08:48.474 HYPERVISOR: exec_cmd: vm get_status ESW2 
Apr 11 14:08:48.475 HYPERVISOR: exec_cmd: vm start ESW2 
Apr 11 14:08:48.476 GHOST: loaded ghost image c3725-adventerprisek9-mz.124-15.T10.image-128.ghost (fd=14) at addr=0x7f744c000000 (size=0x10000000)
Apr 11 14:08:48.476 GHOST: loaded image c3725-adventerprisek9-mz.124-15.T10.image-128.ghost successfully.
Apr 11 14:10:37.942 HYPERVISOR: exec_cmd: nio bind_filter nio_gen_eth0 2 capture 
Apr 11 14:10:37.942 HYPERVISOR: exec_cmd: nio setup_filter nio_gen_eth0 2 en10mb /home/actionmystique/Google Drive/Missions/Certifications/Cisco/Labs/GNS3/CCNP/TBSHOOT/L3 Technologies/Routing/Jean-Christophe/1+/Routed Port/TT 1-linux/TT 1-linux-files/dynamips/captures/ESW2_FastEthernet1-1_to_Internet_nio_gen_ethvirbr0.pcap 
Apr 11 14:13:25.141 HYPERVISOR: exec_cmd: nio unbind_filter nio_gen_eth0 2 
Apr 11 14:13:27.939 HYPERVISOR: exec_cmd: vm get_status ESW2 
Apr 11 14:13:27.939 HYPERVISOR: exec_cmd: vm slot_disable_nio ESW2 1 1 
Apr 11 14:13:27.948 HYPERVISOR: exec_cmd: vm slot_remove_nio_binding ESW2 1 1 
Apr 11 14:13:27.949 HYPERVISOR: exec_cmd: nio delete nio_gen_eth0 
Apr 11 14:13:38.042 HYPERVISOR: exec_cmd: nio create_gen_eth nio_gen_eth1 virbr0-nic 
Apr 11 14:13:50.403 HYPERVISOR: exec_cmd: nio create_gen_eth nio_gen_eth2 virbr0 
Apr 11 14:13:50.420 HYPERVISOR: exec_cmd: vm slot_add_nio_binding ESW2 1 1 nio_gen_eth2 
Apr 11 14:13:50.420 HYPERVISOR: exec_cmd: vm get_status ESW2 
Apr 11 14:13:50.420 HYPERVISOR: exec_cmd: vm slot_enable_nio ESW2 1 1 
Apr 11 14:13:55.639 HYPERVISOR: exec_cmd: vm get_status ESW2 
Apr 11 14:13:55.639 HYPERVISOR: exec_cmd: vm slot_disable_nio ESW2 1 1 
Apr 11 14:13:55.654 HYPERVISOR: exec_cmd: vm slot_remove_nio_binding ESW2 1 1 
Apr 11 14:13:55.654 HYPERVISOR: exec_cmd: nio delete nio_gen_eth2 
Apr 11 14:14:34.468 HYPERVISOR: exec_cmd: nio create_gen_eth nio_gen_eth3 wlan0 
Apr 11 14:14:34.500 HYPERVISOR: exec_cmd: vm slot_add_nio_binding ESW2 1 1 nio_gen_eth3 
Apr 11 14:14:34.500 HYPERVISOR: exec_cmd: vm get_status ESW2 
Apr 11 14:14:34.500 HYPERVISOR: exec_cmd: vm slot_enable_nio ESW2 1 1 
Apr 11 14:15:18.092 HYPERVISOR: exec_cmd: nio bind_filter nio_gen_eth3 2 capture 
Apr 11 14:15:18.092 HYPERVISOR: exec_cmd: nio setup_filter nio_gen_eth3 2 en10mb /home/actionmystique/Google Drive/Missions/Certifications/Cisco/Labs/GNS3/CCNP/TBSHOOT/L3 Technologies/Routing/Jean-Christophe/1+/Routed Port/TT 1-linux/TT 1-linux-files/dynamips/captures/ESW2_FastEthernet1-1_to_Internet_nio_gen_ethwlan0.pcap 
Apr 11 14:24:19.606 HYPERVISOR: exec_cmd: vm extract_config ESW2 
Apr 11 14:24:22.103 HYPERVISOR: exec_cmd: vm get_status ESW2 
Apr 11 14:24:22.103 HYPERVISOR: exec_cmd: vm stop ESW2 
Apr 11 14:24:22.192 GHOST: unloaded ghost image c3725-adventerprisek9-mz.124-15.T10.image-128.ghost (fd=14) at addr=0x7f744c000000 (size=0x10000000)
Apr 11 14:24:22.204 VM: VM ESW2 shutdown.
Apr 11 14:24:25.885 HYPERVISOR: exec_cmd: vm extract_config ESW2 
Apr 11 14:24:25.898 HYPERVISOR: exec_cmd: hypervisor stop 
