Nov 27 16:14:38.978 HYPERVISOR: Release 0.2.17-amd64/Linux (tag 2017072410)
Nov 27 16:14:38.978 HYPERVISOR: Started on IP = 127.0.0.1, TCP port = 46285.
Nov 27 16:14:39.010 HYPERVISOR: exec_cmd: hypervisor version 
Nov 27 16:14:39.011 HYPERVISOR: exec_cmd: hypervisor working_dir /media/actionmystique/SAMSUNG5-VMs/Labs/GNS3/TT 2-linux-/project-files/dynamips 
Nov 27 16:14:39.011 GENERAL: working_dir=/media/actionmystique/SAMSUNG5-VMs/Labs/GNS3/TT 2-linux-/project-files/dynamips
Nov 27 16:14:39.012 HYPERVISOR: exec_cmd: vm create SW3 3 c3725 
Nov 27 16:14:39.012 VM: VM SW3 created.
Nov 27 16:14:39.013 HYPERVISOR: exec_cmd: vm set_con_tcp_port SW3 2003 
Nov 27 16:14:39.013 HYPERVISOR: exec_cmd: c3725 get_mac_addr SW3 
Nov 27 16:14:39.014 HYPERVISOR: exec_cmd: vm set_nvram SW3 256 
Nov 27 16:14:39.015 HYPERVISOR: exec_cmd: vm get_status SW3 
Nov 27 16:14:39.016 HYPERVISOR: exec_cmd: vm set_idle_pc SW3 0x614ac2c4 
Nov 27 16:14:39.017 HYPERVISOR: exec_cmd: c3725 set_mac_addr SW3 cccc.cccc.cccc 
Nov 27 16:14:39.018 HYPERVISOR: exec_cmd: vm set_exec_area SW3 16 
Nov 27 16:14:39.019 HYPERVISOR: exec_cmd: vm get_status SW3 
Nov 27 16:14:39.020 HYPERVISOR: exec_cmd: vm slot_add_binding SW3 1 0 NM-16ESW 
Nov 27 16:14:39.021 HYPERVISOR: exec_cmd: vm set_disk0 SW3 1 
Nov 27 16:14:39.022 HYPERVISOR: exec_cmd: vm set_ios SW3 /media/actionmystique/SAMSUNG5-VMs/Images/GNS3/IOS/c3725-adventerprisek9-mz.124-15.T10.image 
Nov 27 16:14:39.023 HYPERVISOR: exec_cmd: vm slot_add_binding SW3 0 16 WIC-2T 
Nov 27 16:14:39.024 HYPERVISOR: exec_cmd: vm set_config SW3 configs/i3_startup-config.cfg 
Nov 27 16:14:39.025 HYPERVISOR: exec_cmd: vm set_config SW3 configs/i3_startup-config.cfg configs/i3_private-config.cfg 
Nov 27 16:14:39.109 HYPERVISOR: exec_cmd: nio create_null null-c11b1df7-2ee5-44cc-a031-c309332ee82d 
Nov 27 16:14:39.109 HYPERVISOR: exec_cmd: vm slot_add_nio_binding SW3 1 0 null-c11b1df7-2ee5-44cc-a031-c309332ee82d 
Nov 27 16:14:39.110 HYPERVISOR: exec_cmd: vm get_status SW3 
Nov 27 16:14:39.169 HYPERVISOR: exec_cmd: nio create_udp udp-765629ff-d094-47f4-ada4-e64398b6f25c 15001 127.0.0.1 15002 
Nov 27 16:14:39.169 HYPERVISOR: exec_cmd: vm slot_add_nio_binding SW3 1 2 udp-765629ff-d094-47f4-ada4-e64398b6f25c 
Nov 27 16:14:39.170 HYPERVISOR: exec_cmd: vm get_status SW3 
Nov 27 16:14:39.261 HYPERVISOR: exec_cmd: nio create_udp udp-40fb1829-2edf-45b5-a584-e6db0e4f6ff0 15008 127.0.0.1 15006 
Nov 27 16:14:39.261 HYPERVISOR: exec_cmd: vm slot_add_nio_binding SW3 1 5 udp-40fb1829-2edf-45b5-a584-e6db0e4f6ff0 
Nov 27 16:14:39.262 HYPERVISOR: exec_cmd: vm get_status SW3 
Nov 27 16:14:39.270 HYPERVISOR: exec_cmd: nio create_udp udp-acc0fea8-8538-4afe-ab14-e990bd598f0e 15009 127.0.0.1 15007 
Nov 27 16:14:39.271 HYPERVISOR: exec_cmd: vm slot_add_nio_binding SW3 1 6 udp-acc0fea8-8538-4afe-ab14-e990bd598f0e 
Nov 27 16:14:39.274 HYPERVISOR: exec_cmd: vm get_status SW3 
Nov 27 16:14:55.964 HYPERVISOR: exec_cmd: vm get_status SW3 
Nov 27 16:14:55.966 HYPERVISOR: exec_cmd: vm extract_config SW3 
Nov 27 16:14:55.968 HYPERVISOR: exec_cmd: vm delete SW3 
Nov 27 16:14:55.968 VM: VM SW3 destroyed.
Nov 27 16:14:55.969 HYPERVISOR: exec_cmd: hypervisor stop 
Nov 27 16:14:56.024 HYPERVISOR: Stopped.
Nov 27 16:14:56.024 GENERAL: reset done.
