Nov 27 16:14:21.784 HYPERVISOR: Release 0.2.17-amd64/Linux (tag 2017072410)
Nov 27 16:14:21.784 HYPERVISOR: Started on IP = 127.0.0.1, TCP port = 43949.
Nov 27 16:14:21.791 HYPERVISOR: exec_cmd: hypervisor version 
Nov 27 16:14:21.791 HYPERVISOR: exec_cmd: hypervisor working_dir /media/actionmystique/SAMSUNG5-VMs/Labs/GNS3/git-Public-Labs-Collection/CCNP/TBSHOOT/L2-Technologies/STP/Jean-Christophe_Manciot/1+/TT 2-linux/project-files/dynamips 
Nov 27 16:14:21.791 GENERAL: working_dir=/media/actionmystique/SAMSUNG5-VMs/Labs/GNS3/git-Public-Labs-Collection/CCNP/TBSHOOT/L2-Technologies/STP/Jean-Christophe_Manciot/1+/TT 2-linux/project-files/dynamips
Nov 27 16:14:21.791 HYPERVISOR: exec_cmd: vm create SW1 1 c3725 
Nov 27 16:14:21.791 VM: VM SW1 created.
Nov 27 16:14:21.792 HYPERVISOR: exec_cmd: vm set_con_tcp_port SW1 2001 
Nov 27 16:14:21.792 HYPERVISOR: exec_cmd: c3725 get_mac_addr SW1 
Nov 27 16:14:21.792 HYPERVISOR: exec_cmd: vm get_status SW1 
Nov 27 16:14:21.793 HYPERVISOR: exec_cmd: vm slot_add_binding SW1 1 0 NM-16ESW 
Nov 27 16:14:21.793 HYPERVISOR: exec_cmd: vm set_nvram SW1 256 
Nov 27 16:14:21.793 HYPERVISOR: exec_cmd: vm get_status SW1 
Nov 27 16:14:21.793 HYPERVISOR: exec_cmd: vm set_idle_pc SW1 0x614ac2c4 
Nov 27 16:14:21.794 HYPERVISOR: exec_cmd: c3725 set_mac_addr SW1 aaaa.aaaa.aaaa 
Nov 27 16:14:21.794 HYPERVISOR: exec_cmd: vm set_ios SW1 /media/actionmystique/SAMSUNG5-VMs/Images/GNS3/IOS/c3725-adventerprisek9-mz.124-15.T10.image 
Nov 27 16:14:21.795 HYPERVISOR: exec_cmd: vm set_exec_area SW1 16 
Nov 27 16:14:21.795 HYPERVISOR: exec_cmd: vm slot_add_binding SW1 0 16 WIC-2T 
Nov 27 16:14:21.795 HYPERVISOR: exec_cmd: vm set_disk0 SW1 1 
Nov 27 16:14:21.796 HYPERVISOR: exec_cmd: vm set_config SW1 configs/i1_startup-config.cfg 
Nov 27 16:14:21.796 HYPERVISOR: exec_cmd: vm set_config SW1 configs/i1_startup-config.cfg configs/i1_private-config.cfg 
Nov 27 16:14:21.867 HYPERVISOR: exec_cmd: nio create_null null-9cb0cfb8-c177-449c-b2a7-b3f85a253017 
Nov 27 16:14:21.870 HYPERVISOR: exec_cmd: vm slot_add_nio_binding SW1 1 0 null-9cb0cfb8-c177-449c-b2a7-b3f85a253017 
Nov 27 16:14:21.871 HYPERVISOR: exec_cmd: vm get_status SW1 
Nov 27 16:14:21.957 HYPERVISOR: exec_cmd: nio create_udp udp-ac632a06-292a-4a47-bae6-fd82321776c1 15006 127.0.0.1 15005 
Nov 27 16:14:21.957 HYPERVISOR: exec_cmd: vm slot_add_nio_binding SW1 1 5 udp-ac632a06-292a-4a47-bae6-fd82321776c1 
Nov 27 16:14:21.957 HYPERVISOR: exec_cmd: vm get_status SW1 
Nov 27 16:14:21.967 HYPERVISOR: exec_cmd: nio create_udp udp-8f8e5fbd-5963-4e7d-9cb9-3b5e2b7cc894 15004 127.0.0.1 15007 
Nov 27 16:14:21.968 HYPERVISOR: exec_cmd: vm slot_add_nio_binding SW1 1 1 udp-8f8e5fbd-5963-4e7d-9cb9-3b5e2b7cc894 
Nov 27 16:14:21.969 HYPERVISOR: exec_cmd: vm get_status SW1 
Nov 27 16:14:21.981 HYPERVISOR: exec_cmd: nio create_udp udp-83f76d74-4ae8-475a-83f4-e9954ee3775f 15008 127.0.0.1 15009 
Nov 27 16:14:21.982 HYPERVISOR: exec_cmd: vm slot_add_nio_binding SW1 1 6 udp-83f76d74-4ae8-475a-83f4-e9954ee3775f 
Nov 27 16:14:21.983 HYPERVISOR: exec_cmd: vm get_status SW1 
