Nov 28 08:12:54.351 HYPERVISOR: Release 0.2.17-amd64/Linux (tag 2017072410)
Nov 28 08:12:54.351 HYPERVISOR: Started on IP = 127.0.0.1, TCP port = 48647.
Nov 28 08:12:54.371 HYPERVISOR: exec_cmd: hypervisor version 
Nov 28 08:12:54.373 HYPERVISOR: exec_cmd: hypervisor working_dir /media/actionmystique/SAMSUNG5-VMs/Labs/GNS3/git-Public-Labs-Collection/CCNP/TBSHOOT/L3-Technologies/IPv4/PBR/Jean-Christophe_Manciot/1+/TT 1-solutions-linux/project-files/dynamips 
Nov 28 08:12:54.373 GENERAL: working_dir=/media/actionmystique/SAMSUNG5-VMs/Labs/GNS3/git-Public-Labs-Collection/CCNP/TBSHOOT/L3-Technologies/IPv4/PBR/Jean-Christophe_Manciot/1+/TT 1-solutions-linux/project-files/dynamips
Nov 28 08:12:54.377 HYPERVISOR: exec_cmd: vm create ESW3 3 c3725 
Nov 28 08:12:54.377 VM: VM ESW3 created.
Nov 28 08:12:54.378 HYPERVISOR: exec_cmd: vm set_con_tcp_port ESW3 2006 
Nov 28 08:12:54.378 HYPERVISOR: exec_cmd: c3725 get_mac_addr ESW3 
Nov 28 08:12:54.379 HYPERVISOR: exec_cmd: vm set_disk0 ESW3 1 
Nov 28 08:12:54.379 HYPERVISOR: exec_cmd: vm get_status ESW3 
Nov 28 08:12:54.379 HYPERVISOR: exec_cmd: vm slot_add_binding ESW3 1 0 NM-16ESW 
Nov 28 08:12:54.380 HYPERVISOR: exec_cmd: vm set_ios ESW3 /media/actionmystique/SAMSUNG5-VMs/Images/GNS3/IOS/c3725-adventerprisek9-mz.124-15.T10.image 
Nov 28 08:12:54.380 HYPERVISOR: exec_cmd: c3725 set_mac_addr ESW3 c203.1bfb.0000 
Nov 28 08:12:54.381 HYPERVISOR: exec_cmd: vm slot_add_binding ESW3 0 16 WIC-2T 
Nov 28 08:12:54.381 HYPERVISOR: exec_cmd: vm get_status ESW3 
Nov 28 08:12:54.381 HYPERVISOR: exec_cmd: vm set_idle_pc ESW3 0x6026b804 
Nov 28 08:12:54.382 HYPERVISOR: exec_cmd: vm set_nvram ESW3 256 
Nov 28 08:12:54.382 HYPERVISOR: exec_cmd: vm set_config ESW3 configs/ios_base_startup-config.txt 
Nov 28 08:12:54.383 HYPERVISOR: exec_cmd: vm set_config ESW3 configs/ios_base_startup-config.txt configs/ios_base_private-config.txt 
Nov 28 08:12:54.657 HYPERVISOR: exec_cmd: nio create_udp udp-30a9d89c-2aee-4e82-8e54-9a980be914b6 15013 127.0.0.1 15012 
Nov 28 08:12:54.666 HYPERVISOR: exec_cmd: vm slot_add_nio_binding ESW3 1 0 udp-30a9d89c-2aee-4e82-8e54-9a980be914b6 
Nov 28 08:12:54.667 HYPERVISOR: exec_cmd: vm get_status ESW3 
Nov 28 08:13:01.325 HYPERVISOR: exec_cmd: nio create_tap tap-d7633440-63ca-46f2-8d5a-f81432a2f65f tap0 
Nov 28 08:13:01.325 HYPERVISOR: exec_cmd: vm slot_add_nio_binding ESW3 1 1 tap-d7633440-63ca-46f2-8d5a-f81432a2f65f 
Nov 28 08:13:01.326 HYPERVISOR: exec_cmd: vm get_status ESW3 
