Nov 28 08:12:54.328 HYPERVISOR: Release 0.2.17-amd64/Linux (tag 2017072410)
Nov 28 08:12:54.328 HYPERVISOR: Started on IP = 127.0.0.1, TCP port = 48061.
Nov 28 08:12:54.341 HYPERVISOR: exec_cmd: hypervisor version 
Nov 28 08:12:54.343 HYPERVISOR: exec_cmd: hypervisor working_dir /media/actionmystique/SAMSUNG5-VMs/Labs/GNS3/git-Public-Labs-Collection/CCNP/TBSHOOT/L3-Technologies/IPv4/PBR/Jean-Christophe_Manciot/1+/TT 1-solutions-linux/project-files/dynamips 
Nov 28 08:12:54.343 GENERAL: working_dir=/media/actionmystique/SAMSUNG5-VMs/Labs/GNS3/git-Public-Labs-Collection/CCNP/TBSHOOT/L3-Technologies/IPv4/PBR/Jean-Christophe_Manciot/1+/TT 1-solutions-linux/project-files/dynamips
Nov 28 08:12:54.344 HYPERVISOR: exec_cmd: vm create ESW1 1 c3725 
Nov 28 08:12:54.344 VM: VM ESW1 created.
Nov 28 08:12:54.345 HYPERVISOR: exec_cmd: vm set_con_tcp_port ESW1 2004 
Nov 28 08:12:54.345 HYPERVISOR: exec_cmd: c3725 get_mac_addr ESW1 
Nov 28 08:12:54.346 HYPERVISOR: exec_cmd: vm set_disk0 ESW1 1 
Nov 28 08:12:54.346 HYPERVISOR: exec_cmd: vm get_status ESW1 
Nov 28 08:12:54.347 HYPERVISOR: exec_cmd: vm slot_add_binding ESW1 1 0 NM-16ESW 
Nov 28 08:12:54.348 HYPERVISOR: exec_cmd: vm set_ios ESW1 /media/actionmystique/SAMSUNG5-VMs/Images/GNS3/IOS/c3725-adventerprisek9-mz.124-15.T10.image 
Nov 28 08:12:54.349 HYPERVISOR: exec_cmd: c3725 set_mac_addr ESW1 c201.1b91.0000 
Nov 28 08:12:54.352 HYPERVISOR: exec_cmd: vm slot_add_binding ESW1 0 16 WIC-2T 
Nov 28 08:12:54.353 HYPERVISOR: exec_cmd: vm get_status ESW1 
Nov 28 08:12:54.354 HYPERVISOR: exec_cmd: vm set_idle_pc ESW1 0x6026b804 
Nov 28 08:12:54.355 HYPERVISOR: exec_cmd: vm set_nvram ESW1 256 
Nov 28 08:12:54.355 HYPERVISOR: exec_cmd: vm set_config ESW1 configs/ios_base_startup-config.txt 
Nov 28 08:12:54.357 HYPERVISOR: exec_cmd: vm set_config ESW1 configs/ios_base_startup-config.txt configs/ios_base_private-config.txt 
Nov 28 08:12:54.587 HYPERVISOR: exec_cmd: nio create_udp udp-182234ec-8751-4587-a82f-ec1613ad9929 15009 127.0.0.1 15010 
Nov 28 08:12:54.588 HYPERVISOR: exec_cmd: vm slot_add_nio_binding ESW1 1 0 udp-182234ec-8751-4587-a82f-ec1613ad9929 
Nov 28 08:12:54.588 HYPERVISOR: exec_cmd: vm get_status ESW1 
Nov 28 08:12:54.609 HYPERVISOR: exec_cmd: nio create_udp udp-fb193301-1a4e-4f95-bc15-1295a75e40b2 15008 127.0.0.1 15011 
Nov 28 08:12:54.615 HYPERVISOR: exec_cmd: vm slot_add_nio_binding ESW1 1 1 udp-fb193301-1a4e-4f95-bc15-1295a75e40b2 
Nov 28 08:12:54.616 HYPERVISOR: exec_cmd: vm get_status ESW1 
