Dec 04 11:07:28.297 HYPERVISOR: Release 0.2.17-amd64/Linux (tag 2017072410)
Dec 04 11:07:28.297 HYPERVISOR: Started on IP = 127.0.0.1, TCP port = 55699.
Dec 04 11:07:28.316 HYPERVISOR: exec_cmd: hypervisor version 
Dec 04 11:07:28.320 HYPERVISOR: exec_cmd: hypervisor working_dir /media/actionmystique/SAMSUNG5-VMs/Labs/GNS3/git-Public-Labs-Collection/CCNP/TBSHOOT/L3-Technologies/IPv6/Routing-Protocols/OSPFv3/Jean-Christophe_Manciot/1+/TT 2-linux/project-files/dynamips 
Dec 04 11:07:28.320 GENERAL: working_dir=/media/actionmystique/SAMSUNG5-VMs/Labs/GNS3/git-Public-Labs-Collection/CCNP/TBSHOOT/L3-Technologies/IPv6/Routing-Protocols/OSPFv3/Jean-Christophe_Manciot/1+/TT 2-linux/project-files/dynamips
Dec 04 11:07:28.322 HYPERVISOR: exec_cmd: vm create ESW2 2 c3725 
Dec 04 11:07:28.322 VM: VM ESW2 created.
Dec 04 11:07:28.325 HYPERVISOR: exec_cmd: vm set_con_tcp_port ESW2 2005 
Dec 04 11:07:28.327 HYPERVISOR: exec_cmd: c3725 get_mac_addr ESW2 
Dec 04 11:07:28.328 HYPERVISOR: exec_cmd: vm set_nvram ESW2 256 
Dec 04 11:07:28.329 HYPERVISOR: exec_cmd: vm get_status ESW2 
Dec 04 11:07:28.329 HYPERVISOR: exec_cmd: vm slot_add_binding ESW2 1 0 NM-16ESW 
Dec 04 11:07:28.330 HYPERVISOR: exec_cmd: vm set_ios ESW2 /media/actionmystique/SAMSUNG5-VMs/Images/GNS3/IOS/c3725-adventerprisek9-mz.124-15.T10.image 
Dec 04 11:07:28.331 HYPERVISOR: exec_cmd: vm set_disk0 ESW2 1 
Dec 04 11:07:28.332 HYPERVISOR: exec_cmd: c3725 set_mac_addr ESW2 c202.1bd4.0000 
Dec 04 11:07:28.332 HYPERVISOR: exec_cmd: vm slot_add_binding ESW2 0 16 WIC-2T 
Dec 04 11:07:28.333 HYPERVISOR: exec_cmd: vm get_status ESW2 
Dec 04 11:07:28.333 HYPERVISOR: exec_cmd: vm set_idle_pc ESW2 0x614ac27c 
Dec 04 11:07:28.334 HYPERVISOR: exec_cmd: vm set_config ESW2 configs/ios_base_startup-config.txt 
Dec 04 11:07:28.335 HYPERVISOR: exec_cmd: vm set_config ESW2 configs/ios_base_startup-config.txt configs/ios_base_private-config.txt 
Dec 04 11:07:28.658 HYPERVISOR: exec_cmd: nio create_udp udp-e51472b7-0ffa-4a6a-823c-a8837e49924e 15009 127.0.0.1 15005 
Dec 04 11:07:28.659 HYPERVISOR: exec_cmd: vm slot_add_nio_binding ESW2 1 0 udp-e51472b7-0ffa-4a6a-823c-a8837e49924e 
Dec 04 11:07:28.659 HYPERVISOR: exec_cmd: vm get_status ESW2 
