Nov 26 22:10:06.240 HYPERVISOR: Release 0.2.17-amd64/Linux (tag 2017072410)
Nov 26 22:10:06.240 HYPERVISOR: Started on IP = 127.0.0.1, TCP port = 34681.
Nov 26 22:10:06.253 HYPERVISOR: exec_cmd: hypervisor version 
Nov 26 22:10:06.254 HYPERVISOR: exec_cmd: hypervisor working_dir /media/actionmystique/SAMSUNG5-VMs/Labs/GNS3/TT 2-solutions-linux-/project-files/dynamips 
Nov 26 22:10:06.254 GENERAL: working_dir=/media/actionmystique/SAMSUNG5-VMs/Labs/GNS3/TT 2-solutions-linux-/project-files/dynamips
Nov 26 22:10:06.254 HYPERVISOR: exec_cmd: vm create ESW2 2 c3725 
Nov 26 22:10:06.254 VM: VM ESW2 created.
Nov 26 22:10:06.255 HYPERVISOR: exec_cmd: vm set_con_tcp_port ESW2 2002 
Nov 26 22:10:06.255 HYPERVISOR: exec_cmd: vm set_aux_tcp_port ESW2 2502 
Nov 26 22:10:06.255 HYPERVISOR: exec_cmd: c3725 get_mac_addr ESW2 
Nov 26 22:10:06.256 HYPERVISOR: exec_cmd: vm slot_add_binding ESW2 0 16 WIC-2T 
Nov 26 22:10:06.256 HYPERVISOR: exec_cmd: vm get_status ESW2 
Nov 26 22:10:06.256 HYPERVISOR: exec_cmd: vm set_idle_pc ESW2 0x60c05928 
Nov 26 22:10:06.257 HYPERVISOR: exec_cmd: vm set_nvram ESW2 256 
Nov 26 22:10:06.257 HYPERVISOR: exec_cmd: vm get_status ESW2 
Nov 26 22:10:06.258 HYPERVISOR: exec_cmd: vm slot_add_binding ESW2 1 0 NM-16ESW 
Nov 26 22:10:06.258 HYPERVISOR: exec_cmd: vm set_ios ESW2 /media/actionmystique/SAMSUNG5-VMs/Images/GNS3/IOS/c3725-adventerprisek9-mz.124-15.T10.image 
Nov 26 22:10:06.258 HYPERVISOR: exec_cmd: vm set_disk0 ESW2 1 
Nov 26 22:10:06.259 HYPERVISOR: exec_cmd: c3725 set_mac_addr ESW2 c202.28c2.0000 
Nov 26 22:10:06.259 HYPERVISOR: exec_cmd: vm set_config ESW2 configs/i2_startup-config.cfg 
Nov 26 22:10:06.260 HYPERVISOR: exec_cmd: vm set_config ESW2 configs/i2_startup-config.cfg configs/i2_private-config.cfg 
Nov 26 22:10:06.358 HYPERVISOR: exec_cmd: nio create_tap tap-9917759e-ca27-4a13-9302-7c6a4d02b81b tap0 
Nov 26 22:10:06.358 HYPERVISOR: exec_cmd: vm slot_add_nio_binding ESW2 1 0 tap-9917759e-ca27-4a13-9302-7c6a4d02b81b 
Nov 26 22:10:06.359 HYPERVISOR: exec_cmd: vm get_status ESW2 
Nov 26 22:10:06.457 HYPERVISOR: exec_cmd: nio create_udp udp-98b16e02-f7ee-4ded-94a5-b78bb6314ced 15009 127.0.0.1 15008 
Nov 26 22:10:06.457 HYPERVISOR: exec_cmd: vm slot_add_nio_binding ESW2 1 2 udp-98b16e02-f7ee-4ded-94a5-b78bb6314ced 
Nov 26 22:10:06.457 HYPERVISOR: exec_cmd: vm get_status ESW2 
Nov 26 22:11:28.072 HYPERVISOR: exec_cmd: vm get_status ESW2 
Nov 26 22:11:28.072 HYPERVISOR: exec_cmd: vm extract_config ESW2 
Nov 26 22:11:28.074 HYPERVISOR: exec_cmd: vm delete ESW2 
Nov 26 22:11:28.074 VM: VM ESW2 destroyed.
Nov 26 22:11:28.074 HYPERVISOR: exec_cmd: hypervisor stop 
Nov 26 22:11:28.346 HYPERVISOR: Stopped.
Nov 26 22:11:28.346 GENERAL: reset done.
