Nov 26 20:12:28.569 HYPERVISOR: Release 0.2.17-amd64/Linux (tag 2017072410)
Nov 26 20:12:28.570 HYPERVISOR: Started on IP = 127.0.0.1, TCP port = 54237.
Nov 26 20:12:28.607 HYPERVISOR: exec_cmd: hypervisor version 
Nov 26 20:12:28.620 HYPERVISOR: exec_cmd: hypervisor working_dir /media/actionmystique/SAMSUNG5-VMs/Labs/GNS3/OSPF-EIGRP/project-files/dynamips 
Nov 26 20:12:28.620 GENERAL: working_dir=/media/actionmystique/SAMSUNG5-VMs/Labs/GNS3/OSPF-EIGRP/project-files/dynamips
Nov 26 20:12:28.621 HYPERVISOR: exec_cmd: vm create R11 9 c7200 
Nov 26 20:12:28.621 VM: VM R11 created.
Nov 26 20:12:28.623 HYPERVISOR: exec_cmd: vm set_con_tcp_port R11 2051 
Nov 26 20:12:28.624 HYPERVISOR: exec_cmd: vm set_aux_tcp_port R11 2151 
Nov 26 20:12:28.626 HYPERVISOR: exec_cmd: c7200 get_mac_addr R11 
Nov 26 20:12:28.627 HYPERVISOR: exec_cmd: vm get_status R11 
Nov 26 20:12:28.634 HYPERVISOR: exec_cmd: vm slot_add_binding R11 0 0 C7200-IO-FE 
Nov 26 20:12:28.646 HYPERVISOR: exec_cmd: vm set_ios R11 /media/actionmystique/SAMSUNG5-VMs/Images/GNS3/IOS/c7200-adventerprisek9-mz.152-4.M2.image 
Nov 26 20:12:28.648 HYPERVISOR: exec_cmd: vm get_status R11 
Nov 26 20:12:28.649 HYPERVISOR: exec_cmd: vm slot_add_binding R11 1 0 PA-2FE-TX 
Nov 26 20:12:28.651 HYPERVISOR: exec_cmd: vm get_status R11 
Nov 26 20:12:28.652 HYPERVISOR: exec_cmd: vm set_idle_pc R11 0x60188e14 
Nov 26 20:12:28.653 HYPERVISOR: exec_cmd: vm get_status R11 
Nov 26 20:12:28.655 HYPERVISOR: exec_cmd: vm slot_remove_binding R11 0 0 
Nov 26 20:12:28.657 HYPERVISOR: exec_cmd: vm get_status R11 
Nov 26 20:12:28.663 HYPERVISOR: exec_cmd: vm slot_add_binding R11 0 0 C7200-IO-GE-E 
Nov 26 20:12:28.676 HYPERVISOR: exec_cmd: vm get_status R11 
Nov 26 20:12:28.679 HYPERVISOR: exec_cmd: vm slot_add_binding R11 2 0 PA-8T 
Nov 26 20:12:28.680 HYPERVISOR: exec_cmd: vm set_ram R11 512 
Nov 26 20:12:28.683 HYPERVISOR: exec_cmd: vm set_config R11 configs/i9_startup-config.cfg 
Nov 26 20:12:29.933 HYPERVISOR: exec_cmd: vm extract_config R11 
Nov 26 20:12:30.112 HYPERVISOR: exec_cmd: nio create_udp udp-f6c2b019-3141-479a-b239-ea2b7793ad8e 15019 127.0.0.1 15018 
Nov 26 20:12:30.116 HYPERVISOR: exec_cmd: vm slot_add_nio_binding R11 0 0 udp-f6c2b019-3141-479a-b239-ea2b7793ad8e 
Nov 26 20:12:30.116 HYPERVISOR: exec_cmd: vm get_status R11 
Nov 26 20:12:30.164 HYPERVISOR: exec_cmd: nio create_udp udp-d3975ed5-71f4-4678-ba21-8d897d86c67d 15022 127.0.0.1 15021 
Nov 26 20:12:30.165 HYPERVISOR: exec_cmd: vm slot_add_nio_binding R11 1 0 udp-d3975ed5-71f4-4678-ba21-8d897d86c67d 
Nov 26 20:12:30.166 HYPERVISOR: exec_cmd: vm get_status R11 
Nov 26 20:12:30.785 HYPERVISOR: exec_cmd: nio create_udp udp-4343ebda-b415-4e02-9ae2-12ff30ee150f 15078 127.0.0.1 15079 
Nov 26 20:12:30.786 HYPERVISOR: exec_cmd: vm slot_add_nio_binding R11 2 1 udp-4343ebda-b415-4e02-9ae2-12ff30ee150f 
Nov 26 20:12:30.786 HYPERVISOR: exec_cmd: vm get_status R11 
Nov 26 20:14:16.137 HYPERVISOR: exec_cmd: vm get_status R11 
Nov 26 20:14:16.151 HYPERVISOR: exec_cmd: vm extract_config R11 
Nov 26 20:14:16.165 HYPERVISOR: exec_cmd: vm delete R11 
Nov 26 20:14:16.166 VM: VM R11 destroyed.
Nov 26 20:14:16.178 HYPERVISOR: exec_cmd: hypervisor stop 
Nov 26 20:14:16.197 HYPERVISOR: Stopped.
Nov 26 20:14:16.198 GENERAL: reset done.
