Nov 26 20:12:28.517 HYPERVISOR: Release 0.2.17-amd64/Linux (tag 2017072410)
Nov 26 20:12:28.517 HYPERVISOR: Started on IP = 127.0.0.1, TCP port = 42401.
Nov 26 20:12:28.537 HYPERVISOR: exec_cmd: hypervisor version 
Nov 26 20:12:28.539 HYPERVISOR: exec_cmd: hypervisor working_dir /media/actionmystique/SAMSUNG5-VMs/Labs/GNS3/OSPF-EIGRP/project-files/dynamips 
Nov 26 20:12:28.539 GENERAL: working_dir=/media/actionmystique/SAMSUNG5-VMs/Labs/GNS3/OSPF-EIGRP/project-files/dynamips
Nov 26 20:12:28.540 HYPERVISOR: exec_cmd: vm create WAN2 7 c7200 
Nov 26 20:12:28.540 VM: VM WAN2 created.
Nov 26 20:12:28.549 HYPERVISOR: exec_cmd: vm set_con_tcp_port WAN2 2005 
Nov 26 20:12:28.560 HYPERVISOR: exec_cmd: vm set_aux_tcp_port WAN2 2105 
Nov 26 20:12:28.569 HYPERVISOR: exec_cmd: c7200 get_mac_addr WAN2 
Nov 26 20:12:28.571 HYPERVISOR: exec_cmd: vm get_status WAN2 
Nov 26 20:12:28.573 HYPERVISOR: exec_cmd: vm slot_add_binding WAN2 0 0 C7200-IO-FE 
Nov 26 20:12:28.575 HYPERVISOR: exec_cmd: vm set_ios WAN2 /media/actionmystique/SAMSUNG5-VMs/Images/GNS3/IOS/c7200-adventerprisek9-mz.152-4.M2.image 
Nov 26 20:12:28.578 HYPERVISOR: exec_cmd: vm get_status WAN2 
Nov 26 20:12:28.583 HYPERVISOR: exec_cmd: vm slot_add_binding WAN2 1 0 PA-8T 
Nov 26 20:12:28.596 HYPERVISOR: exec_cmd: vm get_status WAN2 
Nov 26 20:12:28.597 HYPERVISOR: exec_cmd: vm set_idle_pc WAN2 0x60188e14 
Nov 26 20:12:28.600 HYPERVISOR: exec_cmd: vm get_status WAN2 
Nov 26 20:12:28.607 HYPERVISOR: exec_cmd: vm slot_remove_binding WAN2 0 0 
Nov 26 20:12:28.619 HYPERVISOR: exec_cmd: vm get_status WAN2 
Nov 26 20:12:28.621 HYPERVISOR: exec_cmd: vm slot_add_binding WAN2 0 0 C7200-IO-GE-E 
Nov 26 20:12:28.622 HYPERVISOR: exec_cmd: vm get_status WAN2 
Nov 26 20:12:28.623 HYPERVISOR: exec_cmd: vm slot_add_binding WAN2 2 0 PA-2FE-TX 
Nov 26 20:12:28.625 HYPERVISOR: exec_cmd: vm set_ram WAN2 512 
Nov 26 20:12:28.627 HYPERVISOR: exec_cmd: vm set_config WAN2 configs/i7_startup-config.cfg 
Nov 26 20:12:29.946 HYPERVISOR: exec_cmd: vm extract_config WAN2 
Nov 26 20:12:30.061 HYPERVISOR: exec_cmd: nio create_udp udp-92a8c5a2-75ad-4d1b-b09b-6377f5cb5023 15013 127.0.0.1 15012 
Nov 26 20:12:30.061 HYPERVISOR: exec_cmd: vm slot_add_nio_binding WAN2 1 0 udp-92a8c5a2-75ad-4d1b-b09b-6377f5cb5023 
Nov 26 20:12:30.062 HYPERVISOR: exec_cmd: vm get_status WAN2 
Nov 26 20:12:30.115 HYPERVISOR: exec_cmd: nio create_udp udp-e5056a2d-2abf-4ac5-8784-ca34a1a657a6 15014 127.0.0.1 15016 
Nov 26 20:12:30.116 HYPERVISOR: exec_cmd: vm slot_add_nio_binding WAN2 0 0 udp-e5056a2d-2abf-4ac5-8784-ca34a1a657a6 
Nov 26 20:12:30.117 HYPERVISOR: exec_cmd: vm get_status WAN2 
Nov 26 20:12:30.127 HYPERVISOR: exec_cmd: nio create_udp udp-636be150-3368-468f-9a97-f23cd2d4e758 15017 127.0.0.1 15015 
Nov 26 20:12:30.128 HYPERVISOR: exec_cmd: vm slot_add_nio_binding WAN2 2 1 udp-636be150-3368-468f-9a97-f23cd2d4e758 
Nov 26 20:12:30.128 HYPERVISOR: exec_cmd: vm get_status WAN2 
Nov 26 20:12:30.499 HYPERVISOR: exec_cmd: nio create_udp udp-dddd2117-03ac-4585-aa6b-71c1860756aa 15052 127.0.0.1 15049 
Nov 26 20:12:30.500 HYPERVISOR: exec_cmd: vm slot_add_nio_binding WAN2 2 0 udp-dddd2117-03ac-4585-aa6b-71c1860756aa 
Nov 26 20:12:30.501 HYPERVISOR: exec_cmd: vm get_status WAN2 
Nov 26 20:14:16.138 HYPERVISOR: exec_cmd: vm get_status WAN2 
Nov 26 20:14:16.152 HYPERVISOR: exec_cmd: vm extract_config WAN2 
Nov 26 20:14:16.166 HYPERVISOR: exec_cmd: vm delete WAN2 
Nov 26 20:14:16.166 VM: VM WAN2 destroyed.
Nov 26 20:14:16.179 HYPERVISOR: exec_cmd: hypervisor stop 
Nov 26 20:14:16.637 HYPERVISOR: Stopped.
Nov 26 20:14:16.637 GENERAL: reset done.
