Nov 26 20:12:28.558 HYPERVISOR: Release 0.2.17-amd64/Linux (tag 2017072410)
Nov 26 20:12:28.559 HYPERVISOR: Started on IP = 127.0.0.1, TCP port = 56613.
Nov 26 20:12:28.594 HYPERVISOR: exec_cmd: hypervisor version 
Nov 26 20:12:28.596 HYPERVISOR: exec_cmd: hypervisor working_dir /media/actionmystique/SAMSUNG5-VMs/Labs/GNS3/OSPF-EIGRP/project-files/dynamips 
Nov 26 20:12:28.596 GENERAL: working_dir=/media/actionmystique/SAMSUNG5-VMs/Labs/GNS3/OSPF-EIGRP/project-files/dynamips
Nov 26 20:12:28.598 HYPERVISOR: exec_cmd: vm create I11 8 c7200 
Nov 26 20:12:28.598 VM: VM I11 created.
Nov 26 20:12:28.601 HYPERVISOR: exec_cmd: vm set_con_tcp_port I11 2012 
Nov 26 20:12:28.608 HYPERVISOR: exec_cmd: vm set_aux_tcp_port I11 2112 
Nov 26 20:12:28.620 HYPERVISOR: exec_cmd: c7200 get_mac_addr I11 
Nov 26 20:12:28.621 HYPERVISOR: exec_cmd: vm get_status I11 
Nov 26 20:12:28.623 HYPERVISOR: exec_cmd: vm slot_add_binding I11 0 0 C7200-IO-FE 
Nov 26 20:12:28.624 HYPERVISOR: exec_cmd: vm set_ios I11 /media/actionmystique/SAMSUNG5-VMs/Images/GNS3/IOS/c7200-adventerprisek9-mz.152-4.M2.image 
Nov 26 20:12:28.626 HYPERVISOR: exec_cmd: vm get_status I11 
Nov 26 20:12:28.627 HYPERVISOR: exec_cmd: vm slot_add_binding I11 1 0 PA-8T 
Nov 26 20:12:28.634 HYPERVISOR: exec_cmd: vm get_status I11 
Nov 26 20:12:28.646 HYPERVISOR: exec_cmd: vm set_idle_pc I11 0x60188e14 
Nov 26 20:12:28.648 HYPERVISOR: exec_cmd: vm get_status I11 
Nov 26 20:12:28.650 HYPERVISOR: exec_cmd: vm slot_remove_binding I11 0 0 
Nov 26 20:12:28.651 HYPERVISOR: exec_cmd: vm get_status I11 
Nov 26 20:12:28.652 HYPERVISOR: exec_cmd: vm slot_add_binding I11 0 0 C7200-IO-GE-E 
Nov 26 20:12:28.654 HYPERVISOR: exec_cmd: vm set_ram I11 512 
Nov 26 20:12:28.656 HYPERVISOR: exec_cmd: vm set_config I11 configs/i8_startup-config.cfg 
Nov 26 20:12:29.952 HYPERVISOR: exec_cmd: vm extract_config I11 
Nov 26 20:12:30.135 HYPERVISOR: exec_cmd: nio create_udp udp-28d2dc61-dfbc-421d-ad16-dd469ebc7596 15018 127.0.0.1 15019 
Nov 26 20:12:30.136 HYPERVISOR: exec_cmd: vm slot_add_nio_binding I11 0 0 udp-28d2dc61-dfbc-421d-ad16-dd469ebc7596 
Nov 26 20:12:30.136 HYPERVISOR: exec_cmd: vm get_status I11 
Nov 26 20:12:30.179 HYPERVISOR: exec_cmd: nio create_udp udp-6d115150-b674-4530-a5f9-dc25c91ec49d 15020 127.0.0.1 15023 
Nov 26 20:12:30.181 HYPERVISOR: exec_cmd: vm slot_add_nio_binding I11 1 1 udp-6d115150-b674-4530-a5f9-dc25c91ec49d 
Nov 26 20:12:30.181 HYPERVISOR: exec_cmd: vm get_status I11 
Nov 26 20:12:30.276 HYPERVISOR: exec_cmd: nio create_udp udp-794e71d0-4153-49dc-af67-830085f3770a 15028 127.0.0.1 15030 
Nov 26 20:12:30.277 HYPERVISOR: exec_cmd: vm slot_add_nio_binding I11 1 2 udp-794e71d0-4153-49dc-af67-830085f3770a 
Nov 26 20:12:30.277 HYPERVISOR: exec_cmd: vm get_status I11 
Nov 26 20:12:30.696 HYPERVISOR: exec_cmd: nio create_udp udp-c7df58ae-095f-46c9-b89d-0f9eeb01a238 15069 127.0.0.1 15072 
Nov 26 20:12:30.697 HYPERVISOR: exec_cmd: vm slot_add_nio_binding I11 1 4 udp-c7df58ae-095f-46c9-b89d-0f9eeb01a238 
Nov 26 20:12:30.697 HYPERVISOR: exec_cmd: vm get_status I11 
Nov 26 20:12:30.734 HYPERVISOR: exec_cmd: nio create_udp udp-935c192e-9418-4221-bfb6-88df4f89e55a 15075 127.0.0.1 15074 
Nov 26 20:12:30.734 HYPERVISOR: exec_cmd: vm slot_add_nio_binding I11 1 3 udp-935c192e-9418-4221-bfb6-88df4f89e55a 
Nov 26 20:12:30.735 HYPERVISOR: exec_cmd: vm get_status I11 
Nov 26 20:14:16.140 HYPERVISOR: exec_cmd: vm get_status I11 
Nov 26 20:14:16.154 HYPERVISOR: exec_cmd: vm extract_config I11 
Nov 26 20:14:16.168 HYPERVISOR: exec_cmd: vm delete I11 
Nov 26 20:14:16.168 VM: VM I11 destroyed.
Nov 26 20:14:16.181 HYPERVISOR: exec_cmd: hypervisor stop 
Nov 26 20:14:16.677 HYPERVISOR: Stopped.
Nov 26 20:14:16.677 GENERAL: reset done.
