Nov 29 15:24:55.768 HYPERVISOR: Release 0.2.17-amd64/Linux (tag 2017072410)
Nov 29 15:24:55.768 HYPERVISOR: Started on IP = 127.0.0.1, TCP port = 56735.
Nov 29 15:24:55.797 HYPERVISOR: exec_cmd: hypervisor version 
Nov 29 15:24:55.802 HYPERVISOR: exec_cmd: hypervisor working_dir /media/actionmystique/SAMSUNG5-VMs/Labs/GNS3/git-Public-Labs-Collection/CCNP/TBSHOOT/L3-Technologies/IPv4/Routing-Protocols/Redistribution/Jean-Christophe_Manciot/1+/TT 2-linux/project-files/dynamips 
Nov 29 15:24:55.802 GENERAL: working_dir=/media/actionmystique/SAMSUNG5-VMs/Labs/GNS3/git-Public-Labs-Collection/CCNP/TBSHOOT/L3-Technologies/IPv4/Routing-Protocols/Redistribution/Jean-Christophe_Manciot/1+/TT 2-linux/project-files/dynamips
Nov 29 15:24:55.804 HYPERVISOR: exec_cmd: vm create ESW2 2 c3725 
Nov 29 15:24:55.804 VM: VM ESW2 created.
Nov 29 15:24:55.805 HYPERVISOR: exec_cmd: vm set_con_tcp_port ESW2 2005 
Nov 29 15:24:55.806 HYPERVISOR: exec_cmd: c3725 get_mac_addr ESW2 
Nov 29 15:24:55.806 HYPERVISOR: exec_cmd: vm get_status ESW2 
Nov 29 15:24:55.807 HYPERVISOR: exec_cmd: vm set_idle_pc ESW2 0x614ac27c 
Nov 29 15:24:55.812 HYPERVISOR: exec_cmd: vm set_disk0 ESW2 1 
Nov 29 15:24:55.814 HYPERVISOR: exec_cmd: vm slot_add_binding ESW2 0 16 WIC-2T 
Nov 29 15:24:55.816 HYPERVISOR: exec_cmd: vm get_status ESW2 
Nov 29 15:24:55.816 HYPERVISOR: exec_cmd: vm slot_add_binding ESW2 1 0 NM-16ESW 
Nov 29 15:24:55.817 HYPERVISOR: exec_cmd: vm set_nvram ESW2 256 
Nov 29 15:24:55.817 HYPERVISOR: exec_cmd: vm set_ios ESW2 /media/actionmystique/SAMSUNG5-VMs/Images/GNS3/IOS/c3725-adventerprisek9-mz.124-15.T10.image 
Nov 29 15:24:55.818 HYPERVISOR: exec_cmd: c3725 set_mac_addr ESW2 c202.1bd4.0000 
Nov 29 15:24:55.818 HYPERVISOR: exec_cmd: vm set_config ESW2 configs/ios_base_startup-config.txt 
Nov 29 15:24:55.819 HYPERVISOR: exec_cmd: vm set_config ESW2 configs/ios_base_startup-config.txt configs/ios_base_private-config.txt 
Nov 29 15:24:56.184 HYPERVISOR: exec_cmd: nio create_udp udp-12c07139-6684-454b-943d-8a4696f41edf 15019 127.0.0.1 15018 
Nov 29 15:24:56.185 HYPERVISOR: exec_cmd: vm slot_add_nio_binding ESW2 1 0 udp-12c07139-6684-454b-943d-8a4696f41edf 
Nov 29 15:24:56.185 HYPERVISOR: exec_cmd: vm get_status ESW2 
