Nov 27 16:18:37.162 HYPERVISOR: Release 0.2.17-amd64/Linux (tag 2017072410)
Nov 27 16:18:37.162 HYPERVISOR: Started on IP = 127.0.0.1, TCP port = 60383.
Nov 27 16:18:37.195 HYPERVISOR: exec_cmd: hypervisor version 
Nov 27 16:18:37.197 HYPERVISOR: exec_cmd: hypervisor working_dir /media/actionmystique/SAMSUNG5-VMs/Labs/GNS3/TT 1-linux-/project-files/dynamips 
Nov 27 16:18:37.197 GENERAL: working_dir=/media/actionmystique/SAMSUNG5-VMs/Labs/GNS3/TT 1-linux-/project-files/dynamips
Nov 27 16:18:37.198 HYPERVISOR: exec_cmd: vm create SW3 3 c3725 
Nov 27 16:18:37.198 VM: VM SW3 created.
Nov 27 16:18:37.199 HYPERVISOR: exec_cmd: vm set_con_tcp_port SW3 2003 
Nov 27 16:18:37.199 HYPERVISOR: exec_cmd: c3725 get_mac_addr SW3 
Nov 27 16:18:37.200 HYPERVISOR: exec_cmd: vm set_nvram SW3 256 
Nov 27 16:18:37.201 HYPERVISOR: exec_cmd: vm get_status SW3 
Nov 27 16:18:37.202 HYPERVISOR: exec_cmd: vm set_idle_pc SW3 0x60c056e4 
Nov 27 16:18:37.203 HYPERVISOR: exec_cmd: c3725 set_mac_addr SW3 cccc.cccc.cccc 
Nov 27 16:18:37.205 HYPERVISOR: exec_cmd: vm set_exec_area SW3 16 
Nov 27 16:18:37.206 HYPERVISOR: exec_cmd: vm get_status SW3 
Nov 27 16:18:37.207 HYPERVISOR: exec_cmd: vm slot_add_binding SW3 1 0 NM-16ESW 
Nov 27 16:18:37.208 HYPERVISOR: exec_cmd: vm set_disk0 SW3 1 
Nov 27 16:18:37.209 HYPERVISOR: exec_cmd: vm set_ios SW3 /media/actionmystique/SAMSUNG5-VMs/Images/GNS3/IOS/c3725-adventerprisek9-mz.124-15.T10.image 
Nov 27 16:18:37.210 HYPERVISOR: exec_cmd: vm slot_add_binding SW3 0 16 WIC-2T 
Nov 27 16:18:37.211 HYPERVISOR: exec_cmd: vm set_config SW3 configs/i3_startup-config.cfg 
Nov 27 16:18:37.212 HYPERVISOR: exec_cmd: vm set_config SW3 configs/i3_startup-config.cfg configs/i3_private-config.cfg 
Nov 27 16:18:37.457 HYPERVISOR: exec_cmd: nio create_udp udp-b06588a8-42ec-4baa-b772-7ab132856677 15004 127.0.0.1 15003 
Nov 27 16:18:37.460 HYPERVISOR: exec_cmd: vm slot_add_nio_binding SW3 1 1 udp-b06588a8-42ec-4baa-b772-7ab132856677 
Nov 27 16:18:37.461 HYPERVISOR: exec_cmd: vm get_status SW3 
Nov 27 16:18:37.466 HYPERVISOR: exec_cmd: nio create_udp udp-df909eeb-4e5a-4cf7-b3f5-cfd72b6bfa17 15006 127.0.0.1 15005 
Nov 27 16:18:37.471 HYPERVISOR: exec_cmd: vm slot_add_nio_binding SW3 1 2 udp-df909eeb-4e5a-4cf7-b3f5-cfd72b6bfa17 
Nov 27 16:18:37.471 HYPERVISOR: exec_cmd: vm get_status SW3 
Nov 27 16:18:37.538 HYPERVISOR: exec_cmd: nio create_udp udp-260b669c-2543-43db-a587-d511baadf16d 15012 127.0.0.1 15008 
Nov 27 16:18:37.539 HYPERVISOR: exec_cmd: vm slot_add_nio_binding SW3 1 5 udp-260b669c-2543-43db-a587-d511baadf16d 
Nov 27 16:18:37.540 HYPERVISOR: exec_cmd: vm get_status SW3 
Nov 27 16:18:37.580 HYPERVISOR: exec_cmd: nio create_udp udp-8f1e124d-059f-45cf-a3b7-298ab95adc18 15015 127.0.0.1 15011 
Nov 27 16:18:37.584 HYPERVISOR: exec_cmd: vm slot_add_nio_binding SW3 1 6 udp-8f1e124d-059f-45cf-a3b7-298ab95adc18 
Nov 27 16:18:37.584 HYPERVISOR: exec_cmd: vm get_status SW3 
Nov 27 16:18:51.101 HYPERVISOR: exec_cmd: vm get_status SW3 
Nov 27 16:18:51.103 HYPERVISOR: exec_cmd: vm extract_config SW3 
Nov 27 16:18:51.106 HYPERVISOR: exec_cmd: vm delete SW3 
Nov 27 16:18:51.106 VM: VM SW3 destroyed.
Nov 27 16:18:51.108 HYPERVISOR: exec_cmd: hypervisor stop 
Nov 27 16:18:51.207 HYPERVISOR: Stopped.
Nov 27 16:18:51.207 GENERAL: reset done.
