Nov 29 15:34:52.695 HYPERVISOR: Release 0.2.17-amd64/Linux (tag 2017072410)
Nov 29 15:34:52.695 HYPERVISOR: Started on IP = 127.0.0.1, TCP port = 38881.
Nov 29 15:34:52.708 HYPERVISOR: exec_cmd: hypervisor version 
Nov 29 15:34:52.708 HYPERVISOR: exec_cmd: hypervisor working_dir /media/actionmystique/SAMSUNG5-VMs/Labs/GNS3/git-Public-Labs-Collection/CCNP/TBSHOOT/L3-Technologies/IPv4/VRF/Jean-Christophe_Manciot/1+/Leaf & Spine DC-2-linux/project-files/dynamips 
Nov 29 15:34:52.708 GENERAL: working_dir=/media/actionmystique/SAMSUNG5-VMs/Labs/GNS3/git-Public-Labs-Collection/CCNP/TBSHOOT/L3-Technologies/IPv4/VRF/Jean-Christophe_Manciot/1+/Leaf & Spine DC-2-linux/project-files/dynamips
Nov 29 15:34:52.708 HYPERVISOR: exec_cmd: vm create Mgt 1 c3725 
Nov 29 15:34:52.709 VM: VM Mgt created.
Nov 29 15:34:52.709 HYPERVISOR: exec_cmd: vm set_con_tcp_port Mgt 2011 
Nov 29 15:34:52.709 HYPERVISOR: exec_cmd: c3725 get_mac_addr Mgt 
Nov 29 15:34:52.709 HYPERVISOR: exec_cmd: vm set_nvram Mgt 256 
Nov 29 15:34:52.710 HYPERVISOR: exec_cmd: vm slot_add_binding Mgt 0 16 WIC-2T 
Nov 29 15:34:52.710 HYPERVISOR: exec_cmd: c3725 set_mac_addr Mgt c201.1066.0000 
Nov 29 15:34:52.711 HYPERVISOR: exec_cmd: vm set_disk0 Mgt 1 
Nov 29 15:34:52.711 HYPERVISOR: exec_cmd: vm set_ios Mgt /media/actionmystique/SAMSUNG5-VMs/Images/GNS3/IOS/c3725-adventerprisek9-mz.124-15.T10.image 
Nov 29 15:34:52.711 HYPERVISOR: exec_cmd: vm get_status Mgt 
Nov 29 15:34:52.712 HYPERVISOR: exec_cmd: vm set_idle_pc Mgt 0x6026b804 
Nov 29 15:34:52.712 HYPERVISOR: exec_cmd: vm get_status Mgt 
Nov 29 15:34:52.712 HYPERVISOR: exec_cmd: vm slot_add_binding Mgt 1 0 NM-16ESW 
Nov 29 15:34:52.713 HYPERVISOR: exec_cmd: vm set_config Mgt configs/i1_startup-config.cfg 
Nov 29 15:34:52.715 HYPERVISOR: exec_cmd: vm set_config Mgt configs/i1_startup-config.cfg configs/i1_private-config.cfg 
Nov 29 15:34:53.758 HYPERVISOR: exec_cmd: nio create_udp udp-bcc6392c-9044-4b4e-aad7-92cce389badb 15058 127.0.0.1 15059 
Nov 29 15:34:53.759 HYPERVISOR: exec_cmd: vm slot_add_nio_binding Mgt 1 5 udp-bcc6392c-9044-4b4e-aad7-92cce389badb 
Nov 29 15:34:53.759 HYPERVISOR: exec_cmd: vm get_status Mgt 
Nov 29 15:34:53.784 HYPERVISOR: exec_cmd: nio create_udp udp-d96101fc-e6ca-4562-9698-bf0dff18607d 15060 127.0.0.1 15061 
Nov 29 15:34:53.785 HYPERVISOR: exec_cmd: vm slot_add_nio_binding Mgt 1 6 udp-d96101fc-e6ca-4562-9698-bf0dff18607d 
Nov 29 15:34:53.785 HYPERVISOR: exec_cmd: vm get_status Mgt 
Nov 29 15:34:53.800 HYPERVISOR: exec_cmd: nio create_udp udp-d7b8fc02-aa05-4234-8846-b27c99f7a77e 15062 127.0.0.1 15063 
Nov 29 15:34:53.800 HYPERVISOR: exec_cmd: vm slot_add_nio_binding Mgt 1 1 udp-d7b8fc02-aa05-4234-8846-b27c99f7a77e 
Nov 29 15:34:53.801 HYPERVISOR: exec_cmd: vm get_status Mgt 
Nov 29 15:34:53.816 HYPERVISOR: exec_cmd: nio create_udp udp-69930598-d469-4f4d-a72a-adedee9c5255 15064 127.0.0.1 15065 
Nov 29 15:34:53.816 HYPERVISOR: exec_cmd: vm slot_add_nio_binding Mgt 1 2 udp-69930598-d469-4f4d-a72a-adedee9c5255 
Nov 29 15:34:53.817 HYPERVISOR: exec_cmd: vm get_status Mgt 
Nov 29 15:34:53.840 HYPERVISOR: exec_cmd: nio create_udp udp-a6915a72-3244-4c22-a081-c8349f4dadea 15066 127.0.0.1 15068 
Nov 29 15:34:53.840 HYPERVISOR: exec_cmd: vm slot_add_nio_binding Mgt 1 3 udp-a6915a72-3244-4c22-a081-c8349f4dadea 
Nov 29 15:34:53.840 HYPERVISOR: exec_cmd: vm get_status Mgt 
Nov 29 15:34:53.856 HYPERVISOR: exec_cmd: nio create_udp udp-9ea05559-0ef0-4616-851c-cf92e1735cfb 15067 127.0.0.1 15069 
Nov 29 15:34:53.857 HYPERVISOR: exec_cmd: vm slot_add_nio_binding Mgt 1 4 udp-9ea05559-0ef0-4616-851c-cf92e1735cfb 
Nov 29 15:34:53.857 HYPERVISOR: exec_cmd: vm get_status Mgt 
Nov 29 15:34:53.880 HYPERVISOR: exec_cmd: nio create_udp udp-3eff4ef3-6e87-4ea3-8a01-5b3c150f24d7 15070 127.0.0.1 15071 
Nov 29 15:34:53.881 HYPERVISOR: exec_cmd: vm slot_add_nio_binding Mgt 1 11 udp-3eff4ef3-6e87-4ea3-8a01-5b3c150f24d7 
Nov 29 15:34:53.881 HYPERVISOR: exec_cmd: vm get_status Mgt 
Nov 29 15:34:53.901 HYPERVISOR: exec_cmd: nio create_udp udp-bab1a473-e1eb-405a-877f-55d133c74989 15073 127.0.0.1 15072 
Nov 29 15:34:53.901 HYPERVISOR: exec_cmd: vm slot_add_nio_binding Mgt 1 12 udp-bab1a473-e1eb-405a-877f-55d133c74989 
Nov 29 15:34:53.902 HYPERVISOR: exec_cmd: vm get_status Mgt 
Nov 29 15:34:57.101 HYPERVISOR: exec_cmd: nio create_tap tap-7292d5b4-849d-4d10-93a3-cb34eb1cdded tap1 
Nov 29 15:34:57.102 HYPERVISOR: exec_cmd: vm slot_add_nio_binding Mgt 1 0 tap-7292d5b4-849d-4d10-93a3-cb34eb1cdded 
Nov 29 15:34:57.102 HYPERVISOR: exec_cmd: vm get_status Mgt 
