autostart = False
version = 0.8.6
[127.0.0.1:7202]
    workingdir = C:\Users\ActionMystique\AppData\Local\GNS3
    udp = 10201
    [[7200]]
        image = C:\Users\ActionMystique\Google Drive\Missions\Certifications\Cisco\IOS\Binaries\c7200-adventerprisek9-mz.152-4.M2.image
        ram = 512
        idlepc = 0x6062d534
        sparsemem = True
        ghostios = True
    [[ROUTER Berlin]]
        console = 2103
        aux = 2503
        cnfg = configs\Berlin.cfg
        slot0 = C7200-IO-GE-E
        g0/0 = Amsterdam g1/0
        slot1 = PA-GE
        g1/0 = London g1/0
        slot2 = PA-GE
        g2/0 = Munich g0/0
        slot3 = PA-GE
        g3/0 = Prague g0/0
        symbol = gateway
        x = 37.0
        y = -227.0
        z = 1.0
[127.0.0.1:7200]
    workingdir = C:\Users\ActionMystique\AppData\Local\GNS3
    udp = 10001
    [[7200]]
        image = C:\Users\ActionMystique\Google Drive\Missions\Certifications\Cisco\IOS\Binaries\c7200-adventerprisek9-mz.152-4.M2.image
        ram = 512
        idlepc = 0x6062d534
        sparsemem = True
        ghostios = True
    [[ROUTER Paris]]
        console = 2101
        aux = 2501
        cnfg = configs\Paris.cfg
        slot0 = C7200-IO-GE-E
        g0/0 = London g2/0
        slot1 = PA-GE
        g1/0 = Amsterdam g2/0
        slot2 = PA-GE
        g2/0 = Geneva g2/0
        symbol = router
        x = -279.0
        y = -65.0
        z = 1.0
        hx = 8.0
        hy = 39.0
[127.0.0.1:7201]
    workingdir = C:\Users\ActionMystique\AppData\Local\GNS3
    udp = 10101
    [[7200]]
        image = C:\Users\ActionMystique\Google Drive\Missions\Certifications\Cisco\IOS\Binaries\c7200-adventerprisek9-mz.152-4.M2.image
        ram = 512
        idlepc = 0x6062d534
        sparsemem = True
        ghostios = True
    [[ROUTER Amsterdam]]
        console = 2102
        aux = 2502
        cnfg = configs\Amsterdam.cfg
        slot0 = C7200-IO-GE-E
        g0/0 = London g0/0
        slot1 = PA-GE
        g1/0 = Berlin g0/0
        slot2 = PA-GE
        g2/0 = Paris g1/0
        slot3 = PA-GE
        g3/0 = Geneva g1/0
        symbol = gateway
        x = -207.0
        y = -227.0
        z = 1.0
[127.0.0.1:7206]
    workingdir = C:\Users\ActionMystique\AppData\Local\GNS3
    udp = 10601
    [[7200]]
        image = C:\Users\ActionMystique\Google Drive\Missions\Certifications\Cisco\IOS\Binaries\c7200-adventerprisek9-mz.152-4.M2.image
        ram = 512
        idlepc = 0x6062d534
        sparsemem = True
        ghostios = True
    [[ROUTER Prague]]
        console = 2107
        aux = 2507
        cnfg = configs\Prague.cfg
        slot0 = C7200-IO-GE-E
        g0/0 = Berlin g3/0
        slot1 = PA-GE
        g1/0 = Munich g1/0
        x = 65.0
        y = -117.0
        z = 1.0
        hx = 66.0
        hy = 7.0
[127.0.0.1:7207]
    workingdir = C:\Users\ActionMystique\AppData\Local\GNS3
    udp = 10701
    [[7200]]
        image = C:\Users\ActionMystique\Google Drive\Missions\Certifications\Cisco\IOS\Binaries\c7200-adventerprisek9-mz.152-4.M2.image
        ram = 512
        idlepc = 0x6062d534
        sparsemem = True
        ghostios = True
    [[ROUTER Munich]]
        console = 2108
        aux = 2508
        cnfg = configs\Munich.cfg
        slot0 = C7200-IO-GE-E
        g0/0 = Berlin g2/0
        slot1 = PA-GE
        g1/0 = Prague g1/0
        x = -26.0
        y = -32.0
        z = 1.0
        hx = 66.0
        hy = 8.0
[127.0.0.1:7204]
    workingdir = C:\Users\ActionMystique\AppData\Local\GNS3
    udp = 10401
    [[7200]]
        image = C:\Users\ActionMystique\Google Drive\Missions\Certifications\Cisco\IOS\Binaries\c7200-adventerprisek9-mz.152-4.M2.image
        ram = 512
        idlepc = 0x6062d534
        sparsemem = True
        ghostios = True
    [[ROUTER London]]
        console = 2105
        aux = 2505
        cnfg = configs\London.cfg
        slot0 = C7200-IO-GE-E
        g0/0 = Amsterdam g0/0
        slot1 = PA-GE
        g1/0 = Berlin g1/0
        slot2 = PA-GE
        g2/0 = Paris g0/0
        slot3 = PA-GE
        g3/0 = Geneva g0/0
        slot4 = PA-GE
        g4/0 = Madrid g0/0
        symbol = gateway
        x = -353.0
        y = -177.0
        z = 1.0
        hx = -7.5
        hy = -25.0
[127.0.0.1:7205]
    workingdir = C:\Users\ActionMystique\AppData\Local\GNS3
    udp = 10501
    [[7200]]
        image = C:\Users\ActionMystique\Google Drive\Missions\Certifications\Cisco\IOS\Binaries\c7200-adventerprisek9-mz.152-4.M2.image
        ram = 512
        idlepc = 0x6062d534
        sparsemem = True
        ghostios = True
    [[ROUTER Geneva]]
        console = 2106
        aux = 2506
        cnfg = configs\Geneva.cfg
        slot0 = C7200-IO-GE-E
        g0/0 = London g3/0
        slot1 = PA-GE
        g1/0 = Amsterdam g3/0
        slot2 = PA-GE
        g2/0 = Paris g2/0
        x = -112.0
        y = 15.0
        z = 1.0
        hx = -3.0
        hy = 38.0
[127.0.0.1:7208]
    workingdir = C:\Users\ActionMystique\AppData\Local\GNS3
    udp = 10801
    [[7200]]
        image = C:\Users\ActionMystique\Google Drive\Missions\Certifications\Cisco\IOS\Binaries\c7200-adventerprisek9-mz.152-4.M2.image
        ram = 512
        idlepc = 0x6062d534
        sparsemem = True
        ghostios = True
    [[ROUTER Madrid]]
        console = 2109
        aux = 2509
        cnfg = configs\Madrid.cfg
        slot0 = C7200-IO-GE-E
        g0/0 = London g4/0
        symbol = gateway
        x = -460.0
        y = 270.0
        z = 1.0
[GNS3-DATA]
    configs = configs
    [[NOTE 1]]
        text = "iBGP"
        x = 13.0
        y = -118.5
        font = "MS Shell Dlg 2,12,-1,5,75,0,0,0,0,0"
        color = "#ff0000"
    [[NOTE 2]]
        text = "iBGP"
        x = -238.0
        y = -121.5
        font = "MS Shell Dlg 2,12,-1,5,75,0,0,0,0,0"
        color = "#0055ff"
    [[NOTE 3]]
        text = "10.2.0.0/16"
        x = 16.0
        y = 22.5
        font = "MS Shell Dlg 2,10,-1,5,75,0,0,0,0,0"
        color = "#ff0000"
    [[NOTE 4]]
        text = "AS 65002"
        x = 15.0
        y = 38.5
        font = "MS Shell Dlg 2,12,-1,5,75,0,0,0,0,0"
        color = "#ff0000"
    [[NOTE 5]]
        text = "Confederation"
        x = -144.0
        y = 92.5
        font = "MS Shell Dlg 2,24,-1,5,75,0,0,0,0,0"
    [[NOTE 6]]
        text = "AS 65001"
        x = -261.0
        y = 97.5
        font = "MS Shell Dlg 2,12,-1,5,75,0,0,0,0,0"
        color = "#0055ff"
    [[NOTE 7]]
        text = "BGP Confederation"
        x = -220.0
        y = -360.5
        font = "MS Shell Dlg 2,24,-1,5,75,0,0,0,0,0"
    [[NOTE 8]]
        text = "eBGP"
        x = -96.0
        y = -232.5
        font = "MS Shell Dlg 2,14,-1,5,75,0,0,0,0,0"
    [[NOTE 9]]
        text = "AS 1"
        x = -88.0
        y = 125.5
        font = "MS Shell Dlg 2,24,-1,5,75,0,0,0,0,0"
    [[NOTE 10]]
        text = "10.1.0.0/16"
        x = -280.0
        y = 79.5
        font = "MS Shell Dlg 2,10,-1,5,75,0,0,0,0,0"
        color = "#0055ff"
    [[NOTE 11]]
        text = "10.3.0.0/16"
        x = -505.0
        y = 208.5
        font = "MS Shell Dlg 2,10,-1,5,75,0,0,0,0,0"
        color = "#005500"
    [[NOTE 12]]
        text = "AS 2"
        x = -500.0
        y = 170.5
        font = "MS Shell Dlg 2,24,-1,5,75,0,0,0,0,0"
    [[SHAPE 1]]
        type = ellipse
        x = -383.0
        y = -227.0
        width = 337.0
        height = 350.0
        border_style = 2
        z = -1.0
    [[SHAPE 2]]
        type = ellipse
        x = -44.0
        y = -228.0
        width = 209.0
        height = 294.0
        border_style = 2
        z = -1.0
    [[SHAPE 3]]
        type = ellipse
        x = -527.0
        y = 154.0
        width = 200.0
        height = 200.0
        border_style = 2
        z = -1.0
    [[SHAPE 4]]
        type = ellipse
        x = -408.0
        y = -278.0
        width = 664.0
        height = 446.0
        border_style = 2
        z = -2.0
    [[PIXMAP 1]]
        path = Europe.JPG
        x = -625.5
        y = -299.5
        z = -2.0
