Nov 26 22:11:28.885 HYPERVISOR: Release 0.2.17-amd64/Linux (tag 2017072410)
Nov 26 22:11:28.885 HYPERVISOR: Started on IP = 127.0.0.1, TCP port = 53171.
Nov 26 22:11:28.900 HYPERVISOR: exec_cmd: hypervisor version 
Nov 26 22:11:28.900 HYPERVISOR: exec_cmd: hypervisor working_dir /media/actionmystique/SAMSUNG5-VMs/Labs/GNS3/git-Public-Labs-Collection/CCNP/TBSHOOT/Infrastructure-Services/DHCP-NAT/Jean-Christophe_Manciot/1+/DHCPv4/TT 3-linux/project-files/dynamips 
Nov 26 22:11:28.900 GENERAL: working_dir=/media/actionmystique/SAMSUNG5-VMs/Labs/GNS3/git-Public-Labs-Collection/CCNP/TBSHOOT/Infrastructure-Services/DHCP-NAT/Jean-Christophe_Manciot/1+/DHCPv4/TT 3-linux/project-files/dynamips
Nov 26 22:11:28.900 HYPERVISOR: exec_cmd: vm create ESW1 1 c3725 
Nov 26 22:11:28.900 VM: VM ESW1 created.
Nov 26 22:11:28.901 HYPERVISOR: exec_cmd: vm set_con_tcp_port ESW1 2001 
Nov 26 22:11:28.901 HYPERVISOR: exec_cmd: vm set_aux_tcp_port ESW1 2501 
Nov 26 22:11:28.901 HYPERVISOR: exec_cmd: c3725 get_mac_addr ESW1 
Nov 26 22:11:28.902 HYPERVISOR: exec_cmd: vm slot_add_binding ESW1 0 16 WIC-2T 
Nov 26 22:11:28.902 HYPERVISOR: exec_cmd: vm get_status ESW1 
Nov 26 22:11:28.902 HYPERVISOR: exec_cmd: vm set_idle_pc ESW1 0x60c06d20 
Nov 26 22:11:28.903 HYPERVISOR: exec_cmd: vm set_nvram ESW1 256 
Nov 26 22:11:28.903 HYPERVISOR: exec_cmd: vm get_status ESW1 
Nov 26 22:11:28.903 HYPERVISOR: exec_cmd: vm slot_add_binding ESW1 1 0 NM-16ESW 
Nov 26 22:11:28.904 HYPERVISOR: exec_cmd: vm set_ios ESW1 /media/actionmystique/SAMSUNG5-VMs/Images/GNS3/IOS/c3725-adventerprisek9-mz.124-15.T10.image 
Nov 26 22:11:28.904 HYPERVISOR: exec_cmd: vm set_disk0 ESW1 1 
Nov 26 22:11:28.905 HYPERVISOR: exec_cmd: c3725 set_mac_addr ESW1 c201.281a.0000 
Nov 26 22:11:28.905 HYPERVISOR: exec_cmd: vm set_config ESW1 configs/i1_startup-config.cfg 
Nov 26 22:11:28.906 HYPERVISOR: exec_cmd: vm set_config ESW1 configs/i1_startup-config.cfg configs/i1_private-config.cfg 
Nov 26 22:11:29.038 HYPERVISOR: exec_cmd: nio create_udp udp-2390cef0-c99e-4ff3-b26c-3a5df748e979 15004 127.0.0.1 15003 
Nov 26 22:11:29.045 HYPERVISOR: exec_cmd: vm slot_add_nio_binding ESW1 1 2 udp-2390cef0-c99e-4ff3-b26c-3a5df748e979 
Nov 26 22:11:29.046 HYPERVISOR: exec_cmd: vm get_status ESW1 
Nov 26 22:11:29.052 HYPERVISOR: exec_cmd: nio create_udp udp-596201fd-72d1-4be3-bc74-61f30b59cbda 15002 127.0.0.1 15005 
Nov 26 22:11:29.053 HYPERVISOR: exec_cmd: vm slot_add_nio_binding ESW1 1 1 udp-596201fd-72d1-4be3-bc74-61f30b59cbda 
Nov 26 22:11:29.054 HYPERVISOR: exec_cmd: vm get_status ESW1 
Nov 26 22:11:29.068 HYPERVISOR: exec_cmd: nio create_udp udp-6f1a933b-a6aa-4f1d-b39a-5767499640df 15008 127.0.0.1 15007 
Nov 26 22:11:29.069 HYPERVISOR: exec_cmd: vm slot_add_nio_binding ESW1 1 0 udp-6f1a933b-a6aa-4f1d-b39a-5767499640df 
Nov 26 22:11:29.069 HYPERVISOR: exec_cmd: vm get_status ESW1 
