Nov 28 08:37:28.673 HYPERVISOR: Release 0.2.17-amd64/Linux (tag 2017072410)
Nov 28 08:37:28.673 HYPERVISOR: Started on IP = 127.0.0.1, TCP port = 33643.
Nov 28 08:37:28.688 HYPERVISOR: exec_cmd: hypervisor version 
Nov 28 08:37:28.688 HYPERVISOR: exec_cmd: hypervisor working_dir /media/actionmystique/SAMSUNG5-VMs/Labs/GNS3/git-Public-Labs-Collection/CCNP/TBSHOOT/L3-Technologies/IPv4/Routing-Protocols/EIGRP/Jean-Christophe_Manciot/1+/TT 3-linux/project-files/dynamips 
Nov 28 08:37:28.688 GENERAL: working_dir=/media/actionmystique/SAMSUNG5-VMs/Labs/GNS3/git-Public-Labs-Collection/CCNP/TBSHOOT/L3-Technologies/IPv4/Routing-Protocols/EIGRP/Jean-Christophe_Manciot/1+/TT 3-linux/project-files/dynamips
Nov 28 08:37:28.689 HYPERVISOR: exec_cmd: vm create ESW3 3 c3725 
Nov 28 08:37:28.689 VM: VM ESW3 created.
Nov 28 08:37:28.690 HYPERVISOR: exec_cmd: vm set_con_tcp_port ESW3 2006 
Nov 28 08:37:28.690 HYPERVISOR: exec_cmd: c3725 get_mac_addr ESW3 
Nov 28 08:37:28.691 HYPERVISOR: exec_cmd: vm set_disk0 ESW3 1 
Nov 28 08:37:28.692 HYPERVISOR: exec_cmd: vm set_ios ESW3 /media/actionmystique/SAMSUNG5-VMs/Images/GNS3/IOS/c3725-adventerprisek9-mz.124-15.T10.image 
Nov 28 08:37:28.693 HYPERVISOR: exec_cmd: c3725 set_mac_addr ESW3 c203.1bfb.0000 
Nov 28 08:37:28.693 HYPERVISOR: exec_cmd: vm get_status ESW3 
Nov 28 08:37:28.694 HYPERVISOR: exec_cmd: vm set_idle_pc ESW3 0x614ac27c 
Nov 28 08:37:28.695 HYPERVISOR: exec_cmd: vm get_status ESW3 
Nov 28 08:37:28.695 HYPERVISOR: exec_cmd: vm slot_add_binding ESW3 1 0 NM-16ESW 
Nov 28 08:37:28.696 HYPERVISOR: exec_cmd: vm slot_add_binding ESW3 0 16 WIC-2T 
Nov 28 08:37:28.697 HYPERVISOR: exec_cmd: vm set_nvram ESW3 256 
Nov 28 08:37:28.698 HYPERVISOR: exec_cmd: vm set_config ESW3 configs/ios_base_startup-config.txt 
Nov 28 08:37:28.698 HYPERVISOR: exec_cmd: vm set_config ESW3 configs/ios_base_startup-config.txt configs/ios_base_private-config.txt 
Nov 28 08:37:28.847 HYPERVISOR: exec_cmd: nio create_udp udp-d1da44a4-0d01-40f3-84cf-bb6196edbe5b 15010 127.0.0.1 15011 
Nov 28 08:37:28.847 HYPERVISOR: exec_cmd: vm slot_add_nio_binding ESW3 1 0 udp-d1da44a4-0d01-40f3-84cf-bb6196edbe5b 
Nov 28 08:37:28.847 HYPERVISOR: exec_cmd: vm get_status ESW3 
Nov 28 08:37:39.244 HYPERVISOR: exec_cmd: nio create_tap tap-d733e496-9806-4a99-b34d-c68e6b97a781 tap0 
Nov 28 08:37:39.245 HYPERVISOR: exec_cmd: vm slot_add_nio_binding ESW3 1 1 tap-d733e496-9806-4a99-b34d-c68e6b97a781 
Nov 28 08:37:39.245 HYPERVISOR: exec_cmd: vm get_status ESW3 
