Nov 26 20:14:19.739 HYPERVISOR: Release 0.2.17-amd64/Linux (tag 2017072410)
Nov 26 20:14:19.739 HYPERVISOR: Started on IP = 127.0.0.1, TCP port = 55767.
Nov 26 20:14:19.769 HYPERVISOR: exec_cmd: hypervisor version 
Nov 26 20:14:19.770 HYPERVISOR: exec_cmd: hypervisor working_dir /media/actionmystique/SAMSUNG5-VMs/Labs/GNS3/EtherChannel Cost Change/project-files/dynamips 
Nov 26 20:14:19.770 GENERAL: working_dir=/media/actionmystique/SAMSUNG5-VMs/Labs/GNS3/EtherChannel Cost Change/project-files/dynamips
Nov 26 20:14:19.772 HYPERVISOR: exec_cmd: vm create R2 2 c7200 
Nov 26 20:14:19.772 VM: VM R2 created.
Nov 26 20:14:19.773 HYPERVISOR: exec_cmd: vm set_con_tcp_port R2 2120 
Nov 26 20:14:19.776 HYPERVISOR: exec_cmd: vm set_aux_tcp_port R2 2520 
Nov 26 20:14:19.777 HYPERVISOR: exec_cmd: c7200 get_mac_addr R2 
Nov 26 20:14:19.778 HYPERVISOR: exec_cmd: vm get_status R2 
Nov 26 20:14:19.779 HYPERVISOR: exec_cmd: vm slot_add_binding R2 0 0 C7200-IO-FE 
Nov 26 20:14:19.781 HYPERVISOR: exec_cmd: vm set_ios R2 /media/actionmystique/SAMSUNG5-VMs/Images/GNS3/IOS/c7200-adventerprisek9-mz.152-4.M2.image 
Nov 26 20:14:19.782 HYPERVISOR: exec_cmd: vm get_status R2 
Nov 26 20:14:19.783 HYPERVISOR: exec_cmd: vm slot_add_binding R2 1 0 PA-GE 
Nov 26 20:14:19.784 HYPERVISOR: exec_cmd: vm get_status R2 
Nov 26 20:14:19.785 HYPERVISOR: exec_cmd: vm set_idle_pc R2 0x60188e14 
Nov 26 20:14:19.786 HYPERVISOR: exec_cmd: vm get_status R2 
Nov 26 20:14:19.787 HYPERVISOR: exec_cmd: vm slot_remove_binding R2 0 0 
Nov 26 20:14:19.788 HYPERVISOR: exec_cmd: vm get_status R2 
Nov 26 20:14:19.789 HYPERVISOR: exec_cmd: vm slot_add_binding R2 0 0 C7200-IO-GE-E 
Nov 26 20:14:19.790 HYPERVISOR: exec_cmd: vm get_status R2 
Nov 26 20:14:19.791 HYPERVISOR: exec_cmd: vm slot_add_binding R2 3 0 PA-GE 
Nov 26 20:14:19.792 HYPERVISOR: exec_cmd: vm get_status R2 
Nov 26 20:14:19.794 HYPERVISOR: exec_cmd: vm slot_add_binding R2 2 0 PA-GE 
Nov 26 20:14:19.795 HYPERVISOR: exec_cmd: vm set_ram R2 512 
Nov 26 20:14:19.796 HYPERVISOR: exec_cmd: vm set_config R2 configs/i2_startup-config.cfg 
Nov 26 20:14:19.990 HYPERVISOR: exec_cmd: vm extract_config R2 
Nov 26 20:14:20.034 HYPERVISOR: exec_cmd: nio create_udp udp-2f6945d1-fb4b-45bc-80bc-e2fad95a636a 15001 127.0.0.1 15000 
Nov 26 20:14:20.041 HYPERVISOR: exec_cmd: vm slot_add_nio_binding R2 1 0 udp-2f6945d1-fb4b-45bc-80bc-e2fad95a636a 
Nov 26 20:14:20.042 HYPERVISOR: exec_cmd: vm get_status R2 
Nov 26 20:14:20.055 HYPERVISOR: exec_cmd: nio create_udp udp-272555a8-c04b-47b7-abc6-4eed8fa70b4f 15003 127.0.0.1 15002 
Nov 26 20:14:20.070 HYPERVISOR: exec_cmd: vm slot_add_nio_binding R2 0 0 udp-272555a8-c04b-47b7-abc6-4eed8fa70b4f 
Nov 26 20:14:20.075 HYPERVISOR: exec_cmd: vm get_status R2 
Nov 26 20:14:20.086 HYPERVISOR: exec_cmd: nio create_udp udp-915665a4-2d1f-44e4-a42a-6f14654b510a 15006 127.0.0.1 15004 
Nov 26 20:14:20.094 HYPERVISOR: exec_cmd: vm slot_add_nio_binding R2 2 0 udp-915665a4-2d1f-44e4-a42a-6f14654b510a 
Nov 26 20:14:20.100 HYPERVISOR: exec_cmd: vm get_status R2 
Nov 26 20:14:20.115 HYPERVISOR: exec_cmd: nio create_udp udp-2a300dad-40a5-4c1b-9c40-6bf49e71fa3f 15007 127.0.0.1 15005 
Nov 26 20:14:20.125 HYPERVISOR: exec_cmd: vm slot_add_nio_binding R2 3 0 udp-2a300dad-40a5-4c1b-9c40-6bf49e71fa3f 
Nov 26 20:14:20.126 HYPERVISOR: exec_cmd: vm get_status R2 
Nov 26 20:21:24.554 HYPERVISOR: exec_cmd: vm get_status R2 
Nov 26 20:21:24.556 HYPERVISOR: exec_cmd: vm extract_config R2 
Nov 26 20:21:24.557 HYPERVISOR: exec_cmd: vm delete R2 
Nov 26 20:21:24.557 VM: VM R2 destroyed.
Nov 26 20:21:24.558 HYPERVISOR: exec_cmd: hypervisor stop 
Nov 26 20:21:24.687 HYPERVISOR: Stopped.
Nov 26 20:21:24.687 GENERAL: reset done.
