Nov 26 20:14:19.761 HYPERVISOR: Release 0.2.17-amd64/Linux (tag 2017072410)
Nov 26 20:14:19.761 HYPERVISOR: Started on IP = 127.0.0.1, TCP port = 56733.
Nov 26 20:14:19.777 HYPERVISOR: exec_cmd: hypervisor version 
Nov 26 20:14:19.778 HYPERVISOR: exec_cmd: hypervisor working_dir /media/actionmystique/SAMSUNG5-VMs/Labs/GNS3/EtherChannel Cost Change/project-files/dynamips 
Nov 26 20:14:19.778 GENERAL: working_dir=/media/actionmystique/SAMSUNG5-VMs/Labs/GNS3/EtherChannel Cost Change/project-files/dynamips
Nov 26 20:14:19.780 HYPERVISOR: exec_cmd: vm create R1 1 c7200 
Nov 26 20:14:19.780 VM: VM R1 created.
Nov 26 20:14:19.781 HYPERVISOR: exec_cmd: vm set_con_tcp_port R1 2119 
Nov 26 20:14:19.782 HYPERVISOR: exec_cmd: vm set_aux_tcp_port R1 2519 
Nov 26 20:14:19.783 HYPERVISOR: exec_cmd: c7200 get_mac_addr R1 
Nov 26 20:14:19.784 HYPERVISOR: exec_cmd: vm get_status R1 
Nov 26 20:14:19.785 HYPERVISOR: exec_cmd: vm slot_add_binding R1 0 0 C7200-IO-FE 
Nov 26 20:14:19.787 HYPERVISOR: exec_cmd: vm set_ios R1 /media/actionmystique/SAMSUNG5-VMs/Images/GNS3/IOS/c7200-adventerprisek9-mz.152-4.M2.image 
Nov 26 20:14:19.788 HYPERVISOR: exec_cmd: vm get_status R1 
Nov 26 20:14:19.789 HYPERVISOR: exec_cmd: vm slot_add_binding R1 1 0 PA-GE 
Nov 26 20:14:19.790 HYPERVISOR: exec_cmd: vm get_status R1 
Nov 26 20:14:19.791 HYPERVISOR: exec_cmd: vm set_idle_pc R1 0x60188e14 
Nov 26 20:14:19.792 HYPERVISOR: exec_cmd: vm get_status R1 
Nov 26 20:14:19.793 HYPERVISOR: exec_cmd: vm slot_remove_binding R1 0 0 
Nov 26 20:14:19.795 HYPERVISOR: exec_cmd: vm get_status R1 
Nov 26 20:14:19.796 HYPERVISOR: exec_cmd: vm slot_add_binding R1 0 0 C7200-IO-GE-E 
Nov 26 20:14:19.797 HYPERVISOR: exec_cmd: vm get_status R1 
Nov 26 20:14:19.807 HYPERVISOR: exec_cmd: vm slot_add_binding R1 3 0 PA-GE 
Nov 26 20:14:19.808 HYPERVISOR: exec_cmd: vm get_status R1 
Nov 26 20:14:19.809 HYPERVISOR: exec_cmd: vm slot_add_binding R1 2 0 PA-GE 
Nov 26 20:14:19.809 HYPERVISOR: exec_cmd: vm set_ram R1 512 
Nov 26 20:14:19.810 HYPERVISOR: exec_cmd: vm set_config R1 configs/i1_startup-config.cfg 
Nov 26 20:14:19.995 HYPERVISOR: exec_cmd: nio create_udp udp-7f68ddd0-3317-4ec7-bfb2-ea79d201ddf2 15000 127.0.0.1 15001 
Nov 26 20:14:19.997 HYPERVISOR: exec_cmd: vm extract_config R1 
Nov 26 20:14:19.999 HYPERVISOR: exec_cmd: vm slot_add_nio_binding R1 1 0 udp-7f68ddd0-3317-4ec7-bfb2-ea79d201ddf2 
Nov 26 20:14:20.001 HYPERVISOR: exec_cmd: vm get_status R1 
Nov 26 20:14:20.040 HYPERVISOR: exec_cmd: nio create_udp udp-a5d35c2c-1684-4043-bfb8-075b3328c48b 15002 127.0.0.1 15003 
Nov 26 20:14:20.041 HYPERVISOR: exec_cmd: vm slot_add_nio_binding R1 0 0 udp-a5d35c2c-1684-4043-bfb8-075b3328c48b 
Nov 26 20:14:20.043 HYPERVISOR: exec_cmd: vm get_status R1 
Nov 26 20:14:20.069 HYPERVISOR: exec_cmd: nio create_udp udp-06535d8b-9a96-4a34-8dcb-38f8bfd64760 15004 127.0.0.1 15006 
Nov 26 20:14:20.074 HYPERVISOR: exec_cmd: vm slot_add_nio_binding R1 2 0 udp-06535d8b-9a96-4a34-8dcb-38f8bfd64760 
Nov 26 20:14:20.076 HYPERVISOR: exec_cmd: vm get_status R1 
Nov 26 20:14:20.099 HYPERVISOR: exec_cmd: nio create_udp udp-20701b0e-d2c2-47de-b661-882cf18a2714 15005 127.0.0.1 15007 
Nov 26 20:14:20.101 HYPERVISOR: exec_cmd: vm slot_add_nio_binding R1 3 0 udp-20701b0e-d2c2-47de-b661-882cf18a2714 
Nov 26 20:14:20.110 HYPERVISOR: exec_cmd: vm get_status R1 
Nov 26 20:21:24.555 HYPERVISOR: exec_cmd: vm get_status R1 
Nov 26 20:21:24.556 HYPERVISOR: exec_cmd: vm extract_config R1 
Nov 26 20:21:24.557 HYPERVISOR: exec_cmd: vm delete R1 
Nov 26 20:21:24.557 VM: VM R1 destroyed.
Nov 26 20:21:24.558 HYPERVISOR: exec_cmd: hypervisor stop 
Nov 26 20:21:24.730 HYPERVISOR: Stopped.
Nov 26 20:21:24.730 GENERAL: reset done.
