autostart = False
version = 0.8.4-RC2
[127.0.0.1:7202]
    workingdir = C:\Users\ActionMystique\AppData\Local\GNS3
    udp = 11200
    [[3725]]
        image = C:\Users\ActionMystique\Google Drive\Missions\Certifications\Cisco\IOS\Binaries\c3725-adventerprisek9-mz.124-15.T5.image
        ram = 128
        idlepc = 0x62af9f1c
        sparsemem = True
        ghostios = True
    [[ROUTER SW10]]
        model = 3725
        console = 2019
        aux = 2519
        cnfg = configs\SW10.cfg
        slot1 = NM-16ESW
        f1/1 = R1 f1/0
        f1/2 = SW7 f1/2
        f1/3 = SW8 f1/3
        f1/4 = NIO_udp:30008:127.0.0.1:20008
        symbol = EtherSwitch router
        x = 143.5
        y = 85.5
        z = 1.0
        hx = -45.0
        hy = 16.0
    [[ROUTER SW9]]
        model = 3725
        console = 2017
        aux = 2517
        cnfg = configs\SW9.cfg
        slot1 = NM-16ESW
        f1/0 = SW7 f1/0
        f1/1 = SW8 f1/1
        f1/2 = NIO_udp:30006:127.0.0.1:20006
        f1/3 = NIO_udp:30007:127.0.0.1:20007
        symbol = EtherSwitch router
        x = -16.5
        y = 89.5
        z = 1.0
        hx = 51.0
        hy = 11.0
[127.0.0.1:7203]
    workingdir = C:\Users\ActionMystique\AppData\Local\GNS3
    udp = 11300
    [[3725]]
        image = C:\Users\ActionMystique\Google Drive\Missions\Certifications\Cisco\IOS\Binaries\c3725-adventerprisek9-mz.124-15.T5.image
        ram = 128
        idlepc = 0x602649b4
        idlemax = 500
        sparsemem = True
    [[ROUTER R1]]
        model = 3725
        console = 2112
        aux = 2512
        cnfg = configs\R1.cfg
        slot1 = NM-1FE-TX
        f1/0 = SW10 f1/1
        x = 210.0
        y = 225.0
        z = 1.0
        hx = 68.5
        hy = 9.0
[127.0.0.1:7200]
    workingdir = C:\Users\ActionMystique\AppData\Local\GNS3
    udp = 11000
    [[3725]]
        image = C:\Users\ActionMystique\Google Drive\Missions\Certifications\Cisco\IOS\Binaries\c3725-adventerprisek9-mz.124-15.T5.image
        ram = 128
        idlepc = 0x62af9f1c
        sparsemem = True
    [[ROUTER SW1]]
        model = 3725
        console = 2001
        aux = 2501
        cnfg = configs\SW1.cfg
        slot1 = NM-16ESW
        f1/0 = SW2 f1/0
        f1/1 = SW3 f1/1
        f1/2 = SW4 f1/2
        f1/3 = SW7 f1/3
        symbol = EtherSwitch router
        x = -255.5
        y = -238.5
        z = 1.0
        hx = -40.0
        hy = 8.0
    [[ROUTER SW3]]
        model = 3725
        console = 2003
        aux = 2503
        cnfg = configs\SW3.cfg
        slot1 = NM-16ESW
        f1/1 = SW1 f1/1
        f1/2 = SW5 f1/2
        f1/3 = SW6 f1/3
        f1/4 = SW4 f1/4
        symbol = EtherSwitch router
        x = -400.5
        y = -65.5
        z = 1.0
    [[ROUTER SW2]]
        model = 3725
        console = 2002
        aux = 2502
        cnfg = configs\SW2.cfg
        slot1 = NM-16ESW
        f1/0 = SW1 f1/0
        f1/1 = SW7 f1/1
        f1/2 = SW8 f1/2
        f1/3 = SW4 f1/3
        symbol = EtherSwitch router
        x = 47.5
        y = -238.5
        z = 1.0
        hx = 50.0
        hy = 7.0
    [[ROUTER SW4]]
        model = 3725
        console = 2004
        aux = 2504
        cnfg = configs\SW4.cfg
        slot1 = NM-16ESW
        f1/0 = SW6 f1/0
        f1/1 = SW5 f1/1
        f1/2 = SW1 f1/2
        f1/3 = SW2 f1/3
        f1/4 = SW3 f1/4
        symbol = EtherSwitch router
        x = -258.5
        y = -66.5
        z = 1.0
        hx = -13.0
        hy = -19.0
[127.0.0.1:7201]
    workingdir = C:\Users\ActionMystique\AppData\Local\GNS3
    udp = 11100
    [[3725]]
        image = C:\Users\ActionMystique\Google Drive\Missions\Certifications\Cisco\IOS\Binaries\c3725-adventerprisek9-mz.124-15.T5.image
        ram = 128
        idlepc = 0x62af9f1c
        sparsemem = True
    [[ROUTER SW6]]
        model = 3725
        ghostios = True
        console = 2006
        aux = 2506
        cnfg = configs\SW6.cfg
        slot1 = NM-16ESW
        f1/0 = SW4 f1/0
        f1/3 = SW3 f1/3
        f1/4 = NIO_udp:30004:127.0.0.1:20004
        f1/5 = NIO_udp:30005:127.0.0.1:20005
        symbol = EtherSwitch router
        x = -255.5
        y = 93.5
        z = 1.0
        hx = -36.0
        hy = 9.0
    [[ROUTER SW8]]
        model = 3725
        ghostios = True
        console = 2015
        aux = 2515
        cnfg = configs\SW8.cfg
        slot1 = NM-16ESW
        f1/1 = SW9 f1/1
        f1/2 = SW2 f1/2
        f1/3 = SW10 f1/3
        f1/4 = SW7 f1/4
        symbol = EtherSwitch router
        x = 132.5
        y = -69.5
        z = 1.0
        hx = 53.0
        hy = 7.0
    [[ROUTER SW5]]
        model = 3725
        console = 2005
        aux = 2505
        cnfg = configs\SW5.cfg
        slot1 = NM-16ESW
        f1/1 = SW4 f1/1
        f1/2 = SW3 f1/2
        f1/3 = NIO_udp:30000:127.0.0.1:20000
        f1/4 = NIO_udp:30001:127.0.0.1:20001
        f1/5 = NIO_udp:30002:127.0.0.1:20002
        f1/6 = NIO_udp:30003:127.0.0.1:20003
        symbol = EtherSwitch router
        x = -400.5
        y = 92.5
        z = 1.0
        hx = 49.0
        hy = 11.0
    [[ROUTER SW7]]
        model = 3725
        console = 2007
        aux = 2507
        cnfg = configs\SW7.cfg
        slot1 = NM-16ESW
        f1/0 = SW9 f1/0
        f1/1 = SW2 f1/1
        f1/2 = SW10 f1/2
        f1/3 = SW1 f1/3
        f1/4 = SW8 f1/4
        symbol = EtherSwitch router
        x = -17.5
        y = -67.5
        z = 1.0
        hx = -5.0
        hy = -22.0
[GNS3-DATA]
    configs = configs
    [[NOTE 1]]
        text = "DHCPv6 Database agent stored in flash"
        x = -672.0
        y = -206.0
    [[NOTE 2]]
        text = "SLAAC"
        x = -390.0
        y = 244.0
        color = "#0055ff"
    [[NOTE 3]]
        text = "SLAAC"
        x = -143.0
        y = 244.0
        color = "#0055ff"
    [[NOTE 4]]
        text = "::28:2/124"
        x = 97.10746827
        y = -202.208586078
        color = "#ffffff"
    [[NOTE 5]]
        text = "::17:7/125"
        x = -94.39253173
        y = -63.2085860776
        color = "#ffffff"
    [[NOTE 6]]
        text = "All CPEs and R1\n2001:10:2::/62"
        x = 413.0
        y = 82.0
        font = "MS Shell Dlg 2,14,-1,5,75,0,0,0,0,0"
        color = "#0055ff"
    [[NOTE 7]]
        text = "VPCS[6]"
        x = -141.0
        y = 260.0
    [[NOTE 8]]
        text = "DHCPv6 Delegated Prefixes with Relays"
        x = -371.0
        y = -311.0
        font = "MS Shell Dlg 2,20,-1,5,75,0,0,0,0,0"
    [[NOTE 9]]
        text = "DHCPv6 Delegated Prefix /64"
        x = 196.529041145
        y = 83.2914139224
        color = "#ff0000"
    [[NOTE 10]]
        text = "::17:1/125"
        x = -190.89253173
        y = -202.208586078
        color = "#ffffff"
    [[NOTE 11]]
        text = "VLAN 2"
        x = -173.0
        y = 151.0
    [[NOTE 12]]
        text = "::27:7/125"
        x = 29.10746827
        y = -92.2085860776
        color = "#ffffff"
    [[NOTE 13]]
        text = "DHCPv6 Delegated Prefix /64"
        x = -594.470958855
        y = 83.2914139224
        color = "#ff0000"
    [[NOTE 14]]
        text = "SLAAC"
        x = 112.10746827
        y = 55.7914139224
        color = "#ffffff"
    [[NOTE 15]]
        text = "VLAN 5"
        x = 42.0
        y = 151.0
    [[NOTE 16]]
        text = "::24:4/125"
        x = -192.39253173
        y = -76.208586078
        color = "#ffffff"
    [[NOTE 17]]
        text = "SLAAC"
        x = -557.0
        y = 239.0
        color = "#0055ff"
    [[NOTE 18]]
        text = "VPCS Config:"
        x = 450.0
        y = 235.0
    [[NOTE 19]]
        text = "SLAAC"
        x = -473.0
        y = 242.0
        color = "#0055ff"
    [[NOTE 20]]
        text = ":79::7/64"
        x = -67.89253173
        y = -19.2085860776
        color = "#ffffff"
    [[NOTE 21]]
        text = "::28:8/124"
        x = 122.10746827
        y = -103.208586078
        color = "#ffffff"
    [[NOTE 22]]
        text = "EIGRP 10"
        x = -414.0
        y = -263.0
        font = "MS Shell Dlg 2,14,-1,5,75,0,0,0,0,0"
        color = "#ffffff"
    [[NOTE 23]]
        text = "::14:4/125"
        x = -263.89253173
        y = -109.208586078
        color = "#ffffff"
    [[NOTE 24]]
        text = "~\GNS3\CCNP-SP\SPADVROUTE\IPv6\Jean-Christophe\\nDHCPv6\all-servers-as-slaac-clients.cfg"
        x = 317.0
        y = 257.0
    [[NOTE 25]]
        text = "DNSv6 Server"
        x = -276.470958855
        y = -256.708586078
        color = "#ff0000"
    [[NOTE 26]]
        text = "SLAAC"
        x = 227.0
        y = 197.0
        color = "#0055ff"
    [[NOTE 27]]
        text = "SLAAC"
        x = 145.0
        y = 238.0
        color = "#0055ff"
    [[NOTE 28]]
        text = "DHCPv6 Server all CPEs"
        x = -12.470958855
        y = -269.708586078
        color = "#ff0000"
    [[NOTE 29]]
        text = "VPCS[4]"
        x = -307.0
        y = 260.0
    [[NOTE 30]]
        text = "::14:1/125"
        x = -254.89253173
        y = -177.208586078
        color = "#ffffff"
    [[NOTE 31]]
        text = ":46::4/64"
        x = -228.89253173
        y = -20.2085860776
        color = "#ffffff"
    [[NOTE 32]]
        text = ":108::8/64"
        x = 126.10746827
        y = -4.2085860776
        color = "#ffffff"
    [[NOTE 33]]
        text = "Access"
        x = -646.0
        y = 105.0
        font = "MS Shell Dlg 2,14,-1,5,75,0,0,0,0,0"
    [[NOTE 34]]
        text = "VLAN 3"
        x = -494.0
        y = 148.0
    [[NOTE 35]]
        text = "SLAAC"
        x = -271.89253173
        y = 57.7914139224
        color = "#ffffff"
    [[NOTE 36]]
        text = "::34:3/125"
        x = -349.89253173
        y = -72.2085860776
        color = "#ffffff"
    [[NOTE 37]]
        text = "::12:1/127"
        x = -205.89253173
        y = -244.208586078
        color = "#ffffff"
    [[NOTE 38]]
        text = ":107::7/64"
        x = 17.10746827
        y = -16.2085860776
        color = "#ffffff"
    [[NOTE 39]]
        text = "SLAAC"
        x = 15.10746827
        y = 58.7914139224
        color = "#ffffff"
    [[NOTE 40]]
        text = "::34:4/125"
        x = -329.89253173
        y = -52.2085860776
        color = "#ffffff"
    [[NOTE 41]]
        text = "VPCS[2]"
        x = -472.0
        y = 259.0
    [[NOTE 42]]
        text = "VPCS[5]"
        x = -223.0
        y = 260.0
    [[NOTE 43]]
        text = "SLAAC"
        x = -226.0
        y = 242.0
        color = "#0055ff"
    [[NOTE 44]]
        text = "Core"
        x = -626.0
        y = -234.0
        font = "MS Shell Dlg 2,14,-1,5,75,0,0,0,0,0"
    [[NOTE 45]]
        text = "CPEs"
        x = -633.470958855
        y = 82.2914139224
        color = "#ff0000"
    [[NOTE 46]]
        text = "DHCPv6 Relays"
        x = -518.470958855
        y = -58.7085860776
        color = "#ff0000"
    [[NOTE 47]]
        text = "A preferred Configuration Option would be to define the DHCP\nservers on one loopback interface on SW1 and SW2.\nIt does not seem to be supported by my IOS versions."
        x = 200.529041145
        y = -270.708586078
        color = "#ff0000"
    [[NOTE 48]]
        text = "All AS routed ports\n    2001:10::/48"
        x = 219.0
        y = -164.0
        font = "MS Shell Dlg 2,14,-1,5,75,0,0,0,0,0"
        color = "#0055ff"
    [[NOTE 49]]
        text = "::24:2/125"
        x = -45.39253173
        y = -204.708586078
        color = "#ffffff"
    [[NOTE 50]]
        text = "SLAAC"
        x = -309.0
        y = 243.0
        color = "#0055ff"
    [[NOTE 51]]
        text = "DNSv6 Server"
        x = 20.529041145
        y = -256.708586078
        color = "#ff0000"
    [[NOTE 52]]
        text = "::12:2/127"
        x = -26.89253173
        y = -241.208586078
        color = "#ffffff"
    [[NOTE 53]]
        text = "SLAAC"
        x = -373.89253173
        y = 60.7914139224
        color = "#ffffff"
    [[NOTE 54]]
        text = "DHCPv6 Relays"
        x = 224.529041145
        y = -58.7085860776
        color = "#ff0000"
    [[NOTE 55]]
        text = "DHCPv6 Server all CPEs"
        x = -305.470958855
        y = -270.708586078
        color = "#ff0000"
    [[NOTE 56]]
        text = "VPCS[7]"
        x = -52.0
        y = 257.0
    [[NOTE 57]]
        text = "::13:1/126"
        x = -332.89253173
        y = -204.208586078
        color = "#ffffff"
    [[NOTE 58]]
        text = "::13:3/126"
        x = -364.89253173
        y = -105.208586078
        color = "#ffffff"
    [[NOTE 59]]
        text = ":36::3/64"
        x = -360.89253173
        y = -13.2085860776
        color = "#ffffff"
    [[NOTE 60]]
        text = "VPCS[9]"
        x = 144.0
        y = 254.0
    [[NOTE 61]]
        text = "SLAAC"
        x = 35.0
        y = 239.0
        color = "#0055ff"
    [[NOTE 62]]
        text = "VPCS[1]"
        x = -554.0
        y = 260.0
    [[NOTE 63]]
        text = ":89::8/64"
        x = 64.10746827
        y = -32.2085860776
        color = "#ffffff"
    [[NOTE 64]]
        text = ":35::3/64"
        x = -410.89253173
        y = 2.7914139224
        color = "#ffffff"
    [[NOTE 65]]
        text = "VLAN 4"
        x = 190.0
        y = 152.0
    [[NOTE 66]]
        text = "::27:2/125"
        x = 26.10746827
        y = -173.208586078
        color = "#ffffff"
    [[NOTE 67]]
        text = "VPCS[3]"
        x = -389.0
        y = 261.0
    [[NOTE 68]]
        text = "DHCPv6 Delegated Prefixes /64"
        x = -214.470958855
        y = 75.2914139224
        color = "#ff0000"
    [[NOTE 69]]
        text = "::78:8/124"
        x = 67.10746827
        y = -73.2085860776
        color = "#ffffff"
    [[NOTE 70]]
        text = "Distribution"
        x = -669.0
        y = -54.0
        font = "MS Shell Dlg 2,14,-1,5,75,0,0,0,0,0"
    [[NOTE 71]]
        text = "SLAAC"
        x = -55.0
        y = 242.0
        color = "#0055ff"
    [[NOTE 72]]
        text = "All Relays CPEs side\n   2001:10:1:np::/64\nbetween SWn and SWp"
        x = 337.0
        y = -63.0
        font = "MS Shell Dlg 2,14,-1,5,75,0,0,0,0,0"
        color = "#0055ff"
    [[NOTE 73]]
        text = "::78:7/124"
        x = 30.10746827
        y = -52.2085860776
        color = "#ffffff"
    [[NOTE 74]]
        text = "VPCS[8]"
        x = 39.0
        y = 255.0
    [[NOTE 75]]
        text = ":45::4/64"
        x = -328.89253173
        y = -28.2085860776
        color = "#ffffff"
    [[Cloud Host_5]]
        symbol = server
        x = -224.5
        y = 232.5
        z = 1.0
        connections = SW6:f1/4:NIO_udp:30004:127.0.0.1:20004
    [[Cloud Host_4]]
        symbol = server
        x = -308.5
        y = 233.5
        z = 1.0
        connections = SW5:f1/6:NIO_udp:30003:127.0.0.1:20003
    [[Cloud Host_3]]
        symbol = server
        x = -390.5
        y = 236.5
        z = 1.0
        connections = SW5:f1/5:NIO_udp:30002:127.0.0.1:20002
    [[Cloud Host_2]]
        symbol = server
        x = -475.5
        y = 234.5
        z = 1.0
        connections = SW5:f1/4:NIO_udp:30001:127.0.0.1:20001
    [[Cloud Host_7]]
        symbol = server
        x = -55.5
        y = 228.5
        z = 1.0
        connections = SW9:f1/2:NIO_udp:30006:127.0.0.1:20006
    [[Cloud Host_6]]
        symbol = server
        x = -143.5
        y = 232.5
        z = 1.0
        connections = SW6:f1/5:NIO_udp:30005:127.0.0.1:20005
    [[Cloud Host_1]]
        symbol = server
        x = -554.5
        y = 235.5
        z = 1.0
        connections = SW5:f1/3:NIO_udp:30000:127.0.0.1:20000
    [[Cloud Host_9]]
        symbol = server
        x = 146.5
        y = 224.5
        z = 1.0
        connections = SW10:f1/4:NIO_udp:30008:127.0.0.1:20008
    [[Cloud Host_8]]
        symbol = server
        x = 33.5
        y = 228.5
        z = 1.0
        connections = SW9:f1/3:NIO_udp:30007:127.0.0.1:20007
    [[SHAPE 1]]
        type = ellipse
        x = 107.0
        y = 117.0
        width = 170.0
        height = 200.0
        fill_color = "#ffff00"
        border_style = 2
    [[SHAPE 2]]
        type = ellipse
        x = -572.0
        y = 128.0
        width = 323.0
        height = 218.0
        fill_color = "#ffff00"
        border_style = 2
    [[SHAPE 3]]
        type = ellipse
        x = -73.0
        y = 120.0
        width = 200.0
        height = 200.0
        fill_color = "#ffff00"
        border_style = 2
    [[SHAPE 4]]
        type = ellipse
        x = -258.0
        y = 108.0
        width = 191.0
        height = 213.0
        fill_color = "#ffff00"
        border_style = 2
    [[SHAPE 5]]
        type = rectangle
        x = -570.0
        y = 106.0
        width = 494.0
        height = 203.0
        fill_color = "#ffff7f"
        z = -1.0
    [[SHAPE 6]]
        type = rectangle
        x = -413.0
        y = -267.0
        width = 614.0
        height = 367.0
        fill_color = "#00aaff"
        z = -1.0
    [[SHAPE 7]]
        type = rectangle
        x = -70.0
        y = 105.0
        width = 387.0
        height = 204.0
        fill_color = "#ffff7f"
        z = -1.0
