autostart = False
version = 0.8.2
[127.0.0.1:7202]
    udp = 10200
    [[7200]]
        image = ..\..\..\..\..\..\IOS\Binaries\c7200-adventerprisek9-mz.124-24.T.image
        idlepc = 0x61604440
        sparsemem = True
        ghostios = True
    [[ROUTER R5]]
        console = 2003
        aux = 2100
        cnfg = configs\R5.cfg
        slot0 = C7200-IO-GE-E
        slot1 = PA-8T
        s1/0 = FrameRelay 5
        x = 83.1715728753
        y = 285.414213562
        z = 1.0
    [[ROUTER WAN2]]
        console = 2005
        aux = 2105
        cnfg = configs\WAN2.cfg
        slot0 = C7200-IO-GE-E
        g0/0 = WAN1 g0/0
        slot1 = PA-8T
        s1/0 = FrameRelay 2
        slot2 = PA-2FE-TX
        f2/0 = SW2 f1/1
        f2/1 = SW1 f2/0
        x = 165.0
        y = 135.0
        z = 1.0
[127.0.0.1:7200]
    udp = 10000
    [[7200]]
        image = ..\..\..\..\..\..\IOS\Binaries\c7200-adventerprisek9-mz.124-24.T.image
        idlepc = 0x61604440
        sparsemem = True
    [[3725]]
        image = ..\..\..\..\..\..\IOS\Binaries\c3725-adventerprisek9-mz.124-15.T5.image
        ram = 128
        idlepc = 0x6148b534
        sparsemem = True
        ghostios = True
    [[ROUTER WAN1]]
        console = 2000
        aux = 2110
        cnfg = configs\WAN1.cfg
        slot0 = C7200-IO-GE-E
        g0/0 = WAN2 g0/0
        slot1 = PA-8T
        s1/0 = FrameRelay 1
        slot2 = PA-2FE-TX
        f2/0 = SW1 f1/1
        f2/1 = SW2 f2/0
        x = 164.0
        y = -164.0
        z = 1.0
    [[FRSW FrameRelay]]
        1:103 = 3:301
        1:104 = 4:401
        1:105 = 5:501
        2:203 = 3:302
        2:204 = 4:402
        2:205 = 5:502
        3:301 = 1:103
        3:302 = 2:203
        4:401 = 1:104
        4:402 = 2:204
        5:501 = 1:105
        5:502 = 2:205
        1 = WAN1 s1/0
        2 = WAN2 s1/0
        3 = R3 s1/0
        4 = R4 s1/0
        5 = R5 s1/0
        x = -19.5
        y = -22.5
        z = 1.0
    [[ROUTER SW1]]
        model = 3725
        console = 2006
        aux = 2106
        cnfg = configs\SW1.cfg
        f0/1 = SW2 f0/1
        slot1 = NM-16ESW
        f1/1 = WAN1 f2/0
        slot2 = NM-1FE-TX
        f2/0 = WAN2 f2/1
        symbol = EtherSwitch router
        x = 400.5
        y = -171.5
        z = 1.0
    [[ROUTER SW2]]
        model = 3725
        console = 2008
        aux = 2108
        cnfg = configs\SW2.cfg
        f0/1 = SW1 f0/1
        slot1 = NM-16ESW
        f1/1 = WAN2 f2/0
        slot2 = NM-1FE-TX
        f2/0 = WAN1 f2/1
        symbol = EtherSwitch router
        x = 400.5
        y = 131.5
        z = 1.0
[127.0.0.1:7201]
    udp = 10100
    [[7200]]
        image = ..\..\..\..\..\..\IOS\Binaries\c7200-adventerprisek9-mz.124-24.T.image
        idlepc = 0x61604440
        sparsemem = True
        ghostios = True
    [[ROUTER R4]]
        console = 2002
        aux = 2103
        cnfg = configs\R4.cfg
        slot0 = C7200-IO-GE-E
        g0/0 = R3 g0/0
        slot1 = PA-8T
        s1/0 = FrameRelay 4
        x = -257.946176131
        y = 132.007142675
        z = 1.0
    [[ROUTER R3]]
        console = 2001
        aux = 2102
        cnfg = configs\R3.cfg
        slot0 = C7200-IO-GE-E
        g0/0 = R4 g0/0
        slot1 = PA-8T
        s1/0 = FrameRelay 3
        x = -264.017243943
        y = -154.970562748
        z = 1.0
[GNS3-DATA]
    configs = configs
    m11 = 0.707106781187
    m22 = 0.707106781187
    [[NOTE 1]]
        text = 302
        x = -134.564971157
        y = -58.5355339059
    [[NOTE 2]]
        text = 104
        x = 62.0
        y = -74.0
    [[NOTE 3]]
        text = 13.1/29
        x = 114.242640687
        y = -114.129942315
    [[NOTE 4]]
        text = 10.10.34.3/24
        x = -336.017243943
        y = -107.142135624
    [[NOTE 5]]
        text = 27.2/24
        x = 228.414213562
        y = 116.656854249
    [[NOTE 6]]
        text = 16.2/29
        x = 115.485281374
        y = 166.69848481
    [[NOTE 7]]
        text = 16.5/29
        x = 97.1715728753
        y = 245.071067812
    [[NOTE 8]]
        text = 502
        x = 58.7573593129
        y = 159.585786438
    [[NOTE 9]]
        text = Single AS EIGRP over Frame-Relay and Gigabit Ethernet
        x = -295.570634535
        y = -427.778787337
        font = "MS Shell Dlg 2,20,-1,5,75,0,1,0,0,0"
        color = "#0000ff"
    [[NOTE 10]]
        text = 203
        x = 83.0
        y = 42.0
    [[NOTE 11]]
        text = 401
        x = -145.514718626
        y = 49.7609306503
    [[NOTE 12]]
        text = 13.3/29
        x = -195.774603256
        y = -139.142135624
    [[NOTE 13]]
        text = 10.11.0.0/16
        x = -128.693434176
        y = -276.457936164
    [[NOTE 14]]
        text = 10.9.0.0/16
        x = 292.742207411
        y = -332.01428535
    [[NOTE 15]]
        text = |
        x = 58.1715728753
        y = 296.914213562
    [[NOTE 16]]
        text = 402
        x = -109.159379566
        y = 80.4888527117
    [[NOTE 17]]
        text = 15.5/29
        x = 42.4852813742
        y = 267.414213562
    [[NOTE 18]]
        text = 105
        x = 64.0
        y = -55.0
    [[NOTE 19]]
        text = 205
        x = 85.0
        y = 78.0
    [[NOTE 20]]
        text = ---
        x = 62.7573593129
        y = 297.242640687
    [[NOTE 21]]
        text = 4.1/24
        x = -303.254833996
        y = 164.712770159
    [[NOTE 22]]
        text = ---
        x = -285.139177031
        y = -138.737156777
    [[NOTE 23]]
        text = |
        x = -288.310749906
        y = -140.479797465
    [[NOTE 24]]
        text = |
        x = -281.239682094
        y = 143.978138699
    [[NOTE 25]]
        text = ---
        x = -278.068109219
        y = 145.720779386
    [[NOTE 26]]
        text = 18.1/24
        x = 229.585786438
        y = -123.828427125
    [[NOTE 27]]
        text = Stub Router
        x = 149.906637611
        y = 311.653895656
    [[NOTE 28]]
        text = 28.2/24
        x = 227.0
        y = 158.0
    [[NOTE 29]]
        text = 12.2/24
        x = 184.970562748
        y = 86.1715728753
    [[NOTE 30]]
        text = 18.8/24
        x = 337.066017178
        y = 113.558441227
    [[NOTE 31]]
        text = 16.7/24
        x = 428.989898732
        y = -110.590837072
    [[NOTE 32]]
        text = 28.8/24
        x = 341.551298552
        y = 160.627416998
    [[NOTE 33]]
        text = Static Neighbor
        x = 149.906637611
        y = 292.05591591
    [[NOTE 34]]
        text = 16.8/24
        x = 428.989898732
        y = 90.0264786585
    [[NOTE 35]]
        text = 204
        x = 83.0
        y = 60.0
    [[NOTE 36]]
        text = 10.12.0.0/16
        x = 41.0121933088
        y = -295.043722601
    [[NOTE 37]]
        text = 13.2/29
        x = 111.0
        y = 108.0
    [[NOTE 38]]
        text = 17.7/24
        x = 339.894444303
        y = -172.615223689
    [[NOTE 39]]
        text = 301
        x = -121.251262658
        y = -98.2132034356
    [[NOTE 40]]
        text = 501
        x = 27.4335495461
        y = 160.066017178
    [[NOTE 41]]
        text = 13.4/29
        x = -191.703535444
        y = 123.308657865
    [[NOTE 42]]
        text = 103
        x = 62.0
        y = -91.0
    [[NOTE 43]]
        text = 12.1/24
        x = 181.970562748
        y = -94.8284271247
    [[NOTE 44]]
        text = 3.1/24
        x = -317.39696962
        y = -156.514718626
    [[NOTE 45]]
        text = 17.1/24
        x = 231.0
        y = -171.0
    [[NOTE 46]]
        text = 5.5/27
        x = 37.9289321881
        y = 311.849242405
    [[NOTE 47]]
        text = 10.10.34.4/24
        x = -332.703535444
        y = 100.107647738
    [[NOTE 48]]
        text = 27.7/24
        x = 337.066017178
        y = -124.732972695
    [[NOTE 49]]
        text = 15.1/29
        x = 105.029437252
        y = -170.568542495
    [[SHAPE 1]]
        type = ellipse
        x = -367.0
        y = -279.0
        width = 565.0
        height = 588.0
        fill_color = "#00aaff"
        border_style = 2
        z = -2.0
    [[SHAPE 2]]
        type = ellipse
        x = 176.776695297
        y = -337.997041407
        width = 312.541197284
        height = 681.650937064
        fill_color = "#00ffff"
        border_style = 2
        z = -2.0
    [[SHAPE 3]]
        type = ellipse
        x = -14.1421356237
        y = -318.198051534
        width = 200.0
        height = 719.834703248
        fill_color = "#0055ff"
        border_style = 2
        z = -3.0
