Nov 27 16:23:17.091 HYPERVISOR: Release 0.2.17-amd64/Linux (tag 2017072410)
Nov 27 16:23:17.091 HYPERVISOR: Started on IP = 127.0.0.1, TCP port = 35943.
Nov 27 16:23:17.105 HYPERVISOR: exec_cmd: hypervisor version 
Nov 27 16:23:17.105 HYPERVISOR: exec_cmd: hypervisor working_dir /media/actionmystique/SAMSUNG5-VMs/Labs/GNS3/TT 1-linux-/project-files/dynamips 
Nov 27 16:23:17.105 GENERAL: working_dir=/media/actionmystique/SAMSUNG5-VMs/Labs/GNS3/TT 1-linux-/project-files/dynamips
Nov 27 16:23:17.105 HYPERVISOR: exec_cmd: vm create Core 4 c3725 
Nov 27 16:23:17.105 VM: VM Core created.
Nov 27 16:23:17.106 HYPERVISOR: exec_cmd: vm set_con_tcp_port Core 2005 
Nov 27 16:23:17.106 HYPERVISOR: exec_cmd: c3725 get_mac_addr Core 
Nov 27 16:23:17.106 HYPERVISOR: exec_cmd: vm set_ram Core 256 
Nov 27 16:23:17.107 HYPERVISOR: exec_cmd: vm set_nvram Core 256 
Nov 27 16:23:17.107 HYPERVISOR: exec_cmd: vm get_status Core 
Nov 27 16:23:17.107 HYPERVISOR: exec_cmd: vm set_idle_pc Core 0x60c056e4 
Nov 27 16:23:17.108 HYPERVISOR: exec_cmd: c3725 set_mac_addr Core c204.0c3e.0000 
Nov 27 16:23:17.108 HYPERVISOR: exec_cmd: vm get_status Core 
Nov 27 16:23:17.108 HYPERVISOR: exec_cmd: vm slot_add_binding Core 1 0 NM-16ESW 
Nov 27 16:23:17.109 HYPERVISOR: exec_cmd: vm set_disk0 Core 1 
Nov 27 16:23:17.109 HYPERVISOR: exec_cmd: vm set_ios Core /media/actionmystique/SAMSUNG5-VMs/Images/GNS3/IOS/c3725-adventerprisek9-mz.124-15.T10.image 
Nov 27 16:23:17.110 HYPERVISOR: exec_cmd: vm slot_add_binding Core 0 16 WIC-2T 
Nov 27 16:23:17.110 HYPERVISOR: exec_cmd: vm set_config Core configs/i4_startup-config.cfg 
Nov 27 16:23:17.110 HYPERVISOR: exec_cmd: vm set_config Core configs/i4_startup-config.cfg configs/i4_private-config.cfg 
Nov 27 16:23:17.382 HYPERVISOR: exec_cmd: nio create_udp udp-d4963729-50d4-4653-8bea-8e5f93e46136 15003 127.0.0.1 15004 
Nov 27 16:23:17.391 HYPERVISOR: exec_cmd: vm slot_add_nio_binding Core 1 1 udp-d4963729-50d4-4653-8bea-8e5f93e46136 
Nov 27 16:23:17.392 HYPERVISOR: exec_cmd: vm get_status Core 
Nov 27 16:23:17.499 HYPERVISOR: exec_cmd: nio create_udp udp-f657b077-0656-4960-8595-96e4dd6ad11b 15011 127.0.0.1 15012 
Nov 27 16:23:17.503 HYPERVISOR: exec_cmd: vm slot_add_nio_binding Core 1 0 udp-f657b077-0656-4960-8595-96e4dd6ad11b 
Nov 27 16:23:17.504 HYPERVISOR: exec_cmd: vm get_status Core 
Nov 27 16:23:31.790 HYPERVISOR: exec_cmd: vm get_status Core 
Nov 27 16:23:31.791 HYPERVISOR: exec_cmd: vm extract_config Core 
Nov 27 16:23:31.792 HYPERVISOR: exec_cmd: vm delete Core 
Nov 27 16:23:31.792 VM: VM Core destroyed.
Nov 27 16:23:31.795 HYPERVISOR: exec_cmd: hypervisor stop 
Nov 27 16:23:32.120 HYPERVISOR: Stopped.
Nov 27 16:23:32.120 GENERAL: reset done.
