Nov 27 16:22:47.873 HYPERVISOR: Release 0.2.17-amd64/Linux (tag 2017072410)
Nov 27 16:22:47.873 HYPERVISOR: Started on IP = 127.0.0.1, TCP port = 42485.
Nov 27 16:22:47.893 HYPERVISOR: exec_cmd: hypervisor version 
Nov 27 16:22:47.893 HYPERVISOR: exec_cmd: hypervisor working_dir /media/actionmystique/SAMSUNG5-VMs/Labs/GNS3/git-Public-Labs-Collection/CCNP/TBSHOOT/L3-Technologies/IPv4/High-Availability/VRRP/Jean-Christophe_Manciot/1+/TT 1-linux/project-files/dynamips 
Nov 27 16:22:47.893 GENERAL: working_dir=/media/actionmystique/SAMSUNG5-VMs/Labs/GNS3/git-Public-Labs-Collection/CCNP/TBSHOOT/L3-Technologies/IPv4/High-Availability/VRRP/Jean-Christophe_Manciot/1+/TT 1-linux/project-files/dynamips
Nov 27 16:22:47.894 HYPERVISOR: exec_cmd: vm create SW1 1 c3725 
Nov 27 16:22:47.894 VM: VM SW1 created.
Nov 27 16:22:47.895 HYPERVISOR: exec_cmd: vm set_con_tcp_port SW1 2001 
Nov 27 16:22:47.895 HYPERVISOR: exec_cmd: c3725 get_mac_addr SW1 
Nov 27 16:22:47.896 HYPERVISOR: exec_cmd: vm set_nvram SW1 256 
Nov 27 16:22:47.897 HYPERVISOR: exec_cmd: vm get_status SW1 
Nov 27 16:22:47.897 HYPERVISOR: exec_cmd: vm set_idle_pc SW1 0x60c056e4 
Nov 27 16:22:47.898 HYPERVISOR: exec_cmd: c3725 set_mac_addr SW1 aaaa.aaaa.aaaa 
Nov 27 16:22:47.899 HYPERVISOR: exec_cmd: vm set_exec_area SW1 16 
Nov 27 16:22:47.899 HYPERVISOR: exec_cmd: vm get_status SW1 
Nov 27 16:22:47.900 HYPERVISOR: exec_cmd: vm slot_add_binding SW1 1 0 NM-16ESW 
Nov 27 16:22:47.901 HYPERVISOR: exec_cmd: vm set_ios SW1 /media/actionmystique/SAMSUNG5-VMs/Images/GNS3/IOS/c3725-adventerprisek9-mz.124-15.T10.image 
Nov 27 16:22:47.901 HYPERVISOR: exec_cmd: vm slot_add_binding SW1 0 16 WIC-2T 
Nov 27 16:22:47.902 HYPERVISOR: exec_cmd: vm set_disk0 SW1 1 
Nov 27 16:22:47.905 HYPERVISOR: exec_cmd: vm set_config SW1 configs/i1_startup-config.cfg 
Nov 27 16:22:47.908 HYPERVISOR: exec_cmd: vm set_config SW1 configs/i1_startup-config.cfg configs/i1_private-config.cfg 
Nov 27 16:22:48.078 HYPERVISOR: exec_cmd: nio create_udp udp-e8c608f1-1c06-4bc7-92cb-792289ed8989 15001 127.0.0.1 15002 
Nov 27 16:22:48.079 HYPERVISOR: exec_cmd: vm slot_add_nio_binding SW1 1 6 udp-e8c608f1-1c06-4bc7-92cb-792289ed8989 
Nov 27 16:22:48.079 HYPERVISOR: exec_cmd: vm get_status SW1 
Nov 27 16:22:48.097 HYPERVISOR: exec_cmd: nio create_udp udp-35c0a30f-da49-489a-83c4-01554a4a4f29 15004 127.0.0.1 15000 
Nov 27 16:22:48.100 HYPERVISOR: exec_cmd: vm slot_add_nio_binding SW1 1 5 udp-35c0a30f-da49-489a-83c4-01554a4a4f29 
Nov 27 16:22:48.101 HYPERVISOR: exec_cmd: vm get_status SW1 
Nov 27 16:22:48.149 HYPERVISOR: exec_cmd: nio create_udp udp-5b20fed8-67ec-46f7-bc42-23f68732865d 15007 127.0.0.1 15006 
Nov 27 16:22:48.149 HYPERVISOR: exec_cmd: vm slot_add_nio_binding SW1 1 0 udp-5b20fed8-67ec-46f7-bc42-23f68732865d 
Nov 27 16:22:48.150 HYPERVISOR: exec_cmd: vm get_status SW1 
Nov 27 16:22:48.176 HYPERVISOR: exec_cmd: nio create_udp udp-f7a97612-7f2a-467c-9774-cd7d60b8858c 15012 127.0.0.1 15011 
Nov 27 16:22:48.177 HYPERVISOR: exec_cmd: vm slot_add_nio_binding SW1 1 1 udp-f7a97612-7f2a-467c-9774-cd7d60b8858c 
Nov 27 16:22:48.177 HYPERVISOR: exec_cmd: vm get_status SW1 
