Nov 29 15:37:15.488 HYPERVISOR: Release 0.2.17-amd64/Linux (tag 2017072410)
Nov 29 15:37:15.488 HYPERVISOR: Started on IP = 127.0.0.1, TCP port = 59251.
Nov 29 15:37:15.503 HYPERVISOR: exec_cmd: hypervisor version 
Nov 29 15:37:15.503 HYPERVISOR: exec_cmd: hypervisor working_dir /media/actionmystique/SAMSUNG5-VMs/Labs/GNS3/git-Public-Labs-Collection/CCNP/TBSHOOT/L3-Technologies/IPv6/Addressing/Jean-Christophe_Manciot/1+/TT 1-linux/project-files/dynamips 
Nov 29 15:37:15.503 GENERAL: working_dir=/media/actionmystique/SAMSUNG5-VMs/Labs/GNS3/git-Public-Labs-Collection/CCNP/TBSHOOT/L3-Technologies/IPv6/Addressing/Jean-Christophe_Manciot/1+/TT 1-linux/project-files/dynamips
Nov 29 15:37:15.503 HYPERVISOR: exec_cmd: vm create ESW1 1 c3725 
Nov 29 15:37:15.503 VM: VM ESW1 created.
Nov 29 15:37:15.504 HYPERVISOR: exec_cmd: vm set_con_tcp_port ESW1 2001 
Nov 29 15:37:15.504 HYPERVISOR: exec_cmd: vm set_aux_tcp_port ESW1 2501 
Nov 29 15:37:15.504 HYPERVISOR: exec_cmd: c3725 get_mac_addr ESW1 
Nov 29 15:37:15.505 HYPERVISOR: exec_cmd: vm set_nvram ESW1 256 
Nov 29 15:37:15.505 HYPERVISOR: exec_cmd: vm slot_add_binding ESW1 0 16 WIC-2T 
Nov 29 15:37:15.506 HYPERVISOR: exec_cmd: c3725 set_mac_addr ESW1 c201.281a.0000 
Nov 29 15:37:15.506 HYPERVISOR: exec_cmd: vm set_disk0 ESW1 1 
Nov 29 15:37:15.506 HYPERVISOR: exec_cmd: vm set_ios ESW1 /media/actionmystique/SAMSUNG5-VMs/Images/GNS3/IOS/c3725-adventerprisek9-mz.124-15.T10.image 
Nov 29 15:37:15.507 HYPERVISOR: exec_cmd: vm get_status ESW1 
Nov 29 15:37:15.507 HYPERVISOR: exec_cmd: vm set_idle_pc ESW1 0x614ac27c 
Nov 29 15:37:15.507 HYPERVISOR: exec_cmd: vm get_status ESW1 
Nov 29 15:37:15.508 HYPERVISOR: exec_cmd: vm slot_add_binding ESW1 1 0 NM-16ESW 
Nov 29 15:37:15.508 HYPERVISOR: exec_cmd: vm set_config ESW1 configs/i1_startup-config.cfg 
Nov 29 15:37:15.509 HYPERVISOR: exec_cmd: vm set_config ESW1 configs/i1_startup-config.cfg configs/i1_private-config.cfg 
Nov 29 15:37:15.638 HYPERVISOR: exec_cmd: nio create_udp udp-d9a82a7f-b753-45be-84e1-947e67201507 15005 127.0.0.1 15004 
Nov 29 15:37:15.639 HYPERVISOR: exec_cmd: vm slot_add_nio_binding ESW1 1 2 udp-d9a82a7f-b753-45be-84e1-947e67201507 
Nov 29 15:37:15.640 HYPERVISOR: exec_cmd: vm get_status ESW1 
Nov 29 15:37:15.680 HYPERVISOR: exec_cmd: nio create_udp udp-fd5dfc12-40de-47c7-a8ce-699ff3114f0b 15006 127.0.0.1 15002 
Nov 29 15:37:15.680 HYPERVISOR: exec_cmd: vm slot_add_nio_binding ESW1 1 1 udp-fd5dfc12-40de-47c7-a8ce-699ff3114f0b 
Nov 29 15:37:15.681 HYPERVISOR: exec_cmd: vm get_status ESW1 
Nov 29 15:37:15.687 HYPERVISOR: exec_cmd: nio create_udp udp-7de610dd-30d6-4af1-90f4-cf2d9f4290fc 15007 127.0.0.1 15003 
Nov 29 15:37:15.693 HYPERVISOR: exec_cmd: vm slot_add_nio_binding ESW1 1 0 udp-7de610dd-30d6-4af1-90f4-cf2d9f4290fc 
Nov 29 15:37:15.694 HYPERVISOR: exec_cmd: vm get_status ESW1 
Nov 29 15:37:15.728 HYPERVISOR: exec_cmd: nio create_udp udp-36d6c686-c128-44ac-84e9-c777b82d653a 15008 127.0.0.1 15011 
Nov 29 15:37:15.728 HYPERVISOR: exec_cmd: vm slot_add_nio_binding ESW1 1 3 udp-36d6c686-c128-44ac-84e9-c777b82d653a 
Nov 29 15:37:15.729 HYPERVISOR: exec_cmd: vm get_status ESW1 
Nov 29 15:40:57.500 HYPERVISOR: exec_cmd: vm get_status ESW1 
Nov 29 15:40:57.500 HYPERVISOR: exec_cmd: vm extract_config ESW1 
Nov 29 15:40:57.504 HYPERVISOR: exec_cmd: vm delete ESW1 
Nov 29 15:40:57.505 VM: VM ESW1 destroyed.
Nov 29 15:40:57.505 HYPERVISOR: exec_cmd: hypervisor stop 
Nov 29 15:40:57.748 HYPERVISOR: Stopped.
Nov 29 15:40:57.748 GENERAL: reset done.
