Nov 29 15:24:36.593 HYPERVISOR: Release 0.2.17-amd64/Linux (tag 2017072410)
Nov 29 15:24:36.593 HYPERVISOR: Started on IP = 127.0.0.1, TCP port = 53775.
Nov 29 15:24:36.608 HYPERVISOR: exec_cmd: hypervisor version 
Nov 29 15:24:36.608 HYPERVISOR: exec_cmd: hypervisor working_dir /media/actionmystique/SAMSUNG5-VMs/Labs/GNS3/TT 1-solutions-linux-/project-files/dynamips 
Nov 29 15:24:36.608 GENERAL: working_dir=/media/actionmystique/SAMSUNG5-VMs/Labs/GNS3/TT 1-solutions-linux-/project-files/dynamips
Nov 29 15:24:36.609 HYPERVISOR: exec_cmd: vm create ESW5 5 c3725 
Nov 29 15:24:36.609 VM: VM ESW5 created.
Nov 29 15:24:36.610 HYPERVISOR: exec_cmd: vm set_con_tcp_port ESW5 2010 
Nov 29 15:24:36.611 HYPERVISOR: exec_cmd: c3725 get_mac_addr ESW5 
Nov 29 15:24:36.617 HYPERVISOR: exec_cmd: vm get_status ESW5 
Nov 29 15:24:36.620 HYPERVISOR: exec_cmd: vm slot_add_binding ESW5 1 0 NM-16ESW 
Nov 29 15:24:36.621 HYPERVISOR: exec_cmd: c3725 set_mac_addr ESW5 c205.6a03.0000 
Nov 29 15:24:36.621 HYPERVISOR: exec_cmd: vm set_disk0 ESW5 1 
Nov 29 15:24:36.621 HYPERVISOR: exec_cmd: vm set_nvram ESW5 256 
Nov 29 15:24:36.622 HYPERVISOR: exec_cmd: vm set_ios ESW5 /media/actionmystique/SAMSUNG5-VMs/Images/GNS3/IOS/c3725-adventerprisek9-mz.124-15.T10.image 
Nov 29 15:24:36.622 HYPERVISOR: exec_cmd: vm get_status ESW5 
Nov 29 15:24:36.622 HYPERVISOR: exec_cmd: vm set_idle_pc ESW5 0x60c06d20 
Nov 29 15:24:36.623 HYPERVISOR: exec_cmd: vm slot_add_binding ESW5 0 16 WIC-2T 
Nov 29 15:24:36.623 HYPERVISOR: exec_cmd: vm set_config ESW5 configs/ios_base_startup-config.txt 
Nov 29 15:24:36.624 HYPERVISOR: exec_cmd: vm set_config ESW5 configs/ios_base_startup-config.txt configs/ios_base_private-config.txt 
Nov 29 15:24:36.956 HYPERVISOR: exec_cmd: nio create_udp udp-f7d18078-5d93-4cee-ad22-96b64e02ee65 15018 127.0.0.1 15016 
Nov 29 15:24:36.957 HYPERVISOR: exec_cmd: vm slot_add_nio_binding ESW5 1 0 udp-f7d18078-5d93-4cee-ad22-96b64e02ee65 
Nov 29 15:24:36.957 HYPERVISOR: exec_cmd: vm get_status ESW5 
Nov 29 15:24:36.968 HYPERVISOR: exec_cmd: nio create_udp udp-3ccabac0-5072-437e-809b-6809969f97bd 15017 127.0.0.1 15019 
Nov 29 15:24:36.969 HYPERVISOR: exec_cmd: vm slot_add_nio_binding ESW5 1 1 udp-3ccabac0-5072-437e-809b-6809969f97bd 
Nov 29 15:24:36.969 HYPERVISOR: exec_cmd: vm get_status ESW5 
Nov 29 15:24:54.870 HYPERVISOR: exec_cmd: vm get_status ESW5 
Nov 29 15:24:54.871 HYPERVISOR: exec_cmd: vm extract_config ESW5 
Nov 29 15:24:54.874 HYPERVISOR: exec_cmd: vm delete ESW5 
Nov 29 15:24:54.874 VM: VM ESW5 destroyed.
Nov 29 15:24:54.876 HYPERVISOR: exec_cmd: hypervisor stop 
Nov 29 15:24:55.125 HYPERVISOR: Stopped.
Nov 29 15:24:55.125 GENERAL: reset done.
