Nov 28 08:15:42.961 HYPERVISOR: Release 0.2.17-amd64/Linux (tag 2017072410)
Nov 28 08:15:42.961 HYPERVISOR: Started on IP = 127.0.0.1, TCP port = 38953.
Nov 28 08:15:42.975 HYPERVISOR: exec_cmd: hypervisor version 
Nov 28 08:15:42.975 HYPERVISOR: exec_cmd: hypervisor working_dir /media/actionmystique/SAMSUNG5-VMs/Labs/GNS3/TT 3-linux-/project-files/dynamips 
Nov 28 08:15:42.975 GENERAL: working_dir=/media/actionmystique/SAMSUNG5-VMs/Labs/GNS3/TT 3-linux-/project-files/dynamips
Nov 28 08:15:42.976 HYPERVISOR: exec_cmd: vm create ESW5 5 c3725 
Nov 28 08:15:42.976 VM: VM ESW5 created.
Nov 28 08:15:42.976 HYPERVISOR: exec_cmd: vm set_con_tcp_port ESW5 2010 
Nov 28 08:15:42.976 HYPERVISOR: exec_cmd: c3725 get_mac_addr ESW5 
Nov 28 08:15:42.977 HYPERVISOR: exec_cmd: vm set_disk0 ESW5 1 
Nov 28 08:15:42.977 HYPERVISOR: exec_cmd: vm get_status ESW5 
Nov 28 08:15:42.977 HYPERVISOR: exec_cmd: vm slot_add_binding ESW5 1 0 NM-16ESW 
Nov 28 08:15:42.978 HYPERVISOR: exec_cmd: vm set_ios ESW5 /media/actionmystique/SAMSUNG5-VMs/Images/GNS3/IOS/c3725-adventerprisek9-mz.124-15.T10.image 
Nov 28 08:15:42.978 HYPERVISOR: exec_cmd: c3725 set_mac_addr ESW5 c205.6a03.0000 
Nov 28 08:15:42.979 HYPERVISOR: exec_cmd: vm slot_add_binding ESW5 0 16 WIC-2T 
Nov 28 08:15:42.979 HYPERVISOR: exec_cmd: vm get_status ESW5 
Nov 28 08:15:42.980 HYPERVISOR: exec_cmd: vm set_idle_pc ESW5 0x614ac27c 
Nov 28 08:15:42.980 HYPERVISOR: exec_cmd: vm set_nvram ESW5 256 
Nov 28 08:15:42.980 HYPERVISOR: exec_cmd: vm set_config ESW5 configs/ios_base_startup-config.txt 
Nov 28 08:15:42.981 HYPERVISOR: exec_cmd: vm set_config ESW5 configs/ios_base_startup-config.txt configs/ios_base_private-config.txt 
Nov 28 08:15:43.335 HYPERVISOR: exec_cmd: nio create_udp udp-e8bb42bb-a14a-4a7b-bea7-430a3626cfe1 15017 127.0.0.1 15016 
Nov 28 08:15:43.336 HYPERVISOR: exec_cmd: vm slot_add_nio_binding ESW5 1 0 udp-e8bb42bb-a14a-4a7b-bea7-430a3626cfe1 
Nov 28 08:15:43.336 HYPERVISOR: exec_cmd: vm get_status ESW5 
Nov 28 08:15:43.355 HYPERVISOR: exec_cmd: nio create_udp udp-ba2d6316-4d0a-4adb-890a-e0e9f5b3bdc3 15019 127.0.0.1 15018 
Nov 28 08:15:43.356 HYPERVISOR: exec_cmd: vm slot_add_nio_binding ESW5 1 1 udp-ba2d6316-4d0a-4adb-890a-e0e9f5b3bdc3 
Nov 28 08:15:43.356 HYPERVISOR: exec_cmd: vm get_status ESW5 
Nov 28 08:15:56.960 HYPERVISOR: exec_cmd: vm get_status ESW5 
Nov 28 08:15:56.962 HYPERVISOR: exec_cmd: vm extract_config ESW5 
Nov 28 08:15:56.964 HYPERVISOR: exec_cmd: vm delete ESW5 
Nov 28 08:15:56.964 VM: VM ESW5 destroyed.
Nov 28 08:15:56.966 HYPERVISOR: exec_cmd: hypervisor stop 
Nov 28 08:15:56.989 HYPERVISOR: Stopped.
Nov 28 08:15:56.989 GENERAL: reset done.
