Nov 28 08:15:42.884 HYPERVISOR: Release 0.2.17-amd64/Linux (tag 2017072410)
Nov 28 08:15:42.884 HYPERVISOR: Started on IP = 127.0.0.1, TCP port = 46727.
Nov 28 08:15:42.920 HYPERVISOR: exec_cmd: hypervisor version 
Nov 28 08:15:42.921 HYPERVISOR: exec_cmd: hypervisor working_dir /media/actionmystique/SAMSUNG5-VMs/Labs/GNS3/TT 3-linux-/project-files/dynamips 
Nov 28 08:15:42.921 GENERAL: working_dir=/media/actionmystique/SAMSUNG5-VMs/Labs/GNS3/TT 3-linux-/project-files/dynamips
Nov 28 08:15:42.921 HYPERVISOR: exec_cmd: vm create ESW1 1 c3725 
Nov 28 08:15:42.921 VM: VM ESW1 created.
Nov 28 08:15:42.922 HYPERVISOR: exec_cmd: vm set_con_tcp_port ESW1 2004 
Nov 28 08:15:42.922 HYPERVISOR: exec_cmd: c3725 get_mac_addr ESW1 
Nov 28 08:15:42.923 HYPERVISOR: exec_cmd: vm set_disk0 ESW1 1 
Nov 28 08:15:42.923 HYPERVISOR: exec_cmd: vm get_status ESW1 
Nov 28 08:15:42.924 HYPERVISOR: exec_cmd: vm slot_add_binding ESW1 1 0 NM-16ESW 
Nov 28 08:15:42.924 HYPERVISOR: exec_cmd: vm set_ios ESW1 /media/actionmystique/SAMSUNG5-VMs/Images/GNS3/IOS/c3725-adventerprisek9-mz.124-15.T10.image 
Nov 28 08:15:42.925 HYPERVISOR: exec_cmd: c3725 set_mac_addr ESW1 c201.1b91.0000 
Nov 28 08:15:42.925 HYPERVISOR: exec_cmd: vm slot_add_binding ESW1 0 16 WIC-2T 
Nov 28 08:15:42.926 HYPERVISOR: exec_cmd: vm get_status ESW1 
Nov 28 08:15:42.926 HYPERVISOR: exec_cmd: vm set_idle_pc ESW1 0x614ac27c 
Nov 28 08:15:42.927 HYPERVISOR: exec_cmd: vm set_nvram ESW1 256 
Nov 28 08:15:42.928 HYPERVISOR: exec_cmd: vm set_config ESW1 configs/ios_base_startup-config.txt 
Nov 28 08:15:42.929 HYPERVISOR: exec_cmd: vm set_config ESW1 configs/ios_base_startup-config.txt configs/ios_base_private-config.txt 
Nov 28 08:15:43.229 HYPERVISOR: exec_cmd: nio create_udp udp-e4574f18-bd50-444a-b106-920249080b94 15007 127.0.0.1 15006 
Nov 28 08:15:43.236 HYPERVISOR: exec_cmd: vm slot_add_nio_binding ESW1 1 0 udp-e4574f18-bd50-444a-b106-920249080b94 
Nov 28 08:15:43.237 HYPERVISOR: exec_cmd: vm get_status ESW1 
Nov 28 08:15:43.263 HYPERVISOR: exec_cmd: nio create_udp udp-ab81fd0f-6eab-43fc-84a0-54a606783fc0 15010 127.0.0.1 15008 
Nov 28 08:15:43.264 HYPERVISOR: exec_cmd: vm slot_add_nio_binding ESW1 1 1 udp-ab81fd0f-6eab-43fc-84a0-54a606783fc0 
Nov 28 08:15:43.264 HYPERVISOR: exec_cmd: vm get_status ESW1 
Nov 28 08:15:56.959 HYPERVISOR: exec_cmd: vm get_status ESW1 
Nov 28 08:15:56.962 HYPERVISOR: exec_cmd: vm extract_config ESW1 
Nov 28 08:15:56.964 HYPERVISOR: exec_cmd: vm delete ESW1 
Nov 28 08:15:56.964 VM: VM ESW1 destroyed.
Nov 28 08:15:56.966 HYPERVISOR: exec_cmd: hypervisor stop 
Nov 28 08:15:57.435 HYPERVISOR: Stopped.
Nov 28 08:15:57.435 GENERAL: reset done.
