Nov 28 08:15:22.567 HYPERVISOR: Release 0.2.17-amd64/Linux (tag 2017072410)
Nov 28 08:15:22.567 HYPERVISOR: Started on IP = 127.0.0.1, TCP port = 47271.
Nov 28 08:15:22.588 HYPERVISOR: exec_cmd: hypervisor version 
Nov 28 08:15:22.595 HYPERVISOR: exec_cmd: hypervisor working_dir /media/actionmystique/SAMSUNG5-VMs/Labs/GNS3/git-Public-Labs-Collection/CCNP/TBSHOOT/L3-Technologies/IPv4/PBR/Jean-Christophe_Manciot/1+/TT 3-linux/project-files/dynamips 
Nov 28 08:15:22.595 GENERAL: working_dir=/media/actionmystique/SAMSUNG5-VMs/Labs/GNS3/git-Public-Labs-Collection/CCNP/TBSHOOT/L3-Technologies/IPv4/PBR/Jean-Christophe_Manciot/1+/TT 3-linux/project-files/dynamips
Nov 28 08:15:22.596 HYPERVISOR: exec_cmd: vm create ESW5 5 c3725 
Nov 28 08:15:22.596 VM: VM ESW5 created.
Nov 28 08:15:22.611 HYPERVISOR: exec_cmd: vm set_con_tcp_port ESW5 2010 
Nov 28 08:15:22.613 HYPERVISOR: exec_cmd: c3725 get_mac_addr ESW5 
Nov 28 08:15:22.613 HYPERVISOR: exec_cmd: vm set_disk0 ESW5 1 
Nov 28 08:15:22.614 HYPERVISOR: exec_cmd: vm get_status ESW5 
Nov 28 08:15:22.614 HYPERVISOR: exec_cmd: vm slot_add_binding ESW5 1 0 NM-16ESW 
Nov 28 08:15:22.615 HYPERVISOR: exec_cmd: vm set_ios ESW5 /media/actionmystique/SAMSUNG5-VMs/Images/GNS3/IOS/c3725-adventerprisek9-mz.124-15.T10.image 
Nov 28 08:15:22.615 HYPERVISOR: exec_cmd: c3725 set_mac_addr ESW5 c205.6a03.0000 
Nov 28 08:15:22.615 HYPERVISOR: exec_cmd: vm slot_add_binding ESW5 0 16 WIC-2T 
Nov 28 08:15:22.616 HYPERVISOR: exec_cmd: vm get_status ESW5 
Nov 28 08:15:22.616 HYPERVISOR: exec_cmd: vm set_idle_pc ESW5 0x614ac27c 
Nov 28 08:15:22.617 HYPERVISOR: exec_cmd: vm set_nvram ESW5 256 
Nov 28 08:15:22.617 HYPERVISOR: exec_cmd: vm set_config ESW5 configs/ios_base_startup-config.txt 
Nov 28 08:15:22.617 HYPERVISOR: exec_cmd: vm set_config ESW5 configs/ios_base_startup-config.txt configs/ios_base_private-config.txt 
Nov 28 08:15:22.842 HYPERVISOR: exec_cmd: nio create_udp udp-9c8aa37c-6288-40ae-894c-35c89d2e3dc7 15017 127.0.0.1 15016 
Nov 28 08:15:22.842 HYPERVISOR: exec_cmd: vm slot_add_nio_binding ESW5 1 0 udp-9c8aa37c-6288-40ae-894c-35c89d2e3dc7 
Nov 28 08:15:22.842 HYPERVISOR: exec_cmd: vm get_status ESW5 
Nov 28 08:15:22.855 HYPERVISOR: exec_cmd: nio create_udp udp-2bc6b5e3-a15f-4d55-b6c1-adb6a39a3f79 15018 127.0.0.1 15019 
Nov 28 08:15:22.856 HYPERVISOR: exec_cmd: vm slot_add_nio_binding ESW5 1 1 udp-2bc6b5e3-a15f-4d55-b6c1-adb6a39a3f79 
Nov 28 08:15:22.856 HYPERVISOR: exec_cmd: vm get_status ESW5 
