Nov 28 08:15:22.494 HYPERVISOR: Release 0.2.17-amd64/Linux (tag 2017072410)
Nov 28 08:15:22.494 HYPERVISOR: Started on IP = 127.0.0.1, TCP port = 44795.
Nov 28 08:15:22.520 HYPERVISOR: exec_cmd: hypervisor version 
Nov 28 08:15:22.521 HYPERVISOR: exec_cmd: hypervisor working_dir /media/actionmystique/SAMSUNG5-VMs/Labs/GNS3/git-Public-Labs-Collection/CCNP/TBSHOOT/L3-Technologies/IPv4/PBR/Jean-Christophe_Manciot/1+/TT 3-linux/project-files/dynamips 
Nov 28 08:15:22.521 GENERAL: working_dir=/media/actionmystique/SAMSUNG5-VMs/Labs/GNS3/git-Public-Labs-Collection/CCNP/TBSHOOT/L3-Technologies/IPv4/PBR/Jean-Christophe_Manciot/1+/TT 3-linux/project-files/dynamips
Nov 28 08:15:22.522 HYPERVISOR: exec_cmd: vm create ESW1 1 c3725 
Nov 28 08:15:22.522 VM: VM ESW1 created.
Nov 28 08:15:22.523 HYPERVISOR: exec_cmd: vm set_con_tcp_port ESW1 2004 
Nov 28 08:15:22.523 HYPERVISOR: exec_cmd: c3725 get_mac_addr ESW1 
Nov 28 08:15:22.524 HYPERVISOR: exec_cmd: vm set_disk0 ESW1 1 
Nov 28 08:15:22.524 HYPERVISOR: exec_cmd: vm get_status ESW1 
Nov 28 08:15:22.525 HYPERVISOR: exec_cmd: vm slot_add_binding ESW1 1 0 NM-16ESW 
Nov 28 08:15:22.527 HYPERVISOR: exec_cmd: vm set_ios ESW1 /media/actionmystique/SAMSUNG5-VMs/Images/GNS3/IOS/c3725-adventerprisek9-mz.124-15.T10.image 
Nov 28 08:15:22.528 HYPERVISOR: exec_cmd: c3725 set_mac_addr ESW1 c201.1b91.0000 
Nov 28 08:15:22.529 HYPERVISOR: exec_cmd: vm slot_add_binding ESW1 0 16 WIC-2T 
Nov 28 08:15:22.531 HYPERVISOR: exec_cmd: vm get_status ESW1 
Nov 28 08:15:22.531 HYPERVISOR: exec_cmd: vm set_idle_pc ESW1 0x614ac27c 
Nov 28 08:15:22.534 HYPERVISOR: exec_cmd: vm set_nvram ESW1 256 
Nov 28 08:15:22.535 HYPERVISOR: exec_cmd: vm set_config ESW1 configs/ios_base_startup-config.txt 
Nov 28 08:15:22.537 HYPERVISOR: exec_cmd: vm set_config ESW1 configs/ios_base_startup-config.txt configs/ios_base_private-config.txt 
Nov 28 08:15:22.759 HYPERVISOR: exec_cmd: nio create_udp udp-8cc0f33a-0935-4847-88e2-8d368e2ca258 15009 127.0.0.1 15010 
Nov 28 08:15:22.760 HYPERVISOR: exec_cmd: vm slot_add_nio_binding ESW1 1 0 udp-8cc0f33a-0935-4847-88e2-8d368e2ca258 
Nov 28 08:15:22.760 HYPERVISOR: exec_cmd: vm get_status ESW1 
Nov 28 08:15:22.785 HYPERVISOR: exec_cmd: nio create_udp udp-6ba34796-ce6f-441e-9c87-3aa60c7392c8 15008 127.0.0.1 15011 
Nov 28 08:15:22.785 HYPERVISOR: exec_cmd: vm slot_add_nio_binding ESW1 1 1 udp-6ba34796-ce6f-441e-9c87-3aa60c7392c8 
Nov 28 08:15:22.786 HYPERVISOR: exec_cmd: vm get_status ESW1 
