Nov 28 08:34:30.796 HYPERVISOR: Release 0.2.17-amd64/Linux (tag 2017072410)
Nov 28 08:34:30.796 HYPERVISOR: Started on IP = 127.0.0.1, TCP port = 34099.
Nov 28 08:34:30.835 HYPERVISOR: exec_cmd: hypervisor version 
Nov 28 08:34:30.835 HYPERVISOR: exec_cmd: hypervisor working_dir /media/actionmystique/SAMSUNG5-VMs/Labs/GNS3/TT 1-linux-/project-files/dynamips 
Nov 28 08:34:30.835 GENERAL: working_dir=/media/actionmystique/SAMSUNG5-VMs/Labs/GNS3/TT 1-linux-/project-files/dynamips
Nov 28 08:34:30.835 HYPERVISOR: exec_cmd: vm create ESW1 1 c3725 
Nov 28 08:34:30.835 VM: VM ESW1 created.
Nov 28 08:34:30.836 HYPERVISOR: exec_cmd: vm set_con_tcp_port ESW1 2004 
Nov 28 08:34:30.836 HYPERVISOR: exec_cmd: c3725 get_mac_addr ESW1 
Nov 28 08:34:30.836 HYPERVISOR: exec_cmd: vm set_disk0 ESW1 1 
Nov 28 08:34:30.837 HYPERVISOR: exec_cmd: vm get_status ESW1 
Nov 28 08:34:30.837 HYPERVISOR: exec_cmd: vm slot_add_binding ESW1 1 0 NM-16ESW 
Nov 28 08:34:30.838 HYPERVISOR: exec_cmd: vm set_ios ESW1 /media/actionmystique/SAMSUNG5-VMs/Images/GNS3/IOS/c3725-adventerprisek9-mz.124-15.T10.image 
Nov 28 08:34:30.838 HYPERVISOR: exec_cmd: c3725 set_mac_addr ESW1 c201.1b91.0000 
Nov 28 08:34:30.838 HYPERVISOR: exec_cmd: vm slot_add_binding ESW1 0 16 WIC-2T 
Nov 28 08:34:30.839 HYPERVISOR: exec_cmd: vm get_status ESW1 
Nov 28 08:34:30.839 HYPERVISOR: exec_cmd: vm set_idle_pc ESW1 0x614ac27c 
Nov 28 08:34:30.840 HYPERVISOR: exec_cmd: vm set_nvram ESW1 256 
Nov 28 08:34:30.840 HYPERVISOR: exec_cmd: vm set_config ESW1 configs/ios_base_startup-config.txt 
Nov 28 08:34:30.841 HYPERVISOR: exec_cmd: vm set_config ESW1 configs/ios_base_startup-config.txt configs/ios_base_private-config.txt 
Nov 28 08:34:31.067 HYPERVISOR: exec_cmd: nio create_udp udp-47a61098-1ff4-4417-a5f4-96dd9992a613 15007 127.0.0.1 15008 
Nov 28 08:34:31.068 HYPERVISOR: exec_cmd: vm slot_add_nio_binding ESW1 1 1 udp-47a61098-1ff4-4417-a5f4-96dd9992a613 
Nov 28 08:34:31.068 HYPERVISOR: exec_cmd: vm get_status ESW1 
Nov 28 08:34:31.075 HYPERVISOR: exec_cmd: nio create_udp udp-77895385-2cbe-4193-8a57-78fe9b09fa45 15006 127.0.0.1 15009 
Nov 28 08:34:31.075 HYPERVISOR: exec_cmd: vm slot_add_nio_binding ESW1 1 0 udp-77895385-2cbe-4193-8a57-78fe9b09fa45 
Nov 28 08:34:31.075 HYPERVISOR: exec_cmd: vm get_status ESW1 
Nov 28 08:34:51.843 HYPERVISOR: exec_cmd: vm get_status ESW1 
Nov 28 08:34:51.845 HYPERVISOR: exec_cmd: vm extract_config ESW1 
Nov 28 08:34:51.846 HYPERVISOR: exec_cmd: vm delete ESW1 
Nov 28 08:34:51.846 VM: VM ESW1 destroyed.
Nov 28 08:34:51.848 HYPERVISOR: exec_cmd: hypervisor stop 
Nov 28 08:34:51.856 HYPERVISOR: Stopped.
Nov 28 08:34:51.856 GENERAL: reset done.
