Nov 27 16:17:24.801 HYPERVISOR: Release 0.2.17-amd64/Linux (tag 2017072410)
Nov 27 16:17:24.801 HYPERVISOR: Started on IP = 127.0.0.1, TCP port = 42749.
Nov 27 16:17:24.816 HYPERVISOR: exec_cmd: hypervisor version 
Nov 27 16:17:24.829 HYPERVISOR: exec_cmd: hypervisor working_dir /media/actionmystique/SAMSUNG5-VMs/Labs/GNS3/git-Public-Labs-Collection/CCNP/TBSHOOT/L3-Technologies/BFD/Jean-Christophe_Manciot/1+/TT 1-solutions-linux/project-files/dynamips 
Nov 27 16:17:24.829 GENERAL: working_dir=/media/actionmystique/SAMSUNG5-VMs/Labs/GNS3/git-Public-Labs-Collection/CCNP/TBSHOOT/L3-Technologies/BFD/Jean-Christophe_Manciot/1+/TT 1-solutions-linux/project-files/dynamips
Nov 27 16:17:24.832 HYPERVISOR: exec_cmd: vm create ESW5 5 c3725 
Nov 27 16:17:24.832 VM: VM ESW5 created.
Nov 27 16:17:24.833 HYPERVISOR: exec_cmd: vm set_con_tcp_port ESW5 2010 
Nov 27 16:17:24.835 HYPERVISOR: exec_cmd: c3725 get_mac_addr ESW5 
Nov 27 16:17:24.836 HYPERVISOR: exec_cmd: vm set_nvram ESW5 256 
Nov 27 16:17:24.837 HYPERVISOR: exec_cmd: vm get_status ESW5 
Nov 27 16:17:24.838 HYPERVISOR: exec_cmd: vm set_idle_pc ESW5 0x60c06d20 
Nov 27 16:17:24.839 HYPERVISOR: exec_cmd: c3725 set_mac_addr ESW5 c205.6a03.0000 
Nov 27 16:17:24.840 HYPERVISOR: exec_cmd: vm get_status ESW5 
Nov 27 16:17:24.841 HYPERVISOR: exec_cmd: vm slot_add_binding ESW5 1 0 NM-16ESW 
Nov 27 16:17:24.842 HYPERVISOR: exec_cmd: vm set_disk0 ESW5 1 
Nov 27 16:17:24.843 HYPERVISOR: exec_cmd: vm set_ios ESW5 /media/actionmystique/SAMSUNG5-VMs/Images/GNS3/IOS/c3725-adventerprisek9-mz.124-15.T10.image 
Nov 27 16:17:24.845 HYPERVISOR: exec_cmd: vm slot_add_binding ESW5 0 16 WIC-2T 
Nov 27 16:17:24.846 HYPERVISOR: exec_cmd: vm set_config ESW5 configs/ios_base_startup-config.txt 
Nov 27 16:17:24.848 HYPERVISOR: exec_cmd: vm set_config ESW5 configs/ios_base_startup-config.txt configs/ios_base_private-config.txt 
Nov 27 16:17:25.165 HYPERVISOR: exec_cmd: nio create_udp udp-682edce7-2320-4f28-a29f-71a46ce7d8b7 15010 127.0.0.1 15008 
Nov 27 16:17:25.165 HYPERVISOR: exec_cmd: vm slot_add_nio_binding ESW5 1 0 udp-682edce7-2320-4f28-a29f-71a46ce7d8b7 
Nov 27 16:17:25.166 HYPERVISOR: exec_cmd: vm get_status ESW5 
Nov 27 16:17:25.172 HYPERVISOR: exec_cmd: nio create_udp udp-ec8a25cc-7c9a-4309-89a5-bf5f461ad500 15009 127.0.0.1 15011 
Nov 27 16:17:25.173 HYPERVISOR: exec_cmd: vm slot_add_nio_binding ESW5 1 1 udp-ec8a25cc-7c9a-4309-89a5-bf5f461ad500 
Nov 27 16:17:25.174 HYPERVISOR: exec_cmd: vm get_status ESW5 
