Nov 26 21:03:04.635 HYPERVISOR: Release 0.2.17-amd64/Linux (tag 2017072410)
Nov 26 21:03:04.635 HYPERVISOR: Started on IP = 127.0.0.1, TCP port = 54605.
Nov 26 21:03:04.656 HYPERVISOR: exec_cmd: hypervisor version 
Nov 26 21:03:04.673 HYPERVISOR: exec_cmd: hypervisor working_dir /media/actionmystique/SAMSUNG5-VMs/Labs/GNS3/PVST+ EIGRP DHCP/project-files/dynamips 
Nov 26 21:03:04.673 GENERAL: working_dir=/media/actionmystique/SAMSUNG5-VMs/Labs/GNS3/PVST+ EIGRP DHCP/project-files/dynamips
Nov 26 21:03:04.685 HYPERVISOR: exec_cmd: vm create SW2 2 c3725 
Nov 26 21:03:04.685 VM: VM SW2 created.
Nov 26 21:03:04.697 HYPERVISOR: exec_cmd: vm set_con_tcp_port SW2 2002 
Nov 26 21:03:04.699 HYPERVISOR: exec_cmd: vm set_aux_tcp_port SW2 2502 
Nov 26 21:03:04.701 HYPERVISOR: exec_cmd: c3725 get_mac_addr SW2 
Nov 26 21:03:04.704 HYPERVISOR: exec_cmd: vm set_ios SW2 /media/actionmystique/SAMSUNG5-VMs/Images/GNS3/IOS/c3725-adventerprisek9-mz.124-15.T5.image 
Nov 26 21:03:04.707 HYPERVISOR: exec_cmd: vm get_status SW2 
Nov 26 21:03:04.709 HYPERVISOR: exec_cmd: vm set_idle_pc SW2 0x62af9f1c 
Nov 26 21:03:04.715 HYPERVISOR: exec_cmd: vm get_status SW2 
Nov 26 21:03:04.725 HYPERVISOR: exec_cmd: vm slot_add_binding SW2 1 0 NM-16ESW 
Nov 26 21:03:04.727 HYPERVISOR: exec_cmd: vm set_config SW2 configs/i2_startup-config.cfg 
Nov 26 21:03:05.370 HYPERVISOR: exec_cmd: vm extract_config SW2 
Nov 26 21:03:05.510 HYPERVISOR: exec_cmd: nio create_udp udp-e287c40a-ee51-4df1-986a-ea235a9a89c4 15015 127.0.0.1 15014 
Nov 26 21:03:05.511 HYPERVISOR: exec_cmd: vm slot_add_nio_binding SW2 1 0 udp-e287c40a-ee51-4df1-986a-ea235a9a89c4 
Nov 26 21:03:05.511 HYPERVISOR: exec_cmd: vm get_status SW2 
Nov 26 21:03:05.521 HYPERVISOR: exec_cmd: nio create_udp udp-6d064636-f0ed-4a32-abe6-55880aeed2ae 15016 127.0.0.1 15017 
Nov 26 21:03:05.522 HYPERVISOR: exec_cmd: vm slot_add_nio_binding SW2 1 3 udp-6d064636-f0ed-4a32-abe6-55880aeed2ae 
Nov 26 21:03:05.522 HYPERVISOR: exec_cmd: vm get_status SW2 
Nov 26 21:03:05.568 HYPERVISOR: exec_cmd: nio create_udp udp-dde35fd5-9ad0-465f-8f32-4e2b465c0908 15020 127.0.0.1 15021 
Nov 26 21:03:05.569 HYPERVISOR: exec_cmd: vm slot_add_nio_binding SW2 1 1 udp-dde35fd5-9ad0-465f-8f32-4e2b465c0908 
Nov 26 21:03:05.569 HYPERVISOR: exec_cmd: vm get_status SW2 
Nov 26 21:03:05.596 HYPERVISOR: exec_cmd: nio create_udp udp-d5caa5f5-decb-499a-8ec5-dc4c132de4c1 15022 127.0.0.1 15024 
Nov 26 21:03:05.597 HYPERVISOR: exec_cmd: vm slot_add_nio_binding SW2 1 2 udp-d5caa5f5-decb-499a-8ec5-dc4c132de4c1 
Nov 26 21:03:05.597 HYPERVISOR: exec_cmd: vm get_status SW2 
Nov 26 21:03:42.415 HYPERVISOR: exec_cmd: vm get_status SW2 
Nov 26 21:03:42.418 HYPERVISOR: exec_cmd: vm extract_config SW2 
Nov 26 21:03:42.465 HYPERVISOR: exec_cmd: vm delete SW2 
Nov 26 21:03:42.466 VM: VM SW2 destroyed.
Nov 26 21:03:42.470 HYPERVISOR: exec_cmd: hypervisor stop 
Nov 26 21:03:42.680 HYPERVISOR: Stopped.
Nov 26 21:03:42.680 GENERAL: reset done.
