autostart = False
version = 0.8.4-RC2
[127.0.0.1:7202]
    workingdir = working
    udp = 10200
[127.0.0.1:7203]
    workingdir = working
    udp = 10300
    [[3725]]
        image = C:\Users\ActionMystique\Google Drive\Missions\Certifications\Cisco\IOS\Binaries\c3725-adventerprisek9-mz.124-15.T5.image
        ram = 128
        idlepc = 0x602649b4
        idlemax = 500
        sparsemem = True
        ghostios = True
    [[ROUTER DistSW]]
        model = 3725
        console = 2106
        aux = 2506
        cnfg = configs\DistSW.cfg
        slot1 = NM-16ESW
        f1/0 = AccessSW f1/0
        f1/1 = AccessSW f1/1
        x = -49.0
        y = -179.0
        z = 1.0
    [[ROUTER AccessSW]]
        model = 3725
        console = 2107
        aux = 2507
        cnfg = configs\AccessSW.cfg
        slot1 = NM-16ESW
        f1/0 = DistSW f1/0
        f1/1 = DistSW f1/1
        f1/10 = NIO_udp:30000:127.0.0.1:20000
        f1/11 = NIO_udp:30001:127.0.0.1:20001
        f1/12 = NIO_udp:30002:127.0.0.1:20002
        f1/13 = NIO_udp:30003:127.0.0.1:20003
        f1/14 = NIO_udp:30004:127.0.0.1:20004
        f1/15 = NIO_udp:30005:127.0.0.1:20005
        x = -47.0
        y = -23.0
        z = 1.0
[127.0.0.1:7201]
    workingdir = working
    udp = 10100
[GNS3-DATA]
    configs = configs
    workdir = working
    [[NOTE 1]]
        text = "EtherChannel"
        x = -53.0
        y = -92.0
        color = "#ff0000"
    [[NOTE 2]]
        text = "EtherChannel STP"
        x = -146.0
        y = -271.0
        font = "MS Shell Dlg 2,20,-1,5,75,0,1,0,0,0"
    [[NOTE 3]]
        text = "VLAN 51"
        x = -41.0
        y = 274.0
        color = "#0055ff"
    [[NOTE 4]]
        text = "VLAN 50"
        x = -288.0
        y = 184.0
        color = "#0055ff"
    [[NOTE 5]]
        text = "VLAN 52"
        x = 223.0
        y = 184.0
        color = "#0055ff"
    [[Cloud VPCS-1]]
        symbol = Host
        x = -302.5
        y = 106.5
        z = 1.0
        connections = AccessSW:f1/10:NIO_udp:30000:127.0.0.1:20000
    [[Cloud VPCS-3]]
        symbol = Host
        x = -96.5
        y = 208.5
        z = 1.0
        connections = AccessSW:f1/12:NIO_udp:30002:127.0.0.1:20002
    [[Cloud VPCS-2]]
        symbol = Host
        x = -200.5
        y = 163.5
        z = 1.0
        connections = AccessSW:f1/11:NIO_udp:30001:127.0.0.1:20001
    [[SHAPE 1]]
        type = ellipse
        x = -322.0
        y = 60.0
        width = 200.0
        height = 200.0
        border_style = 2
        z = 1.0
    [[Cloud VPCS-6]]
        symbol = Host
        x = 214.5
        y = 100.5
        z = 1.0
        connections = AccessSW:f1/15:NIO_udp:30005:127.0.0.1:20005
    [[Cloud VPCS-5]]
        symbol = Host
        x = 138.5
        y = 167.5
        z = 1.0
        connections = AccessSW:f1/14:NIO_udp:30004:127.0.0.1:20004
    [[Cloud VPCS-4]]
        symbol = Host
        x = 15.5
        y = 208.5
        z = 1.0
        connections = AccessSW:f1/13:NIO_udp:30003:127.0.0.1:20003
    [[SHAPE 2]]
        type = ellipse
        x = 108.0
        y = 62.0
        width = 200.0
        height = 200.0
        border_style = 2
    [[SHAPE 3]]
        type = ellipse
        x = -107.0
        y = 111.0
        width = 200.0
        height = 200.0
        border_style = 2
    [[PIXMAP 1]]
        path = working\Etherchannel.JPG
        x = -972.0
        y = -274.0
        z = -1.0
