autostart = False
version = 0.8.2
[127.0.0.1:7200]
    workingdir = C:\Users\ActionMystique\Documents\Missions\GNS3\Temp
    udp = 10000
    [[3725]]
        image = C:\Users\ActionMystique\Documents\Missions\IOS\Binaries\c3725-adventerprisek9-mz.124-15.T5.image
        ram = 128
        idlepc = 0x6148b534
        sparsemem = True
        ghostios = True
    [[ROUTER R4]]
        model = 3725
        console = 2016
        aux = 2113
        cnfg = configs\R4.cfg
        wic0/0 = WIC-2T
        wic0/1 = WIC-2T
        s0/0 = R3 s0/2
        slot1 = NM-1FE-TX
        slot2 = NM-1FE-TX
        x = 329.0
        y = -17.0
        z = 1.0
    [[ROUTER R1]]
        model = 3725
        console = 2013
        aux = 2114
        cnfg = configs\R1.cfg
        wic0/0 = WIC-2T
        wic0/1 = WIC-2T
        s0/0 = R2 s0/0
        s0/1 = R3 s0/0
        slot1 = NM-1FE-TX
        slot2 = NM-1FE-TX
        x = -378.0
        y = -23.0
        z = 1.0
    [[ROUTER R2]]
        model = 3725
        console = 2014
        aux = 2115
        cnfg = configs\R2.cfg
        wic0/0 = WIC-2T
        wic0/1 = WIC-2T
        s0/0 = R1 s0/0
        s0/1 = R3 s0/1
        slot1 = NM-1FE-TX
        slot2 = NM-1FE-TX
        x = -162.0
        y = -321.0
        z = 1.0
    [[ROUTER R3]]
        model = 3725
        console = 2015
        aux = 2116
        cnfg = configs\R3.cfg
        wic0/0 = WIC-2T
        wic0/1 = WIC-2T
        s0/0 = R1 s0/1
        s0/1 = R2 s0/1
        s0/2 = R4 s0/0
        slot1 = NM-1FE-TX
        slot2 = NM-1FE-TX
        x = 31.0
        y = -18.0
        z = 1.0
[GNS3-DATA]
    configs = configs
    width = 5000
    height = 2500
    [[NOTE 1]]
        text = 172:16:12:0/29\n     8 Mbits/s
        x = -370.0
        y = -177.5
    [[NOTE 2]]
        text = 172:16:23:0/29\n     8 Mbits/s
        x = -10.0
        y = -176.5
    [[NOTE 3]]
        text = s0/0\n.2
        x = -206.0
        y = -289.5
    [[NOTE 4]]
        text = s0/0\nDCE\n:1
        x = -345.0
        y = -102.5
    [[NOTE 5]]
        text = s0/1\n:3
        x = 33.0
        y = -86.5
    [[NOTE 6]]
        text = s0/0\n:4
        x = 284.0
        y = 4.5
    [[NOTE 7]]
        text = s0/1\n:1
        x = -300.0
        y = -5.5
    [[NOTE 8]]
        text = s0/0\nDCE\n:3
        x = -18.0
        y = -14.5
    [[NOTE 9]]
        text = Lo1: 192.168.1.1/24
        x = -416.0
        y = 43.5
    [[NOTE 10]]
        text = s0/2\nDCE\n:3
        x = 107.0
        y = -20.5
    [[NOTE 11]]
        text = Lo2: 192.168.2.1/24
        x = -205.0
        y = -374.5
    [[NOTE 12]]
        text = 172:16:34:0/29\n     4 Mbits/s
        x = 170.0
        y = -48.5
    [[NOTE 13]]
        text = Lo3: 192.168.3.1/24
        x = -10.0
        y = 54.5
    [[NOTE 14]]
        text = Lo4: 192.168.4.1/25
        x = 380.0
        y = -62.5
    [[NOTE 15]]
        text = Lo5: 192.168.4.129/25
        x = 374.0
        y = 45.5
    [[NOTE 16]]
        text = s0/1\nDCE\n.2
        x = -78.0
        y = -297.5
    [[NOTE 17]]
        text = 172:16:13:0/29\n     4 Mbits/s
        x = -198.0
        y = -49.5
    [[SHAPE 1]]
        type = ellipse
        x = 372.0
        y = 20.0
        width = 27.0
        height = 22.0
        border_style = 2
        z = -2.0
    [[SHAPE 2]]
        type = ellipse
        x = 372.0
        y = -33.0
        width = 27.0
        height = 22.0
        border_style = 2
        z = -2.0
    [[SHAPE 3]]
        type = ellipse
        x = -167.0
        y = -339.0
        width = 27.0
        height = 22.0
        border_style = 2
        z = -2.0
    [[SHAPE 4]]
        type = ellipse
        x = 50.0
        y = 22.0
        width = 27.0
        height = 22.0
        border_style = 2
        z = -2.0
    [[SHAPE 5]]
        type = ellipse
        x = -359.0
        y = 17.0
        width = 27.0
        height = 22.0
        border_style = 2
        z = -2.0
