autostart = False
version = 0.8.3
[127.0.0.1:7200]
    workingdir = C:\Users\ActionMystique\Documents\Missions\GNS3\Temp
    udp = 10200
    [[3640]]
        image = C:\Users\ActionMystique\Documents\Missions\IOS\Binaries\c3640-jk9o3s-mz.124-16a.bin
        idlepc = 0x6050a078
        sparsemem = True
        ghostios = True
        chassis = 3640
    [[ROUTER Jamaica]]
        model = 3640
        console = 2003
        aux = 2100
        cnfg = configs\Jamaica.cfg
        slot0 = NM-1FE-TX
        f0/0 = Haiti f2/0
        slot1 = NM-1FE-TX
        f1/0 = Cuba f2/0
        x = -93.1040764009
        y = -60.1837661841
        z = 1.0
        hx = 63.4325035256
        hy = 5.40559159102
    [[ROUTER Haiti]]
        model = 3640
        console = 2001
        aux = 2103
        cnfg = configs\Haiti.cfg
        slot0 = NM-1FE-TX
        f0/0 = Suriname f0/0
        slot1 = NM-1FE-TX
        f1/0 = Cuba f1/0
        slot2 = NM-1FE-TX
        f2/0 = Jamaica f0/0
        x = -344.834090503
        y = -163.421356237
        z = 1.0
    [[ROUTER Suriname]]
        model = 3640
        console = 2000
        aux = 2102
        cnfg = configs\Suriname.cfg
        slot0 = NM-1FE-TX
        f0/0 = Haiti f0/0
        slot1 = NM-1FE-TX
        f1/0 = Cuba f0/0
        x = -485.109127035
        y = -56.4142135624
        z = 1.0
        hx = -75.5035713375
        hy = 6.81980515339
    [[ROUTER Cuba]]
        model = 3640
        console = 2002
        aux = 2101
        cnfg = configs\Cuba.cfg
        slot0 = NM-1FE-TX
        f0/0 = Suriname f1/0
        slot1 = NM-1FE-TX
        f1/0 = Haiti f1/0
        slot2 = NM-1FE-TX
        f2/0 = Jamaica f1/0
        x = -342.71277016
        y = 57.9030662741
        z = 1.0
        hx = 11.0
        hy = 38.6396103068
[GNS3-DATA]
    configs = configs
    m11 = 0.999999999998
    m22 = 0.999999999998
    [[NOTE 1]]
        text = "AS 1"
        x = -421.204581465
        y = -198.622366364
        color = "#323232"
    [[NOTE 2]]
        text = "192.168.23.0 /24"
        x = -378.302127935
        y = -54.8284271247
        color = "#0000ff"
    [[NOTE 3]]
        text = ".1"
        x = -424.971175493
        y = -33.1091270347
        color = "#0000ff"
    [[NOTE 4]]
        text = ".2"
        x = -350.724963469
        y = -120.790367902
        color = "#0000ff"
    [[NOTE 5]]
        text = ".3"
        x = -348.603643125
        y = 33.4629867977
        color = "#0000ff"
    [[NOTE 6]]
        text = ".3"
        x = -314.662517628
        y = 17.7056274848
        color = "#0000ff"
    [[NOTE 7]]
        text = ".2"
        x = -315.369624409
        y = -109.67766953
        color = "#0000ff"
    [[NOTE 8]]
        text = ".2"
        x = -290.620887068
        y = -128.970562748
        color = "#0000ff"
    [[NOTE 9]]
        text = ".4"
        x = -118.793939239
        y = -38.7588386093
        color = "#0000ff"
    [[NOTE 10]]
        text = ".3"
        x = -283.549819256
        y = 38.0107140124
        color = "#0000ff"
    [[NOTE 11]]
        text = ".4"
        x = -118.793939239
        y = -56.9426047934
        color = "#0000ff"
    [[NOTE 12]]
        text = "AS 2"
        x = -50.2045814642
        y = -133.622366364
        color = "#323232"
    [[NOTE 13]]
        text = "192.168.24.0 /24"
        x = -220.61731573
        y = -144.936074863
        color = "#0000ff"
    [[NOTE 14]]
        text = "192.168.34.0 /24"
        x = -219.203102168
        y = 57.8025612107
        color = "#0000ff"
    [[NOTE 15]]
        text = "192.168.12.0 /24"
        x = -506.995562111
        y = -117.559920524
        color = "#0000ff"
    [[NOTE 16]]
        text = "192.168.13.0 /24"
        x = -506.995562111
        y = 29.3172798365
        color = "#0000ff"
    [[NOTE 17]]
        text = ".1"
        x = -424.264068712
        y = -61.1923881554
        color = "#0000ff"
    [[SHAPE 1]]
        type = ellipse
        x = -134.350288425
        y = -137.17871555
        width = 200.0
        height = 200.0
        fill_color = "#aaff7f"
        border_style = 2
        z = -2.0
    [[SHAPE 2]]
        type = ellipse
        x = -562.149891043
        y = -208.59650045
        width = 372.645273685
        height = 354.967604156
        fill_color = "#ffff7f"
        border_style = 2
        z = -2.0
