Nov 29 15:29:15.215 HYPERVISOR: Release 0.2.17-amd64/Linux (tag 2017072410)
Nov 29 15:29:15.215 HYPERVISOR: Started on IP = 127.0.0.1, TCP port = 42081.
Nov 29 15:29:15.242 HYPERVISOR: exec_cmd: hypervisor version 
Nov 29 15:29:15.242 HYPERVISOR: exec_cmd: hypervisor working_dir /media/actionmystique/SAMSUNG5-VMs/Labs/GNS3/TT 4-linux-/project-files/dynamips 
Nov 29 15:29:15.242 GENERAL: working_dir=/media/actionmystique/SAMSUNG5-VMs/Labs/GNS3/TT 4-linux-/project-files/dynamips
Nov 29 15:29:15.242 HYPERVISOR: exec_cmd: vm create ESW8 8 c3725 
Nov 29 15:29:15.242 VM: VM ESW8 created.
Nov 29 15:29:15.243 HYPERVISOR: exec_cmd: vm set_con_tcp_port ESW8 2020 
Nov 29 15:29:15.243 HYPERVISOR: exec_cmd: c3725 get_mac_addr ESW8 
Nov 29 15:29:15.243 HYPERVISOR: exec_cmd: vm set_nvram ESW8 256 
Nov 29 15:29:15.244 HYPERVISOR: exec_cmd: vm slot_add_binding ESW8 0 16 WIC-2T 
Nov 29 15:29:15.244 HYPERVISOR: exec_cmd: c3725 set_mac_addr ESW8 c208.2754.0000 
Nov 29 15:29:15.245 HYPERVISOR: exec_cmd: vm set_disk0 ESW8 1 
Nov 29 15:29:15.245 HYPERVISOR: exec_cmd: vm set_ios ESW8 /media/actionmystique/SAMSUNG5-VMs/Images/GNS3/IOS/c3725-adventerprisek9-mz.124-15.T10.image 
Nov 29 15:29:15.246 HYPERVISOR: exec_cmd: vm get_status ESW8 
Nov 29 15:29:15.247 HYPERVISOR: exec_cmd: vm set_idle_pc ESW8 0x6026b804 
Nov 29 15:29:15.248 HYPERVISOR: exec_cmd: vm get_status ESW8 
Nov 29 15:29:15.249 HYPERVISOR: exec_cmd: vm slot_add_binding ESW8 1 0 NM-16ESW 
Nov 29 15:29:15.250 HYPERVISOR: exec_cmd: vm set_config ESW8 configs/i8_startup-config.cfg 
Nov 29 15:29:15.885 HYPERVISOR: exec_cmd: nio create_udp udp-7e20c4b1-1282-4459-a402-cd34a6169286 15030 127.0.0.1 15028 
Nov 29 15:29:15.885 HYPERVISOR: exec_cmd: vm slot_add_nio_binding ESW8 1 1 udp-7e20c4b1-1282-4459-a402-cd34a6169286 
Nov 29 15:29:15.886 HYPERVISOR: exec_cmd: vm get_status ESW8 
Nov 29 15:29:15.892 HYPERVISOR: exec_cmd: nio create_udp udp-068a4788-ec4a-484b-b377-f85a5f33a279 15029 127.0.0.1 15032 
Nov 29 15:29:15.893 HYPERVISOR: exec_cmd: vm slot_add_nio_binding ESW8 1 0 udp-068a4788-ec4a-484b-b377-f85a5f33a279 
Nov 29 15:29:15.893 HYPERVISOR: exec_cmd: vm get_status ESW8 
Nov 29 15:29:34.465 HYPERVISOR: exec_cmd: vm get_status ESW8 
Nov 29 15:29:34.468 HYPERVISOR: exec_cmd: vm extract_config ESW8 
Nov 29 15:29:34.474 HYPERVISOR: exec_cmd: vm delete ESW8 
Nov 29 15:29:34.474 VM: VM ESW8 destroyed.
Nov 29 15:29:34.477 HYPERVISOR: exec_cmd: hypervisor stop 
Nov 29 15:29:34.757 HYPERVISOR: Stopped.
Nov 29 15:29:34.757 GENERAL: reset done.
