Aug 31 18:28:02.195 HYPERVISOR: Release 0.2.16-amd64/Linux (tag 2015060118)
Aug 31 18:28:02.195 HYPERVISOR: Started on IP = 127.0.0.1, TCP port = 50350.
Aug 31 18:28:02.213 HYPERVISOR: exec_cmd: hypervisor version 
Aug 31 18:28:02.214 HYPERVISOR: exec_cmd: hypervisor working_dir /media/actionmystique/SAMSUNG-850-Ext4/Labs/GNS3/Route Reflectors/project-files/dynamips 
Aug 31 18:28:02.214 GENERAL: working_dir=/media/actionmystique/SAMSUNG-850-Ext4/Labs/GNS3/Route Reflectors/project-files/dynamips
Aug 31 18:28:02.215 HYPERVISOR: exec_cmd: vm create RR-Berlin 3 c7200 
Aug 31 18:28:02.215 VM: VM RR-Berlin created.
Aug 31 18:28:02.216 HYPERVISOR: exec_cmd: vm set_con_tcp_port RR-Berlin 2103 
Aug 31 18:28:02.217 HYPERVISOR: exec_cmd: vm set_aux_tcp_port RR-Berlin 2503 
Aug 31 18:28:02.218 HYPERVISOR: exec_cmd: c7200 get_mac_addr RR-Berlin 
Aug 31 18:28:02.220 HYPERVISOR: exec_cmd: vm get_status RR-Berlin 
Aug 31 18:28:02.221 HYPERVISOR: exec_cmd: vm slot_add_binding RR-Berlin 0 0 C7200-IO-FE 
Aug 31 18:28:02.223 HYPERVISOR: exec_cmd: vm get_status RR-Berlin 
Aug 31 18:28:02.225 HYPERVISOR: exec_cmd: vm slot_add_binding RR-Berlin 2 0 PA-GE 
Aug 31 18:28:02.226 HYPERVISOR: exec_cmd: vm get_status RR-Berlin 
Aug 31 18:28:02.228 HYPERVISOR: exec_cmd: vm set_idle_pc RR-Berlin 0x6062d534 
Aug 31 18:28:02.230 HYPERVISOR: exec_cmd: vm set_ram RR-Berlin 512 
Aug 31 18:28:02.235 HYPERVISOR: exec_cmd: vm get_status RR-Berlin 
Aug 31 18:28:02.243 HYPERVISOR: exec_cmd: vm slot_add_binding RR-Berlin 1 0 PA-GE 
Aug 31 18:28:02.246 HYPERVISOR: exec_cmd: vm get_status RR-Berlin 
Aug 31 18:28:02.247 HYPERVISOR: exec_cmd: vm slot_add_binding RR-Berlin 3 0 PA-GE 
Aug 31 18:28:02.249 HYPERVISOR: exec_cmd: vm get_status RR-Berlin 
Aug 31 18:28:02.251 HYPERVISOR: exec_cmd: vm slot_remove_binding RR-Berlin 0 0 
Aug 31 18:28:02.252 HYPERVISOR: exec_cmd: vm get_status RR-Berlin 
Aug 31 18:28:02.256 HYPERVISOR: exec_cmd: vm slot_add_binding RR-Berlin 0 0 C7200-IO-GE-E 
Aug 31 18:28:02.259 HYPERVISOR: exec_cmd: vm set_ios RR-Berlin /media/actionmystique/SAMSUNG-850-Ext4/Images/GNS3/IOS/c7200-adventerprisek9-mz.152-4.M2.image 
Aug 31 18:28:02.261 HYPERVISOR: exec_cmd: vm set_config RR-Berlin configs/i3_startup-config.cfg 
Aug 31 18:28:02.690 HYPERVISOR: exec_cmd: vm extract_config RR-Berlin 
Aug 31 18:28:02.739 HYPERVISOR: exec_cmd: nio create_udp udp-427d8228-e4ec-49e6-b4bd-ed4db9a3fa3b 15005 127.0.0.1 15004 
Aug 31 18:28:02.740 HYPERVISOR: exec_cmd: vm slot_add_nio_binding RR-Berlin 0 0 udp-427d8228-e4ec-49e6-b4bd-ed4db9a3fa3b 
Aug 31 18:28:02.746 HYPERVISOR: exec_cmd: vm get_status RR-Berlin 
Aug 31 18:28:02.763 HYPERVISOR: exec_cmd: nio create_udp udp-c36e97ec-5756-42c6-bcc2-75315da01593 15006 127.0.0.1 15007 
Aug 31 18:28:02.764 HYPERVISOR: exec_cmd: vm slot_add_nio_binding RR-Berlin 3 0 udp-c36e97ec-5756-42c6-bcc2-75315da01593 
Aug 31 18:28:02.764 HYPERVISOR: exec_cmd: vm get_status RR-Berlin 
Aug 31 18:28:02.783 HYPERVISOR: exec_cmd: nio create_udp udp-d6c1dddb-e9c9-4e7f-962f-83a2dba3dda2 15008 127.0.0.1 15009 
Aug 31 18:28:02.784 HYPERVISOR: exec_cmd: vm slot_add_nio_binding RR-Berlin 2 0 udp-d6c1dddb-e9c9-4e7f-962f-83a2dba3dda2 
Aug 31 18:28:02.784 HYPERVISOR: exec_cmd: vm get_status RR-Berlin 
Aug 31 18:28:02.843 HYPERVISOR: exec_cmd: nio create_udp udp-c0dc2da7-e534-4678-9053-239734998e47 15017 127.0.0.1 15016 
Aug 31 18:28:02.843 HYPERVISOR: exec_cmd: vm slot_add_nio_binding RR-Berlin 1 0 udp-c0dc2da7-e534-4678-9053-239734998e47 
Aug 31 18:28:02.844 HYPERVISOR: exec_cmd: vm get_status RR-Berlin 
Aug 31 18:28:07.142 HYPERVISOR: exec_cmd: vm create Ghost 0 c7200 
Aug 31 18:28:07.142 VM: VM Ghost created.
Aug 31 18:28:07.143 HYPERVISOR: exec_cmd: vm set_ios Ghost /media/actionmystique/SAMSUNG-850-Ext4/Images/GNS3/IOS/c7200-adventerprisek9-mz.152-4.M2.image 
Aug 31 18:28:07.143 HYPERVISOR: exec_cmd: vm set_ghost_status Ghost 1 
Aug 31 18:28:07.144 HYPERVISOR: exec_cmd: vm set_ghost_file Ghost c7200-adventerprisek9-mz.152-4.M2.image-512.ghost 
Aug 31 18:28:07.144 HYPERVISOR: exec_cmd: vm set_ram Ghost 512 
Aug 31 18:28:07.144 HYPERVISOR: exec_cmd: vm get_status Ghost 
Aug 31 18:28:07.147 HYPERVISOR: exec_cmd: vm start Ghost 
Aug 31 18:28:07.628 HYPERVISOR: exec_cmd: vm get_status Ghost 
Aug 31 18:28:07.629 HYPERVISOR: exec_cmd: vm stop Ghost 
Aug 31 18:28:07.794 VM: VM Ghost shutdown.
Aug 31 18:28:07.795 HYPERVISOR: exec_cmd: vm clean_delete Ghost 
Aug 31 18:28:07.795 VM: VM Ghost destroyed.
Aug 31 18:28:07.796 HYPERVISOR: exec_cmd: vm set_ghost_status RR-Berlin 2 
Aug 31 18:28:07.798 HYPERVISOR: exec_cmd: vm set_ghost_file RR-Berlin c7200-adventerprisek9-mz.152-4.M2.image-512.ghost 
Aug 31 18:28:07.798 HYPERVISOR: exec_cmd: vm get_status RR-Berlin 
Aug 31 18:28:07.799 HYPERVISOR: exec_cmd: vm start RR-Berlin 
Aug 31 18:40:58.199 HYPERVISOR: exec_cmd: vm extract_config RR-Berlin 
Aug 31 18:46:15.776 HYPERVISOR: exec_cmd: vm extract_config RR-Berlin 
Aug 31 18:46:18.951 HYPERVISOR: exec_cmd: vm get_status RR-Berlin 
Aug 31 18:46:18.952 HYPERVISOR: exec_cmd: vm stop RR-Berlin 
Aug 31 18:46:19.085 VM: VM RR-Berlin shutdown.
Aug 31 18:46:19.086 HYPERVISOR: exec_cmd: vm extract_config RR-Berlin 
Aug 31 18:46:36.235 HYPERVISOR: exec_cmd: vm get_status RR-Berlin 
Aug 31 18:46:36.239 HYPERVISOR: exec_cmd: vm extract_config RR-Berlin 
Aug 31 18:46:36.243 HYPERVISOR: exec_cmd: vm delete RR-Berlin 
Aug 31 18:46:36.243 VM: VM RR-Berlin destroyed.
Aug 31 18:46:36.248 HYPERVISOR: exec_cmd: hypervisor stop 
Aug 31 18:46:36.718 HYPERVISOR: Stopped.
Aug 31 18:46:36.718 GENERAL: reset done.
