Nov 28 08:36:50.226 HYPERVISOR: Release 0.2.17-amd64/Linux (tag 2017072410)
Nov 28 08:36:50.226 HYPERVISOR: Started on IP = 127.0.0.1, TCP port = 53709.
Nov 28 08:36:50.236 HYPERVISOR: exec_cmd: hypervisor version 
Nov 28 08:36:50.236 HYPERVISOR: exec_cmd: hypervisor working_dir /media/actionmystique/SAMSUNG5-VMs/Labs/GNS3/git-Public-Labs-Collection/CCNP/TBSHOOT/L3-Technologies/IPv4/Routing-Protocols/EIGRP/Jean-Christophe_Manciot/1+/TT 2-solutions-linux/project-files/dynamips 
Nov 28 08:36:50.236 GENERAL: working_dir=/media/actionmystique/SAMSUNG5-VMs/Labs/GNS3/git-Public-Labs-Collection/CCNP/TBSHOOT/L3-Technologies/IPv4/Routing-Protocols/EIGRP/Jean-Christophe_Manciot/1+/TT 2-solutions-linux/project-files/dynamips
Nov 28 08:36:50.236 HYPERVISOR: exec_cmd: vm create ESW1 1 c3725 
Nov 28 08:36:50.236 VM: VM ESW1 created.
Nov 28 08:36:50.237 HYPERVISOR: exec_cmd: vm set_con_tcp_port ESW1 2004 
Nov 28 08:36:50.237 HYPERVISOR: exec_cmd: c3725 get_mac_addr ESW1 
Nov 28 08:36:50.238 HYPERVISOR: exec_cmd: vm set_disk0 ESW1 1 
Nov 28 08:36:50.238 HYPERVISOR: exec_cmd: vm get_status ESW1 
Nov 28 08:36:50.238 HYPERVISOR: exec_cmd: vm slot_add_binding ESW1 1 0 NM-16ESW 
Nov 28 08:36:50.239 HYPERVISOR: exec_cmd: vm set_ios ESW1 /media/actionmystique/SAMSUNG5-VMs/Images/GNS3/IOS/c3725-adventerprisek9-mz.124-15.T10.image 
Nov 28 08:36:50.239 HYPERVISOR: exec_cmd: c3725 set_mac_addr ESW1 c201.1b91.0000 
Nov 28 08:36:50.240 HYPERVISOR: exec_cmd: vm slot_add_binding ESW1 0 16 WIC-2T 
Nov 28 08:36:50.240 HYPERVISOR: exec_cmd: vm get_status ESW1 
Nov 28 08:36:50.240 HYPERVISOR: exec_cmd: vm set_idle_pc ESW1 0x6026b804 
Nov 28 08:36:50.241 HYPERVISOR: exec_cmd: vm set_nvram ESW1 256 
Nov 28 08:36:50.241 HYPERVISOR: exec_cmd: vm set_config ESW1 configs/ios_base_startup-config.txt 
Nov 28 08:36:50.242 HYPERVISOR: exec_cmd: vm set_config ESW1 configs/ios_base_startup-config.txt configs/ios_base_private-config.txt 
Nov 28 08:36:50.352 HYPERVISOR: exec_cmd: nio create_udp udp-a3b788e4-5132-40b5-a977-b3cf189f8ef0 15004 127.0.0.1 15008 
Nov 28 08:36:50.362 HYPERVISOR: exec_cmd: vm slot_add_nio_binding ESW1 1 0 udp-a3b788e4-5132-40b5-a977-b3cf189f8ef0 
Nov 28 08:36:50.364 HYPERVISOR: exec_cmd: vm get_status ESW1 
Nov 28 08:36:50.407 HYPERVISOR: exec_cmd: nio create_udp udp-286b08b4-60ed-41f6-be8e-849d69ebf886 15009 127.0.0.1 15007 
Nov 28 08:36:50.408 HYPERVISOR: exec_cmd: vm slot_add_nio_binding ESW1 1 1 udp-286b08b4-60ed-41f6-be8e-849d69ebf886 
Nov 28 08:36:50.408 HYPERVISOR: exec_cmd: vm get_status ESW1 
