Jul 19 16:11:07.672 HYPERVISOR: Release 0.2.16-amd64/Linux (tag 2015060118)
Jul 19 16:11:07.672 HYPERVISOR: Started on IP = 127.0.0.1, TCP port = 55602.
Jul 19 16:11:07.686 HYPERVISOR: exec_cmd: hypervisor version 
Jul 19 16:11:07.687 HYPERVISOR: exec_cmd: hypervisor working_dir /media/actionmystique/SAMSUNG-850-Ext4/Labs/GNS3/CCNP/TBSHOOT/Exam-Topology/Jean-Christophe_Manciot/1+/v2-solutions-linux/project-files/dynamips 
Jul 19 16:11:07.687 GENERAL: working_dir=/media/actionmystique/SAMSUNG-850-Ext4/Labs/GNS3/CCNP/TBSHOOT/Exam-Topology/Jean-Christophe_Manciot/1+/v2-solutions-linux/project-files/dynamips
Jul 19 16:11:07.688 HYPERVISOR: exec_cmd: frsw create FR 
Jul 19 16:11:08.577 HYPERVISOR: exec_cmd: nio create_udp udp-82c616d8-98d2-4d2e-8c35-e4f3d8ac194c 15028 127.0.0.1 15026 
Jul 19 16:11:08.616 HYPERVISOR: exec_cmd: nio create_udp udp-020d73cc-f9ad-473d-a367-73b176c2cdd8 15031 127.0.0.1 15030 
Jul 19 16:11:08.617 HYPERVISOR: exec_cmd: frsw create_vc FR udp-020d73cc-f9ad-473d-a367-73b176c2cdd8 102 udp-82c616d8-98d2-4d2e-8c35-e4f3d8ac194c 201 
Jul 19 16:11:08.628 HYPERVISOR: exec_cmd: frsw create_vc FR udp-82c616d8-98d2-4d2e-8c35-e4f3d8ac194c 201 udp-020d73cc-f9ad-473d-a367-73b176c2cdd8 102 
Jul 19 16:11:08.681 HYPERVISOR: exec_cmd: nio create_udp udp-b36fe2bf-81b9-4efe-a8b3-4c75ac8c414c 15037 127.0.0.1 15036 
Jul 19 16:11:08.681 HYPERVISOR: exec_cmd: frsw create_vc FR udp-b36fe2bf-81b9-4efe-a8b3-4c75ac8c414c 302 udp-82c616d8-98d2-4d2e-8c35-e4f3d8ac194c 203 
Jul 19 16:11:08.688 HYPERVISOR: exec_cmd: frsw create_vc FR udp-82c616d8-98d2-4d2e-8c35-e4f3d8ac194c 203 udp-b36fe2bf-81b9-4efe-a8b3-4c75ac8c414c 302 
Jul 19 16:11:08.714 HYPERVISOR: exec_cmd: nio create_udp udp-ae02b1a0-0515-46af-bbcc-afe19c886cbe 15040 127.0.0.1 15041 
Jul 19 16:11:08.717 HYPERVISOR: exec_cmd: frsw create_vc FR udp-ae02b1a0-0515-46af-bbcc-afe19c886cbe 403 udp-b36fe2bf-81b9-4efe-a8b3-4c75ac8c414c 304 
Jul 19 16:11:08.728 HYPERVISOR: exec_cmd: frsw create_vc FR udp-b36fe2bf-81b9-4efe-a8b3-4c75ac8c414c 304 udp-ae02b1a0-0515-46af-bbcc-afe19c886cbe 403 
Jul 19 16:11:08.782 HYPERVISOR: exec_cmd: nio create_udp udp-21dba9a5-ca35-4174-94db-4c774496b814 15047 127.0.0.1 15045 
Jul 19 16:11:08.783 HYPERVISOR: exec_cmd: frsw create_vc FR udp-21dba9a5-ca35-4174-94db-4c774496b814 502 udp-82c616d8-98d2-4d2e-8c35-e4f3d8ac194c 205 
Jul 19 16:11:08.788 HYPERVISOR: exec_cmd: frsw create_vc FR udp-82c616d8-98d2-4d2e-8c35-e4f3d8ac194c 205 udp-21dba9a5-ca35-4174-94db-4c774496b814 502 
Jul 19 16:16:33.314 HYPERVISOR: exec_cmd: frsw delete FR 
Jul 19 16:16:33.456 HYPERVISOR: exec_cmd: hypervisor stop 
Jul 19 16:16:33.475 HYPERVISOR: Stopped.
Jul 19 16:16:33.475 GENERAL: reset done.
