Nov 26 21:57:52.250 HYPERVISOR: Release 0.2.17-amd64/Linux (tag 2017072410)
Nov 26 21:57:52.250 HYPERVISOR: Started on IP = 127.0.0.1, TCP port = 54101.
Nov 26 21:57:52.278 HYPERVISOR: exec_cmd: hypervisor version 
Nov 26 21:57:52.280 HYPERVISOR: exec_cmd: hypervisor working_dir /media/actionmystique/SAMSUNG5-VMs/Labs/GNS3/v2-solutions-linux-/project-files/dynamips 
Nov 26 21:57:52.280 GENERAL: working_dir=/media/actionmystique/SAMSUNG5-VMs/Labs/GNS3/v2-solutions-linux-/project-files/dynamips
Nov 26 21:57:52.282 HYPERVISOR: exec_cmd: vm create R3 7 c7200 
Nov 26 21:57:52.282 VM: VM R3 created.
Nov 26 21:57:52.283 HYPERVISOR: exec_cmd: vm set_con_tcp_port R3 2002 
Nov 26 21:57:52.285 HYPERVISOR: exec_cmd: c7200 get_mac_addr R3 
Nov 26 21:57:52.286 HYPERVISOR: exec_cmd: vm get_status R3 
Nov 26 21:57:52.288 HYPERVISOR: exec_cmd: vm slot_add_binding R3 0 0 C7200-IO-FE 
Nov 26 21:57:52.289 HYPERVISOR: exec_cmd: vm get_status R3 
Nov 26 21:57:52.291 HYPERVISOR: exec_cmd: vm set_idle_pc R3 0x6062f0e0 
Nov 26 21:57:52.292 HYPERVISOR: exec_cmd: vm get_status R3 
Nov 26 21:57:52.293 HYPERVISOR: exec_cmd: vm slot_add_binding R3 1 0 PA-GE 
Nov 26 21:57:52.295 HYPERVISOR: exec_cmd: vm set_nvram R3 256 
Nov 26 21:57:52.297 HYPERVISOR: exec_cmd: vm get_status R3 
Nov 26 21:57:52.298 HYPERVISOR: exec_cmd: vm slot_add_binding R3 3 0 PA-GE 
Nov 26 21:57:52.304 HYPERVISOR: exec_cmd: vm get_status R3 
Nov 26 21:57:52.312 HYPERVISOR: exec_cmd: vm slot_remove_binding R3 0 0 
Nov 26 21:57:52.314 HYPERVISOR: exec_cmd: vm get_status R3 
Nov 26 21:57:52.316 HYPERVISOR: exec_cmd: vm slot_add_binding R3 0 0 C7200-IO-GE-E 
Nov 26 21:57:52.318 HYPERVISOR: exec_cmd: vm get_status R3 
Nov 26 21:57:52.323 HYPERVISOR: exec_cmd: vm slot_add_binding R3 4 0 PA-4T+ 
Nov 26 21:57:52.325 HYPERVISOR: exec_cmd: vm get_status R3 
Nov 26 21:57:52.327 HYPERVISOR: exec_cmd: vm slot_add_binding R3 2 0 PA-GE 
Nov 26 21:57:52.330 HYPERVISOR: exec_cmd: vm set_ram R3 512 
Nov 26 21:57:52.332 HYPERVISOR: exec_cmd: vm get_status R3 
Nov 26 21:57:52.334 HYPERVISOR: exec_cmd: vm slot_add_binding R3 6 0 PA-POS-OC3 
Nov 26 21:57:52.335 HYPERVISOR: exec_cmd: c7200 set_mac_addr R3 ca07.2e65.0000 
Nov 26 21:57:52.336 HYPERVISOR: exec_cmd: vm set_disk0 R3 1 
Nov 26 21:57:52.338 HYPERVISOR: exec_cmd: vm set_ios R3 /media/actionmystique/SAMSUNG5-VMs/Images/GNS3/IOS/c7200-adventerprisek9-mz.152-4.M2.image 
Nov 26 21:57:52.341 HYPERVISOR: exec_cmd: vm get_status R3 
Nov 26 21:57:52.343 HYPERVISOR: exec_cmd: vm slot_add_binding R3 5 0 PA-POS-OC3 
Nov 26 21:57:52.344 HYPERVISOR: exec_cmd: vm set_config R3 configs/i7_startup-config.cfg 
Nov 26 21:57:52.346 HYPERVISOR: exec_cmd: vm set_config R3 configs/i7_startup-config.cfg configs/i7_private-config.cfg 
Nov 26 21:57:52.769 HYPERVISOR: exec_cmd: nio create_tap tap-9a6a5225-9778-46f7-ba53-9cd59e59a8a2 tap0 
Nov 26 21:57:52.771 HYPERVISOR: exec_cmd: vm slot_add_nio_binding R3 0 0 tap-9a6a5225-9778-46f7-ba53-9cd59e59a8a2 
Nov 26 21:57:52.772 HYPERVISOR: exec_cmd: vm get_status R3 
Nov 26 21:57:53.360 HYPERVISOR: exec_cmd: nio create_udp udp-a1e807cf-05af-42ed-bc17-05978784f44b 15030 127.0.0.1 15031 
Nov 26 21:57:53.361 HYPERVISOR: exec_cmd: vm slot_add_nio_binding R3 4 0 udp-a1e807cf-05af-42ed-bc17-05978784f44b 
Nov 26 21:57:53.361 HYPERVISOR: exec_cmd: vm get_status R3 
Nov 26 21:58:35.481 HYPERVISOR: exec_cmd: vm get_status R3 
Nov 26 21:58:35.483 HYPERVISOR: exec_cmd: vm extract_config R3 
Nov 26 21:58:35.487 HYPERVISOR: exec_cmd: vm delete R3 
Nov 26 21:58:35.487 VM: VM R3 destroyed.
Nov 26 21:58:35.489 HYPERVISOR: exec_cmd: hypervisor stop 
Nov 26 21:58:35.812 HYPERVISOR: Stopped.
Nov 26 21:58:35.812 GENERAL: reset done.
