Nov 26 21:57:34.226 HYPERVISOR: Release 0.2.17-amd64/Linux (tag 2017072410)
Nov 26 21:57:34.226 HYPERVISOR: Started on IP = 127.0.0.1, TCP port = 39767.
Nov 26 21:57:34.245 HYPERVISOR: exec_cmd: hypervisor version 
Nov 26 21:57:34.246 HYPERVISOR: exec_cmd: hypervisor working_dir /media/actionmystique/SAMSUNG5-VMs/Labs/GNS3/git-Public-Labs-Collection/CCNP/TBSHOOT/Exam-Topology/Jean-Christophe_Manciot/1+/v2-solutions-linux/project-files/dynamips 
Nov 26 21:57:34.246 GENERAL: working_dir=/media/actionmystique/SAMSUNG5-VMs/Labs/GNS3/git-Public-Labs-Collection/CCNP/TBSHOOT/Exam-Topology/Jean-Christophe_Manciot/1+/v2-solutions-linux/project-files/dynamips
Nov 26 21:57:34.247 HYPERVISOR: exec_cmd: frsw create FR 
Nov 26 21:57:35.273 HYPERVISOR: exec_cmd: nio create_udp udp-cf5c987f-e613-4860-9c95-a2e57b19ca7c 15029 127.0.0.1 15027 
Nov 26 21:57:35.325 HYPERVISOR: exec_cmd: nio create_udp udp-b2f8ca94-96d1-4ae3-9ab0-e0f0f880b07b 15035 127.0.0.1 15034 
Nov 26 21:57:35.390 HYPERVISOR: exec_cmd: nio create_udp udp-72402385-9157-4374-8905-9b4b3000d1ba 15041 127.0.0.1 15039 
Nov 26 21:57:35.391 HYPERVISOR: exec_cmd: frsw create_vc FR udp-72402385-9157-4374-8905-9b4b3000d1ba 201 udp-cf5c987f-e613-4860-9c95-a2e57b19ca7c 102 
Nov 26 21:57:35.401 HYPERVISOR: exec_cmd: frsw create_vc FR udp-cf5c987f-e613-4860-9c95-a2e57b19ca7c 102 udp-72402385-9157-4374-8905-9b4b3000d1ba 201 
Nov 26 21:57:35.425 HYPERVISOR: exec_cmd: nio create_udp udp-9d821d2a-8b59-4930-9f82-d1d47d1bfbec 15043 127.0.0.1 15042 
Nov 26 21:57:35.429 HYPERVISOR: exec_cmd: frsw create_vc FR udp-9d821d2a-8b59-4930-9f82-d1d47d1bfbec 302 udp-72402385-9157-4374-8905-9b4b3000d1ba 203 
Nov 26 21:57:35.442 HYPERVISOR: exec_cmd: frsw create_vc FR udp-72402385-9157-4374-8905-9b4b3000d1ba 203 udp-9d821d2a-8b59-4930-9f82-d1d47d1bfbec 302 
Nov 26 21:57:35.462 HYPERVISOR: exec_cmd: frsw create_vc FR udp-9d821d2a-8b59-4930-9f82-d1d47d1bfbec 304 udp-b2f8ca94-96d1-4ae3-9ab0-e0f0f880b07b 403 
Nov 26 21:57:35.482 HYPERVISOR: exec_cmd: frsw create_vc FR udp-b2f8ca94-96d1-4ae3-9ab0-e0f0f880b07b 403 udp-9d821d2a-8b59-4930-9f82-d1d47d1bfbec 304 
Nov 26 21:57:35.505 HYPERVISOR: exec_cmd: nio create_udp udp-00ec9981-71e9-46e7-a736-3c2b82c08e13 15044 127.0.0.1 15045 
Nov 26 21:57:35.512 HYPERVISOR: exec_cmd: frsw create_vc FR udp-00ec9981-71e9-46e7-a736-3c2b82c08e13 502 udp-72402385-9157-4374-8905-9b4b3000d1ba 205 
Nov 26 21:57:35.522 HYPERVISOR: exec_cmd: frsw create_vc FR udp-72402385-9157-4374-8905-9b4b3000d1ba 205 udp-00ec9981-71e9-46e7-a736-3c2b82c08e13 502 
