autostart = False
version = 0.8.4-RC3
[127.0.0.1:7200]
    workingdir = working
    udp = 11000
    [[3725]]
        image = C:\Users\ActionMystique\Google Drive\Missions\Certifications\Cisco\IOS\Binaries\c3725-adventerprisek9-mz.124-15.T5.image
        ram = 128
        idlepc = 0x602649b4
        idlemax = 500
        sparsemem = True
    [[ROUTER ALS1]]
        model = 3725
        console = 2004
        aux = 2504
        cnfg = configs\ALS1.cfg
        slot1 = NM-16ESW
        f1/7 = DLS1 f1/7
        f1/8 = DLS1 f1/8
        f1/9 = DLS2 f1/9
        f1/10 = DLS2 f1/10
        f1/11 = ALS2 f1/11
        f1/12 = ALS2 f1/12
        symbol = EtherSwitch router
        x = -205.021565139
        y = 186.544301535
        z = 1.0
        hx = 6.13558864609
        hy = 47.173714519
[127.0.0.1:7201]
    workingdir = working
    udp = 11100
    [[3725]]
        image = C:\Users\ActionMystique\Google Drive\Missions\Certifications\Cisco\IOS\Binaries\c3725-adventerprisek9-mz.124-15.T5.image
        ram = 128
        idlepc = 0x602649b4
        idlemax = 500
        sparsemem = True
        ghostios = True
    [[ROUTER ALS2]]
        model = 3725
        console = 2007
        aux = 2507
        cnfg = configs\ALS2.cfg
        slot1 = NM-16ESW
        f1/0 = R1 g0/0
        f1/7 = DLS2 f1/7
        f1/8 = DLS2 f1/8
        f1/9 = DLS1 f1/9
        f1/10 = DLS1 f1/10
        f1/11 = ALS1 f1/11
        f1/12 = ALS1 f1/12
        symbol = EtherSwitch router
        x = 98.5873342093
        y = 186.242826293
        z = 1.0
        hx = 5.0
        hy = 45.0960307126
[127.0.0.1:7206]
    workingdir = working
    udp = 11600
    [[3725]]
        image = C:\Users\ActionMystique\Google Drive\Missions\Certifications\Cisco\IOS\Binaries\c3725-adventerprisek9-mz.124-15.T5.image
        ram = 128
        idlepc = 0x602649b4
        idlemax = 500
        sparsemem = True
        ghostios = True
    [[ROUTER DLS2]]
        model = 3725
        console = 2107
        aux = 2508
        cnfg = configs\DLS2.cfg
        slot1 = NM-16ESW
        f1/7 = ALS2 f1/7
        f1/8 = ALS2 f1/8
        f1/9 = ALS1 f1/9
        f1/10 = ALS1 f1/10
        f1/11 = DLS1 f1/11
        f1/12 = DLS1 f1/12
        symbol = EtherSwitch router
        x = 97.7612705933
        y = -50.2392174302
        z = 1.0
[127.0.0.1:7207]
    workingdir = working
    udp = 11700
    [[7200]]
        image = C:\Users\ActionMystique\Google Drive\Missions\Certifications\Cisco\IOS\Binaries\c7200-adventerprisek9-mz.152-4.S.image
        ram = 512
        idlepc = 0x62a29de4
        idlemax = 500
        sparsemem = True
    [[ROUTER R1]]
        console = 2106
        aux = 2506
        cnfg = configs\R1.cfg
        slot0 = C7200-IO-GE-E
        g0/0 = ALS2 f1/0
        x = 296.348897616
        y = 188.000683232
        z = 1.0
[127.0.0.1:7205]
    workingdir = working
    udp = 11500
    [[3725]]
        image = C:\Users\ActionMystique\Google Drive\Missions\Certifications\Cisco\IOS\Binaries\c3725-adventerprisek9-mz.124-15.T5.image
        ram = 128
        idlepc = 0x602649b4
        idlemax = 500
        sparsemem = True
        ghostios = True
    [[ROUTER DLS1]]
        model = 3725
        console = 2125
        aux = 2525
        cnfg = configs\DLS1.cfg
        slot1 = NM-16ESW
        f1/7 = ALS1 f1/7
        f1/8 = ALS1 f1/8
        f1/9 = ALS2 f1/9
        f1/10 = ALS2 f1/10
        f1/11 = DLS2 f1/11
        f1/12 = DLS2 f1/12
        symbol = EtherSwitch router
        x = -204.196233558
        y = -49.5870413952
        z = 1.0
[GNS3-DATA]
    configs = configs
    workdir = working
    m11 = 0.766664172334
    m22 = 0.766664172334
    [[NOTE 1]]
        text = "Routed port"
        x = 10.4348165581
        y = -58.5217603488
    [[NOTE 2]]
        text = "4-3 VLANs - VTP - Inter-VLAN Routing Case Study"
        x = -322.297537891
        y = -499.835061133
        font = "MS Shell Dlg 2,20,-1,5,75,0,1,0,0,0"
        color = "#0055ff"
    [[NOTE 3]]
        text = "1. Disable the links between the access layer switches.\n2. Place all switches in the VTP domain CISCO with password Cisco. Make DLS1 the VTP server and all other switches VTP clients.\n3. On DLS1, create the VLANs shown below and assign the names given. For subnet planning, allocate a subnet for each VLAN.\n10 <-> Red\n20 <-> Blue\n30 <-> Orange\n40 <-> Green\n4. Configure DLS1 as the primary spanning-tree root bridge for all odd VLANs and the secondary spanning-tree root bridge for all even VLANs.\n Configure DLS2 as the primary spanning-tree root bridge for all even VLANs and the secondary spanning-tree root bridge for all odd VLANs.\n5. Configure Fa0/12 between DLS1 and DLS2 as a Layer 3 link and assign a subnet to it.\n6. Create a loopback interface on DLS1 and assign a subnet to it.\n7. Statically configure all inter-switch links as trunks.\n8. Bind together the links from DLS1 to each access switch together in an EtherChannel.\n9. Enable PortFast on all access ports.\n10. Place Fa0/1 through Fa0/6 on ALS1 and ALS2 in VLAN 10. Place Fa0/13 and Fa0/14 on ALS1 and ALS2 in VLAN 20. Place Fa0/15 on ALS1 and ALS2 in VLAN 30.\n11. Create an 802.1Q trunk link between R1 and ALS2. Allow only VLANs 20, 40 and default VLANs to pass through the trunk.\n12. Configure R1 subinterfaces for VLANs 1,20 and 40.\n13. Create an SVI on DLS1 in VLANs 1,10 and 30. Create an SVI  on DLS2 in VLAN 20, an SVI on ALS1 in VLAN 30, and an SVI on ALS2 in VLAN 40.\n14. Enable IP routing on DLS1. On R1 and DLS1, configure EIGRP for the whole major network (172.16.0.0/16) and disable automatic summarization."
        x = -833.480972582
        y = -465.91452028
    [[NOTE 4]]
        text = "L1"
        x = -238.696428767
        y = -49.8262100232
    [[NOTE 5]]
        text = "Routed port"
        x = -150.000488023
        y = -58.0870413953
