autostart = False
version = 0.8.4-RC3
[127.0.0.1:7200]
    workingdir = working
    udp = 11000
    [[3725]]
        image = C:\Users\ActionMystique\Google Drive\Missions\Certifications\Cisco\IOS\Binaries\c3725-adventerprisek9-mz.124-15.T5.image
        ram = 128
        idlepc = 0x602649b4
        idlemax = 500
        sparsemem = True
        ghostios = True
    [[ROUTER DLS2]]
        model = 3725
        console = 2002
        aux = 2502
        cnfg = configs\DLS2.cfg
        slot1 = NM-16ESW
        f1/6 = NIO_udp:30003:127.0.0.1:20003
        f1/7 = ALS2 f1/7
        f1/8 = ALS2 f1/8
        f1/9 = ALS1 f1/9
        f1/10 = ALS1 f1/10
        f1/11 = DLS1 f1/11
        f1/12 = DLS1 f1/12
        symbol = EtherSwitch router
        x = 47.9611580968
        y = -238.5
        z = 1.0
    [[ROUTER DLS1]]
        model = 3725
        console = 2001
        aux = 2501
        cnfg = configs\DLS1.cfg
        slot1 = NM-16ESW
        f1/6 = NIO_udp:30002:127.0.0.1:20002
        f1/7 = ALS1 f1/7
        f1/8 = ALS1 f1/8
        f1/9 = ALS2 f1/9
        f1/10 = ALS2 f1/10
        f1/11 = DLS2 f1/11
        f1/12 = DLS2 f1/12
        symbol = EtherSwitch router
        x = -255.5
        y = -238.5
        z = 1.0
    [[ROUTER ALS1]]
        model = 3725
        console = 2004
        aux = 2504
        cnfg = configs\ALS1.cfg
        slot1 = NM-16ESW
        f1/6 = NIO_udp:30000:127.0.0.1:20000
        f1/7 = DLS1 f1/7
        f1/8 = DLS1 f1/8
        f1/9 = DLS2 f1/9
        f1/10 = DLS2 f1/10
        f1/11 = ALS2 f1/11
        f1/12 = ALS2 f1/12
        symbol = EtherSwitch router
        x = -255.89129586
        y = -66.5
        z = 1.0
        hx = 6.13558864609
        hy = 47.173714519
[127.0.0.1:7201]
    workingdir = working
    udp = 11100
    [[3725]]
        image = C:\Users\ActionMystique\Google Drive\Missions\Certifications\Cisco\IOS\Binaries\c3725-adventerprisek9-mz.124-15.T5.image
        ram = 128
        idlepc = 0x602649b4
        idlemax = 500
        sparsemem = True
        ghostios = True
    [[ROUTER ALS2]]
        model = 3725
        console = 2007
        aux = 2507
        cnfg = configs\ALS2.cfg
        slot1 = NM-16ESW
        f1/6 = NIO_udp:30001:127.0.0.1:20001
        f1/7 = DLS2 f1/7
        f1/8 = DLS2 f1/8
        f1/9 = DLS1 f1/9
        f1/10 = DLS1 f1/10
        f1/11 = ALS1 f1/11
        f1/12 = ALS1 f1/12
        symbol = EtherSwitch router
        x = 47.7176034883
        y = -66.8014752414
        z = 1.0
        hx = 5.0
        hy = 45.0960307126
[GNS3-DATA]
    configs = configs
    workdir = working
    m11 = 0.766664172334
    m22 = 0.766664172334
    [[NOTE 1]]
        text = "1: Connect to the switch console port and enter privileged EXEC mode.\n2: Delete the VLAN database file.\n3: Erase the startup config from NVRAM and reload (menu).\n4: Display the existing configured VLANs.\n5: (Optional) Configure transparent VTP mode."
        x = -855.654957767
        y = -409.827381279
    [[NOTE 2]]
        text = "1-2  Clearing a Switch in Large Networks"
        x = -347.080227217
        y = -498.530709063
        font = "MS Shell Dlg 2,20,-1,5,75,0,1,0,0,0"
        color = "#0055ff"
    [[Cloud Host_D]]
        symbol = Host
        x = 197.6178903
        y = -244.399673106
        z = 1.0
        connections = DLS2:f1/6:nio_udp:30003:127.0.0.1:20003
    [[Cloud Host_A]]
        symbol = Host
        x = -414.800062242
        y = -71.926544905
        z = 1.0
        connections = ALS1:f1/6:nio_udp:30000:127.0.0.1:20000
    [[Cloud Host_C]]
        symbol = Host
        x = -414.800062242
        y = -244.399673106
        z = 1.0
        connections = DLS1:f1/6:nio_udp:30002:127.0.0.1:20002
    [[Cloud Host_B]]
        symbol = Host
        x = 201.307155074
        y = -73.3100191954
        z = 1.0
        connections = ALS2:f1/6:nio_udp:30001:127.0.0.1:20001
