Nov 26 21:01:59.242 HYPERVISOR: Release 0.2.17-amd64/Linux (tag 2017072410)
Nov 26 21:01:59.242 HYPERVISOR: Started on IP = 127.0.0.1, TCP port = 51929.
Nov 26 21:01:59.255 HYPERVISOR: exec_cmd: hypervisor version 
Nov 26 21:01:59.256 HYPERVISOR: exec_cmd: hypervisor working_dir /media/actionmystique/SAMSUNG5-VMs/Labs/GNS3/PVST+ EtherChannel HSRP/project-files/dynamips 
Nov 26 21:01:59.256 GENERAL: working_dir=/media/actionmystique/SAMSUNG5-VMs/Labs/GNS3/PVST+ EtherChannel HSRP/project-files/dynamips
Nov 26 21:01:59.257 HYPERVISOR: exec_cmd: vm create SW5 5 c3725 
Nov 26 21:01:59.257 VM: VM SW5 created.
Nov 26 21:01:59.257 HYPERVISOR: exec_cmd: vm set_con_tcp_port SW5 2005 
Nov 26 21:01:59.258 HYPERVISOR: exec_cmd: vm set_aux_tcp_port SW5 2505 
Nov 26 21:01:59.263 HYPERVISOR: exec_cmd: c3725 get_mac_addr SW5 
Nov 26 21:01:59.273 HYPERVISOR: exec_cmd: vm set_ios SW5 /media/actionmystique/SAMSUNG5-VMs/Images/GNS3/IOS/c3725-adventerprisek9-mz.124-15.T10.image 
Nov 26 21:01:59.276 HYPERVISOR: exec_cmd: vm set_ram SW5 256 
Nov 26 21:01:59.278 HYPERVISOR: exec_cmd: vm get_status SW5 
Nov 26 21:01:59.279 HYPERVISOR: exec_cmd: vm set_idle_pc SW5 0x6026b804 
Nov 26 21:01:59.282 HYPERVISOR: exec_cmd: vm get_status SW5 
Nov 26 21:01:59.283 HYPERVISOR: exec_cmd: vm slot_add_binding SW5 1 0 NM-16ESW 
Nov 26 21:01:59.285 HYPERVISOR: exec_cmd: vm set_config SW5 configs/i5_startup-config.cfg 
Nov 26 21:01:59.652 HYPERVISOR: exec_cmd: nio create_udp udp-71adc20c-473d-42aa-8e78-c6cae00ed21a 30000 127.0.0.1 20000 
Nov 26 21:01:59.654 HYPERVISOR: exec_cmd: vm slot_add_nio_binding SW5 1 3 udp-71adc20c-473d-42aa-8e78-c6cae00ed21a 
Nov 26 21:01:59.654 HYPERVISOR: exec_cmd: vm get_status SW5 
Nov 26 21:01:59.661 HYPERVISOR: exec_cmd: nio create_udp udp-dcc1742d-2628-4d5f-89a3-178379e02288 30001 127.0.0.1 20001 
Nov 26 21:01:59.662 HYPERVISOR: exec_cmd: vm slot_add_nio_binding SW5 1 4 udp-dcc1742d-2628-4d5f-89a3-178379e02288 
Nov 26 21:01:59.663 HYPERVISOR: exec_cmd: vm get_status SW5 
Nov 26 21:01:59.669 HYPERVISOR: exec_cmd: nio create_udp udp-a16c9c51-100b-4aea-a676-fd31bab5898b 30002 127.0.0.1 20002 
Nov 26 21:01:59.670 HYPERVISOR: exec_cmd: vm slot_add_nio_binding SW5 1 5 udp-a16c9c51-100b-4aea-a676-fd31bab5898b 
Nov 26 21:01:59.671 HYPERVISOR: exec_cmd: vm get_status SW5 
Nov 26 21:01:59.694 HYPERVISOR: exec_cmd: nio create_udp udp-3ed0b9f4-9e95-4ba5-ada3-31c44f50aec9 30003 127.0.0.1 20003 
Nov 26 21:01:59.695 HYPERVISOR: exec_cmd: vm slot_add_nio_binding SW5 1 6 udp-3ed0b9f4-9e95-4ba5-ada3-31c44f50aec9 
Nov 26 21:01:59.695 HYPERVISOR: exec_cmd: vm get_status SW5 
Nov 26 21:02:00.186 HYPERVISOR: exec_cmd: vm extract_config SW5 
Nov 26 21:02:00.280 HYPERVISOR: exec_cmd: nio create_udp udp-9ba43b27-ae84-472d-84a4-45cb886e1eea 15007 127.0.0.1 15006 
Nov 26 21:02:00.281 HYPERVISOR: exec_cmd: vm slot_add_nio_binding SW5 1 2 udp-9ba43b27-ae84-472d-84a4-45cb886e1eea 
Nov 26 21:02:00.281 HYPERVISOR: exec_cmd: vm get_status SW5 
Nov 26 21:02:00.477 HYPERVISOR: exec_cmd: nio create_udp udp-2a315140-acd9-4a8e-981d-867fc5d98bd1 15027 127.0.0.1 15026 
Nov 26 21:02:00.477 HYPERVISOR: exec_cmd: vm slot_add_nio_binding SW5 1 1 udp-2a315140-acd9-4a8e-981d-867fc5d98bd1 
Nov 26 21:02:00.478 HYPERVISOR: exec_cmd: vm get_status SW5 
Nov 26 21:03:00.813 HYPERVISOR: exec_cmd: vm get_status SW5 
Nov 26 21:03:00.817 HYPERVISOR: exec_cmd: vm extract_config SW5 
Nov 26 21:03:00.861 HYPERVISOR: exec_cmd: vm delete SW5 
Nov 26 21:03:00.861 VM: VM SW5 destroyed.
Nov 26 21:03:00.865 HYPERVISOR: exec_cmd: hypervisor stop 
Nov 26 21:03:01.315 HYPERVISOR: Stopped.
Nov 26 21:03:01.315 GENERAL: reset done.
