Nov 26 21:01:59.225 HYPERVISOR: Release 0.2.17-amd64/Linux (tag 2017072410)
Nov 26 21:01:59.225 HYPERVISOR: Started on IP = 127.0.0.1, TCP port = 54607.
Nov 26 21:01:59.243 HYPERVISOR: exec_cmd: hypervisor version 
Nov 26 21:01:59.244 HYPERVISOR: exec_cmd: hypervisor working_dir /media/actionmystique/SAMSUNG5-VMs/Labs/GNS3/PVST+ EtherChannel HSRP/project-files/dynamips 
Nov 26 21:01:59.244 GENERAL: working_dir=/media/actionmystique/SAMSUNG5-VMs/Labs/GNS3/PVST+ EtherChannel HSRP/project-files/dynamips
Nov 26 21:01:59.245 HYPERVISOR: exec_cmd: vm create SW6 6 c3725 
Nov 26 21:01:59.245 VM: VM SW6 created.
Nov 26 21:01:59.246 HYPERVISOR: exec_cmd: vm set_con_tcp_port SW6 2006 
Nov 26 21:01:59.248 HYPERVISOR: exec_cmd: vm set_aux_tcp_port SW6 2506 
Nov 26 21:01:59.250 HYPERVISOR: exec_cmd: c3725 get_mac_addr SW6 
Nov 26 21:01:59.252 HYPERVISOR: exec_cmd: vm set_ios SW6 /media/actionmystique/SAMSUNG5-VMs/Images/GNS3/IOS/c3725-adventerprisek9-mz.124-15.T10.image 
Nov 26 21:01:59.254 HYPERVISOR: exec_cmd: vm set_ram SW6 256 
Nov 26 21:01:59.254 HYPERVISOR: exec_cmd: vm get_status SW6 
Nov 26 21:01:59.255 HYPERVISOR: exec_cmd: vm set_idle_pc SW6 0x6026b804 
Nov 26 21:01:59.256 HYPERVISOR: exec_cmd: vm get_status SW6 
Nov 26 21:01:59.257 HYPERVISOR: exec_cmd: vm slot_add_binding SW6 1 0 NM-16ESW 
Nov 26 21:01:59.258 HYPERVISOR: exec_cmd: vm set_config SW6 configs/i6_startup-config.cfg 
Nov 26 21:01:59.394 HYPERVISOR: exec_cmd: nio create_udp udp-a4707a6d-1894-4f30-8119-7fc4e37eb392 30004 127.0.0.1 20004 
Nov 26 21:01:59.395 HYPERVISOR: exec_cmd: vm slot_add_nio_binding SW6 1 4 udp-a4707a6d-1894-4f30-8119-7fc4e37eb392 
Nov 26 21:01:59.398 HYPERVISOR: exec_cmd: vm get_status SW6 
Nov 26 21:01:59.449 HYPERVISOR: exec_cmd: nio create_udp udp-2a269069-2ffb-4205-80d3-532c3676a064 30005 127.0.0.1 20005 
Nov 26 21:01:59.449 HYPERVISOR: exec_cmd: vm slot_add_nio_binding SW6 1 5 udp-2a269069-2ffb-4205-80d3-532c3676a064 
Nov 26 21:01:59.450 HYPERVISOR: exec_cmd: vm get_status SW6 
Nov 26 21:02:00.190 HYPERVISOR: exec_cmd: vm extract_config SW6 
Nov 26 21:02:00.253 HYPERVISOR: exec_cmd: nio create_udp udp-2d2067fb-7cb4-4cde-90e5-761548b76d64 15003 127.0.0.1 15005 
Nov 26 21:02:00.253 HYPERVISOR: exec_cmd: vm slot_add_nio_binding SW6 1 3 udp-2d2067fb-7cb4-4cde-90e5-761548b76d64 
Nov 26 21:02:00.253 HYPERVISOR: exec_cmd: vm get_status SW6 
Nov 26 21:02:00.452 HYPERVISOR: exec_cmd: nio create_udp udp-99627ebb-274e-4fb0-ab8c-a2ff16fcb525 15025 127.0.0.1 15024 
Nov 26 21:02:00.453 HYPERVISOR: exec_cmd: vm slot_add_nio_binding SW6 1 0 udp-99627ebb-274e-4fb0-ab8c-a2ff16fcb525 
Nov 26 21:02:00.453 HYPERVISOR: exec_cmd: vm get_status SW6 
Nov 26 21:03:00.811 HYPERVISOR: exec_cmd: vm get_status SW6 
Nov 26 21:03:00.815 HYPERVISOR: exec_cmd: vm extract_config SW6 
Nov 26 21:03:00.862 HYPERVISOR: exec_cmd: vm delete SW6 
Nov 26 21:03:00.862 VM: VM SW6 destroyed.
Nov 26 21:03:00.867 HYPERVISOR: exec_cmd: hypervisor stop 
Nov 26 21:03:01.308 HYPERVISOR: Stopped.
Nov 26 21:03:01.308 GENERAL: reset done.
