Nov 27 16:22:33.752 HYPERVISOR: Release 0.2.17-amd64/Linux (tag 2017072410)
Nov 27 16:22:33.752 HYPERVISOR: Started on IP = 127.0.0.1, TCP port = 56047.
Nov 27 16:22:33.786 HYPERVISOR: exec_cmd: hypervisor version 
Nov 27 16:22:33.787 HYPERVISOR: exec_cmd: hypervisor working_dir /media/actionmystique/SAMSUNG5-VMs/Labs/GNS3/TT 3-solutions-linux-/project-files/dynamips 
Nov 27 16:22:33.787 GENERAL: working_dir=/media/actionmystique/SAMSUNG5-VMs/Labs/GNS3/TT 3-solutions-linux-/project-files/dynamips
Nov 27 16:22:33.788 HYPERVISOR: exec_cmd: vm create SW3 3 c3725 
Nov 27 16:22:33.788 VM: VM SW3 created.
Nov 27 16:22:33.789 HYPERVISOR: exec_cmd: vm set_con_tcp_port SW3 2003 
Nov 27 16:22:33.790 HYPERVISOR: exec_cmd: c3725 get_mac_addr SW3 
Nov 27 16:22:33.790 HYPERVISOR: exec_cmd: vm set_nvram SW3 256 
Nov 27 16:22:33.791 HYPERVISOR: exec_cmd: vm get_status SW3 
Nov 27 16:22:33.792 HYPERVISOR: exec_cmd: vm set_idle_pc SW3 0x622a6154 
Nov 27 16:22:33.793 HYPERVISOR: exec_cmd: c3725 set_mac_addr SW3 cccc.cccc.cccc 
Nov 27 16:22:33.794 HYPERVISOR: exec_cmd: vm set_exec_area SW3 16 
Nov 27 16:22:33.795 HYPERVISOR: exec_cmd: vm get_status SW3 
Nov 27 16:22:33.796 HYPERVISOR: exec_cmd: vm slot_add_binding SW3 1 0 NM-16ESW 
Nov 27 16:22:33.797 HYPERVISOR: exec_cmd: vm set_disk0 SW3 1 
Nov 27 16:22:33.798 HYPERVISOR: exec_cmd: vm set_ios SW3 /media/actionmystique/SAMSUNG5-VMs/Images/GNS3/IOS/c3725-adventerprisek9-mz.124-15.T10.image 
Nov 27 16:22:33.799 HYPERVISOR: exec_cmd: vm slot_add_binding SW3 0 16 WIC-2T 
Nov 27 16:22:33.800 HYPERVISOR: exec_cmd: vm set_config SW3 configs/i3_startup-config.cfg 
Nov 27 16:22:33.801 HYPERVISOR: exec_cmd: vm set_config SW3 configs/i3_startup-config.cfg configs/i3_private-config.cfg 
Nov 27 16:22:34.004 HYPERVISOR: exec_cmd: nio create_udp udp-00465235-4e98-46e0-80b0-e24d073092ac 15004 127.0.0.1 15003 
Nov 27 16:22:34.010 HYPERVISOR: exec_cmd: vm slot_add_nio_binding SW3 1 1 udp-00465235-4e98-46e0-80b0-e24d073092ac 
Nov 27 16:22:34.011 HYPERVISOR: exec_cmd: vm get_status SW3 
Nov 27 16:22:34.045 HYPERVISOR: exec_cmd: nio create_udp udp-4787e8e2-9c7f-4c73-9275-7ecb38462d40 15005 127.0.0.1 15006 
Nov 27 16:22:34.049 HYPERVISOR: exec_cmd: vm slot_add_nio_binding SW3 1 5 udp-4787e8e2-9c7f-4c73-9275-7ecb38462d40 
Nov 27 16:22:34.049 HYPERVISOR: exec_cmd: vm get_status SW3 
Nov 27 16:22:34.055 HYPERVISOR: exec_cmd: nio create_udp udp-ea94a7ea-2672-47a5-8134-1a0081fb405f 15001 127.0.0.1 15007 
Nov 27 16:22:34.056 HYPERVISOR: exec_cmd: vm slot_add_nio_binding SW3 1 2 udp-ea94a7ea-2672-47a5-8134-1a0081fb405f 
Nov 27 16:22:34.056 HYPERVISOR: exec_cmd: vm get_status SW3 
Nov 27 16:22:34.106 HYPERVISOR: exec_cmd: nio create_udp udp-f27fe4ad-a161-4a71-8da0-e6053cac0314 15011 127.0.0.1 15012 
Nov 27 16:22:34.106 HYPERVISOR: exec_cmd: vm slot_add_nio_binding SW3 0 0 udp-f27fe4ad-a161-4a71-8da0-e6053cac0314 
Nov 27 16:22:34.107 HYPERVISOR: exec_cmd: vm get_status SW3 
Nov 27 16:22:46.945 HYPERVISOR: exec_cmd: vm get_status SW3 
Nov 27 16:22:46.946 HYPERVISOR: exec_cmd: vm extract_config SW3 
Nov 27 16:22:46.950 HYPERVISOR: exec_cmd: vm delete SW3 
Nov 27 16:22:46.950 VM: VM SW3 destroyed.
Nov 27 16:22:46.951 HYPERVISOR: exec_cmd: hypervisor stop 
Nov 27 16:22:47.297 HYPERVISOR: Stopped.
Nov 27 16:22:47.297 GENERAL: reset done.
