Nov 29 15:23:55.240 HYPERVISOR: Release 0.2.17-amd64/Linux (tag 2017072410)
Nov 29 15:23:55.240 HYPERVISOR: Started on IP = 127.0.0.1, TCP port = 56883.
Nov 29 15:23:55.265 HYPERVISOR: exec_cmd: hypervisor version 
Nov 29 15:23:55.267 HYPERVISOR: exec_cmd: hypervisor working_dir /media/actionmystique/SAMSUNG5-VMs/Labs/GNS3/git-Public-Labs-Collection/CCNP/TBSHOOT/L3-Technologies/IPv4/Routing-Protocols/Redistribution/Jean-Christophe_Manciot/1+/TT 1-linux/project-files/dynamips 
Nov 29 15:23:55.267 GENERAL: working_dir=/media/actionmystique/SAMSUNG5-VMs/Labs/GNS3/git-Public-Labs-Collection/CCNP/TBSHOOT/L3-Technologies/IPv4/Routing-Protocols/Redistribution/Jean-Christophe_Manciot/1+/TT 1-linux/project-files/dynamips
Nov 29 15:23:55.268 HYPERVISOR: exec_cmd: vm create ESW4 4 c3725 
Nov 29 15:23:55.268 VM: VM ESW4 created.
Nov 29 15:23:55.269 HYPERVISOR: exec_cmd: vm set_con_tcp_port ESW4 2009 
Nov 29 15:23:55.270 HYPERVISOR: exec_cmd: c3725 get_mac_addr ESW4 
Nov 29 15:23:55.271 HYPERVISOR: exec_cmd: vm get_status ESW4 
Nov 29 15:23:55.275 HYPERVISOR: exec_cmd: vm set_idle_pc ESW4 0x614ac27c 
Nov 29 15:23:55.276 HYPERVISOR: exec_cmd: vm get_status ESW4 
Nov 29 15:23:55.277 HYPERVISOR: exec_cmd: vm slot_add_binding ESW4 1 0 NM-16ESW 
Nov 29 15:23:55.278 HYPERVISOR: exec_cmd: vm set_disk0 ESW4 1 
Nov 29 15:23:55.278 HYPERVISOR: exec_cmd: vm set_nvram ESW4 256 
Nov 29 15:23:55.279 HYPERVISOR: exec_cmd: vm set_ios ESW4 /media/actionmystique/SAMSUNG5-VMs/Images/GNS3/IOS/c3725-adventerprisek9-mz.124-15.T10.image 
Nov 29 15:23:55.280 HYPERVISOR: exec_cmd: c3725 set_mac_addr ESW4 c204.68ae.0000 
Nov 29 15:23:55.282 HYPERVISOR: exec_cmd: vm slot_add_binding ESW4 0 16 WIC-2T 
Nov 29 15:23:55.284 HYPERVISOR: exec_cmd: vm set_config ESW4 configs/ios_base_startup-config.txt 
Nov 29 15:23:55.288 HYPERVISOR: exec_cmd: vm set_config ESW4 configs/ios_base_startup-config.txt configs/ios_base_private-config.txt 
Nov 29 15:23:55.616 HYPERVISOR: exec_cmd: nio create_udp udp-3444cb90-2860-4bb6-9a8a-8bce63f6867d 15014 127.0.0.1 15015 
Nov 29 15:23:55.617 HYPERVISOR: exec_cmd: vm slot_add_nio_binding ESW4 1 0 udp-3444cb90-2860-4bb6-9a8a-8bce63f6867d 
Nov 29 15:23:55.617 HYPERVISOR: exec_cmd: vm get_status ESW4 
Nov 29 15:23:55.628 HYPERVISOR: exec_cmd: nio create_udp udp-351ea9bb-164b-4bd5-b8f3-34a1d902d444 15016 127.0.0.1 15017 
Nov 29 15:23:55.629 HYPERVISOR: exec_cmd: vm slot_add_nio_binding ESW4 1 1 udp-351ea9bb-164b-4bd5-b8f3-34a1d902d444 
Nov 29 15:23:55.629 HYPERVISOR: exec_cmd: vm get_status ESW4 
