Nov 29 15:23:55.276 HYPERVISOR: Release 0.2.17-amd64/Linux (tag 2017072410)
Nov 29 15:23:55.276 HYPERVISOR: Started on IP = 127.0.0.1, TCP port = 58189.
Nov 29 15:23:55.290 HYPERVISOR: exec_cmd: hypervisor version 
Nov 29 15:23:55.294 HYPERVISOR: exec_cmd: hypervisor working_dir /media/actionmystique/SAMSUNG5-VMs/Labs/GNS3/git-Public-Labs-Collection/CCNP/TBSHOOT/L3-Technologies/IPv4/Routing-Protocols/Redistribution/Jean-Christophe_Manciot/1+/TT 1-linux/project-files/dynamips 
Nov 29 15:23:55.294 GENERAL: working_dir=/media/actionmystique/SAMSUNG5-VMs/Labs/GNS3/git-Public-Labs-Collection/CCNP/TBSHOOT/L3-Technologies/IPv4/Routing-Protocols/Redistribution/Jean-Christophe_Manciot/1+/TT 1-linux/project-files/dynamips
Nov 29 15:23:55.295 HYPERVISOR: exec_cmd: vm create ESW3 3 c3725 
Nov 29 15:23:55.295 VM: VM ESW3 created.
Nov 29 15:23:55.295 HYPERVISOR: exec_cmd: vm set_con_tcp_port ESW3 2006 
Nov 29 15:23:55.296 HYPERVISOR: exec_cmd: c3725 get_mac_addr ESW3 
Nov 29 15:23:55.296 HYPERVISOR: exec_cmd: vm get_status ESW3 
Nov 29 15:23:55.296 HYPERVISOR: exec_cmd: vm set_idle_pc ESW3 0x614ac27c 
Nov 29 15:23:55.297 HYPERVISOR: exec_cmd: vm get_status ESW3 
Nov 29 15:23:55.297 HYPERVISOR: exec_cmd: vm slot_add_binding ESW3 1 0 NM-16ESW 
Nov 29 15:23:55.298 HYPERVISOR: exec_cmd: vm set_disk0 ESW3 1 
Nov 29 15:23:55.298 HYPERVISOR: exec_cmd: vm set_nvram ESW3 256 
Nov 29 15:23:55.298 HYPERVISOR: exec_cmd: vm set_ios ESW3 /media/actionmystique/SAMSUNG5-VMs/Images/GNS3/IOS/c3725-adventerprisek9-mz.124-15.T10.image 
Nov 29 15:23:55.299 HYPERVISOR: exec_cmd: c3725 set_mac_addr ESW3 c203.1bfb.0000 
Nov 29 15:23:55.302 HYPERVISOR: exec_cmd: vm slot_add_binding ESW3 0 16 WIC-2T 
Nov 29 15:23:55.304 HYPERVISOR: exec_cmd: vm set_config ESW3 configs/ios_base_startup-config.txt 
Nov 29 15:23:55.305 HYPERVISOR: exec_cmd: vm set_config ESW3 configs/ios_base_startup-config.txt configs/ios_base_private-config.txt 
Nov 29 15:23:55.491 HYPERVISOR: exec_cmd: nio create_tap tap-1e5d3280-b6e5-46f8-8f61-505b05a66a1f tap0 
Nov 29 15:23:55.492 HYPERVISOR: exec_cmd: vm slot_add_nio_binding ESW3 1 1 tap-1e5d3280-b6e5-46f8-8f61-505b05a66a1f 
Nov 29 15:23:55.492 HYPERVISOR: exec_cmd: vm get_status ESW3 
Nov 29 15:23:55.656 HYPERVISOR: exec_cmd: nio create_udp udp-fb9eb802-12d3-434b-bc61-090b269b5eb3 15019 127.0.0.1 15018 
Nov 29 15:23:55.657 HYPERVISOR: exec_cmd: vm slot_add_nio_binding ESW3 1 0 udp-fb9eb802-12d3-434b-bc61-090b269b5eb3 
Nov 29 15:23:55.657 HYPERVISOR: exec_cmd: vm get_status ESW3 
