Nov 29 15:23:55.200 HYPERVISOR: Release 0.2.17-amd64/Linux (tag 2017072410)
Nov 29 15:23:55.200 HYPERVISOR: Started on IP = 127.0.0.1, TCP port = 44715.
Nov 29 15:23:55.227 HYPERVISOR: exec_cmd: hypervisor version 
Nov 29 15:23:55.230 HYPERVISOR: exec_cmd: hypervisor working_dir /media/actionmystique/SAMSUNG5-VMs/Labs/GNS3/git-Public-Labs-Collection/CCNP/TBSHOOT/L3-Technologies/IPv4/Routing-Protocols/Redistribution/Jean-Christophe_Manciot/1+/TT 1-linux/project-files/dynamips 
Nov 29 15:23:55.230 GENERAL: working_dir=/media/actionmystique/SAMSUNG5-VMs/Labs/GNS3/git-Public-Labs-Collection/CCNP/TBSHOOT/L3-Technologies/IPv4/Routing-Protocols/Redistribution/Jean-Christophe_Manciot/1+/TT 1-linux/project-files/dynamips
Nov 29 15:23:55.232 HYPERVISOR: exec_cmd: vm create ESW1 1 c3725 
Nov 29 15:23:55.232 VM: VM ESW1 created.
Nov 29 15:23:55.233 HYPERVISOR: exec_cmd: vm set_con_tcp_port ESW1 2004 
Nov 29 15:23:55.234 HYPERVISOR: exec_cmd: c3725 get_mac_addr ESW1 
Nov 29 15:23:55.235 HYPERVISOR: exec_cmd: vm get_status ESW1 
Nov 29 15:23:55.235 HYPERVISOR: exec_cmd: vm set_idle_pc ESW1 0x614ac27c 
Nov 29 15:23:55.236 HYPERVISOR: exec_cmd: vm get_status ESW1 
Nov 29 15:23:55.237 HYPERVISOR: exec_cmd: vm slot_add_binding ESW1 1 0 NM-16ESW 
Nov 29 15:23:55.238 HYPERVISOR: exec_cmd: vm set_disk0 ESW1 1 
Nov 29 15:23:55.240 HYPERVISOR: exec_cmd: vm set_nvram ESW1 256 
Nov 29 15:23:55.242 HYPERVISOR: exec_cmd: vm set_ios ESW1 /media/actionmystique/SAMSUNG5-VMs/Images/GNS3/IOS/c3725-adventerprisek9-mz.124-15.T10.image 
Nov 29 15:23:55.243 HYPERVISOR: exec_cmd: c3725 set_mac_addr ESW1 c201.1b91.0000 
Nov 29 15:23:55.246 HYPERVISOR: exec_cmd: vm slot_add_binding ESW1 0 16 WIC-2T 
Nov 29 15:23:55.254 HYPERVISOR: exec_cmd: vm set_config ESW1 configs/ios_base_startup-config.txt 
Nov 29 15:23:55.259 HYPERVISOR: exec_cmd: vm set_config ESW1 configs/ios_base_startup-config.txt configs/ios_base_private-config.txt 
Nov 29 15:23:55.532 HYPERVISOR: exec_cmd: nio create_udp udp-1eb58544-6f35-4612-9aac-cc3259dbfe66 15008 127.0.0.1 15007 
Nov 29 15:23:55.533 HYPERVISOR: exec_cmd: vm slot_add_nio_binding ESW1 1 0 udp-1eb58544-6f35-4612-9aac-cc3259dbfe66 
Nov 29 15:23:55.533 HYPERVISOR: exec_cmd: vm get_status ESW1 
Nov 29 15:23:55.557 HYPERVISOR: exec_cmd: nio create_udp udp-68935bb6-e77f-4aec-97e0-577c43903c33 15010 127.0.0.1 15004 
Nov 29 15:23:55.559 HYPERVISOR: exec_cmd: vm slot_add_nio_binding ESW1 1 1 udp-68935bb6-e77f-4aec-97e0-577c43903c33 
Nov 29 15:23:55.559 HYPERVISOR: exec_cmd: vm get_status ESW1 
