Nov 29 15:23:55.231 HYPERVISOR: Release 0.2.17-amd64/Linux (tag 2017072410)
Nov 29 15:23:55.231 HYPERVISOR: Started on IP = 127.0.0.1, TCP port = 47639.
Nov 29 15:23:55.259 HYPERVISOR: exec_cmd: hypervisor version 
Nov 29 15:23:55.261 HYPERVISOR: exec_cmd: hypervisor working_dir /media/actionmystique/SAMSUNG5-VMs/Labs/GNS3/git-Public-Labs-Collection/CCNP/TBSHOOT/L3-Technologies/IPv4/Routing-Protocols/Redistribution/Jean-Christophe_Manciot/1+/TT 1-linux/project-files/dynamips 
Nov 29 15:23:55.261 GENERAL: working_dir=/media/actionmystique/SAMSUNG5-VMs/Labs/GNS3/git-Public-Labs-Collection/CCNP/TBSHOOT/L3-Technologies/IPv4/Routing-Protocols/Redistribution/Jean-Christophe_Manciot/1+/TT 1-linux/project-files/dynamips
Nov 29 15:23:55.266 HYPERVISOR: exec_cmd: vm create ESW5 5 c3725 
Nov 29 15:23:55.266 VM: VM ESW5 created.
Nov 29 15:23:55.268 HYPERVISOR: exec_cmd: vm set_con_tcp_port ESW5 2010 
Nov 29 15:23:55.269 HYPERVISOR: exec_cmd: c3725 get_mac_addr ESW5 
Nov 29 15:23:55.270 HYPERVISOR: exec_cmd: vm get_status ESW5 
Nov 29 15:23:55.270 HYPERVISOR: exec_cmd: vm set_idle_pc ESW5 0x614ac27c 
Nov 29 15:23:55.274 HYPERVISOR: exec_cmd: vm get_status ESW5 
Nov 29 15:23:55.276 HYPERVISOR: exec_cmd: vm slot_add_binding ESW5 1 0 NM-16ESW 
Nov 29 15:23:55.276 HYPERVISOR: exec_cmd: vm set_disk0 ESW5 1 
Nov 29 15:23:55.277 HYPERVISOR: exec_cmd: vm set_nvram ESW5 256 
Nov 29 15:23:55.278 HYPERVISOR: exec_cmd: vm set_ios ESW5 /media/actionmystique/SAMSUNG5-VMs/Images/GNS3/IOS/c3725-adventerprisek9-mz.124-15.T10.image 
Nov 29 15:23:55.279 HYPERVISOR: exec_cmd: c3725 set_mac_addr ESW5 c205.6a03.0000 
Nov 29 15:23:55.279 HYPERVISOR: exec_cmd: vm slot_add_binding ESW5 0 16 WIC-2T 
Nov 29 15:23:55.281 HYPERVISOR: exec_cmd: vm set_config ESW5 configs/ios_base_startup-config.txt 
Nov 29 15:23:55.282 HYPERVISOR: exec_cmd: vm set_config ESW5 configs/ios_base_startup-config.txt configs/ios_base_private-config.txt 
Nov 29 15:23:55.580 HYPERVISOR: exec_cmd: nio create_udp udp-14f427b6-49bf-4c52-b955-948335e8ca11 15011 127.0.0.1 15009 
Nov 29 15:23:55.581 HYPERVISOR: exec_cmd: vm slot_add_nio_binding ESW5 1 0 udp-14f427b6-49bf-4c52-b955-948335e8ca11 
Nov 29 15:23:55.581 HYPERVISOR: exec_cmd: vm get_status ESW5 
Nov 29 15:23:55.592 HYPERVISOR: exec_cmd: nio create_udp udp-fde4a98f-1937-42c2-951b-d73cafc11354 15013 127.0.0.1 15012 
Nov 29 15:23:55.593 HYPERVISOR: exec_cmd: vm slot_add_nio_binding ESW5 1 1 udp-fde4a98f-1937-42c2-951b-d73cafc11354 
Nov 29 15:23:55.593 HYPERVISOR: exec_cmd: vm get_status ESW5 
