Nov 29 19:01:33.434 HYPERVISOR: Release 0.2.17-amd64/Linux (tag 2017072410)
Nov 29 19:01:33.434 HYPERVISOR: Started on IP = 127.0.0.1, TCP port = 54715.
Nov 29 19:01:33.452 HYPERVISOR: exec_cmd: hypervisor version 
Nov 29 19:01:33.452 HYPERVISOR: exec_cmd: hypervisor working_dir /media/actionmystique/SAMSUNG5-VMs/Labs/GNS3/TT 2-solutions-linux-/project-files/dynamips 
Nov 29 19:01:33.452 GENERAL: working_dir=/media/actionmystique/SAMSUNG5-VMs/Labs/GNS3/TT 2-solutions-linux-/project-files/dynamips
Nov 29 19:01:33.452 HYPERVISOR: exec_cmd: vm create ESW2 2 c3725 
Nov 29 19:01:33.452 VM: VM ESW2 created.
Nov 29 19:01:33.453 HYPERVISOR: exec_cmd: vm set_con_tcp_port ESW2 2002 
Nov 29 19:01:33.453 HYPERVISOR: exec_cmd: vm set_aux_tcp_port ESW2 2502 
Nov 29 19:01:33.453 HYPERVISOR: exec_cmd: c3725 get_mac_addr ESW2 
Nov 29 19:01:33.454 HYPERVISOR: exec_cmd: vm slot_add_binding ESW2 0 16 WIC-2T 
Nov 29 19:01:33.454 HYPERVISOR: exec_cmd: vm set_ios ESW2 /media/actionmystique/SAMSUNG5-VMs/Images/GNS3/IOS/c3725-adventerprisek9-mz.124-15.T10.image 
Nov 29 19:01:33.455 HYPERVISOR: exec_cmd: vm get_status ESW2 
Nov 29 19:01:33.455 HYPERVISOR: exec_cmd: vm set_idle_pc ESW2 0x60c05928 
Nov 29 19:01:33.455 HYPERVISOR: exec_cmd: vm get_status ESW2 
Nov 29 19:01:33.456 HYPERVISOR: exec_cmd: vm slot_add_binding ESW2 1 0 NM-16ESW 
Nov 29 19:01:33.456 HYPERVISOR: exec_cmd: c3725 set_mac_addr ESW2 c202.28c2.0000 
Nov 29 19:01:33.456 HYPERVISOR: exec_cmd: vm set_nvram ESW2 256 
Nov 29 19:01:33.457 HYPERVISOR: exec_cmd: vm set_disk0 ESW2 1 
Nov 29 19:01:33.457 HYPERVISOR: exec_cmd: vm set_config ESW2 configs/i2_startup-config.cfg 
Nov 29 19:01:33.458 HYPERVISOR: exec_cmd: vm set_config ESW2 configs/i2_startup-config.cfg configs/i2_private-config.cfg 
Nov 29 19:01:33.573 HYPERVISOR: exec_cmd: nio create_tap tap-4cf0ce34-41fe-4ffa-b260-749962123e7a tap2 
Nov 29 19:01:33.574 HYPERVISOR: exec_cmd: vm slot_add_nio_binding ESW2 1 1 tap-4cf0ce34-41fe-4ffa-b260-749962123e7a 
Nov 29 19:01:33.574 HYPERVISOR: exec_cmd: vm get_status ESW2 
Nov 29 19:01:33.680 HYPERVISOR: exec_cmd: nio create_udp udp-1f02ef36-466a-4636-9823-ad819b4952b2 15009 127.0.0.1 15010 
Nov 29 19:01:33.684 HYPERVISOR: exec_cmd: vm slot_add_nio_binding ESW2 1 2 udp-1f02ef36-466a-4636-9823-ad819b4952b2 
Nov 29 19:01:33.685 HYPERVISOR: exec_cmd: vm get_status ESW2 
Nov 29 19:01:47.535 HYPERVISOR: exec_cmd: vm get_status ESW2 
Nov 29 19:01:47.536 HYPERVISOR: exec_cmd: vm extract_config ESW2 
Nov 29 19:01:47.537 HYPERVISOR: exec_cmd: vm delete ESW2 
Nov 29 19:01:47.537 VM: VM ESW2 destroyed.
Nov 29 19:01:47.538 HYPERVISOR: exec_cmd: hypervisor stop 
Nov 29 19:01:47.966 HYPERVISOR: Stopped.
Nov 29 19:01:47.966 GENERAL: reset done.
