Dec 04 11:09:26.875 HYPERVISOR: Release 0.2.17-amd64/Linux (tag 2017072410)
Dec 04 11:09:26.875 HYPERVISOR: Started on IP = 127.0.0.1, TCP port = 49187.
Dec 04 11:09:26.890 HYPERVISOR: exec_cmd: hypervisor version 
Dec 04 11:09:26.890 HYPERVISOR: exec_cmd: hypervisor working_dir /media/actionmystique/SAMSUNG5-VMs/Labs/GNS3/TT 1-linux-/project-files/dynamips 
Dec 04 11:09:26.891 GENERAL: working_dir=/media/actionmystique/SAMSUNG5-VMs/Labs/GNS3/TT 1-linux-/project-files/dynamips
Dec 04 11:09:26.891 HYPERVISOR: exec_cmd: vm create ESW2 2 c3725 
Dec 04 11:09:26.891 VM: VM ESW2 created.
Dec 04 11:09:26.892 HYPERVISOR: exec_cmd: vm set_con_tcp_port ESW2 2005 
Dec 04 11:09:26.892 HYPERVISOR: exec_cmd: c3725 get_mac_addr ESW2 
Dec 04 11:09:26.893 HYPERVISOR: exec_cmd: vm set_nvram ESW2 256 
Dec 04 11:09:26.893 HYPERVISOR: exec_cmd: vm set_ios ESW2 /media/actionmystique/SAMSUNG5-VMs/Images/GNS3/IOS/c3725-adventerprisek9-mz.124-15.T10.image 
Dec 04 11:09:26.894 HYPERVISOR: exec_cmd: c3725 set_mac_addr ESW2 c202.1bd4.0000 
Dec 04 11:09:26.895 HYPERVISOR: exec_cmd: vm get_status ESW2 
Dec 04 11:09:26.895 HYPERVISOR: exec_cmd: vm slot_add_binding ESW2 1 0 NM-16ESW 
Dec 04 11:09:26.896 HYPERVISOR: exec_cmd: vm get_status ESW2 
Dec 04 11:09:26.896 HYPERVISOR: exec_cmd: vm set_idle_pc ESW2 0x6026b804 
Dec 04 11:09:26.897 HYPERVISOR: exec_cmd: vm set_disk0 ESW2 1 
Dec 04 11:09:26.897 HYPERVISOR: exec_cmd: vm slot_add_binding ESW2 0 16 WIC-2T 
Dec 04 11:09:26.897 HYPERVISOR: exec_cmd: vm set_config ESW2 configs/ios_base_startup-config.txt 
Dec 04 11:09:26.898 HYPERVISOR: exec_cmd: vm set_config ESW2 configs/ios_base_startup-config.txt configs/ios_base_private-config.txt 
Dec 04 11:09:27.255 HYPERVISOR: exec_cmd: nio create_udp udp-289bf19b-1918-443b-9d6f-c524bf4ba254 15005 127.0.0.1 15003 
Dec 04 11:09:27.267 HYPERVISOR: exec_cmd: vm slot_add_nio_binding ESW2 1 0 udp-289bf19b-1918-443b-9d6f-c524bf4ba254 
Dec 04 11:09:27.268 HYPERVISOR: exec_cmd: vm get_status ESW2 
Dec 04 11:09:38.533 HYPERVISOR: exec_cmd: vm get_status ESW2 
Dec 04 11:09:38.536 HYPERVISOR: exec_cmd: vm extract_config ESW2 
Dec 04 11:09:38.542 HYPERVISOR: exec_cmd: vm delete ESW2 
Dec 04 11:09:38.542 VM: VM ESW2 destroyed.
Dec 04 11:09:38.544 HYPERVISOR: exec_cmd: hypervisor stop 
Dec 04 11:09:38.901 HYPERVISOR: Stopped.
Dec 04 11:09:38.901 GENERAL: reset done.
