Dec 04 11:08:25.004 HYPERVISOR: Release 0.2.17-amd64/Linux (tag 2017072410)
Dec 04 11:08:25.004 HYPERVISOR: Started on IP = 127.0.0.1, TCP port = 43971.
Dec 04 11:08:25.021 HYPERVISOR: exec_cmd: hypervisor version 
Dec 04 11:08:25.021 HYPERVISOR: exec_cmd: hypervisor working_dir /media/actionmystique/SAMSUNG5-VMs/Labs/GNS3/git-Public-Labs-Collection/CCNP/TBSHOOT/L3-Technologies/IPv6/Routing-Protocols/Redistribution/Jean-Christophe_Manciot/1+/TT 1-linux/project-files/dynamips 
Dec 04 11:08:25.021 GENERAL: working_dir=/media/actionmystique/SAMSUNG5-VMs/Labs/GNS3/git-Public-Labs-Collection/CCNP/TBSHOOT/L3-Technologies/IPv6/Routing-Protocols/Redistribution/Jean-Christophe_Manciot/1+/TT 1-linux/project-files/dynamips
Dec 04 11:08:25.022 HYPERVISOR: exec_cmd: vm create ESW3 3 c3725 
Dec 04 11:08:25.022 VM: VM ESW3 created.
Dec 04 11:08:25.022 HYPERVISOR: exec_cmd: vm set_con_tcp_port ESW3 2006 
Dec 04 11:08:25.023 HYPERVISOR: exec_cmd: c3725 get_mac_addr ESW3 
Dec 04 11:08:25.023 HYPERVISOR: exec_cmd: vm set_nvram ESW3 256 
Dec 04 11:08:25.023 HYPERVISOR: exec_cmd: vm set_ios ESW3 /media/actionmystique/SAMSUNG5-VMs/Images/GNS3/IOS/c3725-adventerprisek9-mz.124-15.T10.image 
Dec 04 11:08:25.024 HYPERVISOR: exec_cmd: c3725 set_mac_addr ESW3 c203.1bfb.0000 
Dec 04 11:08:25.024 HYPERVISOR: exec_cmd: vm get_status ESW3 
Dec 04 11:08:25.025 HYPERVISOR: exec_cmd: vm slot_add_binding ESW3 1 0 NM-16ESW 
Dec 04 11:08:25.025 HYPERVISOR: exec_cmd: vm get_status ESW3 
Dec 04 11:08:25.025 HYPERVISOR: exec_cmd: vm set_idle_pc ESW3 0x6026b804 
Dec 04 11:08:25.026 HYPERVISOR: exec_cmd: vm set_disk0 ESW3 1 
Dec 04 11:08:25.026 HYPERVISOR: exec_cmd: vm slot_add_binding ESW3 0 16 WIC-2T 
Dec 04 11:08:25.027 HYPERVISOR: exec_cmd: vm set_config ESW3 configs/ios_base_startup-config.txt 
Dec 04 11:08:25.027 HYPERVISOR: exec_cmd: vm set_config ESW3 configs/ios_base_startup-config.txt configs/ios_base_private-config.txt 
Dec 04 11:08:25.400 HYPERVISOR: exec_cmd: nio create_udp udp-b91932bb-dbcc-4602-9ac5-16dd9dafee8c 15005 127.0.0.1 15004 
Dec 04 11:08:25.401 HYPERVISOR: exec_cmd: vm slot_add_nio_binding ESW3 1 0 udp-b91932bb-dbcc-4602-9ac5-16dd9dafee8c 
Dec 04 11:08:25.401 HYPERVISOR: exec_cmd: vm get_status ESW3 
Dec 04 11:08:29.263 HYPERVISOR: exec_cmd: nio create_tap tap-9843f61a-b0a7-407c-b996-0f065d60612c tap0 
Dec 04 11:08:29.264 HYPERVISOR: exec_cmd: vm slot_add_nio_binding ESW3 1 1 tap-9843f61a-b0a7-407c-b996-0f065d60612c 
Dec 04 11:08:29.266 HYPERVISOR: exec_cmd: vm get_status ESW3 
