Dec 04 11:09:27.019 HYPERVISOR: Release 0.2.17-amd64/Linux (tag 2017072410)
Dec 04 11:09:27.019 HYPERVISOR: Started on IP = 127.0.0.1, TCP port = 59737.
Dec 04 11:09:27.035 HYPERVISOR: exec_cmd: hypervisor version 
Dec 04 11:09:27.036 HYPERVISOR: exec_cmd: hypervisor working_dir /media/actionmystique/SAMSUNG5-VMs/Labs/GNS3/TT 1-linux-/project-files/dynamips 
Dec 04 11:09:27.036 GENERAL: working_dir=/media/actionmystique/SAMSUNG5-VMs/Labs/GNS3/TT 1-linux-/project-files/dynamips
Dec 04 11:09:27.036 HYPERVISOR: exec_cmd: vm create ESW5 5 c3725 
Dec 04 11:09:27.036 VM: VM ESW5 created.
Dec 04 11:09:27.037 HYPERVISOR: exec_cmd: vm set_con_tcp_port ESW5 2010 
Dec 04 11:09:27.042 HYPERVISOR: exec_cmd: c3725 get_mac_addr ESW5 
Dec 04 11:09:27.043 HYPERVISOR: exec_cmd: vm set_nvram ESW5 256 
Dec 04 11:09:27.044 HYPERVISOR: exec_cmd: vm set_ios ESW5 /media/actionmystique/SAMSUNG5-VMs/Images/GNS3/IOS/c3725-adventerprisek9-mz.124-15.T10.image 
Dec 04 11:09:27.045 HYPERVISOR: exec_cmd: c3725 set_mac_addr ESW5 c205.6a03.0000 
Dec 04 11:09:27.045 HYPERVISOR: exec_cmd: vm get_status ESW5 
Dec 04 11:09:27.045 HYPERVISOR: exec_cmd: vm slot_add_binding ESW5 1 0 NM-16ESW 
Dec 04 11:09:27.046 HYPERVISOR: exec_cmd: vm get_status ESW5 
Dec 04 11:09:27.046 HYPERVISOR: exec_cmd: vm set_idle_pc ESW5 0x6026b804 
Dec 04 11:09:27.046 HYPERVISOR: exec_cmd: vm set_disk0 ESW5 1 
Dec 04 11:09:27.047 HYPERVISOR: exec_cmd: vm slot_add_binding ESW5 0 16 WIC-2T 
Dec 04 11:09:27.047 HYPERVISOR: exec_cmd: vm set_config ESW5 configs/ios_base_startup-config.txt 
Dec 04 11:09:27.048 HYPERVISOR: exec_cmd: vm set_config ESW5 configs/ios_base_startup-config.txt configs/ios_base_private-config.txt 
Dec 04 11:09:27.395 HYPERVISOR: exec_cmd: nio create_udp udp-6f34c467-e615-4a29-b456-706fd8ff309d 15018 127.0.0.1 15016 
Dec 04 11:09:27.396 HYPERVISOR: exec_cmd: vm slot_add_nio_binding ESW5 1 0 udp-6f34c467-e615-4a29-b456-706fd8ff309d 
Dec 04 11:09:27.396 HYPERVISOR: exec_cmd: vm get_status ESW5 
Dec 04 11:09:27.404 HYPERVISOR: exec_cmd: nio create_udp udp-b4218cdb-5415-42cf-9105-63bd1aa675b0 15017 127.0.0.1 15019 
Dec 04 11:09:27.404 HYPERVISOR: exec_cmd: vm slot_add_nio_binding ESW5 1 1 udp-b4218cdb-5415-42cf-9105-63bd1aa675b0 
Dec 04 11:09:27.405 HYPERVISOR: exec_cmd: vm get_status ESW5 
Dec 04 11:09:38.531 HYPERVISOR: exec_cmd: vm get_status ESW5 
Dec 04 11:09:38.535 HYPERVISOR: exec_cmd: vm extract_config ESW5 
Dec 04 11:09:38.539 HYPERVISOR: exec_cmd: vm delete ESW5 
Dec 04 11:09:38.539 VM: VM ESW5 destroyed.
Dec 04 11:09:38.543 HYPERVISOR: exec_cmd: hypervisor stop 
Dec 04 11:09:38.546 HYPERVISOR: Stopped.
Dec 04 11:09:38.546 GENERAL: reset done.
