autostart = False
version = 0.8.5
[127.0.0.1:7202]
    workingdir = C:\Users\ActionMystique\AppData\Local\GNS3
    udp = 10200
    [[7200]]
        image = C:\Users\ActionMystique\Google Drive\Missions\Certifications\Cisco\IOS\Binaries\c7200-adventerprisek9-mz.152-4.S.image
        ram = 512
        idlepc = 0x62a29de4
        sparsemem = True
        ghostios = True
    [[ROUTER R5]]
        console = 2005
        aux = 2105
        cnfg = configs\R5.cfg
        slot0 = C7200-IO-GE-E
        slot1 = PA-8T
        s1/0 = FR1 5
        x = 83.1715728753
        y = 285.414213562
        z = 1.0
    [[ROUTER WAN2]]
        console = 2002
        aux = 2102
        cnfg = configs\WAN2.cfg
        slot0 = C7200-IO-GE-E
        g0/0 = WAN1 g0/0
        slot1 = PA-8T
        s1/0 = FR1 2
        slot2 = PA-2FE-TX
        f2/0 = R7 f2/0
        f2/1 = R6 f2/1
        x = 165.0
        y = 135.0
        z = 1.0
[127.0.0.1:7203]
    workingdir = C:\Users\ActionMystique\AppData\Local\GNS3
    udp = 10300
    [[7200]]
        image = C:\Users\ActionMystique\Google Drive\Missions\Certifications\Cisco\IOS\Binaries\c7200-adventerprisek9-mz.152-4.S.image
        ram = 512
        idlepc = 0x62a29de4
        sparsemem = True
        ghostios = True
    [[ROUTER R7]]
        console = 2007
        aux = 2107
        cnfg = configs\R7.recovered.cfg
        slot0 = C7200-IO-GE-E
        g0/0 = R6 g0/0
        slot1 = PA-8T
        s1/0 = R8 s1/1
        slot2 = PA-2FE-TX
        f2/0 = WAN2 f2/0
        f2/1 = WAN1 f2/1
        x = 391.264068712
        y = 136.391918986
        z = 1.0
    [[ROUTER R8]]
        console = 2008
        aux = 2108
        cnfg = configs\R8.cfg
        slot0 = C7200-IO-GE-E
        slot1 = PA-8T
        s1/0 = R6 s1/0
        s1/1 = R7 s1/0
        x = 549.655987697
        y = -17.7573593129
        z = 1.0
[127.0.0.1:7200]
    workingdir = C:\Users\ActionMystique\AppData\Local\GNS3
    udp = 10000
    [[7200]]
        image = C:\Users\ActionMystique\Google Drive\Missions\Certifications\Cisco\IOS\Binaries\c7200-adventerprisek9-mz.152-4.S.image
        ram = 512
        idlepc = 0x62a29de4
        sparsemem = True
    [[ROUTER R6]]
        ghostios = True
        console = 2006
        aux = 2106
        cnfg = configs\R6.recovered.cfg
        slot0 = C7200-IO-GE-E
        g0/0 = R7 g0/0
        slot1 = PA-8T
        s1/0 = R8 s1/0
        slot2 = PA-2FE-TX
        f2/0 = WAN1 f2/0
        f2/1 = WAN2 f2/1
        x = 385.607214462
        y = -162.007142675
        z = 1.0
    [[FRSW FR1]]
        1:103 = 3:301
        1:104 = 4:401
        1:105 = 5:501
        2:203 = 3:302
        2:204 = 4:402
        2:205 = 5:502
        3:301 = 1:103
        3:302 = 2:203
        4:401 = 1:104
        4:402 = 2:204
        5:501 = 1:105
        5:502 = 2:205
        1 = WAN1 s1/0
        2 = WAN2 s1/0
        3 = R3 s1/0
        4 = R4 s1/0
        5 = R5 s1/0
        x = -19.5
        y = -22.5
        z = 1.0
    [[ROUTER WAN1]]
        console = 2001
        aux = 2101
        cnfg = configs\WAN1.recovered.cfg
        slot0 = C7200-IO-GE-E
        g0/0 = WAN2 g0/0
        slot1 = PA-8T
        s1/0 = FR1 1
        slot2 = PA-2FE-TX
        f2/0 = R6 f2/0
        f2/1 = R7 f2/1
        x = 164.0
        y = -164.0
        z = 1.0
[127.0.0.1:7201]
    workingdir = C:\Users\ActionMystique\AppData\Local\GNS3
    udp = 10100
    [[7200]]
        image = C:\Users\ActionMystique\Google Drive\Missions\Certifications\Cisco\IOS\Binaries\c7200-adventerprisek9-mz.152-4.S.image
        ram = 512
        idlepc = 0x62a29de4
        sparsemem = True
        ghostios = True
    [[ROUTER R4]]
        console = 2004
        aux = 2104
        cnfg = configs\R4.cfg
        slot0 = C7200-IO-GE-E
        g0/0 = R3 g0/0
        slot1 = PA-8T
        s1/0 = FR1 4
        x = -257.946176131
        y = 132.007142675
        z = 1.0
    [[ROUTER R3]]
        console = 2003
        aux = 2103
        cnfg = configs\R3.cfg
        slot0 = C7200-IO-GE-E
        g0/0 = R4 g0/0
        slot1 = PA-8T
        s1/0 = FR1 3
        x = -259.774603256
        y = -153.556349186
        z = 1.0
[GNS3-DATA]
    configs = configs
    m11 = 0.707106781187
    m22 = 0.707106781187
    [[NOTE 1]]
        text = "::2/64"
        x = 184.970562748
        y = 87.3847763109
    [[NOTE 2]]
        text = "IPv6 Routing Protocol"
        x = -21.2132034356
        y = -473.033621333
        font = "MS Shell Dlg 2,20,-1,5,75,0,1,0,0,0"
    [[NOTE 3]]
        text = "::1/64"
        x = 231.0
        y = -171.0
    [[NOTE 4]]
        text = "2026::/64"
        x = 310.278354061
        y = -32.9928573254
    [[NOTE 5]]
        text = "2078::/64"
        x = 492.711903608
        y = 50.4457428545
    [[NOTE 6]]
        text = "203"
        x = 83.0
        y = 42.0
    [[NOTE 7]]
        text = "2067::/64"
        x = 388.060099992
        y = -4.30656582441
    [[NOTE 8]]
        text = "2123:4000::/64"
        x = -52.3259018078
        y = -10.5857864376
    [[NOTE 9]]
        text = "2015::/64"
        x = -16.9705627485
        y = 177.102597105
    [[NOTE 10]]
        text = "2017::/64"
        x = 310.278354061
        y = 41.9604614803
    [[NOTE 11]]
        text = "2068::/64"
        x = 464.42763236
        y = -59.6619048837
    [[NOTE 12]]
        text = "2034::/64"
        x = -268.134992949
        y = -9.56139982032
    [[NOTE 13]]
        text = "::3/64"
        x = -195.774603256
        y = -139.142135624
    [[NOTE 14]]
        text = "::1/64"
        x = 117.071067812
        y = -129.686291501
    [[NOTE 15]]
        text = "::8/64"
        x = 560.511760033
        y = 26.8893936683
    [[NOTE 16]]
        text = "205"
        x = 85.0
        y = 78.0
    [[NOTE 17]]
        text = "---"
        x = 62.7573593129
        y = 297.242640687
    [[NOTE 18]]
        text = "2005::5/64"
        x = 16.7157287525
        y = 311.849242405
    [[NOTE 19]]
        text = "::6/64"
        x = 458.688383543
        y = -141.201010127
    [[NOTE 20]]
        text = "302"
        x = -134.564971157
        y = -58.5355339059
    [[NOTE 21]]
        text = "104"
        x = 62.0
        y = -74.0
    [[NOTE 22]]
        text = "|"
        x = 58.1715728753
        y = 296.914213562
    [[NOTE 23]]
        text = "::2/64"
        x = 113.828427124
        y = 130.627416998
    [[NOTE 24]]
        text = "::5/64"
        x = 52.3847763108
        y = 264.585786438
    [[NOTE 25]]
        text = "103"
        x = 62.0
        y = -91.0
    [[NOTE 26]]
        text = "::6/64"
        x = 341.308657865
        y = -137.159379567
    [[NOTE 27]]
        text = "401"
        x = -145.514718626
        y = 49.7609306503
    [[NOTE 28]]
        text = "2016::/64"
        x = 274.923015002
        y = -164.112698372
    [[NOTE 29]]
        text = "::4/64"
        x = -281.791847199
        y = 97.2792206133
    [[NOTE 30]]
        text = "::2/64"
        x = 221.74011537
        y = 119.509667992
    [[NOTE 31]]
        text = "::6/64"
        x = 426.161471608
        y = -112.715728753
    [[NOTE 32]]
        text = "::1/64"
        x = 180.556349186
        y = -97.6568542494
    [[NOTE 33]]
        text = "::7/64"
        x = 430.404112294
        y = 103.457936163
    [[NOTE 34]]
        text = "::3/64"
        x = -277.798989874
        y = -102.573593129
    [[NOTE 35]]
        text = "204"
        x = 83.0
        y = 60.0
    [[NOTE 36]]
        text = "::1/64"
        x = 229.585786438
        y = -123.828427125
    [[NOTE 37]]
        text = "::8/64"
        x = 503.943217538
        y = -16.7502166385
    [[NOTE 38]]
        text = "2027::/64"
        x = 283.408296376
        y = 135.499566724
    [[NOTE 39]]
        text = "::7/64"
        x = 355.450793489
        y = 114.570634536
    [[NOTE 40]]
        text = "::2/64"
        x = 230.225396744
        y = 162.13708499
    [[NOTE 41]]
        text = "::7/64"
        x = 451.61731573
        y = 132.955410846
    [[NOTE 42]]
        text = "502"
        x = 58.7573593129
        y = 159.585786438
    [[NOTE 43]]
        text = "::7/64"
        x = 344.13708499
        y = 163.867099092
    [[NOTE 44]]
        text = "402"
        x = -109.159379566
        y = 80.4888527117
    [[NOTE 45]]
        text = "105"
        x = 64.0
        y = -55.0
    [[NOTE 46]]
        text = "::6/64"
        x = 352.622366364
        y = -110.088311755
    [[NOTE 47]]
        text = "2025::/64"
        x = 65.0538238691
        y = 178.31580054
    [[NOTE 48]]
        text = "301"
        x = -121.251262658
        y = -98.2132034356
    [[NOTE 49]]
        text = "RIPng"
        x = 90.5096679918
        y = -368.381817718
        font = "MS Shell Dlg 2,20,-1,5,75,0,0,0,0,0"
    [[NOTE 50]]
        text = "2012::/64"
        x = 163.200143574
        y = -6.93398282236
    [[NOTE 51]]
        text = "501"
        x = 27.4335495461
        y = 160.066017178
    [[NOTE 52]]
        text = "::4/64"
        x = -191.703535444
        y = 123.308657865
    [[SHAPE 1]]
        type = ellipse
        x = -367.0
        y = -326.683332908
        width = 1030.26616075
        height = 690.136218438
        fill_color = "#00aaff"
        border_style = 2
        z = -2.0
