Nov 28 08:11:24.965 HYPERVISOR: Release 0.2.17-amd64/Linux (tag 2017072410)
Nov 28 08:11:24.965 HYPERVISOR: Started on IP = 127.0.0.1, TCP port = 51339.
Nov 28 08:11:24.976 HYPERVISOR: exec_cmd: hypervisor version 
Nov 28 08:11:24.977 HYPERVISOR: exec_cmd: hypervisor working_dir /media/actionmystique/SAMSUNG5-VMs/Labs/GNS3/git-Public-Labs-Collection/CCNP/TBSHOOT/L3-Technologies/IPv4/IOS-Filtering-Tools/Prefix-List/Jean-Christophe_Manciot/1+/TT 1-linux-/project-files/dynamips 
Nov 28 08:11:24.977 GENERAL: working_dir=/media/actionmystique/SAMSUNG5-VMs/Labs/GNS3/git-Public-Labs-Collection/CCNP/TBSHOOT/L3-Technologies/IPv4/IOS-Filtering-Tools/Prefix-List/Jean-Christophe_Manciot/1+/TT 1-linux-/project-files/dynamips
Nov 28 08:11:24.982 HYPERVISOR: exec_cmd: vm create ESW3 3 c3725 
Nov 28 08:11:24.982 VM: VM ESW3 created.
Nov 28 08:11:24.984 HYPERVISOR: exec_cmd: vm set_con_tcp_port ESW3 2005 
Nov 28 08:11:24.987 HYPERVISOR: exec_cmd: c3725 get_mac_addr ESW3 
Nov 28 08:11:24.988 HYPERVISOR: exec_cmd: vm set_disk0 ESW3 1 
Nov 28 08:11:24.993 HYPERVISOR: exec_cmd: vm get_status ESW3 
Nov 28 08:11:24.994 HYPERVISOR: exec_cmd: vm slot_add_binding ESW3 1 0 NM-16ESW 
Nov 28 08:11:24.994 HYPERVISOR: exec_cmd: vm set_ios ESW3 /media/actionmystique/SAMSUNG5-VMs/Images/GNS3/IOS/c3725-adventerprisek9-mz.124-15.T10.image 
Nov 28 08:11:24.995 HYPERVISOR: exec_cmd: c3725 set_mac_addr ESW3 c203.4490.0000 
Nov 28 08:11:24.995 HYPERVISOR: exec_cmd: vm slot_add_binding ESW3 0 16 WIC-2T 
Nov 28 08:11:24.996 HYPERVISOR: exec_cmd: vm get_status ESW3 
Nov 28 08:11:24.996 HYPERVISOR: exec_cmd: vm set_idle_pc ESW3 0x614ac27c 
Nov 28 08:11:24.996 HYPERVISOR: exec_cmd: vm set_nvram ESW3 256 
Nov 28 08:11:24.997 HYPERVISOR: exec_cmd: vm set_config ESW3 configs/ios_base_startup-config.txt 
Nov 28 08:11:24.997 HYPERVISOR: exec_cmd: vm set_config ESW3 configs/ios_base_startup-config.txt configs/ios_base_private-config.txt 
Nov 28 08:11:25.222 HYPERVISOR: exec_cmd: nio create_udp udp-12fadf84-42dc-489e-a2e3-74e708b0dab1 15009 127.0.0.1 15006 
Nov 28 08:11:25.223 HYPERVISOR: exec_cmd: vm slot_add_nio_binding ESW3 1 0 udp-12fadf84-42dc-489e-a2e3-74e708b0dab1 
Nov 28 08:11:25.223 HYPERVISOR: exec_cmd: vm get_status ESW3 
Nov 28 08:11:45.309 HYPERVISOR: exec_cmd: vm get_status ESW3 
Nov 28 08:11:45.310 HYPERVISOR: exec_cmd: vm extract_config ESW3 
Nov 28 08:11:45.312 HYPERVISOR: exec_cmd: vm delete ESW3 
Nov 28 08:11:45.312 VM: VM ESW3 destroyed.
Nov 28 08:11:45.313 HYPERVISOR: exec_cmd: hypervisor stop 
Nov 28 08:11:45.492 HYPERVISOR: Stopped.
Nov 28 08:11:45.492 GENERAL: reset done.
