Nov 27 16:15:54.109 HYPERVISOR: Release 0.2.17-amd64/Linux (tag 2017072410)
Nov 27 16:15:54.109 HYPERVISOR: Started on IP = 127.0.0.1, TCP port = 46575.
Nov 27 16:15:54.128 HYPERVISOR: exec_cmd: hypervisor version 
Nov 27 16:15:54.129 HYPERVISOR: exec_cmd: hypervisor working_dir /media/actionmystique/SAMSUNG5-VMs/Labs/GNS3/TT 3-solutions-linux-/project-files/dynamips 
Nov 27 16:15:54.129 GENERAL: working_dir=/media/actionmystique/SAMSUNG5-VMs/Labs/GNS3/TT 3-solutions-linux-/project-files/dynamips
Nov 27 16:15:54.130 HYPERVISOR: exec_cmd: vm create SW1 1 c3725 
Nov 27 16:15:54.130 VM: VM SW1 created.
Nov 27 16:15:54.131 HYPERVISOR: exec_cmd: vm set_con_tcp_port SW1 2001 
Nov 27 16:15:54.132 HYPERVISOR: exec_cmd: c3725 get_mac_addr SW1 
Nov 27 16:15:54.133 HYPERVISOR: exec_cmd: vm set_nvram SW1 256 
Nov 27 16:15:54.134 HYPERVISOR: exec_cmd: vm get_status SW1 
Nov 27 16:15:54.135 HYPERVISOR: exec_cmd: vm set_idle_pc SW1 0x6026b804 
Nov 27 16:15:54.136 HYPERVISOR: exec_cmd: c3725 set_mac_addr SW1 aaaa.aaaa.aaaa 
Nov 27 16:15:54.137 HYPERVISOR: exec_cmd: vm set_exec_area SW1 16 
Nov 27 16:15:54.138 HYPERVISOR: exec_cmd: vm get_status SW1 
Nov 27 16:15:54.139 HYPERVISOR: exec_cmd: vm slot_add_binding SW1 1 0 NM-16ESW 
Nov 27 16:15:54.140 HYPERVISOR: exec_cmd: vm set_disk0 SW1 1 
Nov 27 16:15:54.141 HYPERVISOR: exec_cmd: vm set_ios SW1 /media/actionmystique/SAMSUNG5-VMs/Images/GNS3/IOS/c3725-adventerprisek9-mz.124-15.T10.image 
Nov 27 16:15:54.142 HYPERVISOR: exec_cmd: vm slot_add_binding SW1 0 16 WIC-2T 
Nov 27 16:15:54.144 HYPERVISOR: exec_cmd: vm set_config SW1 configs/i1_startup-config.cfg 
Nov 27 16:15:54.145 HYPERVISOR: exec_cmd: vm set_config SW1 configs/i1_startup-config.cfg configs/i1_private-config.cfg 
Nov 27 16:15:54.241 HYPERVISOR: exec_cmd: nio create_null null-4ee23ee1-afc4-4e60-83f4-aeb93390e04a 
Nov 27 16:15:54.246 HYPERVISOR: exec_cmd: vm slot_add_nio_binding SW1 1 0 null-4ee23ee1-afc4-4e60-83f4-aeb93390e04a 
Nov 27 16:15:54.249 HYPERVISOR: exec_cmd: vm get_status SW1 
Nov 27 16:15:54.337 HYPERVISOR: exec_cmd: nio create_udp udp-032df3af-6493-4b30-b995-5000a090c775 15005 127.0.0.1 15004 
Nov 27 16:15:54.343 HYPERVISOR: exec_cmd: vm slot_add_nio_binding SW1 1 1 udp-032df3af-6493-4b30-b995-5000a090c775 
Nov 27 16:15:54.347 HYPERVISOR: exec_cmd: vm get_status SW1 
Nov 27 16:15:54.389 HYPERVISOR: exec_cmd: nio create_udp udp-c98b94a2-829e-4b9b-a645-7e362ee4a003 15007 127.0.0.1 15006 
Nov 27 16:15:54.389 HYPERVISOR: exec_cmd: vm slot_add_nio_binding SW1 1 5 udp-c98b94a2-829e-4b9b-a645-7e362ee4a003 
Nov 27 16:15:54.390 HYPERVISOR: exec_cmd: vm get_status SW1 
Nov 27 16:15:54.397 HYPERVISOR: exec_cmd: nio create_udp udp-dc286a98-d1b2-43b3-9551-08cafd552df4 15009 127.0.0.1 15008 
Nov 27 16:15:54.400 HYPERVISOR: exec_cmd: vm slot_add_nio_binding SW1 1 6 udp-dc286a98-d1b2-43b3-9551-08cafd552df4 
Nov 27 16:15:54.401 HYPERVISOR: exec_cmd: vm get_status SW1 
Nov 27 16:16:13.872 HYPERVISOR: exec_cmd: vm get_status SW1 
Nov 27 16:16:13.873 HYPERVISOR: exec_cmd: vm extract_config SW1 
Nov 27 16:16:13.877 HYPERVISOR: exec_cmd: vm delete SW1 
Nov 27 16:16:13.877 VM: VM SW1 destroyed.
Nov 27 16:16:13.878 HYPERVISOR: exec_cmd: hypervisor stop 
Nov 27 16:16:14.146 HYPERVISOR: Stopped.
Nov 27 16:16:14.146 GENERAL: reset done.
