autostart = False
version = 0.8.2
[127.0.0.1:7202]
    udp = 10200
    [[7200]]
        image = ..\..\..\..\..\..\IOS\Binaries\c7200-adventerprisek9-mz.124-24.T.image
        idlepc = 0x61604440
        sparsemem = True
        ghostios = True
    [[ROUTER WAN2]]
        console = 2005
        aux = 2105
        cnfg = configs\WAN2.cfg
        slot0 = C7200-IO-GE-E
        g0/0 = WAN1 g0/0
        slot1 = PA-8T
        s1/0 = FrameRelay 2
        slot2 = PA-2FE-TX
        f2/0 = Core2 f1/1
        f2/1 = Core1 f2/0
        x = -23.0904037955
        y = 129.343145751
        z = 1.0
    [[ROUTER B3]]
        console = 2003
        aux = 2100
        cnfg = configs\B3.cfg
        slot0 = C7200-IO-GE-E
        slot1 = PA-8T
        s1/0 = FrameRelay 5
        x = -104.91883092
        y = 279.757359313
        z = 1.0
[127.0.0.1:7200]
    udp = 10000
    [[7200]]
        image = ..\..\..\..\..\..\IOS\Binaries\c7200-adventerprisek9-mz.124-24.T.image
        idlepc = 0x61604440
        sparsemem = True
    [[3725]]
        image = ..\..\..\..\..\..\IOS\Binaries\c3725-adventerprisek9-mz.124-15.T5.image
        ram = 128
        idlepc = 0x60bec564
        sparsemem = True
        ghostios = True
    [[ROUTER WAN1]]
        console = 2000
        aux = 2110
        cnfg = configs\WAN1.cfg
        slot0 = C7200-IO-GE-E
        g0/0 = WAN2 g0/0
        slot1 = PA-8T
        s1/0 = FrameRelay 1
        slot2 = PA-2FE-TX
        f2/0 = Core1 f1/1
        f2/1 = Core2 f2/0
        x = -24.0904037955
        y = -169.656854249
        z = 1.0
    [[FRSW FrameRelay]]
        1:103 = 3:301
        1:104 = 4:401
        1:105 = 5:501
        2:203 = 3:302
        2:204 = 4:402
        2:205 = 5:502
        3:301 = 1:103
        3:302 = 2:203
        4:401 = 1:104
        4:402 = 2:204
        5:501 = 1:105
        5:502 = 2:205
        1 = WAN1 s1/0
        2 = WAN2 s1/0
        3 = B1 s1/0
        4 = B2 s1/0
        5 = B3 s1/0
        x = -207.590403796
        y = -28.1568542495
        z = 1.0
    [[ROUTER Core2]]
        model = 3725
        console = 2008
        aux = 2108
        cnfg = configs\Core2.cfg
        f0/1 = Core1 f0/1
        slot1 = NM-16ESW
        f1/1 = WAN2 f2/0
        f1/2 = R7 f0/1
        f1/3 = R8 f0/0
        slot2 = NM-1FE-TX
        f2/0 = WAN1 f2/1
        symbol = EtherSwitch router
        x = 212.409596204
        y = 125.843145751
        z = 1.0
        hx = 2.75735931288
        hy = 45.7106781186
    [[ROUTER Core1]]
        model = 3725
        console = 2006
        aux = 2106
        cnfg = configs\Core1.cfg
        f0/1 = Core2 f0/1
        slot1 = NM-16ESW
        f1/1 = WAN1 f2/0
        f1/2 = R6 f0/0
        f1/3 = R7 f0/0
        slot2 = NM-1FE-TX
        f2/0 = WAN2 f2/1
        symbol = EtherSwitch router
        x = 212.409596204
        y = -177.156854249
        z = 1.0
[127.0.0.1:7201]
    udp = 10100
    [[7200]]
        image = ..\..\..\..\..\..\IOS\Binaries\c7200-adventerprisek9-mz.124-24.T.image
        idlepc = 0x61604440
        sparsemem = True
        ghostios = True
    [[ROUTER B1]]
        console = 2001
        aux = 2102
        cnfg = configs\B1.cfg
        slot0 = C7200-IO-GE-E
        slot1 = PA-8T
        s1/0 = FrameRelay 3
        x = -452.107647739
        y = -160.627416997
        z = 1.0
    [[ROUTER B2]]
        console = 2002
        aux = 2103
        cnfg = configs\B2.cfg
        slot0 = C7200-IO-GE-E
        slot1 = PA-8T
        s1/0 = FrameRelay 4
        x = -446.036579927
        y = 126.350288426
        z = 1.0
[127.0.0.1:7204]
    udp = 10400
    [[7200]]
        image = ..\..\..\..\..\..\IOS\Binaries\c7200-adventerprisek9-mz.124-24.T.image
        idlepc = 0x61604440
        sparsemem = True
        ghostios = True
    [[ROUTER R6]]
        console = 2010
        aux = 2510
        cnfg = configs\R6.cfg
        slot0 = C7200-IO-2FE
        f0/0 = Core1 f1/2
        slot1 = PA-2FE-TX
        slot2 = PA-2FE-TX
        slot3 = PA-2FE-TX
        x = 297.925973595
        y = -245.445742855
        z = 1.0
    [[ROUTER R7]]
        console = 2011
        aux = 2511
        cnfg = configs\R7.cfg
        slot0 = C7200-IO-2FE
        f0/0 = Core1 f1/3
        f0/1 = Core2 f1/2
        slot1 = PA-2FE-TX
        slot2 = PA-2FE-TX
        slot3 = PA-2FE-TX
        f3/1 = R8 f1/0
        x = 309.239682094
        y = -3.61522368916
        z = 1.0
        hx = 33.2279220613
        hy = 40.0538238691
[127.0.0.1:7205]
    udp = 10500
    [[7200]]
        image = ..\..\..\..\..\..\IOS\Binaries\c7200-adventerprisek9-mz.124-24.T.image
        idlepc = 0x61604440
        sparsemem = True
        ghostios = True
    [[ROUTER R8]]
        console = 2012
        aux = 2512
        cnfg = configs\R8.cfg
        slot0 = C7200-IO-2FE
        f0/0 = Core2 f1/3
        slot1 = PA-2FE-TX
        f1/0 = R7 f3/1
        x = 546.827560573
        y = 120.8355698
        z = 1.0
[GNS3-DATA]
    configs = configs
    m11 = 0.707106781187
    m22 = 0.707106781187
    [[NOTE 1]]
        text = |
        x = 391.737156777
        y = -248.776695297
    [[NOTE 2]]
        text = 25.5/29
        x = -90.9188309202
        y = 239.414213563
    [[NOTE 3]]
        text = |
        x = 397.394011027
        y = -63.9167388793
    [[NOTE 4]]
        text = |
        x = 397.394011027
        y = -43.9167388793
    [[NOTE 5]]
        text = 10.17.32.0/21
        x = 370.523953341
        y = -344.943217538
    [[NOTE 6]]
        text = |
        x = 622.253967444
        y = 66.3919189858
    [[NOTE 7]]
        text = 28.2/24
        x = 38.9095962045
        y = 152.343145751
    [[NOTE 8]]
        text = 10.11.0.0/16
        x = -318.198051534
        y = -308.984848098
    [[NOTE 9]]
        text = 73.67/26
        x = 367.695526216
        y = 45.9827560573
    [[NOTE 10]]
        text = 36.137/27
        x = 260.698484809
        y = -175.845671067
    [[NOTE 11]]
        text = |
        x = 397.394011027
        y = 16.0832611207
    [[NOTE 12]]
        text = 25.2/29
        x = -71.1909088591
        y = 168.112698373
    [[NOTE 13]]
        text = |
        x = 391.737156777
        y = -228.776695297
    [[NOTE 14]]
        text = 15.1/29
        x = -83.0609665435
        y = -196.024386617
    [[NOTE 15]]
        text = 125.34.7.78/8
        x = 579.827560573
        y = 157.705627485
    [[NOTE 16]]
        text = 203
        x = -105.090403796
        y = 36.3431457505
    [[NOTE 17]]
        text = ---
        x = 403.050865277
        y = -62.5025253169
    [[NOTE 18]]
        text = ---
        x = 403.050865277
        y = -42.502525317
    [[NOTE 19]]
        text = |
        x = -469.33008589
        y = 138.32128445
    [[NOTE 20]]
        text = 401
        x = -333.605122422
        y = 44.1040764008
    [[NOTE 21]]
        text = Stub Router
        x = -37.3826842708
        y = 290.175756957
    [[NOTE 22]]
        text = 768 kbits/s
        x = -128.32233047
        y = 137.3574311
    [[NOTE 23]]
        text = ---
        x = 397.394011027
        y = -250.190908859
    [[NOTE 24]]
        text = |
        x = 391.737156777
        y = -188.776695297
    [[NOTE 25]]
        text = -----
        x = 359.210244843
        y = -238.475180106
    [[NOTE 26]]
        text = 68.0/24 -
        x = 422.84985515
        y = -41.0883117546
    [[NOTE 27]]
        text = 36.0/26 -
        x = 415.778787337
        y = -211.605122421
    [[NOTE 28]]
        text = ---
        x = -125.333044483
        y = 291.585786438
    [[NOTE 29]]
        text = ---
        x = 397.394011027
        y = -290.190908859
    [[NOTE 30]]
        text = |
        x = 391.737156777
        y = -288.776695297
    [[NOTE 31]]
        text = Single AS EIGRP over Frame-Relay, Gigabit Ethernet and Fast Ethernet
        x = -410.121933087
        y = -451.820417898
        font = "MS Shell Dlg 2,20,-1,5,75,0,1,0,0,0"
        color = "#0000ff"
    [[NOTE 32]]
        text = 18.1/24
        x = 41.4953826425
        y = -129.485281374
    [[NOTE 33]]
        text = Default route injected in all AS\n(Static or default-network)
        x = 608.11183182
        y = 27.5979797464
        font = "MS Shell Dlg 2,12,-1,5,75,0,0,0,0,0"
    [[NOTE 34]]
        text = 28.8/24
        x = 153.460894756
        y = 154.970562749
    [[NOTE 35]]
        text = --- Filtered in AS 65507 with Route-map
        x = 615.182899632
        y = -85.9411254968
        font = "MS Shell Dlg 2,12,-1,5,75,0,0,0,0,0"
    [[NOTE 36]]
        text = 32.0/23 + * ---
        x = 415.778787337
        y = -291.605122421
    [[NOTE 37]]
        text = 17.1/24
        x = 42.9095962045
        y = -176.656854249
    [[NOTE 38]]
        text = 16.8/24
        x = 194.230447378
        y = 85.7838379714
    [[NOTE 39]]
        text = 35.128/25 + * ---
        x = 415.778787337
        y = -231.605122421
    [[NOTE 40]]
        text = 18.8/24
        x = 148.975613382
        y = 107.901586978
    [[NOTE 41]]
        text = 256 kbits/s
        x = -323.483802078
        y = -43.6619048834
    [[NOTE 42]]
        text = 256 kbits/s
        x = -295.19953083
        y = 89.0731598528
    [[NOTE 43]]
        text = 72.128/25 + --
        x = 422.84985515
        y = -2.50252531694
    [[NOTE 44]]
        text = ---
        x = 403.050865277
        y = -22.502525317
    [[NOTE 45]]
        text = ---
        x = 403.050865277
        y = -2.50252531704
    [[NOTE 46]]
        text = -----
        x = 370.523953342
        y = 3.55634918613
    [[NOTE 47]]
        text = ---
        x = -466.158513015
        y = 140.063925137
    [[NOTE 48]]
        text = 12.2/24
        x = -3.1198410475
        y = 80.5147186258
    [[NOTE 49]]
        text = ---
        x = 397.394011027
        y = -190.190908859
    [[NOTE 50]]
        text = 23.3/29
        x = -383.865007052
        y = -115.30151519
    [[NOTE 51]]
        text = 36.64/26 -
        x = 415.778787337
        y = -191.605122421
    [[NOTE 52]]
        text = 402
        x = -297.249783362
        y = 74.8319984622
    [[NOTE 53]]
        text = 4.1/24
        x = -491.345237792
        y = 159.05591591
    [[NOTE 54]]
        text = 35.0/25 + * ---
        x = 415.778787337
        y = -251.605122421
    [[NOTE 55]]
        text = |
        x = 397.394011027
        y = -23.9167388793
    [[NOTE 56]]
        text = - Filtered in AS 65505 with Standard ACL
        x = 629.325035256
        y = -125.74011537
        font = "MS Shell Dlg 2,12,-1,5,75,0,0,0,0,0"
    [[NOTE 57]]
        text = -- Filtered in AS 65506 with Prefix-list
        x = 622.253967444
        y = -105.539105243
        font = "MS Shell Dlg 2,12,-1,5,75,0,0,0,0,0"
    [[NOTE 58]]
        text = |
        x = 622.253967444
        y = 86.3919189858
    [[NOTE 59]]
        text = 301
        x = -309.341666454
        y = -103.870057685
    [[NOTE 60]]
        text = 3.1/24
        x = -505.487373416
        y = -162.171572875
    [[NOTE 61]]
        text = 15.5/29
        x = -145.605122421
        y = 261.757359313
    [[NOTE 62]]
        text = 73.88/26
        x = 502.045814642
        y = 81.1370849898
    [[NOTE 63]]
        text = 64.0/23 -
        x = 422.84985515
        y = -61.0883117546
    [[NOTE 64]]
        text = 73.137/26
        x = 255.04163056
        y = -115.235498012
    [[NOTE 65]]
        text = ---
        x = -473.229580827
        y = -144.394011026
    [[NOTE 66]]
        text = Suboptimal Forwarding Issue with Summarization
        x = -233.34523779
        y = -415.251875403
        font = "MS Shell Dlg 2,20,-1,5,75,0,0,0,0,0"
        color = "#0000ff"
    [[NOTE 67]]
        text = v
        x = 622.253967444
        y = 115.279220614
    [[NOTE 68]]
        text = INTERNET
        x = 759.432682994
        y = 130.8355698
        font = "MS Shell Dlg 2,14,-1,5,75,0,0,0,0,0"
    [[NOTE 69]]
        text = 204
        x = -105.090403796
        y = 54.3431457505
    [[NOTE 70]]
        text = 73.198/26
        x = 266.355339059
        y = 90.8376618409
    [[NOTE 71]]
        text = 768 kbits/s
        x = -307.927452892
        y = -116.798989873
    [[NOTE 72]]
        text = 13.1/29
        x = -73.8477631085
        y = -119.786796564
    [[NOTE 73]]
        text = 24.2/29
        x = -77.0904037955
        y = 119.112698373
    [[NOTE 74]]
        text = 24.4/29
        x = -379.79393924
        y = 137.249783362
    [[NOTE 75]]
        text = 73.0/26 --
        x = 422.84985515
        y = 17.4974746831
    [[NOTE 76]]
        text = ---
        x = 397.394011027
        y = -210.190908859
    [[NOTE 77]]
        text = 14.1/29
        x = -73.8477631085
        y = -103.017243942
    [[NOTE 78]]
        text = ---
        x = 403.050865277
        y = 17.497474683
    [[NOTE 79]]
        text = 10.9.0.0/16
        x = 104.651803615
        y = -337.671139599
    [[NOTE 80]]
        text = 103 shutdown
        x = -184.073159853
        y = -109.384776311
        font = "MS Shell Dlg 2,10,-1,5,75,1,0,0,0,0"
        color = "#ff0000"
    [[NOTE 81]]
        text = 205
        x = -103.090403796
        y = 72.3431457505
    [[NOTE 82]]
        text = 10.16.64.0/19
        x = 371.938166904
        y = -90.585786438
    [[NOTE 83]]
        text = 768 kbits/s
        x = -330.55486989
        y = 27.249783362
    [[NOTE 84]]
        text = 14.4/29
        x = -379.79393924
        y = 117.651803616
    [[NOTE 85]]
        text = 36.136/27
        x = 303.12489168
        y = -207.159379566
    [[NOTE 86]]
        text = 27.2/24
        x = 40.3238097665
        y = 111.0
    [[NOTE 87]]
        text = 256 kbits/s
        x = -211.76093065
        y = 135.541197284
    [[NOTE 88]]
        text = |
        x = -129.91883092
        y = 291.257359313
    [[NOTE 89]]
        text = ---
        x = 397.394011027
        y = -270.190908859
    [[NOTE 90]]
        text = 34.0/24 + * ---
        x = 415.778787337
        y = -271.605122421
    [[NOTE 91]]
        text = |
        x = 391.737156777
        y = -208.776695297
    [[NOTE 92]]
        text = ------
        x = 606.697618258
        y = 129.421356237
    [[NOTE 93]]
        text = 17.7/24
        x = 151.804040507
        y = -178.272077938
    [[NOTE 94]]
        text = 302
        x = -322.655374953
        y = -64.1923881554
    [[NOTE 95]]
        text = 12.1/24
        x = -6.1198410475
        y = -100.485281374
    [[NOTE 96]]
        text = |
        x = 391.737156777
        y = -268.776695297
    [[NOTE 97]]
        text = 16.7/24
        x = 194.230447378
        y = -104.933982822
    [[NOTE 98]]
        text = 501
        x = -160.656854249
        y = 154.409162929
    [[NOTE 99]]
        text = 27.7/24
        x = 148.975613382
        y = -130.389826944
    [[NOTE 100]]
        text = 502
        x = -129.333044483
        y = 153.928932189
    [[NOTE 101]]
        text = 105
        x = -124.090403796
        y = -60.6568542495
    [[NOTE 102]]
        text = |
        x = 622.253967444
        y = 106.391918986
    [[NOTE 103]]
        text = MD5 Authentication
        x = -340.825468532
        y = -289.185858225
    [[NOTE 104]]
        text = Stub Router
        x = -457.404112295
        y = 85.3158005401
    [[NOTE 105]]
        text = 73.207/26
        x = 243.727922061
        y = 27.1980515338
    [[NOTE 106]]
        text = * Filtered in AS 65534 with Route-map
        x = 625.082394569
        y = -143.5218613
        font = "MS Shell Dlg 2,12,-1,5,75,0,0,0,0,0"
    [[NOTE 107]]
        text = + Summarized in all AS
        x = 620.839753881
        y = -63.3137084988
        font = "MS Shell Dlg 2,12,-1,5,75,0,0,0,0,0"
    [[NOTE 108]]
        text = 13.3/29
        x = -383.865007052
        y = -144.798989873
    [[NOTE 109]]
        text = 104
        x = -126.090403796
        y = -79.6568542495
    [[NOTE 110]]
        text = 10.12.0.0/16
        x = -147.078210487
        y = -300.70057685
    [[NOTE 111]]
        text = EIGRP AS 65534
        x = -80.6101730562
        y = -370.198051533
        font = "MS Shell Dlg 2,16,-1,5,75,0,0,0,0,0"
    [[NOTE 112]]
        text = MD5 Authentication
        x = 83.43860018
        y = -320.499566724
    [[NOTE 113]]
        text = 95.8/25
        x = 277.669047558
        y = 152.862048459
    [[NOTE 114]]
        text = 73.177/26
        x = 242.313708498
        y = -24.9268401472
    [[NOTE 115]]
        text = |
        x = 397.394011027
        y = -3.91673887934
    [[NOTE 116]]
        text = ---
        x = 397.394011027
        y = -230.190908859
    [[NOTE 117]]
        text = 72.0/25 + --
        x = 422.84985515
        y = -21.0883117546
    [[NOTE 118]]
        text = Filtering with Distribute-list
        x = 695.793072687
        y = -167.563491861
        font = "MS Shell Dlg 2,12,-1,5,75,0,0,0,0,0"
    [[NOTE 119]]
        text = |
        x = -476.401153702
        y = -146.136651714
    [[NOTE 120]]
        text = 95.88/25
        x = 491.215295476
        y = 151.246824769
    [[NOTE 121]]
        text = 5.5/27
        x = -150.161471607
        y = 306.192388156
    [[NOTE 122]]
        text = Stub Router
        x = -458.818325858
        y = -202.982756057
    [[NOTE 123]]
        text = 23.2/29
        x = -77.0904037955
        y = 102.343145751
    [[PIXMAP 1]]
        path = Cloud.bmp
        x = 643.18751699
        y = 14.4066376115
    [[SHAPE 1]]
        type = ellipse
        x = 250.31580054
        y = -347.896536344
        width = 342.239682094
        height = 255.97265479
        fill_color = "#aaffff"
        border_style = 2
    [[SHAPE 2]]
        type = ellipse
        x = 243.244732728
        y = -284.256926037
        width = 359.210244843
        height = 578.41334701
        fill_color = "#55ffff"
        border_style = 2
        z = -1.0
    [[SHAPE 3]]
        type = ellipse
        x = -551.543289325
        y = -312.541197284
        width = 560.028570699
        height = 627.910821693
        fill_color = "#5555ff"
        border_style = 2
        z = -1.0
    [[SHAPE 4]]
        type = ellipse
        x = -11.3137084985
        y = -343.653895656
        width = 312.541197284
        height = 681.650937064
        fill_color = "#00ffff"
        border_style = 2
        z = -2.0
    [[SHAPE 5]]
        type = ellipse
        x = -202.232539419
        y = -323.854905783
        width = 200.0
        height = 719.834703248
        fill_color = "#0055ff"
        border_style = 2
        z = -3.0
