Dec 04 11:06:41.409 HYPERVISOR: Release 0.2.17-amd64/Linux (tag 2017072410)
Dec 04 11:06:41.409 HYPERVISOR: Started on IP = 127.0.0.1, TCP port = 55335.
Dec 04 11:06:41.426 HYPERVISOR: exec_cmd: hypervisor version 
Dec 04 11:06:41.427 HYPERVISOR: exec_cmd: hypervisor working_dir /media/actionmystique/SAMSUNG5-VMs/Labs/GNS3/TT 1-linux-/project-files/dynamips 
Dec 04 11:06:41.427 GENERAL: working_dir=/media/actionmystique/SAMSUNG5-VMs/Labs/GNS3/TT 1-linux-/project-files/dynamips
Dec 04 11:06:41.428 HYPERVISOR: exec_cmd: vm create ESW4 4 c3725 
Dec 04 11:06:41.428 VM: VM ESW4 created.
Dec 04 11:06:41.429 HYPERVISOR: exec_cmd: vm set_con_tcp_port ESW4 2009 
Dec 04 11:06:41.433 HYPERVISOR: exec_cmd: c3725 get_mac_addr ESW4 
Dec 04 11:06:41.436 HYPERVISOR: exec_cmd: vm set_nvram ESW4 256 
Dec 04 11:06:41.438 HYPERVISOR: exec_cmd: vm set_ios ESW4 /media/actionmystique/SAMSUNG5-VMs/Images/GNS3/IOS/c3725-adventerprisek9-mz.124-15.T10.image 
Dec 04 11:06:41.439 HYPERVISOR: exec_cmd: c3725 set_mac_addr ESW4 c204.68ae.0000 
Dec 04 11:06:41.439 HYPERVISOR: exec_cmd: vm get_status ESW4 
Dec 04 11:06:41.440 HYPERVISOR: exec_cmd: vm slot_add_binding ESW4 1 0 NM-16ESW 
Dec 04 11:06:41.442 HYPERVISOR: exec_cmd: vm get_status ESW4 
Dec 04 11:06:41.443 HYPERVISOR: exec_cmd: vm set_idle_pc ESW4 0x614ac27c 
Dec 04 11:06:41.444 HYPERVISOR: exec_cmd: vm set_disk0 ESW4 1 
Dec 04 11:06:41.444 HYPERVISOR: exec_cmd: vm slot_add_binding ESW4 0 16 WIC-2T 
Dec 04 11:06:41.445 HYPERVISOR: exec_cmd: vm set_config ESW4 configs/ios_base_startup-config.txt 
Dec 04 11:06:41.446 HYPERVISOR: exec_cmd: vm set_config ESW4 configs/ios_base_startup-config.txt configs/ios_base_private-config.txt 
Dec 04 11:06:41.752 HYPERVISOR: exec_cmd: nio create_udp udp-f1695959-acd0-4d15-a6eb-22fae4babbd5 15013 127.0.0.1 15012 
Dec 04 11:06:41.753 HYPERVISOR: exec_cmd: vm slot_add_nio_binding ESW4 1 0 udp-f1695959-acd0-4d15-a6eb-22fae4babbd5 
Dec 04 11:06:41.753 HYPERVISOR: exec_cmd: vm get_status ESW4 
Dec 04 11:06:41.763 HYPERVISOR: exec_cmd: nio create_udp udp-f9c7b524-6729-48e6-aed7-6a5ce73f7b83 15014 127.0.0.1 15015 
Dec 04 11:06:41.764 HYPERVISOR: exec_cmd: vm slot_add_nio_binding ESW4 1 1 udp-f9c7b524-6729-48e6-aed7-6a5ce73f7b83 
Dec 04 11:06:41.764 HYPERVISOR: exec_cmd: vm get_status ESW4 
Dec 04 11:06:57.392 HYPERVISOR: exec_cmd: vm get_status ESW4 
Dec 04 11:06:57.394 HYPERVISOR: exec_cmd: vm extract_config ESW4 
Dec 04 11:06:57.407 HYPERVISOR: exec_cmd: vm delete ESW4 
Dec 04 11:06:57.407 VM: VM ESW4 destroyed.
Dec 04 11:06:57.409 HYPERVISOR: exec_cmd: hypervisor stop 
Dec 04 11:06:57.442 HYPERVISOR: Stopped.
Dec 04 11:06:57.443 GENERAL: reset done.
