Nov 28 08:54:28.402 HYPERVISOR: Release 0.2.17-amd64/Linux (tag 2017072410)
Nov 28 08:54:28.402 HYPERVISOR: Started on IP = 127.0.0.1, TCP port = 53301.
Nov 28 08:54:28.417 HYPERVISOR: exec_cmd: hypervisor version 
Nov 28 08:54:28.418 HYPERVISOR: exec_cmd: hypervisor working_dir /media/actionmystique/SAMSUNG5-VMs/Labs/GNS3/TT 3-linux-/project-files/dynamips 
Nov 28 08:54:28.418 GENERAL: working_dir=/media/actionmystique/SAMSUNG5-VMs/Labs/GNS3/TT 3-linux-/project-files/dynamips
Nov 28 08:54:28.418 HYPERVISOR: exec_cmd: vm create ESW2 2 c3725 
Nov 28 08:54:28.418 VM: VM ESW2 created.
Nov 28 08:54:28.418 HYPERVISOR: exec_cmd: vm set_con_tcp_port ESW2 2005 
Nov 28 08:54:28.419 HYPERVISOR: exec_cmd: c3725 get_mac_addr ESW2 
Nov 28 08:54:28.419 HYPERVISOR: exec_cmd: vm set_disk0 ESW2 1 
Nov 28 08:54:28.419 HYPERVISOR: exec_cmd: vm get_status ESW2 
Nov 28 08:54:28.420 HYPERVISOR: exec_cmd: vm slot_add_binding ESW2 1 0 NM-16ESW 
Nov 28 08:54:28.420 HYPERVISOR: exec_cmd: vm set_ios ESW2 /media/actionmystique/SAMSUNG5-VMs/Images/GNS3/IOS/c3725-adventerprisek9-mz.124-15.T10.image 
Nov 28 08:54:28.420 HYPERVISOR: exec_cmd: c3725 set_mac_addr ESW2 c202.1bd4.0000 
Nov 28 08:54:28.421 HYPERVISOR: exec_cmd: vm slot_add_binding ESW2 0 16 WIC-2T 
Nov 28 08:54:28.421 HYPERVISOR: exec_cmd: vm get_status ESW2 
Nov 28 08:54:28.421 HYPERVISOR: exec_cmd: vm set_idle_pc ESW2 0x614ac27c 
Nov 28 08:54:28.422 HYPERVISOR: exec_cmd: vm set_nvram ESW2 256 
Nov 28 08:54:28.422 HYPERVISOR: exec_cmd: vm set_config ESW2 configs/ios_base_startup-config.txt 
Nov 28 08:54:28.423 HYPERVISOR: exec_cmd: vm set_config ESW2 configs/ios_base_startup-config.txt configs/ios_base_private-config.txt 
Nov 28 08:54:28.731 HYPERVISOR: exec_cmd: nio create_udp udp-96592248-5c48-4c32-8d19-755a0d24091d 15001 127.0.0.1 15000 
Nov 28 08:54:28.731 HYPERVISOR: exec_cmd: vm slot_add_nio_binding ESW2 1 0 udp-96592248-5c48-4c32-8d19-755a0d24091d 
Nov 28 08:54:28.732 HYPERVISOR: exec_cmd: vm get_status ESW2 
Nov 28 08:54:45.456 HYPERVISOR: exec_cmd: vm get_status ESW2 
Nov 28 08:54:45.458 HYPERVISOR: exec_cmd: vm extract_config ESW2 
Nov 28 08:54:45.460 HYPERVISOR: exec_cmd: vm delete ESW2 
Nov 28 08:54:45.460 VM: VM ESW2 destroyed.
Nov 28 08:54:45.462 HYPERVISOR: exec_cmd: hypervisor stop 
Nov 28 08:54:45.935 HYPERVISOR: Stopped.
Nov 28 08:54:45.935 GENERAL: reset done.
