Nov 28 08:14:04.546 HYPERVISOR: Release 0.2.17-amd64/Linux (tag 2017072410)
Nov 28 08:14:04.546 HYPERVISOR: Started on IP = 127.0.0.1, TCP port = 55111.
Nov 28 08:14:04.583 HYPERVISOR: exec_cmd: hypervisor version 
Nov 28 08:14:04.584 HYPERVISOR: exec_cmd: hypervisor working_dir /media/actionmystique/SAMSUNG5-VMs/Labs/GNS3/TT 2-linux-/project-files/dynamips 
Nov 28 08:14:04.584 GENERAL: working_dir=/media/actionmystique/SAMSUNG5-VMs/Labs/GNS3/TT 2-linux-/project-files/dynamips
Nov 28 08:14:04.585 HYPERVISOR: exec_cmd: vm create ESW3 3 c3725 
Nov 28 08:14:04.585 VM: VM ESW3 created.
Nov 28 08:14:04.586 HYPERVISOR: exec_cmd: vm set_con_tcp_port ESW3 2006 
Nov 28 08:14:04.587 HYPERVISOR: exec_cmd: c3725 get_mac_addr ESW3 
Nov 28 08:14:04.588 HYPERVISOR: exec_cmd: vm set_disk0 ESW3 1 
Nov 28 08:14:04.589 HYPERVISOR: exec_cmd: vm get_status ESW3 
Nov 28 08:14:04.590 HYPERVISOR: exec_cmd: vm slot_add_binding ESW3 1 0 NM-16ESW 
Nov 28 08:14:04.591 HYPERVISOR: exec_cmd: vm set_ios ESW3 /media/actionmystique/SAMSUNG5-VMs/Images/GNS3/IOS/c3725-adventerprisek9-mz.124-15.T10.image 
Nov 28 08:14:04.592 HYPERVISOR: exec_cmd: c3725 set_mac_addr ESW3 c203.1bfb.0000 
Nov 28 08:14:04.593 HYPERVISOR: exec_cmd: vm slot_add_binding ESW3 0 16 WIC-2T 
Nov 28 08:14:04.595 HYPERVISOR: exec_cmd: vm get_status ESW3 
Nov 28 08:14:04.596 HYPERVISOR: exec_cmd: vm set_idle_pc ESW3 0x614ac27c 
Nov 28 08:14:04.597 HYPERVISOR: exec_cmd: vm set_nvram ESW3 256 
Nov 28 08:14:04.602 HYPERVISOR: exec_cmd: vm set_config ESW3 configs/ios_base_startup-config.txt 
Nov 28 08:14:04.607 HYPERVISOR: exec_cmd: vm set_config ESW3 configs/ios_base_startup-config.txt configs/ios_base_private-config.txt 
Nov 28 08:14:04.756 HYPERVISOR: exec_cmd: nio create_tap tap-8183821a-4ee1-4f14-93fe-10fbc5ad2b0a tap0 
Nov 28 08:14:04.758 HYPERVISOR: exec_cmd: vm slot_add_nio_binding ESW3 1 1 tap-8183821a-4ee1-4f14-93fe-10fbc5ad2b0a 
Nov 28 08:14:04.758 HYPERVISOR: exec_cmd: vm get_status ESW3 
Nov 28 08:14:04.951 HYPERVISOR: exec_cmd: nio create_udp udp-1dea3ca6-f2c4-4d63-b267-e96fa39e5438 15014 127.0.0.1 15015 
Nov 28 08:14:04.952 HYPERVISOR: exec_cmd: vm slot_add_nio_binding ESW3 1 0 udp-1dea3ca6-f2c4-4d63-b267-e96fa39e5438 
Nov 28 08:14:04.952 HYPERVISOR: exec_cmd: vm get_status ESW3 
Nov 28 08:14:21.909 HYPERVISOR: exec_cmd: vm get_status ESW3 
Nov 28 08:14:21.911 HYPERVISOR: exec_cmd: vm extract_config ESW3 
Nov 28 08:14:21.913 HYPERVISOR: exec_cmd: vm delete ESW3 
Nov 28 08:14:21.913 VM: VM ESW3 destroyed.
Nov 28 08:14:21.914 HYPERVISOR: exec_cmd: hypervisor stop 
Nov 28 08:14:22.098 HYPERVISOR: Stopped.
Nov 28 08:14:22.098 GENERAL: reset done.
