Nov 28 08:14:04.499 HYPERVISOR: Release 0.2.17-amd64/Linux (tag 2017072410)
Nov 28 08:14:04.499 HYPERVISOR: Started on IP = 127.0.0.1, TCP port = 39157.
Nov 28 08:14:04.580 HYPERVISOR: exec_cmd: hypervisor version 
Nov 28 08:14:04.581 HYPERVISOR: exec_cmd: hypervisor working_dir /media/actionmystique/SAMSUNG5-VMs/Labs/GNS3/TT 2-linux-/project-files/dynamips 
Nov 28 08:14:04.581 GENERAL: working_dir=/media/actionmystique/SAMSUNG5-VMs/Labs/GNS3/TT 2-linux-/project-files/dynamips
Nov 28 08:14:04.582 HYPERVISOR: exec_cmd: vm create ESW1 1 c3725 
Nov 28 08:14:04.582 VM: VM ESW1 created.
Nov 28 08:14:04.583 HYPERVISOR: exec_cmd: vm set_con_tcp_port ESW1 2004 
Nov 28 08:14:04.585 HYPERVISOR: exec_cmd: c3725 get_mac_addr ESW1 
Nov 28 08:14:04.585 HYPERVISOR: exec_cmd: vm set_disk0 ESW1 1 
Nov 28 08:14:04.586 HYPERVISOR: exec_cmd: vm get_status ESW1 
Nov 28 08:14:04.587 HYPERVISOR: exec_cmd: vm slot_add_binding ESW1 1 0 NM-16ESW 
Nov 28 08:14:04.588 HYPERVISOR: exec_cmd: vm set_ios ESW1 /media/actionmystique/SAMSUNG5-VMs/Images/GNS3/IOS/c3725-adventerprisek9-mz.124-15.T10.image 
Nov 28 08:14:04.590 HYPERVISOR: exec_cmd: c3725 set_mac_addr ESW1 c201.1b91.0000 
Nov 28 08:14:04.591 HYPERVISOR: exec_cmd: vm slot_add_binding ESW1 0 16 WIC-2T 
Nov 28 08:14:04.592 HYPERVISOR: exec_cmd: vm get_status ESW1 
Nov 28 08:14:04.593 HYPERVISOR: exec_cmd: vm set_idle_pc ESW1 0x614ac27c 
Nov 28 08:14:04.594 HYPERVISOR: exec_cmd: vm set_nvram ESW1 256 
Nov 28 08:14:04.595 HYPERVISOR: exec_cmd: vm set_config ESW1 configs/ios_base_startup-config.txt 
Nov 28 08:14:04.596 HYPERVISOR: exec_cmd: vm set_config ESW1 configs/ios_base_startup-config.txt configs/ios_base_private-config.txt 
Nov 28 08:14:04.903 HYPERVISOR: exec_cmd: nio create_udp udp-8f2d8abf-2432-4966-8a33-261db2245a69 15009 127.0.0.1 15012 
Nov 28 08:14:04.904 HYPERVISOR: exec_cmd: vm slot_add_nio_binding ESW1 1 0 udp-8f2d8abf-2432-4966-8a33-261db2245a69 
Nov 28 08:14:04.904 HYPERVISOR: exec_cmd: vm get_status ESW1 
Nov 28 08:14:04.927 HYPERVISOR: exec_cmd: nio create_udp udp-76b3bf80-18a7-4935-8361-f702dfcb46f3 15013 127.0.0.1 15011 
Nov 28 08:14:04.927 HYPERVISOR: exec_cmd: vm slot_add_nio_binding ESW1 1 1 udp-76b3bf80-18a7-4935-8361-f702dfcb46f3 
Nov 28 08:14:04.928 HYPERVISOR: exec_cmd: vm get_status ESW1 
Nov 28 08:14:21.910 HYPERVISOR: exec_cmd: vm get_status ESW1 
Nov 28 08:14:21.911 HYPERVISOR: exec_cmd: vm extract_config ESW1 
Nov 28 08:14:21.913 HYPERVISOR: exec_cmd: vm delete ESW1 
Nov 28 08:14:21.913 VM: VM ESW1 destroyed.
Nov 28 08:14:21.915 HYPERVISOR: exec_cmd: hypervisor stop 
Nov 28 08:14:22.076 HYPERVISOR: Stopped.
Nov 28 08:14:22.076 GENERAL: reset done.
