Nov 29 19:08:08.199 HYPERVISOR: Release 0.2.17-amd64/Linux (tag 2017072410)
Nov 29 19:08:08.199 HYPERVISOR: Started on IP = 127.0.0.1, TCP port = 47691.
Nov 29 19:08:08.210 HYPERVISOR: exec_cmd: hypervisor version 
Nov 29 19:08:08.212 HYPERVISOR: exec_cmd: hypervisor working_dir /media/actionmystique/SAMSUNG5-VMs/Labs/GNS3/git-Public-Labs-Collection/CCNP/TBSHOOT/L3-Technologies/IPv6/Routing-Protocols/EIGRPv6/Jean-Christophe_Manciot/1+/TT 2-linux/project-files/dynamips 
Nov 29 19:08:08.212 GENERAL: working_dir=/media/actionmystique/SAMSUNG5-VMs/Labs/GNS3/git-Public-Labs-Collection/CCNP/TBSHOOT/L3-Technologies/IPv6/Routing-Protocols/EIGRPv6/Jean-Christophe_Manciot/1+/TT 2-linux/project-files/dynamips
Nov 29 19:08:08.213 HYPERVISOR: exec_cmd: vm create ESW1 1 c3725 
Nov 29 19:08:08.213 VM: VM ESW1 created.
Nov 29 19:08:08.214 HYPERVISOR: exec_cmd: vm set_con_tcp_port ESW1 2004 
Nov 29 19:08:08.216 HYPERVISOR: exec_cmd: c3725 get_mac_addr ESW1 
Nov 29 19:08:08.217 HYPERVISOR: exec_cmd: vm set_disk0 ESW1 1 
Nov 29 19:08:08.218 HYPERVISOR: exec_cmd: c3725 set_mac_addr ESW1 c201.1b91.0000 
Nov 29 19:08:08.219 HYPERVISOR: exec_cmd: vm get_status ESW1 
Nov 29 19:08:08.220 HYPERVISOR: exec_cmd: vm set_idle_pc ESW1 0x614ac27c 
Nov 29 19:08:08.221 HYPERVISOR: exec_cmd: vm get_status ESW1 
Nov 29 19:08:08.223 HYPERVISOR: exec_cmd: vm slot_add_binding ESW1 1 0 NM-16ESW 
Nov 29 19:08:08.225 HYPERVISOR: exec_cmd: vm slot_add_binding ESW1 0 16 WIC-2T 
Nov 29 19:08:08.228 HYPERVISOR: exec_cmd: vm set_ios ESW1 /media/actionmystique/SAMSUNG5-VMs/Images/GNS3/IOS/c3725-adventerprisek9-mz.124-15.T10.image 
Nov 29 19:08:08.231 HYPERVISOR: exec_cmd: vm set_nvram ESW1 256 
Nov 29 19:08:08.233 HYPERVISOR: exec_cmd: vm set_config ESW1 configs/ios_base_startup-config.txt 
Nov 29 19:08:08.235 HYPERVISOR: exec_cmd: vm set_config ESW1 configs/ios_base_startup-config.txt configs/ios_base_private-config.txt 
Nov 29 19:08:08.518 HYPERVISOR: exec_cmd: nio create_udp udp-10420d9b-8921-4b11-9a27-0e45fb59954f 15004 127.0.0.1 15006 
Nov 29 19:08:08.519 HYPERVISOR: exec_cmd: vm slot_add_nio_binding ESW1 1 1 udp-10420d9b-8921-4b11-9a27-0e45fb59954f 
Nov 29 19:08:08.520 HYPERVISOR: exec_cmd: vm get_status ESW1 
Nov 29 19:08:08.528 HYPERVISOR: exec_cmd: nio create_udp udp-82347554-fc7d-4bc9-bfb8-c30b9f0dfa93 15003 127.0.0.1 15007 
Nov 29 19:08:08.534 HYPERVISOR: exec_cmd: vm slot_add_nio_binding ESW1 1 0 udp-82347554-fc7d-4bc9-bfb8-c30b9f0dfa93 
Nov 29 19:08:08.535 HYPERVISOR: exec_cmd: vm get_status ESW1 
