Nov 29 19:08:08.261 HYPERVISOR: Release 0.2.17-amd64/Linux (tag 2017072410)
Nov 29 19:08:08.261 HYPERVISOR: Started on IP = 127.0.0.1, TCP port = 42745.
Nov 29 19:08:08.272 HYPERVISOR: exec_cmd: hypervisor version 
Nov 29 19:08:08.275 HYPERVISOR: exec_cmd: hypervisor working_dir /media/actionmystique/SAMSUNG5-VMs/Labs/GNS3/git-Public-Labs-Collection/CCNP/TBSHOOT/L3-Technologies/IPv6/Routing-Protocols/EIGRPv6/Jean-Christophe_Manciot/1+/TT 2-linux/project-files/dynamips 
Nov 29 19:08:08.275 GENERAL: working_dir=/media/actionmystique/SAMSUNG5-VMs/Labs/GNS3/git-Public-Labs-Collection/CCNP/TBSHOOT/L3-Technologies/IPv6/Routing-Protocols/EIGRPv6/Jean-Christophe_Manciot/1+/TT 2-linux/project-files/dynamips
Nov 29 19:08:08.276 HYPERVISOR: exec_cmd: vm create ESW2 2 c3725 
Nov 29 19:08:08.276 VM: VM ESW2 created.
Nov 29 19:08:08.277 HYPERVISOR: exec_cmd: vm set_con_tcp_port ESW2 2005 
Nov 29 19:08:08.286 HYPERVISOR: exec_cmd: c3725 get_mac_addr ESW2 
Nov 29 19:08:08.290 HYPERVISOR: exec_cmd: vm set_disk0 ESW2 1 
Nov 29 19:08:08.291 HYPERVISOR: exec_cmd: c3725 set_mac_addr ESW2 c202.1bd4.0000 
Nov 29 19:08:08.291 HYPERVISOR: exec_cmd: vm get_status ESW2 
Nov 29 19:08:08.292 HYPERVISOR: exec_cmd: vm set_idle_pc ESW2 0x614ac27c 
Nov 29 19:08:08.292 HYPERVISOR: exec_cmd: vm get_status ESW2 
Nov 29 19:08:08.292 HYPERVISOR: exec_cmd: vm slot_add_binding ESW2 1 0 NM-16ESW 
Nov 29 19:08:08.293 HYPERVISOR: exec_cmd: vm slot_add_binding ESW2 0 16 WIC-2T 
Nov 29 19:08:08.293 HYPERVISOR: exec_cmd: vm set_ios ESW2 /media/actionmystique/SAMSUNG5-VMs/Images/GNS3/IOS/c3725-adventerprisek9-mz.124-15.T10.image 
Nov 29 19:08:08.294 HYPERVISOR: exec_cmd: vm set_nvram ESW2 256 
Nov 29 19:08:08.294 HYPERVISOR: exec_cmd: vm set_config ESW2 configs/ios_base_startup-config.txt 
Nov 29 19:08:08.294 HYPERVISOR: exec_cmd: vm set_config ESW2 configs/ios_base_startup-config.txt configs/ios_base_private-config.txt 
Nov 29 19:08:08.664 HYPERVISOR: exec_cmd: nio create_udp udp-8a2b7784-ac4c-4be4-955d-3737a01c84dd 15019 127.0.0.1 15018 
Nov 29 19:08:08.665 HYPERVISOR: exec_cmd: vm slot_add_nio_binding ESW2 1 0 udp-8a2b7784-ac4c-4be4-955d-3737a01c84dd 
Nov 29 19:08:08.665 HYPERVISOR: exec_cmd: vm get_status ESW2 
