Nov 29 19:01:07.656 HYPERVISOR: Release 0.2.17-amd64/Linux (tag 2017072410)
Nov 29 19:01:07.656 HYPERVISOR: Started on IP = 127.0.0.1, TCP port = 38715.
Nov 29 19:01:07.670 HYPERVISOR: exec_cmd: hypervisor version 
Nov 29 19:01:07.670 HYPERVISOR: exec_cmd: hypervisor working_dir /media/actionmystique/SAMSUNG5-VMs/Labs/GNS3/git-Public-Labs-Collection/CCNP/TBSHOOT/L3-Technologies/IPv6/IOS-Filtering-Tools/ACL/Jean-Christophe_Manciot/1+/TT 2-linux/project-files/dynamips 
Nov 29 19:01:07.670 GENERAL: working_dir=/media/actionmystique/SAMSUNG5-VMs/Labs/GNS3/git-Public-Labs-Collection/CCNP/TBSHOOT/L3-Technologies/IPv6/IOS-Filtering-Tools/ACL/Jean-Christophe_Manciot/1+/TT 2-linux/project-files/dynamips
Nov 29 19:01:07.671 HYPERVISOR: exec_cmd: vm create ESW2 2 c3725 
Nov 29 19:01:07.671 VM: VM ESW2 created.
Nov 29 19:01:07.671 HYPERVISOR: exec_cmd: vm set_con_tcp_port ESW2 2002 
Nov 29 19:01:07.672 HYPERVISOR: exec_cmd: vm set_aux_tcp_port ESW2 2502 
Nov 29 19:01:07.672 HYPERVISOR: exec_cmd: c3725 get_mac_addr ESW2 
Nov 29 19:01:07.673 HYPERVISOR: exec_cmd: vm slot_add_binding ESW2 0 16 WIC-2T 
Nov 29 19:01:07.673 HYPERVISOR: exec_cmd: vm set_ios ESW2 /media/actionmystique/SAMSUNG5-VMs/Images/GNS3/IOS/c3725-adventerprisek9-mz.124-15.T10.image 
Nov 29 19:01:07.674 HYPERVISOR: exec_cmd: vm get_status ESW2 
Nov 29 19:01:07.674 HYPERVISOR: exec_cmd: vm set_idle_pc ESW2 0x60c06d20 
Nov 29 19:01:07.675 HYPERVISOR: exec_cmd: vm get_status ESW2 
Nov 29 19:01:07.675 HYPERVISOR: exec_cmd: vm slot_add_binding ESW2 1 0 NM-16ESW 
Nov 29 19:01:07.676 HYPERVISOR: exec_cmd: c3725 set_mac_addr ESW2 c202.28c2.0000 
Nov 29 19:01:07.676 HYPERVISOR: exec_cmd: vm set_disk0 ESW2 1 
Nov 29 19:01:07.677 HYPERVISOR: exec_cmd: vm set_nvram ESW2 256 
Nov 29 19:01:07.678 HYPERVISOR: exec_cmd: vm set_config ESW2 configs/i2_startup-config.cfg 
Nov 29 19:01:07.679 HYPERVISOR: exec_cmd: vm set_config ESW2 configs/i2_startup-config.cfg configs/i2_private-config.cfg 
Nov 29 19:01:07.741 HYPERVISOR: exec_cmd: nio create_tap tap-0efd2815-6c3d-483d-b2be-4145cf40822e tap2 
Nov 29 19:01:07.742 HYPERVISOR: exec_cmd: vm slot_add_nio_binding ESW2 1 1 tap-0efd2815-6c3d-483d-b2be-4145cf40822e 
Nov 29 19:01:07.742 HYPERVISOR: exec_cmd: vm get_status ESW2 
Nov 29 19:01:07.836 HYPERVISOR: exec_cmd: nio create_udp udp-904d8db9-bfe1-404c-af9e-3011335748fe 15003 127.0.0.1 15002 
Nov 29 19:01:07.837 HYPERVISOR: exec_cmd: vm slot_add_nio_binding ESW2 1 2 udp-904d8db9-bfe1-404c-af9e-3011335748fe 
Nov 29 19:01:07.837 HYPERVISOR: exec_cmd: vm get_status ESW2 
