autostart = False
version = 0.8.6
[127.0.0.1:7202]
    workingdir = working
    udp = 11200
    [[3725]]
        image = C:\Users\ActionMystique\Google Drive\Missions\Certifications\Cisco\IOS\Binaries\c3725-adventerprisek9-mz.124-15.T10.image
        ram = 128
        idlepc = 0x62b257fc
        sparsemem = True
        ghostios = True
    [[ROUTER SW10]]
        model = 3725
        console = 2019
        aux = 2519
        cnfg = configs\SW10.cfg
        slot1 = NM-16ESW
        f1/2 = SW7 f1/2
        f1/3 = SW8 f1/3
        f1/4 = NIO_udp:30008:127.0.0.1:20008
        symbol = EtherSwitch router
        x = 143.5
        y = 85.5
        z = 1.0
        hx = -46.5653786511
        hy = 14.130562093
    [[ROUTER SW9]]
        model = 3725
        console = 2017
        aux = 2517
        cnfg = configs\SW9.cfg
        slot1 = NM-16ESW
        f1/0 = SW7 f1/0
        f1/1 = SW8 f1/1
        f1/2 = NIO_udp:30006:127.0.0.1:20006
        f1/3 = NIO_udp:30007:127.0.0.1:20007
        symbol = EtherSwitch router
        x = -11.5
        y = 88.5
        z = 1.0
        hx = -38.6523224418
        hy = 11.5218579535
[127.0.0.1:7203]
    workingdir = working
    udp = 11300
    [[7200]]
        image = C:\Users\ActionMystique\Google Drive\Missions\Certifications\Cisco\IOS\Binaries\c7200-adventerprisek9-mz.152-4.M2.image
        idlepc = 0x6062d534
        sparsemem = True
        ghostios = True
    [[ROUTER GooglISP]]
        console = 2012
        aux = 2512
        cnfg = configs\GooglISP.cfg
        slot0 = C7200-IO-FE
        f0/0 = SW1 f0/0
        slot1 = PA-POS-OC3
        p1/0 = VerISPon p1/0
        x = -262.789755715
        y = -419.773080371
        z = 1.0
    [[ROUTER VerISPon]]
        console = 2014
        aux = 2514
        cnfg = configs\VerISPon.cfg
        slot0 = C7200-IO-FE
        f0/0 = SW2 f0/0
        slot1 = PA-POS-OC3
        p1/0 = GooglISP p1/0
        x = 40.4721005068
        y = -418.468728302
        z = 1.0
[127.0.0.1:7200]
    workingdir = working
    udp = 11000
    [[3725]]
        image = C:\Users\ActionMystique\Google Drive\Missions\Certifications\Cisco\IOS\Binaries\c3725-adventerprisek9-mz.124-15.T10.image
        ram = 128
        idlepc = 0x62b257fc
        sparsemem = True
        ghostios = True
    [[ROUTER SW1]]
        model = 3725
        console = 2001
        aux = 2501
        cnfg = configs\SW1.cfg
        f0/0 = GooglISP f0/0
        slot1 = NM-16ESW
        f1/0 = SW2 f1/0
        f1/1 = SW3 f1/1
        f1/2 = SW4 f1/2
        f1/3 = SW7 f1/3
        f1/7 = SW7 f1/7
        f1/8 = SW7 f1/8
        f1/9 = SW7 f1/9
        f1/10 = SW4 f1/10
        f1/11 = SW3 f1/11
        symbol = EtherSwitch router
        x = -255.5
        y = -238.5
        z = 1.0
        hx = 35.6957455349
        hy = -21.0869437907
    [[ROUTER SW3]]
        model = 3725
        console = 2003
        aux = 2503
        cnfg = configs\SW3.cfg
        slot1 = NM-16ESW
        f1/1 = SW1 f1/1
        f1/2 = SW5 f1/2
        f1/3 = SW6 f1/3
        f1/4 = SW4 f1/4
        f1/11 = SW1 f1/11
        symbol = EtherSwitch router
        x = -400.5
        y = -65.5
        z = 1.0
        hx = 7.0
        hy = -23.0
    [[ROUTER SW2]]
        model = 3725
        console = 2002
        aux = 2502
        cnfg = configs\SW2.cfg
        f0/0 = VerISPon f0/0
        slot1 = NM-16ESW
        f1/0 = SW1 f1/0
        f1/1 = SW7 f1/1
        f1/2 = SW8 f1/2
        f1/3 = SW4 f1/3
        f1/7 = SW4 f1/7
        f1/8 = SW4 f1/8
        f1/9 = SW4 f1/9
        f1/10 = SW7 f1/10
        f1/11 = SW8 f1/11
        symbol = EtherSwitch router
        x = 47.5
        y = -238.5
        z = 1.0
        hx = -17.7826893256
        hy = -22.3912958605
    [[ROUTER SW4]]
        model = 3725
        console = 2004
        aux = 2504
        cnfg = configs\SW4.cfg
        slot1 = NM-16ESW
        f1/0 = SW6 f1/0
        f1/1 = SW5 f1/1
        f1/2 = SW1 f1/2
        f1/3 = SW2 f1/3
        f1/4 = SW3 f1/4
        f1/7 = SW2 f1/7
        f1/8 = SW2 f1/8
        f1/9 = SW2 f1/9
        f1/10 = SW1 f1/10
        symbol = EtherSwitch router
        x = -254.586943791
        y = -66.5
        z = 1.0
        hx = -16.0
        hy = -22.0
[127.0.0.1:7201]
    workingdir = working
    udp = 11100
    [[3725]]
        image = C:\Users\ActionMystique\Google Drive\Missions\Certifications\Cisco\IOS\Binaries\c3725-adventerprisek9-mz.124-15.T10.image
        ram = 128
        idlepc = 0x62b257fc
        sparsemem = True
        ghostios = True
    [[ROUTER SW8]]
        model = 3725
        console = 2015
        aux = 2515
        cnfg = configs\SW8.cfg
        slot1 = NM-16ESW
        f1/1 = SW9 f1/1
        f1/2 = SW2 f1/2
        f1/3 = SW10 f1/3
        f1/4 = SW7 f1/4
        f1/11 = SW2 f1/11
        symbol = EtherSwitch router
        x = 142.934816558
        y = -69.5
        z = 1.0
        hx = 10.9130562093
        hy = -25.0
    [[ROUTER SW5]]
        model = 3725
        console = 2005
        aux = 2505
        cnfg = configs\SW5.cfg
        slot1 = NM-16ESW
        f1/1 = SW4 f1/1
        f1/2 = SW3 f1/2
        f1/3 = NIO_udp:30000:127.0.0.1:20000
        f1/4 = NIO_udp:30001:127.0.0.1:20001
        f1/5 = NIO_udp:30002:127.0.0.1:20002
        f1/6 = NIO_udp:30003:127.0.0.1:20003
        symbol = EtherSwitch router
        x = -400.5
        y = 92.5
        z = 1.0
        hx = -39.9566745116
        hy = 12.8262100232
    [[ROUTER SW7]]
        model = 3725
        console = 2007
        aux = 2507
        cnfg = configs\SW7.cfg
        slot1 = NM-16ESW
        f1/0 = SW9 f1/0
        f1/1 = SW2 f1/1
        f1/2 = SW10 f1/2
        f1/3 = SW1 f1/3
        f1/4 = SW8 f1/4
        f1/7 = SW1 f1/7
        f1/8 = SW1 f1/8
        f1/9 = SW1 f1/9
        f1/10 = SW2 f1/10
        symbol = EtherSwitch router
        x = -13.5869437907
        y = -67.5
        z = 1.0
        hx = 3.0869437907
        hy = -25.0
    [[ROUTER SW6]]
        model = 3725
        console = 2006
        aux = 2506
        cnfg = configs\SW6.cfg
        slot1 = NM-16ESW
        f1/0 = SW4 f1/0
        f1/3 = SW3 f1/3
        f1/4 = NIO_udp:30004:127.0.0.1:20004
        f1/5 = NIO_udp:30005:127.0.0.1:20005
        symbol = EtherSwitch router
        x = -252.89129586
        y = 93.5
        z = 1.0
        hx = 52.6523224418
        hy = 8.91315381394
[GNS3-DATA]
    configs = configs
    workdir = working
    m11 = 0.766664172334
    m22 = 0.766664172334
    [[NOTE 1]]
        text = "VPCS[6]"
        x = -141.0
        y = 260.0
    [[NOTE 2]]
        text = "L2 10.1.2.2/32"
        x = 108.261221791
        y = -389.392467116
    [[NOTE 3]]
        text = "On SW1 & SW2"
        x = 451.305816139
        y = 161.478825279
    [[NOTE 4]]
        text = "VRRP - EtherChannel"
        x = 273.913934651
        y = -412.436085418
        font = "MS Shell Dlg 2,20,-1,5,75,0,1,0,0,0"
    [[NOTE 5]]
        text = "5.201/24 - 5.254"
        x = -371.704581464
        y = -186.66726189
    [[NOTE 6]]
        text = "1.202/24"
        x = 97.0428932188
        y = -251.292893219
    [[NOTE 7]]
        text = "SVI 1:"
        x = -417.169047558
        y = -239.185768491
    [[NOTE 8]]
        text = "4.202/24"
        x = 98.0
        y = -215.25
    [[NOTE 9]]
        text = "VPCS[9]"
        x = 142.69564793
        y = 254.0
    [[NOTE 10]]
        text = "Track IP route to L1/GooglISP on SW1 VLAN 1/3/5 and switchover to SW2 when no more direct Internet Accesss"
        x = 212.565281047
        y = -338.869730721
    [[NOTE 11]]
        text = "4.201/24 - 4.254"
        x = -372.204581464
        y = -200.16726189
    [[NOTE 12]]
        text = "10.81.0.2/30"
        x = -45.6146968769
        y = -397.077286034
    [[NOTE 13]]
        text = "On production networks, VRRP should\nbe implemented on the distribution \nswitches with a L2 link/bundle between\nSW4 and SW7, alongside IP route \ntracking and the L3 domain should at least \ninclude the Core-Distribution bundles."
        x = -708.263173883
        y = -21.5651834422
        font = "MS Shell Dlg 2,12,-1,5,75,0,0,0,0,0"
        color = "#00aaff"
    [[NOTE 14]]
        text = "Distribution"
        x = -583.0
        y = -53.0
        font = "MS Shell Dlg 2,12,-1,5,75,0,0,0,0,0"
    [[NOTE 15]]
        text = "Highly Available Campus Network"
        x = 187.826698047
        y = -447.653591302
        font = "MS Shell Dlg 2,20,-1,5,75,0,1,0,0,0"
    [[NOTE 16]]
        text = "VTP"
        x = 367.827283674
        y = 15.391393465
        font = "MS Shell Dlg 2,14,-1,5,75,0,1,0,0,0"
    [[NOTE 17]]
        text = "Secondary RB / VRRP Backup For VLAN 2 and 4"
        x = -372.0
        y = -280.0
    [[NOTE 18]]
        text = "2.254"
        x = -469.0
        y = 299.0
    [[NOTE 19]]
        text = "Access"
        x = -569.0
        y = 105.0
        font = "MS Shell Dlg 2,12,-1,5,75,0,0,0,0,0"
    [[NOTE 20]]
        text = "Core"
        x = -570.0
        y = -224.0
        font = "MS Shell Dlg 2,12,-1,5,75,0,0,0,0,0"
    [[NOTE 21]]
        text = "OSPF"
        x = -190.435402186
        y = -352.435890209
        font = "MS Shell Dlg 2,12,-1,5,75,0,0,0,0,0"
        color = "#0000ff"
    [[NOTE 22]]
        text = "VPCS[4]"
        x = -307.0
        y = 260.0
    [[NOTE 23]]
        text = "VPCS[2]"
        x = -472.0
        y = 259.0
    [[NOTE 24]]
        text = "2.51/24"
        x = -476.0
        y = 285.0
    [[NOTE 25]]
        text = "SVI 4:"
        x = -416.936814511
        y = -200.012932957
    [[NOTE 26]]
        text = "Tracking Objects"
        x = 481.305913744
        y = -365.91412986
        font = "MS Shell Dlg 2,14,-1,5,75,0,1,0,0,0"
    [[NOTE 27]]
        text = "Syslog Server"
        x = -573.825917209
        y = 319.739266233
    [[NOTE 28]]
        text = "Secondary RB / VRP Backup For VLAN 1,3 and 5"
        x = -38.4782396512
        y = -281.60870414
    [[NOTE 29]]
        text = "4.254"
        x = -132.0
        y = 299.0
    [[NOTE 30]]
        text = "10.81.0.1/30"
        x = -198.22388904
        y = -423.381784511
    [[NOTE 31]]
        text = "Send traps to 2.51 \nVersion 3 with Security Level authPriv \nwith one username\nEnable VRRP Traps"
        x = 567.393150349
        y = 140.609192163
    [[NOTE 32]]
        text = "VPCS[8]"
        x = 39.0
        y = 255.0
    [[NOTE 33]]
        text = "Host_VLAN#|SW#|host#"
        x = 220.738680605
        y = 202.521955558
    [[NOTE 34]]
        text = "VRRP"
        x = 366.522931605
        y = -191.130952511
        font = "MS Shell Dlg 2,14,-1,5,75,0,1,0,0,0"
    [[NOTE 35]]
        text = "5.51/24"
        x = -555.0
        y = 285.0
    [[NOTE 36]]
        text = "OSPF Dead timer set to be synced with VRRP Master Down Interval (6s)"
        x = 438.000780838
        y = -256.17408279
    [[NOTE 37]]
        text = "OSPF"
        x = 363.914227465
        y = -262.000683232
        font = "MS Shell Dlg 2,14,-1,5,75,0,1,0,0,0"
    [[NOTE 38]]
        text = "10.8.0.2/30"
        x = -229.304547279
        y = -315.609777791
    [[NOTE 39]]
        text = "3.254"
        x = -384.0
        y = 300.0
    [[NOTE 40]]
        text = "SNMP"
        x = 367.827283674
        y = 155.826893256
        font = "MS Shell Dlg 2,14,-1,5,75,0,1,0,0,0"
    [[NOTE 41]]
        text = "PVST+"
        x = 365.218579535
        y = -75.4783372558
        font = "MS Shell Dlg 2,14,-1,5,75,0,1,0,0,0"
    [[NOTE 42]]
        text = "3.51/24"
        x = -390.0
        y = 286.0
    [[NOTE 43]]
        text = "VTP mode client"
        x = 219.0
        y = 92.0
    [[NOTE 44]]
        text = "To workaround VRRP Issue: #clear mac-address-table static"
        x = 367.827283674
        y = -147.652615256
        font = "MS Shell Dlg 2,12,-1,5,75,0,0,0,0,0"
        color = "#00aaff"
    [[NOTE 45]]
        text = "4.61/24"
        x = -139.0
        y = 284.0
    [[NOTE 46]]
        text = "VTP mode server"
        x = 214.869633116
        y = -225.173887581
    [[NOTE 47]]
        text = "OSPF"
        x = -103.043813512
        y = -241.131050116
        font = "MS Shell Dlg 2,12,-1,5,75,0,0,0,0,0"
        color = "#0000ff"
    [[NOTE 48]]
        text = "802.1Q"
        x = 58.0
        y = 17.0
    [[NOTE 49]]
        text = "L1 10.8.1.1/32"
        x = -363.914227465
        y = -394.175156442
    [[NOTE 50]]
        text = "SVI 2:"
        x = -416.919047558
        y = -226.435768491
    [[NOTE 51]]
        text = "EtherChannel"
        x = -322.174766023
        y = -115.782494116
        color = "#ff0000"
    [[NOTE 52]]
        text = "802.1Q"
        x = -328.0
        y = 28.0
    [[NOTE 53]]
        text = "3.202/24"
        x = 98.25
        y = -227.0
    [[NOTE 54]]
        text = "SVI 3:"
        x = -417.436814511
        y = -212.512932957
    [[NOTE 55]]
        text = "802.1Q"
        x = 55.0
        y = -145.0
    [[NOTE 56]]
        text = "3.201/24 - 3.254"
        x = -372.704581464
        y = -212.66726189
    [[NOTE 57]]
        text = "2.254"
        x = 151.0
        y = 297.0
    [[NOTE 58]]
        text = "Native VLAN for all Switchs: 99"
        x = -212.0
        y = 32.0
    [[NOTE 59]]
        text = "Track IP Route to L2/VerISPon on SW2 VLAN 2/4 and switchover to SW1 when no more direct Internet Access"
        x = 215.173985186
        y = -321.47843486
    [[NOTE 60]]
        text = "VPCS[1]"
        x = -554.0
        y = 260.0
    [[NOTE 61]]
        text = "OSPF"
        x = 121.304742488
        y = -346.348848814
        font = "MS Shell Dlg 2,12,-1,5,75,0,0,0,0,0"
        color = "#0000ff"
    [[NOTE 62]]
        text = "12.0/30"
        x = -108.951200962
        y = -215.967820147
    [[NOTE 63]]
        text = "3.254"
        x = -215.0
        y = 297.0
    [[NOTE 64]]
        text = "SNMP Manager"
        x = -328.607728093
        y = 318.000195209
    [[NOTE 65]]
        text = "VPCS"
        x = 373.521760349
        y = 239.608704139
        font = "MS Shell Dlg 2,14,-1,5,75,0,1,0,0,0"
    [[NOTE 66]]
        text = "SysLog"
        x = 365.218579535
        y = 74.0874318139
        font = "MS Shell Dlg 2,14,-1,5,75,0,1,0,0,0"
    [[NOTE 67]]
        text = "2.202/24"
        x = 97.7928932188
        y = -239.042893219
    [[NOTE 68]]
        text = "802.1Q"
        x = -116.913056209
        y = -164.217310674
    [[NOTE 69]]
        text = "192.168.0.0/16"
        x = -168.0
        y = 57.0
    [[NOTE 70]]
        text = "VTP mode client"
        x = 213.183766184
        y = -61.4038059223
    [[NOTE 71]]
        text = "VPCS[3]"
        x = -389.0
        y = 261.0
    [[NOTE 72]]
        text = "Primary RB / VRRP Master For VLAN 1,3 and 5"
        x = -348.0
        y = -292.0
    [[NOTE 73]]
        text = "IP - Virtual IP"
        x = -346.264935264
        y = -254.692388155
    [[NOTE 74]]
        text = "4.51/24"
        x = -305.0
        y = 285.0
    [[NOTE 75]]
        text = "VPCS[5]"
        x = -223.0
        y = 260.0
    [[NOTE 76]]
        text = "SVI 5:"
        x = -415.37615434
        y = -186.144660941
    [[NOTE 77]]
        text = "10.8.0.1/30"
        x = -309.09381497
        y = -371.207896929
    [[NOTE 78]]
        text = "VPCS[7]"
        x = -52.0
        y = 257.0
    [[NOTE 79]]
        text = "Primary RB / VRRP Master For VLAN 2 and 4"
        x = -29.6087041395
        y = -293.60870414
    [[NOTE 80]]
        text = "GWs --->"
        x = -626.0
        y = 298.0
    [[NOTE 81]]
        text = "5.202/24"
        x = 98.6213203435
        y = -203.457106781
    [[NOTE 82]]
        text = "802.1Q"
        x = -290.478239651
        y = -142.521760349
    [[NOTE 83]]
        text = "10.1.0.1/30"
        x = -9.09283892339
        y = -373.381686906
    [[NOTE 84]]
        text = "On SW1 & SW2"
        x = 452.610168209
        y = 80.174278
    [[NOTE 85]]
        text = "3.61/24"
        x = -222.0
        y = 284.0
    [[NOTE 86]]
        text = "Domain Core-Distribution-Access\nVersion 2\nPruning"
        x = 448.653005674
        y = 3.73994946519
    [[NOTE 87]]
        text = "4.91/24"
        x = 35.0
        y = 284.0
    [[NOTE 88]]
        text = "5.254"
        x = -45.0
        y = 299.0
    [[NOTE 89]]
        text = "1 VRRP Group / VLAN\nAdvertisement timer 2s\nPreemption enabled with 6s min delay on Primary RBs\nMD5 Authentication enabled"
        x = 441.913837047
        y = -214.000097604
    [[NOTE 90]]
        text = "BackboneFast on all Core and Distribution Switches\nForward-delay and max-age timers set so the \nconvergence time is synced with OSPF and VRRP timers\nPortFast BPDU Guard and UplinkFast on all access switches\nHost mode for all Access ports linked to servers"
        x = 446.394614418
        y = -102.913739442
    [[NOTE 91]]
        text = "2.101/24"
        x = 142.0
        y = 284.0
    [[NOTE 92]]
        text = "5.254"
        x = -549.0
        y = 299.0
    [[NOTE 93]]
        text = " Etherchannel"
        x = -143.00019521
        y = -107.390807837
        color = "#ff0000"
    [[NOTE 94]]
        text = "1.201/24 - 1.254"
        x = -372.204581464
        y = -239.189339828
    [[NOTE 95]]
        text = "~\GNS3\CCNP\SWITCH\Jean-Christophe\\nPVST+ EtherChannel VRRP\Core-Distribution-Access.cfg"
        x = 454.913641837
        y = 239.347775163
    [[NOTE 96]]
        text = "10.1.0.2/30"
        x = -10.1733995582
        y = -314.305425721
    [[NOTE 97]]
        text = "EtherChannel"
        x = 36.5220531628
        y = -120.999902395
        color = "#ff0000"
    [[NOTE 98]]
        text = "2.201/24 - 2.254"
        x = -372.204581464
        y = -226.189339828
    [[NOTE 99]]
        text = "5.91/24"
        x = -55.0
        y = 285.0
    [[NOTE 100]]
        text = "4.254"
        x = -299.0
        y = 298.0
    [[NOTE 101]]
        text = "4.254"
        x = 44.0
        y = 299.0
    [[NOTE 102]]
        text = "Syslogging to 5.51\nSeverity Level 3\nand locally buffered"
        x = 569.351484139
        y = 64.1297812554
    [[Cloud Host_361]]
        symbol = server
        x = -224.5
        y = 232.5
        z = 1.0
        connections = SW6:f1/4:NIO_udp:30004:127.0.0.1:20004
    [[Cloud Host_591]]
        symbol = server
        x = -55.5
        y = 228.5
        z = 1.0
        connections = SW9:f1/2:NIO_udp:30006:127.0.0.1:20006
    [[Cloud Host_451]]
        symbol = server
        x = -308.5
        y = 233.5
        z = 1.0
        connections = SW5:f1/6:NIO_udp:30003:127.0.0.1:20003
    [[Cloud Internet]]
        x = -153.285295487
        y = -436.065204137
        hx = 48.0
        hy = 23.2610265814
        z = 1.0
    [[Cloud Host_251]]
        symbol = server
        x = -475.5
        y = 234.5
        z = 1.0
        connections = SW5:f1/4:NIO_udp:30001:127.0.0.1:20001
    [[Cloud Host_351]]
        symbol = server
        x = -390.5
        y = 236.5
        z = 1.0
        connections = SW5:f1/5:NIO_udp:30002:127.0.0.1:20002
    [[Cloud Host_551]]
        symbol = server
        x = -554.5
        y = 235.5
        z = 1.0
        connections = SW5:f1/3:NIO_udp:30000:127.0.0.1:20000
    [[Cloud Host_491]]
        symbol = server
        x = 33.5
        y = 228.5
        z = 1.0
        connections = SW9:f1/3:NIO_udp:30007:127.0.0.1:20007
    [[Cloud Host_461]]
        symbol = server
        x = -143.5
        y = 232.5
        z = 1.0
        connections = SW6:f1/5:NIO_udp:30005:127.0.0.1:20005
    [[Cloud Host_2101]]
        symbol = server
        x = 145.717408279
        y = 226.19564793
        z = 1.0
        connections = SW10:f1/4:NIO_udp:30008:127.0.0.1:20008
    [[SHAPE 1]]
        type = ellipse
        x = -24.7826893256
        y = -421.305718535
        width = 200.0
        height = 200.0
        fill_color = "#00ffff"
        border_style = 2
        z = -1.0
    [[SHAPE 2]]
        type = ellipse
        x = -330.001073651
        y = -425.218774744
        width = 200.0
        height = 200.0
        fill_color = "#00ffff"
        border_style = 2
        z = -1.0
    [[SHAPE 3]]
        type = ellipse
        x = -229.565964279
        y = -238.696428767
        width = 298.696623977
        height = 45.6523224418
        fill_color = "#00ffff"
        border_style = 2
        z = -1.0
