Nov 26 22:29:46.683 HYPERVISOR: Release 0.2.17-amd64/Linux (tag 2017072410)
Nov 26 22:29:46.683 HYPERVISOR: Started on IP = 127.0.0.1, TCP port = 35089.
Nov 26 22:29:46.698 HYPERVISOR: exec_cmd: hypervisor version 
Nov 26 22:29:46.699 HYPERVISOR: exec_cmd: hypervisor working_dir /media/actionmystique/SAMSUNG5-VMs/Labs/GNS3/TT 1-linux-/project-files/dynamips 
Nov 26 22:29:46.699 GENERAL: working_dir=/media/actionmystique/SAMSUNG5-VMs/Labs/GNS3/TT 1-linux-/project-files/dynamips
Nov 26 22:29:46.700 HYPERVISOR: exec_cmd: vm create ESW2 2 c3725 
Nov 26 22:29:46.700 VM: VM ESW2 created.
Nov 26 22:29:46.701 HYPERVISOR: exec_cmd: vm set_con_tcp_port ESW2 2002 
Nov 26 22:29:46.705 HYPERVISOR: exec_cmd: vm set_aux_tcp_port ESW2 2502 
Nov 26 22:29:46.705 HYPERVISOR: exec_cmd: c3725 get_mac_addr ESW2 
Nov 26 22:29:46.706 HYPERVISOR: exec_cmd: vm slot_add_binding ESW2 0 16 WIC-2T 
Nov 26 22:29:46.706 HYPERVISOR: exec_cmd: vm get_status ESW2 
Nov 26 22:29:46.706 HYPERVISOR: exec_cmd: vm set_idle_pc ESW2 0x60c06d20 
Nov 26 22:29:46.707 HYPERVISOR: exec_cmd: vm set_nvram ESW2 256 
Nov 26 22:29:46.707 HYPERVISOR: exec_cmd: vm get_status ESW2 
Nov 26 22:29:46.707 HYPERVISOR: exec_cmd: vm slot_add_binding ESW2 1 0 NM-16ESW 
Nov 26 22:29:46.708 HYPERVISOR: exec_cmd: vm set_ios ESW2 /media/actionmystique/SAMSUNG5-VMs/Images/GNS3/IOS/c3725-adventerprisek9-mz.124-15.T10.image 
Nov 26 22:29:46.709 HYPERVISOR: exec_cmd: vm set_disk0 ESW2 1 
Nov 26 22:29:46.709 HYPERVISOR: exec_cmd: c3725 set_mac_addr ESW2 c202.28c2.0000 
Nov 26 22:29:46.710 HYPERVISOR: exec_cmd: vm set_config ESW2 configs/i2_startup-config.cfg 
Nov 26 22:29:46.710 HYPERVISOR: exec_cmd: vm set_config ESW2 configs/i2_startup-config.cfg configs/i2_private-config.cfg 
Nov 26 22:29:46.842 HYPERVISOR: exec_cmd: nio create_tap tap-bc4acb99-b115-49cf-a41d-436e686f6814 tap0 
Nov 26 22:29:46.848 HYPERVISOR: exec_cmd: vm slot_add_nio_binding ESW2 1 1 tap-bc4acb99-b115-49cf-a41d-436e686f6814 
Nov 26 22:29:46.849 HYPERVISOR: exec_cmd: vm get_status ESW2 
Nov 26 22:29:46.953 HYPERVISOR: exec_cmd: nio create_udp udp-d0875829-d0f6-4189-9fc6-a3943a4d9159 15009 127.0.0.1 15010 
Nov 26 22:29:46.956 HYPERVISOR: exec_cmd: vm slot_add_nio_binding ESW2 1 0 udp-d0875829-d0f6-4189-9fc6-a3943a4d9159 
Nov 26 22:29:46.957 HYPERVISOR: exec_cmd: vm get_status ESW2 
Nov 26 22:31:02.663 HYPERVISOR: exec_cmd: vm get_status ESW2 
Nov 26 22:31:02.665 HYPERVISOR: exec_cmd: vm extract_config ESW2 
Nov 26 22:31:02.665 HYPERVISOR: exec_cmd: vm delete ESW2 
Nov 26 22:31:02.665 VM: VM ESW2 destroyed.
Nov 26 22:31:02.666 HYPERVISOR: exec_cmd: hypervisor stop 
Nov 26 22:31:02.783 HYPERVISOR: Stopped.
Nov 26 22:31:02.783 GENERAL: reset done.
