autostart = False
version = 0.8.4-RC3
[127.0.0.1:7200]
    workingdir = working
    udp = 11000
    [[3725]]
        image = C:\Users\ActionMystique\Google Drive\Missions\Certifications\Cisco\IOS\Binaries\c3725-adventerprisek9-mz.124-15.T5.image
        ram = 128
        idlepc = 0x6148b594
        sparsemem = True
    [[ROUTER SW1]]
        model = 3725
        console = 2001
        aux = 2501
        cnfg = configs\SW1.cfg
        slot1 = NM-16ESW
        f1/0 = NIO_udp:30000:127.0.0.1:20000
        symbol = EtherSwitch router
        x = -139.758102124
        y = -29.9446971364
        z = 1.0
        hx = -38.1966608845
        hy = 12.2461175832
[GNS3-DATA]
    configs = configs
    workdir = working
    m11 = 0.893475453694
    m22 = 0.893475453694
    [[NOTE 1]]
        text = "1-1 Clearing a Switch"
        x = -155.130501525
        y = -335.882758779
        font = "MS Shell Dlg 2,20,-1,5,75,0,1,0,0,0"
        color = "#0055ff"
    [[NOTE 2]]
        text = "1. Connect to the switch console port and enter privileged EXEC mode\n2. Delete the VLAN database file from Flash\n3. Erase the startup config from NVRAM\n4. Reload the device (device menu), but do not save the system configuration if prompted"
        x = -710.707829045
        y = -207.864362335
    [[Cloud C10]]
        symbol = Host
        x = 100.687766388
        y = -36.2153495658
        z = 1.0
        connections = SW1:f1/0:nio_udp:30000:127.0.0.1:20000
