Nov 27 16:14:00.751 HYPERVISOR: Release 0.2.17-amd64/Linux (tag 2017072410)
Nov 27 16:14:00.751 HYPERVISOR: Started on IP = 127.0.0.1, TCP port = 60147.
Nov 27 16:14:00.755 HYPERVISOR: exec_cmd: hypervisor version 
Nov 27 16:14:00.755 HYPERVISOR: exec_cmd: hypervisor working_dir /media/actionmystique/SAMSUNG5-VMs/Labs/GNS3/git-Public-Labs-Collection/CCNP/TBSHOOT/L2-Technologies/STP/Jean-Christophe_Manciot/1+/TT 1-solutions-linux/project-files/dynamips 
Nov 27 16:14:00.755 GENERAL: working_dir=/media/actionmystique/SAMSUNG5-VMs/Labs/GNS3/git-Public-Labs-Collection/CCNP/TBSHOOT/L2-Technologies/STP/Jean-Christophe_Manciot/1+/TT 1-solutions-linux/project-files/dynamips
Nov 27 16:14:00.756 HYPERVISOR: exec_cmd: vm create SW2 2 c3725 
Nov 27 16:14:00.756 VM: VM SW2 created.
Nov 27 16:14:00.756 HYPERVISOR: exec_cmd: vm set_con_tcp_port SW2 2002 
Nov 27 16:14:00.757 HYPERVISOR: exec_cmd: c3725 get_mac_addr SW2 
Nov 27 16:14:00.757 HYPERVISOR: exec_cmd: vm set_nvram SW2 256 
Nov 27 16:14:00.757 HYPERVISOR: exec_cmd: vm get_status SW2 
Nov 27 16:14:00.758 HYPERVISOR: exec_cmd: vm set_idle_pc SW2 0x6026b804 
Nov 27 16:14:00.758 HYPERVISOR: exec_cmd: c3725 set_mac_addr SW2 eeee.eeee.eeee 
Nov 27 16:14:00.758 HYPERVISOR: exec_cmd: vm set_exec_area SW2 16 
Nov 27 16:14:00.759 HYPERVISOR: exec_cmd: vm get_status SW2 
Nov 27 16:14:00.759 HYPERVISOR: exec_cmd: vm slot_add_binding SW2 1 0 NM-16ESW 
Nov 27 16:14:00.760 HYPERVISOR: exec_cmd: vm set_ios SW2 /media/actionmystique/SAMSUNG5-VMs/Images/GNS3/IOS/c3725-adventerprisek9-mz.124-15.T10.image 
Nov 27 16:14:00.760 HYPERVISOR: exec_cmd: vm slot_add_binding SW2 0 16 WIC-2T 
Nov 27 16:14:00.760 HYPERVISOR: exec_cmd: vm set_disk0 SW2 1 
Nov 27 16:14:00.761 HYPERVISOR: exec_cmd: vm set_config SW2 configs/i2_startup-config.cfg 
Nov 27 16:14:00.761 HYPERVISOR: exec_cmd: vm set_config SW2 configs/i2_startup-config.cfg configs/i2_private-config.cfg 
Nov 27 16:14:00.865 HYPERVISOR: exec_cmd: nio create_udp udp-749900cd-01c5-4db9-9917-2600bf74cdac 15002 127.0.0.1 15001 
Nov 27 16:14:00.868 HYPERVISOR: exec_cmd: vm slot_add_nio_binding SW2 1 2 udp-749900cd-01c5-4db9-9917-2600bf74cdac 
Nov 27 16:14:00.868 HYPERVISOR: exec_cmd: vm get_status SW2 
Nov 27 16:14:00.877 HYPERVISOR: exec_cmd: nio create_udp udp-72073031-a7df-471a-bd3c-5943fd72ab19 15000 127.0.0.1 15003 
Nov 27 16:14:00.878 HYPERVISOR: exec_cmd: vm slot_add_nio_binding SW2 1 0 udp-72073031-a7df-471a-bd3c-5943fd72ab19 
Nov 27 16:14:00.879 HYPERVISOR: exec_cmd: vm get_status SW2 
Nov 27 16:14:01.008 HYPERVISOR: exec_cmd: nio create_udp udp-f0496697-d0c6-4e82-84e7-b89a3d8752bc 15009 127.0.0.1 15008 
Nov 27 16:14:01.009 HYPERVISOR: exec_cmd: vm slot_add_nio_binding SW2 1 1 udp-f0496697-d0c6-4e82-84e7-b89a3d8752bc 
Nov 27 16:14:01.009 HYPERVISOR: exec_cmd: vm get_status SW2 
