Nov 29 19:08:39.496 HYPERVISOR: Release 0.2.17-amd64/Linux (tag 2017072410)
Nov 29 19:08:39.496 HYPERVISOR: Started on IP = 127.0.0.1, TCP port = 55577.
Nov 29 19:08:39.509 HYPERVISOR: exec_cmd: hypervisor version 
Nov 29 19:08:39.510 HYPERVISOR: exec_cmd: hypervisor working_dir /media/actionmystique/SAMSUNG5-VMs/Labs/GNS3/TT 2-solutions-linux-/project-files/dynamips 
Nov 29 19:08:39.510 GENERAL: working_dir=/media/actionmystique/SAMSUNG5-VMs/Labs/GNS3/TT 2-solutions-linux-/project-files/dynamips
Nov 29 19:08:39.510 HYPERVISOR: exec_cmd: vm create Internet 2 c3725 
Nov 29 19:08:39.510 VM: VM Internet created.
Nov 29 19:08:39.511 HYPERVISOR: exec_cmd: vm set_con_tcp_port Internet 2005 
Nov 29 19:08:39.511 HYPERVISOR: exec_cmd: c3725 get_mac_addr Internet 
Nov 29 19:08:39.511 HYPERVISOR: exec_cmd: vm set_disk0 Internet 1 
Nov 29 19:08:39.512 HYPERVISOR: exec_cmd: vm get_status Internet 
Nov 29 19:08:39.512 HYPERVISOR: exec_cmd: vm set_idle_pc Internet 0x6026b804 
Nov 29 19:08:39.512 HYPERVISOR: exec_cmd: c3725 set_mac_addr Internet c202.1bd4.0000 
Nov 29 19:08:39.513 HYPERVISOR: exec_cmd: vm set_nvram Internet 256 
Nov 29 19:08:39.513 HYPERVISOR: exec_cmd: vm get_status Internet 
Nov 29 19:08:39.514 HYPERVISOR: exec_cmd: vm slot_add_binding Internet 1 0 NM-16ESW 
Nov 29 19:08:39.514 HYPERVISOR: exec_cmd: vm set_ios Internet /media/actionmystique/SAMSUNG5-VMs/Images/GNS3/IOS/c3725-adventerprisek9-mz.124-15.T10.image 
Nov 29 19:08:39.514 HYPERVISOR: exec_cmd: vm slot_add_binding Internet 0 16 WIC-2T 
Nov 29 19:08:39.515 HYPERVISOR: exec_cmd: vm set_config Internet configs/ios_base_startup-config.txt 
Nov 29 19:08:39.515 HYPERVISOR: exec_cmd: vm set_config Internet configs/ios_base_startup-config.txt configs/ios_base_private-config.txt 
Nov 29 19:08:39.860 HYPERVISOR: exec_cmd: nio create_udp udp-de4bcaaa-5c52-4134-887f-dd3f29359709 15005 127.0.0.1 15000 
Nov 29 19:08:39.861 HYPERVISOR: exec_cmd: vm slot_add_nio_binding Internet 1 0 udp-de4bcaaa-5c52-4134-887f-dd3f29359709 
Nov 29 19:08:39.861 HYPERVISOR: exec_cmd: vm get_status Internet 
Nov 29 19:08:52.098 HYPERVISOR: exec_cmd: vm get_status Internet 
Nov 29 19:08:52.100 HYPERVISOR: exec_cmd: vm extract_config Internet 
Nov 29 19:08:52.104 HYPERVISOR: exec_cmd: vm delete Internet 
Nov 29 19:08:52.104 VM: VM Internet destroyed.
Nov 29 19:08:52.107 HYPERVISOR: exec_cmd: hypervisor stop 
Nov 29 19:08:52.523 HYPERVISOR: Stopped.
Nov 29 19:08:52.523 GENERAL: reset done.
