Nov 29 19:08:39.634 HYPERVISOR: Release 0.2.17-amd64/Linux (tag 2017072410)
Nov 29 19:08:39.634 HYPERVISOR: Started on IP = 127.0.0.1, TCP port = 58585.
Nov 29 19:08:39.648 HYPERVISOR: exec_cmd: hypervisor version 
Nov 29 19:08:39.649 HYPERVISOR: exec_cmd: hypervisor working_dir /media/actionmystique/SAMSUNG5-VMs/Labs/GNS3/TT 2-solutions-linux-/project-files/dynamips 
Nov 29 19:08:39.649 GENERAL: working_dir=/media/actionmystique/SAMSUNG5-VMs/Labs/GNS3/TT 2-solutions-linux-/project-files/dynamips
Nov 29 19:08:39.649 HYPERVISOR: exec_cmd: vm create ESW5 5 c3725 
Nov 29 19:08:39.649 VM: VM ESW5 created.
Nov 29 19:08:39.651 HYPERVISOR: exec_cmd: vm set_con_tcp_port ESW5 2010 
Nov 29 19:08:39.652 HYPERVISOR: exec_cmd: c3725 get_mac_addr ESW5 
Nov 29 19:08:39.653 HYPERVISOR: exec_cmd: vm set_disk0 ESW5 1 
Nov 29 19:08:39.655 HYPERVISOR: exec_cmd: vm get_status ESW5 
Nov 29 19:08:39.657 HYPERVISOR: exec_cmd: vm set_idle_pc ESW5 0x6026b804 
Nov 29 19:08:39.657 HYPERVISOR: exec_cmd: c3725 set_mac_addr ESW5 c205.6a03.0000 
Nov 29 19:08:39.661 HYPERVISOR: exec_cmd: vm set_nvram ESW5 256 
Nov 29 19:08:39.663 HYPERVISOR: exec_cmd: vm get_status ESW5 
Nov 29 19:08:39.664 HYPERVISOR: exec_cmd: vm slot_add_binding ESW5 1 0 NM-16ESW 
Nov 29 19:08:39.665 HYPERVISOR: exec_cmd: vm set_ios ESW5 /media/actionmystique/SAMSUNG5-VMs/Images/GNS3/IOS/c3725-adventerprisek9-mz.124-15.T10.image 
Nov 29 19:08:39.665 HYPERVISOR: exec_cmd: vm slot_add_binding ESW5 0 16 WIC-2T 
Nov 29 19:08:39.665 HYPERVISOR: exec_cmd: vm set_config ESW5 configs/ios_base_startup-config.txt 
Nov 29 19:08:39.666 HYPERVISOR: exec_cmd: vm set_config ESW5 configs/ios_base_startup-config.txt configs/ios_base_private-config.txt 
Nov 29 19:08:39.992 HYPERVISOR: exec_cmd: nio create_udp udp-a04fe13d-16e5-418d-9e81-3942324e70fd 15017 127.0.0.1 15016 
Nov 29 19:08:39.992 HYPERVISOR: exec_cmd: vm slot_add_nio_binding ESW5 1 0 udp-a04fe13d-16e5-418d-9e81-3942324e70fd 
Nov 29 19:08:39.993 HYPERVISOR: exec_cmd: vm get_status ESW5 
Nov 29 19:08:40.016 HYPERVISOR: exec_cmd: nio create_udp udp-31eb1267-43bb-4a83-b55f-18d56453d995 15018 127.0.0.1 15019 
Nov 29 19:08:40.017 HYPERVISOR: exec_cmd: vm slot_add_nio_binding ESW5 1 1 udp-31eb1267-43bb-4a83-b55f-18d56453d995 
Nov 29 19:08:40.017 HYPERVISOR: exec_cmd: vm get_status ESW5 
Nov 29 19:08:52.097 HYPERVISOR: exec_cmd: vm get_status ESW5 
Nov 29 19:08:52.100 HYPERVISOR: exec_cmd: vm extract_config ESW5 
Nov 29 19:08:52.103 HYPERVISOR: exec_cmd: vm delete ESW5 
Nov 29 19:08:52.103 VM: VM ESW5 destroyed.
Nov 29 19:08:52.106 HYPERVISOR: exec_cmd: hypervisor stop 
Nov 29 19:08:52.160 HYPERVISOR: Stopped.
Nov 29 19:08:52.160 GENERAL: reset done.
