Nov 29 15:25:48.486 HYPERVISOR: Release 0.2.17-amd64/Linux (tag 2017072410)
Nov 29 15:25:48.486 HYPERVISOR: Started on IP = 127.0.0.1, TCP port = 51261.
Nov 29 15:25:48.507 HYPERVISOR: exec_cmd: hypervisor version 
Nov 29 15:25:48.508 HYPERVISOR: exec_cmd: hypervisor working_dir /media/actionmystique/SAMSUNG5-VMs/Labs/GNS3/git-Public-Labs-Collection/CCNP/TBSHOOT/L3-Technologies/IPv4/Routing-Protocols/Redistribution/Jean-Christophe_Manciot/1+/TT 2-solutions-linux/project-files/dynamips 
Nov 29 15:25:48.508 GENERAL: working_dir=/media/actionmystique/SAMSUNG5-VMs/Labs/GNS3/git-Public-Labs-Collection/CCNP/TBSHOOT/L3-Technologies/IPv4/Routing-Protocols/Redistribution/Jean-Christophe_Manciot/1+/TT 2-solutions-linux/project-files/dynamips
Nov 29 15:25:48.509 HYPERVISOR: exec_cmd: vm create ESW4 4 c3725 
Nov 29 15:25:48.509 VM: VM ESW4 created.
Nov 29 15:25:48.510 HYPERVISOR: exec_cmd: vm set_con_tcp_port ESW4 2009 
Nov 29 15:25:48.510 HYPERVISOR: exec_cmd: c3725 get_mac_addr ESW4 
Nov 29 15:25:48.511 HYPERVISOR: exec_cmd: vm get_status ESW4 
Nov 29 15:25:48.512 HYPERVISOR: exec_cmd: vm set_idle_pc ESW4 0x6026b804 
Nov 29 15:25:48.513 HYPERVISOR: exec_cmd: vm get_status ESW4 
Nov 29 15:25:48.513 HYPERVISOR: exec_cmd: vm slot_add_binding ESW4 1 0 NM-16ESW 
Nov 29 15:25:48.514 HYPERVISOR: exec_cmd: vm set_disk0 ESW4 1 
Nov 29 15:25:48.515 HYPERVISOR: exec_cmd: vm set_nvram ESW4 256 
Nov 29 15:25:48.516 HYPERVISOR: exec_cmd: vm set_ios ESW4 /media/actionmystique/SAMSUNG5-VMs/Images/GNS3/IOS/c3725-adventerprisek9-mz.124-15.T10.image 
Nov 29 15:25:48.518 HYPERVISOR: exec_cmd: c3725 set_mac_addr ESW4 c204.68ae.0000 
Nov 29 15:25:48.520 HYPERVISOR: exec_cmd: vm slot_add_binding ESW4 0 16 WIC-2T 
Nov 29 15:25:48.522 HYPERVISOR: exec_cmd: vm set_config ESW4 configs/ios_base_startup-config.txt 
Nov 29 15:25:48.524 HYPERVISOR: exec_cmd: vm set_config ESW4 configs/ios_base_startup-config.txt configs/ios_base_private-config.txt 
Nov 29 15:25:48.851 HYPERVISOR: exec_cmd: nio create_udp udp-24a130bb-86d2-4e38-a752-79140ad0e454 15012 127.0.0.1 15009 
Nov 29 15:25:48.853 HYPERVISOR: exec_cmd: vm slot_add_nio_binding ESW4 1 0 udp-24a130bb-86d2-4e38-a752-79140ad0e454 
Nov 29 15:25:48.853 HYPERVISOR: exec_cmd: vm get_status ESW4 
Nov 29 15:25:48.868 HYPERVISOR: exec_cmd: nio create_udp udp-651e6363-17fd-4a03-b896-5e577ff7ea57 15011 127.0.0.1 15013 
Nov 29 15:25:48.869 HYPERVISOR: exec_cmd: vm slot_add_nio_binding ESW4 1 1 udp-651e6363-17fd-4a03-b896-5e577ff7ea57 
Nov 29 15:25:48.869 HYPERVISOR: exec_cmd: vm get_status ESW4 
