autostart = False
version = 0.8.7
[127.0.0.1:7202]
    workingdir = working
    udp = 10200
    [[7200]]
        image = c7200-adventerprisek9-mz.152-4.M2.image
        ram = 512
        idlepc = 0x60188e14
        idlemax = 100
        sparsemem = True
    [[ROUTER WAN2]]
        console = 2005
        aux = 2105
        cnfg = configs/WAN2.cfg
        slot0 = C7200-IO-GE-E
        g0/0 = nio_tap:tap0
        slot1 = PA-4T+
        s1/0 = WAN1 s1/0
        s1/1 = R3 s1/1
        s1/2 = R4 s1/2
        x = 162.171572875
        y = 132.171572875
        z = 1.0
        hx = 12.6715728753
        hy = 42.2964645562
[127.0.0.1:7200]
    workingdir = working
    udp = 10000
    [[7200]]
        image = c7200-adventerprisek9-mz.152-4.M2.image
        ram = 512
        idlepc = 0x60188e14
        idlemax = 100
        sparsemem = True
    [[ROUTER WAN1]]
        console = 2000
        aux = 2110
        cnfg = configs/WAN1.cfg
        slot0 = C7200-IO-GE-E
        slot1 = PA-4T+
        s1/0 = WAN2 s1/0
        s1/2 = R3 s1/2
        s1/3 = R4 s1/3
        x = 164.0
        y = -154.100505063
        z = 1.0
[127.0.0.1:7201]
    workingdir = working
    udp = 10100
    [[7200]]
        image = c7200-adventerprisek9-mz.152-4.M2.image
        ram = 512
        idlepc = 0x60188e14
        idlemax = 100
        sparsemem = True
    [[ROUTER R4]]
        console = 2002
        aux = 2103
        cnfg = configs/R4.cfg
        slot0 = C7200-IO-GE-E
        slot1 = PA-4T+
        s1/0 = R3 s1/0
        s1/2 = WAN2 s1/2
        s1/3 = WAN1 s1/3
        x = -257.946176131
        y = 132.007142675
        z = 1.0
        hx = 23.3284271247
        hy = 44.2964645562
    [[ROUTER R3]]
        console = 2001
        aux = 2102
        cnfg = configs/R3.cfg
        slot0 = C7200-IO-GE-E
        slot1 = PA-4T+
        s1/0 = R4 s1/0
        s1/1 = WAN2 s1/1
        s1/2 = WAN1 s1/2
        x = -259.774603256
        y = -154.970562748
        z = 1.0
[GNS3-DATA]
    configs = configs
    workdir = working
    m11 = 0.999999999998
    m22 = 0.999999999998
    [[NOTE 1]]
        text = "24.2/24"
        x = 95.8578643763
        y = 156.953318806
    [[NOTE 2]]
        text = "137.254/24"
        x = 229.828427124
        y = 127.970562748
    [[NOTE 3]]
        text = "|"
        x = -208.407683632
        y = -173.006709399
        font = "MS Shell Dlg 2,14,-1,5,75,0,0,0,0,0"
        color = "#ff0000"
    [[NOTE 4]]
        text = "192.168.137.0/24"
        x = 339.41125497
        y = -4.31875913188
    [[NOTE 5]]
        text = "23.2/24"
        x = 108.857864376
        y = 102.69848481
    [[NOTE 6]]
        text = "4.1/24"
        x = -183.046681194
        y = 172.490944752
    [[NOTE 7]]
        text = "34.3/24"
        x = -250.578643763
        y = -90.3431457508
    [[NOTE 8]]
        text = "---"
        x = -196.750829383
        y = 152.791847198
    [[NOTE 9]]
        text = "K2 Load Metric Weight Implementation"
        x = -304.05591591
        y = -440.506709399
        font = "MS Shell Dlg 2,20,-1,5,75,0,1,0,0,0"
        color = "#0000ff"
    [[NOTE 10]]
        text = "service udp-small-servers"
        x = -659.954544297
        y = -140.691342135
        font = "MS Shell Dlg 2,20,-1,5,75,0,0,0,0,0"
        color = "#ff0000"
    [[NOTE 11]]
        text = "24.4/24"
        x = -179.703535444
        y = 133.308657865
    [[NOTE 12]]
        text = "137.1/24"
        x = 375.249783366
        y = 187.004184082
    [[NOTE 13]]
        text = "34.4/24"
        x = -254.921789513
        y = 84.5512985519
    [[NOTE 14]]
        text = "3.1/24"
        x = -180.218254069
        y = -180.556349187
        font = "MS Shell Dlg 2,14,-1,5,75,0,0,0,0,0"
        color = "#ff0000"
    [[NOTE 15]]
        text = "|"
        x = -183.65894629
        y = 158.827381104
    [[NOTE 16]]
        text = "iperf UDP echo 7 "
        x = 297.468037431
        y = 212.661038331
        font = "MS Shell Dlg 2,20,-1,5,75,0,0,0,0,0"
        color = "#ff0000"
    [[NOTE 17]]
        text = "12.1/24"
        x = 177.02081528
        y = -87.4436508138
    [[NOTE 18]]
        text = "service udp-small-servers"
        x = -654.297690048
        y = 92.4528855297
        font = "MS Shell Dlg 2,20,-1,5,75,0,0,0,0,0"
        color = "#ff0000"
    [[NOTE 19]]
        text = "13.3/24"
        x = -177.389826946
        y = -140.34314575
    [[NOTE 20]]
        text = "10.11.0.0/16"
        x = -90.5096679914
        y = -274.33661582
    [[NOTE 21]]
        text = "14.1/24"
        x = 103.171572875
        y = -109.573593128
    [[NOTE 22]]
        text = "---"
        x = -204.529003976
        y = -181.163563648
        font = "MS Shell Dlg 2,14,-1,5,75,0,0,0,0,0"
        color = "#ff0000"
    [[NOTE 23]]
        text = "23.3/24"
        x = -192.23906935
        y = -110.100505064
    [[NOTE 24]]
        text = "Iperf (sending UDP packets to port 7) on the Host through loopback interface\nservice udp-small-servers on IOS R3 (and R4 if necessary) to echo UDP packets from IPerf\nUDP communication must be allowed on Host Internet Security Firewall\nYou must make sure that the UDP packets go through that loopback interface.\niperf -c 10.11.3.1 -u -p 7 -i  1 -t 100000 -b 200K"
        x = 63.6396103088
        y = 324.582827846
        font = "Times New Roman,14,-1,5,75,0,0,0,0,0"
        color = "#0000ff"
    [[NOTE 25]]
        text = "12.2/24"
        x = 177.970562748
        y = 82.1715728753
    [[NOTE 26]]
        text = "10.9.0.0/16"
        x = 173.948268172
        y = -269.788888605
    [[NOTE 27]]
        text = "13.1/24"
        x = 94.4436508138
        y = -156.556349186
    [[NOTE 28]]
        text = "14.4/24"
        x = -191.703535444
        y = 103.308657865
    [[NOTE 29]]
        text = "Dampening\n---------------\nThe purpose here is to test EIGRP potential ability to take the live interface Load into \naccount to calculate a route metric.\nWe try to overload WAN2 - R3 link so that the EIGRP "10.11.3.0/24" metric changes and \nWAN2 redirects traffic through WAN1 or R4.\nSpecial IOS commands must be used on specific routers in service-family mode: \n- "dampening-change": If a change-percentage value is not specified, the default is 50 percent of\nthe computed metric.\n- "dampening-interval": If an intervalvalue is not specified, the default is 30 seconds.\nI was not able to configure both commands at the same time on any interface.\nI used these K values: K1=0 K2=128 K3=0 K4=0 K5=0 K6=0 \nWith dampening-change = 1 between R3 and WAN2\n\nCPU Load\n--------------\nI could not get an Idle-PC value through "Edit - IOS images and hypervisors - \nauto-calculation". I used the Idle-PC menu item directly from a router instead.\n\nAuto QoS with IOS 15.2(4)M2\n-----------------------------------------\nhttp://www.routeralley.com/ra/docs/qos_autoqos.pdf\nTo begin discovering and collecting data for configuring the AutoQoS on all serial \ninterfaces for a while:\n(config-if)#auto discovery qos\nGenerating data on host with Iperf for a long time:\niperf -c 10.11.23.3 -u -p 7 -i 1 -t 100000 -b 10m\n(config-if)#no auto discovery qos\nTo automatically install the quality-of-service (QoS) class maps and policy maps:\n(config-if)#auto qos"
        x = -995.03275478
        y = -419.121933089
        font = "Times New Roman,14,-1,5,75,0,0,0,0,0"
        color = "#0000ff"
        z = 1.0
    [[Cloud Host-JPerf]]
        symbol = Host
        x = 378.621933091
        y = 125.235064737
        z = 1.0
        connections = WAN2:g0/0:nio_tap:tap0
    [[SHAPE 1]]
        type = ellipse
        x = 176.776695297
        y = -277.185858226
        width = 76.3675323683
        height = 592.555482636
        fill_color = "#00ffff"
        border_style = 2
        z = -2.0
    [[SHAPE 2]]
        type = ellipse
        x = 226.27416998
        y = -21.2132034359
        width = 347.896536345
        height = 349.310749907
        fill_color = "#ffff00"
        border_style = 2
        z = -2.0
    [[SHAPE 3]]
        type = ellipse
        x = -285.6711396
        y = -279.0
        width = 483.6711396
        height = 588.0
        fill_color = "#00aaff"
        border_style = 2
        z = -5.0
