Nov 28 08:08:36.167 HYPERVISOR: Release 0.2.17-amd64/Linux (tag 2017072410)
Nov 28 08:08:36.167 HYPERVISOR: Started on IP = 127.0.0.1, TCP port = 57467.
Nov 28 08:08:36.187 HYPERVISOR: exec_cmd: hypervisor version 
Nov 28 08:08:36.188 HYPERVISOR: exec_cmd: hypervisor working_dir /media/actionmystique/SAMSUNG5-VMs/Labs/GNS3/git-Public-Labs-Collection/CCNP/TBSHOOT/L3-Technologies/IPv4/IOS-Filtering-Tools/Prefix-List/Jean-Christophe_Manciot/1+/TT 1-solutions-linux/project-files/dynamips 
Nov 28 08:08:36.188 GENERAL: working_dir=/media/actionmystique/SAMSUNG5-VMs/Labs/GNS3/git-Public-Labs-Collection/CCNP/TBSHOOT/L3-Technologies/IPv4/IOS-Filtering-Tools/Prefix-List/Jean-Christophe_Manciot/1+/TT 1-solutions-linux/project-files/dynamips
Nov 28 08:08:36.188 HYPERVISOR: exec_cmd: vm create ESW3 3 c3725 
Nov 28 08:08:36.188 VM: VM ESW3 created.
Nov 28 08:08:36.190 HYPERVISOR: exec_cmd: vm set_con_tcp_port ESW3 2005 
Nov 28 08:08:36.191 HYPERVISOR: exec_cmd: c3725 get_mac_addr ESW3 
Nov 28 08:08:36.192 HYPERVISOR: exec_cmd: vm get_status ESW3 
Nov 28 08:08:36.192 HYPERVISOR: exec_cmd: vm slot_add_binding ESW3 1 0 NM-16ESW 
Nov 28 08:08:36.194 HYPERVISOR: exec_cmd: vm set_disk0 ESW3 1 
Nov 28 08:08:36.195 HYPERVISOR: exec_cmd: vm slot_add_binding ESW3 0 16 WIC-2T 
Nov 28 08:08:36.195 HYPERVISOR: exec_cmd: vm get_status ESW3 
Nov 28 08:08:36.196 HYPERVISOR: exec_cmd: vm set_idle_pc ESW3 0x6026b804 
Nov 28 08:08:36.196 HYPERVISOR: exec_cmd: c3725 set_mac_addr ESW3 c203.4490.0000 
Nov 28 08:08:36.196 HYPERVISOR: exec_cmd: vm set_nvram ESW3 256 
Nov 28 08:08:36.197 HYPERVISOR: exec_cmd: vm set_ios ESW3 /media/actionmystique/SAMSUNG5-VMs/Images/GNS3/IOS/c3725-adventerprisek9-mz.124-15.T10.image 
Nov 28 08:08:36.198 HYPERVISOR: exec_cmd: vm set_config ESW3 configs/ios_base_startup-config.txt 
Nov 28 08:08:36.198 HYPERVISOR: exec_cmd: vm set_config ESW3 configs/ios_base_startup-config.txt configs/ios_base_private-config.txt 
Nov 28 08:08:36.409 HYPERVISOR: exec_cmd: nio create_udp udp-dc192c19-2318-48b2-a728-d1e2d2e71ed4 15013 127.0.0.1 15012 
Nov 28 08:08:36.410 HYPERVISOR: exec_cmd: vm slot_add_nio_binding ESW3 1 0 udp-dc192c19-2318-48b2-a728-d1e2d2e71ed4 
Nov 28 08:08:36.410 HYPERVISOR: exec_cmd: vm get_status ESW3 
