Nov 28 08:14:22.769 HYPERVISOR: Release 0.2.17-amd64/Linux (tag 2017072410)
Nov 28 08:14:22.769 HYPERVISOR: Started on IP = 127.0.0.1, TCP port = 44833.
Nov 28 08:14:22.779 HYPERVISOR: exec_cmd: hypervisor version 
Nov 28 08:14:22.780 HYPERVISOR: exec_cmd: hypervisor working_dir /media/actionmystique/SAMSUNG5-VMs/Labs/GNS3/git-Public-Labs-Collection/CCNP/TBSHOOT/L3-Technologies/IPv4/PBR/Jean-Christophe_Manciot/1+/TT 2-solutions-linux/project-files/dynamips 
Nov 28 08:14:22.780 GENERAL: working_dir=/media/actionmystique/SAMSUNG5-VMs/Labs/GNS3/git-Public-Labs-Collection/CCNP/TBSHOOT/L3-Technologies/IPv4/PBR/Jean-Christophe_Manciot/1+/TT 2-solutions-linux/project-files/dynamips
Nov 28 08:14:22.781 HYPERVISOR: exec_cmd: vm create ESW1 1 c3725 
Nov 28 08:14:22.782 VM: VM ESW1 created.
Nov 28 08:14:22.782 HYPERVISOR: exec_cmd: vm set_con_tcp_port ESW1 2004 
Nov 28 08:14:22.783 HYPERVISOR: exec_cmd: c3725 get_mac_addr ESW1 
Nov 28 08:14:22.784 HYPERVISOR: exec_cmd: vm set_disk0 ESW1 1 
Nov 28 08:14:22.785 HYPERVISOR: exec_cmd: vm get_status ESW1 
Nov 28 08:14:22.786 HYPERVISOR: exec_cmd: vm slot_add_binding ESW1 1 0 NM-16ESW 
Nov 28 08:14:22.786 HYPERVISOR: exec_cmd: vm set_ios ESW1 /media/actionmystique/SAMSUNG5-VMs/Images/GNS3/IOS/c3725-adventerprisek9-mz.124-15.T10.image 
Nov 28 08:14:22.787 HYPERVISOR: exec_cmd: c3725 set_mac_addr ESW1 c201.1b91.0000 
Nov 28 08:14:22.789 HYPERVISOR: exec_cmd: vm slot_add_binding ESW1 0 16 WIC-2T 
Nov 28 08:14:22.791 HYPERVISOR: exec_cmd: vm get_status ESW1 
Nov 28 08:14:22.793 HYPERVISOR: exec_cmd: vm set_idle_pc ESW1 0x60c06d20 
Nov 28 08:14:22.796 HYPERVISOR: exec_cmd: vm set_nvram ESW1 256 
Nov 28 08:14:22.799 HYPERVISOR: exec_cmd: vm set_config ESW1 configs/ios_base_startup-config.txt 
Nov 28 08:14:22.801 HYPERVISOR: exec_cmd: vm set_config ESW1 configs/ios_base_startup-config.txt configs/ios_base_private-config.txt 
Nov 28 08:14:23.039 HYPERVISOR: exec_cmd: nio create_udp udp-b0412f7b-5ae8-4e20-a0a7-45376ef32e45 15009 127.0.0.1 15008 
Nov 28 08:14:23.051 HYPERVISOR: exec_cmd: vm slot_add_nio_binding ESW1 1 0 udp-b0412f7b-5ae8-4e20-a0a7-45376ef32e45 
Nov 28 08:14:23.052 HYPERVISOR: exec_cmd: vm get_status ESW1 
Nov 28 08:14:23.058 HYPERVISOR: exec_cmd: nio create_udp udp-102244bc-495a-418a-9e37-45e5263c1b60 15010 127.0.0.1 15011 
Nov 28 08:14:23.059 HYPERVISOR: exec_cmd: vm slot_add_nio_binding ESW1 1 1 udp-102244bc-495a-418a-9e37-45e5263c1b60 
Nov 28 08:14:23.059 HYPERVISOR: exec_cmd: vm get_status ESW1 
