Nov 28 08:14:22.777 HYPERVISOR: Release 0.2.17-amd64/Linux (tag 2017072410)
Nov 28 08:14:22.777 HYPERVISOR: Started on IP = 127.0.0.1, TCP port = 56063.
Nov 28 08:14:22.783 HYPERVISOR: exec_cmd: hypervisor version 
Nov 28 08:14:22.784 HYPERVISOR: exec_cmd: hypervisor working_dir /media/actionmystique/SAMSUNG5-VMs/Labs/GNS3/git-Public-Labs-Collection/CCNP/TBSHOOT/L3-Technologies/IPv4/PBR/Jean-Christophe_Manciot/1+/TT 2-solutions-linux/project-files/dynamips 
Nov 28 08:14:22.784 GENERAL: working_dir=/media/actionmystique/SAMSUNG5-VMs/Labs/GNS3/git-Public-Labs-Collection/CCNP/TBSHOOT/L3-Technologies/IPv4/PBR/Jean-Christophe_Manciot/1+/TT 2-solutions-linux/project-files/dynamips
Nov 28 08:14:22.784 HYPERVISOR: exec_cmd: vm create ESW5 5 c3725 
Nov 28 08:14:22.785 VM: VM ESW5 created.
Nov 28 08:14:22.785 HYPERVISOR: exec_cmd: vm set_con_tcp_port ESW5 2010 
Nov 28 08:14:22.786 HYPERVISOR: exec_cmd: c3725 get_mac_addr ESW5 
Nov 28 08:14:22.787 HYPERVISOR: exec_cmd: vm set_disk0 ESW5 1 
Nov 28 08:14:22.789 HYPERVISOR: exec_cmd: vm get_status ESW5 
Nov 28 08:14:22.791 HYPERVISOR: exec_cmd: vm slot_add_binding ESW5 1 0 NM-16ESW 
Nov 28 08:14:22.792 HYPERVISOR: exec_cmd: vm set_ios ESW5 /media/actionmystique/SAMSUNG5-VMs/Images/GNS3/IOS/c3725-adventerprisek9-mz.124-15.T10.image 
Nov 28 08:14:22.795 HYPERVISOR: exec_cmd: c3725 set_mac_addr ESW5 c205.6a03.0000 
Nov 28 08:14:22.799 HYPERVISOR: exec_cmd: vm slot_add_binding ESW5 0 16 WIC-2T 
Nov 28 08:14:22.800 HYPERVISOR: exec_cmd: vm get_status ESW5 
Nov 28 08:14:22.802 HYPERVISOR: exec_cmd: vm set_idle_pc ESW5 0x60c06d20 
Nov 28 08:14:22.810 HYPERVISOR: exec_cmd: vm set_nvram ESW5 256 
Nov 28 08:14:22.827 HYPERVISOR: exec_cmd: vm set_config ESW5 configs/ios_base_startup-config.txt 
Nov 28 08:14:22.830 HYPERVISOR: exec_cmd: vm set_config ESW5 configs/ios_base_startup-config.txt configs/ios_base_private-config.txt 
Nov 28 08:14:23.095 HYPERVISOR: exec_cmd: nio create_udp udp-eab31c2d-af0f-496c-af0e-94322c17d34f 15013 127.0.0.1 15012 
Nov 28 08:14:23.095 HYPERVISOR: exec_cmd: vm slot_add_nio_binding ESW5 1 0 udp-eab31c2d-af0f-496c-af0e-94322c17d34f 
Nov 28 08:14:23.096 HYPERVISOR: exec_cmd: vm get_status ESW5 
Nov 28 08:14:23.108 HYPERVISOR: exec_cmd: nio create_udp udp-72be5273-25c9-4c3e-aa4e-28b62419b2b0 15014 127.0.0.1 15016 
Nov 28 08:14:23.115 HYPERVISOR: exec_cmd: vm slot_add_nio_binding ESW5 1 1 udp-72be5273-25c9-4c3e-aa4e-28b62419b2b0 
Nov 28 08:14:23.118 HYPERVISOR: exec_cmd: vm get_status ESW5 
