Nov 28 08:14:22.804 HYPERVISOR: Release 0.2.17-amd64/Linux (tag 2017072410)
Nov 28 08:14:22.804 HYPERVISOR: Started on IP = 127.0.0.1, TCP port = 38857.
Nov 28 08:14:22.837 HYPERVISOR: exec_cmd: hypervisor version 
Nov 28 08:14:22.838 HYPERVISOR: exec_cmd: hypervisor working_dir /media/actionmystique/SAMSUNG5-VMs/Labs/GNS3/git-Public-Labs-Collection/CCNP/TBSHOOT/L3-Technologies/IPv4/PBR/Jean-Christophe_Manciot/1+/TT 2-solutions-linux/project-files/dynamips 
Nov 28 08:14:22.838 GENERAL: working_dir=/media/actionmystique/SAMSUNG5-VMs/Labs/GNS3/git-Public-Labs-Collection/CCNP/TBSHOOT/L3-Technologies/IPv4/PBR/Jean-Christophe_Manciot/1+/TT 2-solutions-linux/project-files/dynamips
Nov 28 08:14:22.838 HYPERVISOR: exec_cmd: vm create ESW2 2 c3725 
Nov 28 08:14:22.838 VM: VM ESW2 created.
Nov 28 08:14:22.839 HYPERVISOR: exec_cmd: vm set_con_tcp_port ESW2 2005 
Nov 28 08:14:22.839 HYPERVISOR: exec_cmd: c3725 get_mac_addr ESW2 
Nov 28 08:14:22.839 HYPERVISOR: exec_cmd: vm set_disk0 ESW2 1 
Nov 28 08:14:22.840 HYPERVISOR: exec_cmd: vm get_status ESW2 
Nov 28 08:14:22.847 HYPERVISOR: exec_cmd: vm slot_add_binding ESW2 1 0 NM-16ESW 
Nov 28 08:14:22.855 HYPERVISOR: exec_cmd: vm set_ios ESW2 /media/actionmystique/SAMSUNG5-VMs/Images/GNS3/IOS/c3725-adventerprisek9-mz.124-15.T10.image 
Nov 28 08:14:22.857 HYPERVISOR: exec_cmd: c3725 set_mac_addr ESW2 c202.1bd4.0000 
Nov 28 08:14:22.858 HYPERVISOR: exec_cmd: vm slot_add_binding ESW2 0 16 WIC-2T 
Nov 28 08:14:22.859 HYPERVISOR: exec_cmd: vm get_status ESW2 
Nov 28 08:14:22.860 HYPERVISOR: exec_cmd: vm set_idle_pc ESW2 0x60c06d20 
Nov 28 08:14:22.861 HYPERVISOR: exec_cmd: vm set_nvram ESW2 256 
Nov 28 08:14:22.861 HYPERVISOR: exec_cmd: vm set_config ESW2 configs/ios_base_startup-config.txt 
Nov 28 08:14:22.862 HYPERVISOR: exec_cmd: vm set_config ESW2 configs/ios_base_startup-config.txt configs/ios_base_private-config.txt 
Nov 28 08:14:23.118 HYPERVISOR: exec_cmd: nio create_udp udp-501e2e53-4d88-495c-a149-5c714ef99033 15017 127.0.0.1 15015 
Nov 28 08:14:23.118 HYPERVISOR: exec_cmd: vm slot_add_nio_binding ESW2 1 0 udp-501e2e53-4d88-495c-a149-5c714ef99033 
Nov 28 08:14:23.122 HYPERVISOR: exec_cmd: vm get_status ESW2 
