autostart = False
version = 0.8.2
[127.0.0.1:7200]
    workingdir = C:\Users\ActionMystique\Documents\Missions\GNS3\Temp
    udp = 10000
    [[3725]]
        image = C:\Users\ActionMystique\Documents\Missions\IOS\Binaries\c3725-adventerprisek9-mz.124-15.T5.image
        ram = 128
        idlepc = 0x62af9f1c
        sparsemem = True
        ghostios = True
    [[ROUTER R1]]
        model = 3725
        console = 2000
        aux = 2100
        cnfg = configs\R1.cfg
        wic0/0 = WIC-2T
        s0/0 = R2 s0/0
        slot1 = NM-1FE-TX
        x = -289.0
        y = 8.0
        z = 1.0
    [[ROUTER R2]]
        model = 3725
        console = 2001
        aux = 2101
        cnfg = configs\R2.cfg
        wic0/0 = WIC-2T
        s0/0 = R1 s0/0
        s0/1 = R3 s0/1
        slot1 = NM-1FE-TX
        x = -61.0
        y = -280.0
        z = 1.0
    [[ROUTER R3]]
        model = 3725
        console = 2002
        aux = 2102
        cnfg = configs\R3.cfg
        wic0/0 = WIC-2T
        s0/1 = R2 s0/1
        slot1 = NM-1FE-TX
        x = 174.0
        y = 8.0
        z = 1.0
[GNS3-DATA]
    configs = configs
    m11 = 0.870550563296
    m22 = 0.870550563296
    width = 5000
    height = 2500
    [[NOTE 1]]
        text = Lo0: 172.16.3.1/24\nLo20: 192.168.20.1/24\nLo25: 192.168.25.1/24\nLo30: 192.168.30.1/24\nLo35: 192.168.35.1/24\nLo40: 192.168.40.1/24
        x = 187.0
        y = 76.5
    [[NOTE 2]]
        text = Example.com
        x = -442.0
        y = -306.5
        font = "Sans Serif,12,-1,5,75,0,0,0,0,0"
    [[NOTE 3]]
        text = Example.net
        x = 280.0
        y = -322.5
        font = "Sans Serif,12,-1,5,75,0,0,0,0,0"
    [[NOTE 4]]
        text = OSPF 0
        x = 285.0
        y = -104.5
        font = "Sans Serif,12,-1,5,75,0,0,0,0,0"
    [[NOTE 5]]
        text = s0/0\nDCE\n.1
        x = -248.0
        y = -73.5
    [[NOTE 6]]
        text = RIPv2
        x = -452.0
        y = -103.5
        font = "Sans Serif,12,-1,5,75,0,0,0,0,0"
    [[NOTE 7]]
        text = Lo0: 172.16.2.1/24
        x = -245.0
        y = -279.5
    [[NOTE 8]]
        text = 172.16.23.0/24
        x = 99.0
        y = -140.5
    [[NOTE 9]]
        text = Lo0: 172.16.1.1/24\nLo48: 192.168.48.1/24\nLo49: 192.168.49.1/24\nLo50: 192.168.50.1/24\nLo51: 192.168.51.1/24\nLo70: 192.168.70.1/24
        x = -384.0
        y = 73.5
    [[NOTE 10]]
        text = s0/1\nDCE\n.2
        x = 39.0
        y = -244.5
    [[NOTE 11]]
        text = s0/0\n.2
        x = -120.0
        y = -233.5
    [[NOTE 12]]
        text = 172.16.12.0/24
        x = -279.0
        y = -142.5
    [[NOTE 13]]
        text = s0/1\n.3
        x = 166.0
        y = -61.5
    [[SHAPE 1]]
        type = ellipse
        x = -84.0
        y = -275.0
        width = 25.0
        height = 23.0
        border_style = 2
        z = -2.0
    [[SHAPE 2]]
        type = ellipse
        x = -271.0
        y = 48.0
        width = 25.0
        height = 23.0
        border_style = 2
        z = -2.0
    [[SHAPE 3]]
        type = ellipse
        x = 193.0
        y = 48.0
        width = 25.0
        height = 23.0
        border_style = 2
        z = -2.0
    [[SHAPE 4]]
        type = ellipse
        x = -242.0
        y = -408.0
        width = 406.710717417
        height = 658.0
        rotate = 35
        border_style = 2
        z = -2.0
    [[SHAPE 5]]
        type = ellipse
        x = -100.0
        y = -185.0
        width = 333.142506204
        height = 630.914501997
        rotate = -35
        border_style = 2
        z = -2.0
