Nov 27 16:20:09.886 HYPERVISOR: Release 0.2.17-amd64/Linux (tag 2017072410)
Nov 27 16:20:09.886 HYPERVISOR: Started on IP = 127.0.0.1, TCP port = 37021.
Nov 27 16:20:09.896 HYPERVISOR: exec_cmd: hypervisor version 
Nov 27 16:20:09.897 HYPERVISOR: exec_cmd: hypervisor working_dir /media/actionmystique/SAMSUNG5-VMs/Labs/GNS3/git-Public-Labs-Collection/CCNP/TBSHOOT/L3-Technologies/IPv4/High-Availability/HSRP/Jean-Christophe_Manciot/1+/TT 1-linux/project-files/dynamips 
Nov 27 16:20:09.897 GENERAL: working_dir=/media/actionmystique/SAMSUNG5-VMs/Labs/GNS3/git-Public-Labs-Collection/CCNP/TBSHOOT/L3-Technologies/IPv4/High-Availability/HSRP/Jean-Christophe_Manciot/1+/TT 1-linux/project-files/dynamips
Nov 27 16:20:09.897 HYPERVISOR: exec_cmd: vm create SW3 3 c3725 
Nov 27 16:20:09.897 VM: VM SW3 created.
Nov 27 16:20:09.898 HYPERVISOR: exec_cmd: vm set_con_tcp_port SW3 2003 
Nov 27 16:20:09.899 HYPERVISOR: exec_cmd: c3725 get_mac_addr SW3 
Nov 27 16:20:09.899 HYPERVISOR: exec_cmd: vm set_nvram SW3 256 
Nov 27 16:20:09.900 HYPERVISOR: exec_cmd: vm get_status SW3 
Nov 27 16:20:09.901 HYPERVISOR: exec_cmd: vm set_idle_pc SW3 0x614ac21c 
Nov 27 16:20:09.902 HYPERVISOR: exec_cmd: c3725 set_mac_addr SW3 cccc.cccc.cccc 
Nov 27 16:20:09.903 HYPERVISOR: exec_cmd: vm set_exec_area SW3 16 
Nov 27 16:20:09.904 HYPERVISOR: exec_cmd: vm get_status SW3 
Nov 27 16:20:09.905 HYPERVISOR: exec_cmd: vm slot_add_binding SW3 1 0 NM-16ESW 
Nov 27 16:20:09.906 HYPERVISOR: exec_cmd: vm set_ios SW3 /media/actionmystique/SAMSUNG5-VMs/Images/GNS3/IOS/c3725-adventerprisek9-mz.124-15.T10.image 
Nov 27 16:20:09.908 HYPERVISOR: exec_cmd: vm slot_add_binding SW3 0 16 WIC-2T 
Nov 27 16:20:09.909 HYPERVISOR: exec_cmd: vm set_disk0 SW3 1 
Nov 27 16:20:09.910 HYPERVISOR: exec_cmd: vm set_config SW3 configs/i3_startup-config.cfg 
Nov 27 16:20:09.911 HYPERVISOR: exec_cmd: vm set_config SW3 configs/i3_startup-config.cfg configs/i3_private-config.cfg 
Nov 27 16:20:10.093 HYPERVISOR: exec_cmd: nio create_udp udp-3afedabd-41dd-4cd2-b9c2-54789d7ad371 15001 127.0.0.1 15002 
Nov 27 16:20:10.093 HYPERVISOR: exec_cmd: vm slot_add_nio_binding SW3 1 2 udp-3afedabd-41dd-4cd2-b9c2-54789d7ad371 
Nov 27 16:20:10.094 HYPERVISOR: exec_cmd: vm get_status SW3 
Nov 27 16:20:10.128 HYPERVISOR: exec_cmd: nio create_udp udp-45455557-b866-40f8-b61d-96a01f49a4a7 15003 127.0.0.1 15006 
Nov 27 16:20:10.133 HYPERVISOR: exec_cmd: vm slot_add_nio_binding SW3 1 1 udp-45455557-b866-40f8-b61d-96a01f49a4a7 
Nov 27 16:20:10.135 HYPERVISOR: exec_cmd: vm get_status SW3 
Nov 27 16:20:10.176 HYPERVISOR: exec_cmd: nio create_udp udp-ac109b17-c319-4d81-aee9-a1760616a363 15008 127.0.0.1 15005 
Nov 27 16:20:10.177 HYPERVISOR: exec_cmd: vm slot_add_nio_binding SW3 1 5 udp-ac109b17-c319-4d81-aee9-a1760616a363 
Nov 27 16:20:10.177 HYPERVISOR: exec_cmd: vm get_status SW3 
Nov 27 16:20:10.188 HYPERVISOR: exec_cmd: nio create_udp udp-44849a70-de76-428b-a1ff-e37c78e187a0 15009 127.0.0.1 15007 
Nov 27 16:20:10.189 HYPERVISOR: exec_cmd: vm slot_add_nio_binding SW3 1 6 udp-44849a70-de76-428b-a1ff-e37c78e187a0 
Nov 27 16:20:10.189 HYPERVISOR: exec_cmd: vm get_status SW3 
