Nov 29 15:30:35.632 HYPERVISOR: Release 0.2.17-amd64/Linux (tag 2017072410)
Nov 29 15:30:35.632 HYPERVISOR: Started on IP = 127.0.0.1, TCP port = 59381.
Nov 29 15:30:35.645 HYPERVISOR: exec_cmd: hypervisor version 
Nov 29 15:30:35.645 HYPERVISOR: exec_cmd: hypervisor working_dir /media/actionmystique/SAMSUNG5-VMs/Labs/GNS3/git-Public-Labs-Collection/CCNP/TBSHOOT/L3-Technologies/IPv4/Routing-Protocols/RIPv2/Jean-Christophe_Manciot/1+/TT 1-linux/project-files/dynamips 
Nov 29 15:30:35.645 GENERAL: working_dir=/media/actionmystique/SAMSUNG5-VMs/Labs/GNS3/git-Public-Labs-Collection/CCNP/TBSHOOT/L3-Technologies/IPv4/Routing-Protocols/RIPv2/Jean-Christophe_Manciot/1+/TT 1-linux/project-files/dynamips
Nov 29 15:30:35.646 HYPERVISOR: exec_cmd: vm create ESW3 3 c3725 
Nov 29 15:30:35.646 VM: VM ESW3 created.
Nov 29 15:30:35.647 HYPERVISOR: exec_cmd: vm set_con_tcp_port ESW3 2006 
Nov 29 15:30:35.647 HYPERVISOR: exec_cmd: c3725 get_mac_addr ESW3 
Nov 29 15:30:35.647 HYPERVISOR: exec_cmd: vm set_nvram ESW3 256 
Nov 29 15:30:35.648 HYPERVISOR: exec_cmd: vm slot_add_binding ESW3 0 16 WIC-2T 
Nov 29 15:30:35.649 HYPERVISOR: exec_cmd: c3725 set_mac_addr ESW3 c203.1bfb.0000 
Nov 29 15:30:35.649 HYPERVISOR: exec_cmd: vm set_disk0 ESW3 1 
Nov 29 15:30:35.650 HYPERVISOR: exec_cmd: vm set_ios ESW3 /media/actionmystique/SAMSUNG5-VMs/Images/GNS3/IOS/c3725-adventerprisek9-mz.124-15.T10.image 
Nov 29 15:30:35.650 HYPERVISOR: exec_cmd: vm get_status ESW3 
Nov 29 15:30:35.651 HYPERVISOR: exec_cmd: vm set_idle_pc ESW3 0x614ac27c 
Nov 29 15:30:35.651 HYPERVISOR: exec_cmd: vm get_status ESW3 
Nov 29 15:30:35.652 HYPERVISOR: exec_cmd: vm slot_add_binding ESW3 1 0 NM-16ESW 
Nov 29 15:30:35.653 HYPERVISOR: exec_cmd: vm set_config ESW3 configs/ios_base_startup-config.txt 
Nov 29 15:30:35.653 HYPERVISOR: exec_cmd: vm set_config ESW3 configs/ios_base_startup-config.txt configs/ios_base_private-config.txt 
Nov 29 15:30:35.687 HYPERVISOR: exec_cmd: nio create_tap tap-c89f77b8-381e-40dd-9e65-e2c73a57dd6e tap0 
Nov 29 15:30:35.689 HYPERVISOR: exec_cmd: vm slot_add_nio_binding ESW3 1 1 tap-c89f77b8-381e-40dd-9e65-e2c73a57dd6e 
Nov 29 15:30:35.690 HYPERVISOR: exec_cmd: vm get_status ESW3 
Nov 29 15:30:35.781 HYPERVISOR: exec_cmd: nio create_udp udp-8ef6cf7f-a8cc-40b0-8a16-ed4f8efa4127 15007 127.0.0.1 15008 
Nov 29 15:30:35.787 HYPERVISOR: exec_cmd: vm slot_add_nio_binding ESW3 1 0 udp-8ef6cf7f-a8cc-40b0-8a16-ed4f8efa4127 
Nov 29 15:30:35.791 HYPERVISOR: exec_cmd: vm get_status ESW3 
