Nov 26 22:02:52.998 HYPERVISOR: Release 0.2.17-amd64/Linux (tag 2017072410)
Nov 26 22:02:52.998 HYPERVISOR: Started on IP = 127.0.0.1, TCP port = 39531.
Nov 26 22:02:53.032 HYPERVISOR: exec_cmd: hypervisor version 
Nov 26 22:02:53.032 HYPERVISOR: exec_cmd: hypervisor working_dir /media/actionmystique/SAMSUNG5-VMs/Labs/GNS3/TT 3-linux-/project-files/dynamips 
Nov 26 22:02:53.032 GENERAL: working_dir=/media/actionmystique/SAMSUNG5-VMs/Labs/GNS3/TT 3-linux-/project-files/dynamips
Nov 26 22:02:53.033 HYPERVISOR: exec_cmd: vm create ESW1 1 c3725 
Nov 26 22:02:53.033 VM: VM ESW1 created.
Nov 26 22:02:53.033 HYPERVISOR: exec_cmd: vm set_con_tcp_port ESW1 2004 
Nov 26 22:02:53.033 HYPERVISOR: exec_cmd: c3725 get_mac_addr ESW1 
Nov 26 22:02:53.034 HYPERVISOR: exec_cmd: vm slot_add_binding ESW1 0 16 WIC-2T 
Nov 26 22:02:53.034 HYPERVISOR: exec_cmd: vm get_status ESW1 
Nov 26 22:02:53.034 HYPERVISOR: exec_cmd: vm set_idle_pc ESW1 0x614ac27c 
Nov 26 22:02:53.035 HYPERVISOR: exec_cmd: vm set_nvram ESW1 256 
Nov 26 22:02:53.035 HYPERVISOR: exec_cmd: vm get_status ESW1 
Nov 26 22:02:53.036 HYPERVISOR: exec_cmd: vm slot_add_binding ESW1 1 0 NM-16ESW 
Nov 26 22:02:53.036 HYPERVISOR: exec_cmd: vm set_ios ESW1 /media/actionmystique/SAMSUNG5-VMs/Images/GNS3/IOS/c3725-adventerprisek9-mz.124-15.T10.image 
Nov 26 22:02:53.036 HYPERVISOR: exec_cmd: vm set_disk0 ESW1 1 
Nov 26 22:02:53.037 HYPERVISOR: exec_cmd: c3725 set_mac_addr ESW1 c201.1a63.0000 
Nov 26 22:02:53.037 HYPERVISOR: exec_cmd: vm set_config ESW1 configs/i1_startup-config.cfg 
Nov 26 22:02:53.038 HYPERVISOR: exec_cmd: vm set_config ESW1 configs/i1_startup-config.cfg configs/i1_private-config.cfg 
Nov 26 22:02:53.126 HYPERVISOR: exec_cmd: nio create_tap tap-a8558fc7-2dae-473e-ad83-e60e48864039 tap0 
Nov 26 22:02:53.128 HYPERVISOR: exec_cmd: vm slot_add_nio_binding ESW1 1 1 tap-a8558fc7-2dae-473e-ad83-e60e48864039 
Nov 26 22:02:53.128 HYPERVISOR: exec_cmd: vm get_status ESW1 
Nov 26 22:02:53.212 HYPERVISOR: exec_cmd: nio create_udp udp-fb95c1fa-cbf8-482c-aa62-9ede4ba14d6c 15005 127.0.0.1 15001 
Nov 26 22:02:53.213 HYPERVISOR: exec_cmd: vm slot_add_nio_binding ESW1 1 0 udp-fb95c1fa-cbf8-482c-aa62-9ede4ba14d6c 
Nov 26 22:02:53.213 HYPERVISOR: exec_cmd: vm get_status ESW1 
Nov 26 22:03:12.828 HYPERVISOR: exec_cmd: vm get_status ESW1 
Nov 26 22:03:12.829 HYPERVISOR: exec_cmd: vm extract_config ESW1 
Nov 26 22:03:12.829 HYPERVISOR: exec_cmd: vm delete ESW1 
Nov 26 22:03:12.829 VM: VM ESW1 destroyed.
Nov 26 22:03:12.830 HYPERVISOR: exec_cmd: hypervisor stop 
Nov 26 22:03:13.054 HYPERVISOR: Stopped.
Nov 26 22:03:13.054 GENERAL: reset done.
