Nov 26 22:02:41.241 HYPERVISOR: Release 0.2.17-amd64/Linux (tag 2017072410)
Nov 26 22:02:41.241 HYPERVISOR: Started on IP = 127.0.0.1, TCP port = 60567.
Nov 26 22:02:41.252 HYPERVISOR: exec_cmd: hypervisor version 
Nov 26 22:02:41.253 HYPERVISOR: exec_cmd: hypervisor working_dir /media/actionmystique/SAMSUNG5-VMs/Labs/GNS3/git-Public-Labs-Collection/CCNP/TBSHOOT/Infrastructure-Services/Device-Management/Telnet-SSH/Jean-Christophe_Manciot/1+/TT 3-linux/project-files/dynamips 
Nov 26 22:02:41.253 GENERAL: working_dir=/media/actionmystique/SAMSUNG5-VMs/Labs/GNS3/git-Public-Labs-Collection/CCNP/TBSHOOT/Infrastructure-Services/Device-Management/Telnet-SSH/Jean-Christophe_Manciot/1+/TT 3-linux/project-files/dynamips
Nov 26 22:02:41.253 HYPERVISOR: exec_cmd: vm create ESW1 1 c3725 
Nov 26 22:02:41.253 VM: VM ESW1 created.
Nov 26 22:02:41.253 HYPERVISOR: exec_cmd: vm set_con_tcp_port ESW1 2004 
Nov 26 22:02:41.254 HYPERVISOR: exec_cmd: c3725 get_mac_addr ESW1 
Nov 26 22:02:41.254 HYPERVISOR: exec_cmd: vm slot_add_binding ESW1 0 16 WIC-2T 
Nov 26 22:02:41.254 HYPERVISOR: exec_cmd: vm get_status ESW1 
Nov 26 22:02:41.255 HYPERVISOR: exec_cmd: vm set_idle_pc ESW1 0x614ac27c 
Nov 26 22:02:41.255 HYPERVISOR: exec_cmd: vm set_nvram ESW1 256 
Nov 26 22:02:41.256 HYPERVISOR: exec_cmd: vm get_status ESW1 
Nov 26 22:02:41.256 HYPERVISOR: exec_cmd: vm slot_add_binding ESW1 1 0 NM-16ESW 
Nov 26 22:02:41.256 HYPERVISOR: exec_cmd: vm set_ios ESW1 /media/actionmystique/SAMSUNG5-VMs/Images/GNS3/IOS/c3725-adventerprisek9-mz.124-15.T10.image 
Nov 26 22:02:41.257 HYPERVISOR: exec_cmd: vm set_disk0 ESW1 1 
Nov 26 22:02:41.257 HYPERVISOR: exec_cmd: c3725 set_mac_addr ESW1 c201.1a63.0000 
Nov 26 22:02:41.258 HYPERVISOR: exec_cmd: vm set_config ESW1 configs/i1_startup-config.cfg 
Nov 26 22:02:41.260 HYPERVISOR: exec_cmd: vm set_config ESW1 configs/i1_startup-config.cfg configs/i1_private-config.cfg 
Nov 26 22:02:41.365 HYPERVISOR: exec_cmd: nio create_udp udp-b3d4de7a-87dc-4e6f-8e22-50fc8b2ecff6 15005 127.0.0.1 15004 
Nov 26 22:02:41.372 HYPERVISOR: exec_cmd: vm slot_add_nio_binding ESW1 1 0 udp-b3d4de7a-87dc-4e6f-8e22-50fc8b2ecff6 
Nov 26 22:02:41.372 HYPERVISOR: exec_cmd: vm get_status ESW1 
Nov 26 22:02:46.853 HYPERVISOR: exec_cmd: nio create_tap tap-9a746414-c9bf-42c2-9866-82a84a292a45 tap0 
Nov 26 22:02:46.854 HYPERVISOR: exec_cmd: vm slot_add_nio_binding ESW1 1 1 tap-9a746414-c9bf-42c2-9866-82a84a292a45 
Nov 26 22:02:46.854 HYPERVISOR: exec_cmd: vm get_status ESW1 
