Nov 27 16:19:54.206 HYPERVISOR: Release 0.2.17-amd64/Linux (tag 2017072410)
Nov 27 16:19:54.206 HYPERVISOR: Started on IP = 127.0.0.1, TCP port = 32825.
Nov 27 16:19:54.220 HYPERVISOR: exec_cmd: hypervisor version 
Nov 27 16:19:54.220 HYPERVISOR: exec_cmd: hypervisor working_dir /media/actionmystique/SAMSUNG5-VMs/Labs/GNS3/TT 2-solutions-linux-/project-files/dynamips 
Nov 27 16:19:54.220 GENERAL: working_dir=/media/actionmystique/SAMSUNG5-VMs/Labs/GNS3/TT 2-solutions-linux-/project-files/dynamips
Nov 27 16:19:54.220 HYPERVISOR: exec_cmd: vm create Core 4 c3725 
Nov 27 16:19:54.220 VM: VM Core created.
Nov 27 16:19:54.221 HYPERVISOR: exec_cmd: vm set_con_tcp_port Core 2005 
Nov 27 16:19:54.221 HYPERVISOR: exec_cmd: c3725 get_mac_addr Core 
Nov 27 16:19:54.221 HYPERVISOR: exec_cmd: vm set_ram Core 256 
Nov 27 16:19:54.222 HYPERVISOR: exec_cmd: vm set_nvram Core 256 
Nov 27 16:19:54.222 HYPERVISOR: exec_cmd: vm get_status Core 
Nov 27 16:19:54.222 HYPERVISOR: exec_cmd: vm set_idle_pc Core 0x60c056e4 
Nov 27 16:19:54.223 HYPERVISOR: exec_cmd: c3725 set_mac_addr Core c204.0c3e.0000 
Nov 27 16:19:54.223 HYPERVISOR: exec_cmd: vm get_status Core 
Nov 27 16:19:54.223 HYPERVISOR: exec_cmd: vm slot_add_binding Core 1 0 NM-16ESW 
Nov 27 16:19:54.224 HYPERVISOR: exec_cmd: vm set_disk0 Core 1 
Nov 27 16:19:54.224 HYPERVISOR: exec_cmd: vm set_ios Core /media/actionmystique/SAMSUNG5-VMs/Images/GNS3/IOS/c3725-adventerprisek9-mz.124-15.T10.image 
Nov 27 16:19:54.225 HYPERVISOR: exec_cmd: vm slot_add_binding Core 0 16 WIC-2T 
Nov 27 16:19:54.225 HYPERVISOR: exec_cmd: vm set_config Core configs/i4_startup-config.cfg 
Nov 27 16:19:54.225 HYPERVISOR: exec_cmd: vm set_config Core configs/i4_startup-config.cfg configs/i4_private-config.cfg 
Nov 27 16:19:54.529 HYPERVISOR: exec_cmd: nio create_udp udp-511236fc-170a-4bfb-bc78-213f3cf34a89 15003 127.0.0.1 15004 
Nov 27 16:19:54.532 HYPERVISOR: exec_cmd: vm slot_add_nio_binding Core 1 1 udp-511236fc-170a-4bfb-bc78-213f3cf34a89 
Nov 27 16:19:54.533 HYPERVISOR: exec_cmd: vm get_status Core 
Nov 27 16:19:54.598 HYPERVISOR: exec_cmd: nio create_udp udp-50108af2-e480-4e0c-a29b-de56945f4f25 15008 127.0.0.1 15009 
Nov 27 16:19:54.601 HYPERVISOR: exec_cmd: vm slot_add_nio_binding Core 1 0 udp-50108af2-e480-4e0c-a29b-de56945f4f25 
Nov 27 16:19:54.602 HYPERVISOR: exec_cmd: vm get_status Core 
Nov 27 16:20:08.957 HYPERVISOR: exec_cmd: vm get_status Core 
Nov 27 16:20:08.958 HYPERVISOR: exec_cmd: vm extract_config Core 
Nov 27 16:20:08.960 HYPERVISOR: exec_cmd: vm delete Core 
Nov 27 16:20:08.960 VM: VM Core destroyed.
Nov 27 16:20:08.963 HYPERVISOR: exec_cmd: hypervisor stop 
Nov 27 16:20:09.235 HYPERVISOR: Stopped.
Nov 27 16:20:09.235 GENERAL: reset done.
