Nov 27 16:19:01.041 HYPERVISOR: Release 0.2.17-amd64/Linux (tag 2017072410)
Nov 27 16:19:01.041 HYPERVISOR: Started on IP = 127.0.0.1, TCP port = 41891.
Nov 27 16:19:01.068 HYPERVISOR: exec_cmd: hypervisor version 
Nov 27 16:19:01.069 HYPERVISOR: exec_cmd: hypervisor working_dir /media/actionmystique/SAMSUNG5-VMs/Labs/GNS3/TT 1-solutions-linux-/project-files/dynamips 
Nov 27 16:19:01.069 GENERAL: working_dir=/media/actionmystique/SAMSUNG5-VMs/Labs/GNS3/TT 1-solutions-linux-/project-files/dynamips
Nov 27 16:19:01.070 HYPERVISOR: exec_cmd: vm create SW2 2 c3725 
Nov 27 16:19:01.070 VM: VM SW2 created.
Nov 27 16:19:01.071 HYPERVISOR: exec_cmd: vm set_con_tcp_port SW2 2002 
Nov 27 16:19:01.072 HYPERVISOR: exec_cmd: c3725 get_mac_addr SW2 
Nov 27 16:19:01.073 HYPERVISOR: exec_cmd: vm set_nvram SW2 256 
Nov 27 16:19:01.074 HYPERVISOR: exec_cmd: vm get_status SW2 
Nov 27 16:19:01.075 HYPERVISOR: exec_cmd: vm set_idle_pc SW2 0x6026b804 
Nov 27 16:19:01.076 HYPERVISOR: exec_cmd: c3725 set_mac_addr SW2 eeee.eeee.eeee 
Nov 27 16:19:01.077 HYPERVISOR: exec_cmd: vm set_exec_area SW2 16 
Nov 27 16:19:01.078 HYPERVISOR: exec_cmd: vm get_status SW2 
Nov 27 16:19:01.079 HYPERVISOR: exec_cmd: vm slot_add_binding SW2 1 0 NM-16ESW 
Nov 27 16:19:01.080 HYPERVISOR: exec_cmd: vm set_disk0 SW2 1 
Nov 27 16:19:01.081 HYPERVISOR: exec_cmd: vm set_ios SW2 /media/actionmystique/SAMSUNG5-VMs/Images/GNS3/IOS/c3725-adventerprisek9-mz.124-15.T10.image 
Nov 27 16:19:01.082 HYPERVISOR: exec_cmd: vm slot_add_binding SW2 0 16 WIC-2T 
Nov 27 16:19:01.084 HYPERVISOR: exec_cmd: vm set_config SW2 configs/i2_startup-config.cfg 
Nov 27 16:19:01.085 HYPERVISOR: exec_cmd: vm set_config SW2 configs/i2_startup-config.cfg configs/i2_private-config.cfg 
Nov 27 16:19:01.286 HYPERVISOR: exec_cmd: nio create_udp udp-62bc7185-2752-4ba1-825a-83c2308c02c7 15002 127.0.0.1 15000 
Nov 27 16:19:01.287 HYPERVISOR: exec_cmd: vm slot_add_nio_binding SW2 1 0 udp-62bc7185-2752-4ba1-825a-83c2308c02c7 
Nov 27 16:19:01.288 HYPERVISOR: exec_cmd: vm get_status SW2 
Nov 27 16:19:01.339 HYPERVISOR: exec_cmd: nio create_udp udp-61c3f585-0f2b-49a9-9220-c6882f6e1d9b 15005 127.0.0.1 15006 
Nov 27 16:19:01.340 HYPERVISOR: exec_cmd: vm slot_add_nio_binding SW2 1 2 udp-61c3f585-0f2b-49a9-9220-c6882f6e1d9b 
Nov 27 16:19:01.340 HYPERVISOR: exec_cmd: vm get_status SW2 
Nov 27 16:19:01.350 HYPERVISOR: exec_cmd: nio create_udp udp-3b3eeeb7-ce36-4055-8d6c-2d6eb913e955 15001 127.0.0.1 15007 
Nov 27 16:19:01.351 HYPERVISOR: exec_cmd: vm slot_add_nio_binding SW2 1 3 udp-3b3eeeb7-ce36-4055-8d6c-2d6eb913e955 
Nov 27 16:19:01.352 HYPERVISOR: exec_cmd: vm get_status SW2 
Nov 27 16:19:01.433 HYPERVISOR: exec_cmd: nio create_udp udp-2a87bd5a-4d1b-47f0-8ede-92230e626d87 15014 127.0.0.1 15012 
Nov 27 16:19:01.433 HYPERVISOR: exec_cmd: vm slot_add_nio_binding SW2 1 1 udp-2a87bd5a-4d1b-47f0-8ede-92230e626d87 
Nov 27 16:19:01.434 HYPERVISOR: exec_cmd: vm get_status SW2 
Nov 27 16:19:18.993 HYPERVISOR: exec_cmd: vm get_status SW2 
Nov 27 16:19:18.995 HYPERVISOR: exec_cmd: vm extract_config SW2 
Nov 27 16:19:18.999 HYPERVISOR: exec_cmd: vm delete SW2 
Nov 27 16:19:18.999 VM: VM SW2 destroyed.
Nov 27 16:19:19.000 HYPERVISOR: exec_cmd: hypervisor stop 
Nov 27 16:19:19.085 HYPERVISOR: Stopped.
Nov 27 16:19:19.085 GENERAL: reset done.
