Nov 27 16:11:36.009 HYPERVISOR: Release 0.2.17-amd64/Linux (tag 2017072410)
Nov 27 16:11:36.009 HYPERVISOR: Started on IP = 127.0.0.1, TCP port = 50895.
Nov 27 16:11:36.027 HYPERVISOR: exec_cmd: hypervisor version 
Nov 27 16:11:36.027 HYPERVISOR: exec_cmd: hypervisor working_dir /media/actionmystique/SAMSUNG5-VMs/Labs/GNS3/git-Public-Labs-Collection/CCNP/TBSHOOT/L2-Technologies/SPAN-RSPAN/Jean-Christophe_Manciot/1+/TT 1-linux/project-files/dynamips 
Nov 27 16:11:36.027 GENERAL: working_dir=/media/actionmystique/SAMSUNG5-VMs/Labs/GNS3/git-Public-Labs-Collection/CCNP/TBSHOOT/L2-Technologies/SPAN-RSPAN/Jean-Christophe_Manciot/1+/TT 1-linux/project-files/dynamips
Nov 27 16:11:36.028 HYPERVISOR: exec_cmd: vm create ESW2 2 c3725 
Nov 27 16:11:36.028 VM: VM ESW2 created.
Nov 27 16:11:36.029 HYPERVISOR: exec_cmd: vm set_con_tcp_port ESW2 2002 
Nov 27 16:11:36.029 HYPERVISOR: exec_cmd: c3725 get_mac_addr ESW2 
Nov 27 16:11:36.030 HYPERVISOR: exec_cmd: vm set_nvram ESW2 256 
Nov 27 16:11:36.031 HYPERVISOR: exec_cmd: vm get_status ESW2 
Nov 27 16:11:36.031 HYPERVISOR: exec_cmd: vm set_idle_pc ESW2 0x614ac27c 
Nov 27 16:11:36.032 HYPERVISOR: exec_cmd: c3725 set_mac_addr ESW2 c202.3b70.0000 
Nov 27 16:11:36.033 HYPERVISOR: exec_cmd: vm get_status ESW2 
Nov 27 16:11:36.033 HYPERVISOR: exec_cmd: vm slot_add_binding ESW2 1 0 NM-16ESW 
Nov 27 16:11:36.034 HYPERVISOR: exec_cmd: vm set_ios ESW2 /media/actionmystique/SAMSUNG5-VMs/Images/GNS3/IOS/c3725-adventerprisek9-mz.124-15.T10.image 
Nov 27 16:11:36.035 HYPERVISOR: exec_cmd: vm slot_add_binding ESW2 0 16 WIC-2T 
Nov 27 16:11:36.036 HYPERVISOR: exec_cmd: vm set_disk0 ESW2 1 
Nov 27 16:11:36.037 HYPERVISOR: exec_cmd: vm set_config ESW2 configs/i2_startup-config.cfg 
Nov 27 16:11:36.038 HYPERVISOR: exec_cmd: vm set_config ESW2 configs/i2_startup-config.cfg configs/i2_private-config.cfg 
Nov 27 16:11:36.189 HYPERVISOR: exec_cmd: nio create_udp udp-ecad3c90-75d9-4e89-ac07-a6610386fe3e 15000 127.0.0.1 15001 
Nov 27 16:11:36.197 HYPERVISOR: exec_cmd: vm slot_add_nio_binding ESW2 1 1 udp-ecad3c90-75d9-4e89-ac07-a6610386fe3e 
Nov 27 16:11:36.198 HYPERVISOR: exec_cmd: vm get_status ESW2 
Nov 27 16:11:36.228 HYPERVISOR: exec_cmd: nio create_udp udp-cd0e0d70-3537-4f04-b22e-ca401f7eab5a 15003 127.0.0.1 15004 
Nov 27 16:11:36.228 HYPERVISOR: exec_cmd: vm slot_add_nio_binding ESW2 1 0 udp-cd0e0d70-3537-4f04-b22e-ca401f7eab5a 
Nov 27 16:11:36.229 HYPERVISOR: exec_cmd: vm get_status ESW2 
Nov 27 16:11:36.241 HYPERVISOR: exec_cmd: nio create_udp udp-9ea6ef3b-22ce-47e1-a5bf-c780f27eea58 15005 127.0.0.1 15002 
Nov 27 16:11:36.241 HYPERVISOR: exec_cmd: vm slot_add_nio_binding ESW2 1 2 udp-9ea6ef3b-22ce-47e1-a5bf-c780f27eea58 
Nov 27 16:11:36.241 HYPERVISOR: exec_cmd: vm get_status ESW2 
