Nov 27 16:09:24.952 HYPERVISOR: Release 0.2.17-amd64/Linux (tag 2017072410)
Nov 27 16:09:24.952 HYPERVISOR: Started on IP = 127.0.0.1, TCP port = 53137.
Nov 27 16:09:24.961 HYPERVISOR: exec_cmd: hypervisor version 
Nov 27 16:09:24.962 HYPERVISOR: exec_cmd: hypervisor working_dir /media/actionmystique/SAMSUNG5-VMs/Labs/GNS3/git-Public-Labs-Collection/CCNP/TBSHOOT/L2-Technologies/SPAN-RSPAN/Jean-Christophe_Manciot/1+/TT 1-linux/project-files/dynamips 
Nov 27 16:09:24.962 GENERAL: working_dir=/media/actionmystique/SAMSUNG5-VMs/Labs/GNS3/git-Public-Labs-Collection/CCNP/TBSHOOT/L2-Technologies/SPAN-RSPAN/Jean-Christophe_Manciot/1+/TT 1-linux/project-files/dynamips
Nov 27 16:09:24.963 HYPERVISOR: exec_cmd: vm create ESW2 2 c3725 
Nov 27 16:09:24.963 VM: VM ESW2 created.
Nov 27 16:09:24.963 HYPERVISOR: exec_cmd: vm set_con_tcp_port ESW2 2002 
Nov 27 16:09:24.964 HYPERVISOR: exec_cmd: c3725 get_mac_addr ESW2 
Nov 27 16:09:24.965 HYPERVISOR: exec_cmd: c3725 set_mac_addr ESW2 c202.3b70.0000 
Nov 27 16:09:24.965 HYPERVISOR: exec_cmd: vm get_status ESW2 
Nov 27 16:09:24.966 HYPERVISOR: exec_cmd: vm slot_add_binding ESW2 1 0 NM-16ESW 
Nov 27 16:09:24.967 HYPERVISOR: exec_cmd: vm get_status ESW2 
Nov 27 16:09:24.967 HYPERVISOR: exec_cmd: vm set_idle_pc ESW2 0x614ac27c 
Nov 27 16:09:24.968 HYPERVISOR: exec_cmd: vm slot_add_binding ESW2 0 16 WIC-2T 
Nov 27 16:09:24.969 HYPERVISOR: exec_cmd: vm set_ios ESW2 /media/actionmystique/SAMSUNG5-VMs/Images/GNS3/IOS/c3725-adventerprisek9-mz.124-15.T10.image 
Nov 27 16:09:24.969 HYPERVISOR: exec_cmd: vm set_disk0 ESW2 1 
Nov 27 16:09:24.970 HYPERVISOR: exec_cmd: vm set_nvram ESW2 256 
Nov 27 16:09:24.971 HYPERVISOR: exec_cmd: vm set_config ESW2 configs/i2_startup-config.cfg 
Nov 27 16:09:24.973 HYPERVISOR: exec_cmd: vm set_config ESW2 configs/i2_startup-config.cfg configs/i2_private-config.cfg 
Nov 27 16:09:25.122 HYPERVISOR: exec_cmd: nio create_udp udp-75c28247-c572-424c-8d18-caeabd91849a 15001 127.0.0.1 15003 
Nov 27 16:09:25.126 HYPERVISOR: exec_cmd: vm slot_add_nio_binding ESW2 1 1 udp-75c28247-c572-424c-8d18-caeabd91849a 
Nov 27 16:09:25.126 HYPERVISOR: exec_cmd: vm get_status ESW2 
Nov 27 16:09:25.144 HYPERVISOR: exec_cmd: nio create_udp udp-6989d55b-e55f-4cd8-8dd5-b3afdbdd90cd 15000 127.0.0.1 15004 
Nov 27 16:09:25.145 HYPERVISOR: exec_cmd: vm slot_add_nio_binding ESW2 1 2 udp-6989d55b-e55f-4cd8-8dd5-b3afdbdd90cd 
Nov 27 16:09:25.145 HYPERVISOR: exec_cmd: vm get_status ESW2 
Nov 27 16:09:25.165 HYPERVISOR: exec_cmd: nio create_udp udp-b6a4e01a-66bc-4d1c-829c-276725f17708 15006 127.0.0.1 15002 
Nov 27 16:09:25.165 HYPERVISOR: exec_cmd: vm slot_add_nio_binding ESW2 1 0 udp-b6a4e01a-66bc-4d1c-829c-276725f17708 
Nov 27 16:09:25.166 HYPERVISOR: exec_cmd: vm get_status ESW2 
Nov 27 16:11:13.784 HYPERVISOR: exec_cmd: vm get_status ESW2 
Nov 27 16:11:13.786 HYPERVISOR: exec_cmd: vm extract_config ESW2 
Nov 27 16:11:13.788 HYPERVISOR: exec_cmd: vm delete ESW2 
Nov 27 16:11:13.788 VM: VM ESW2 destroyed.
Nov 27 16:11:13.789 HYPERVISOR: exec_cmd: hypervisor stop 
Nov 27 16:11:14.074 HYPERVISOR: Stopped.
Nov 27 16:11:14.074 GENERAL: reset done.
