Nov 26 20:49:03.734 HYPERVISOR: Release 0.2.17-amd64/Linux (tag 2017072410)
Nov 26 20:49:03.734 HYPERVISOR: Started on IP = 127.0.0.1, TCP port = 44687.
Nov 26 20:49:03.760 HYPERVISOR: exec_cmd: hypervisor version 
Nov 26 20:49:03.761 HYPERVISOR: exec_cmd: hypervisor working_dir /media/actionmystique/SAMSUNG5-VMs/Labs/GNS3/Virtual Links/project-files/dynamips 
Nov 26 20:49:03.761 GENERAL: working_dir=/media/actionmystique/SAMSUNG5-VMs/Labs/GNS3/Virtual Links/project-files/dynamips
Nov 26 20:49:03.763 HYPERVISOR: exec_cmd: vm create ABR9 10 c7200 
Nov 26 20:49:03.763 VM: VM ABR9 created.
Nov 26 20:49:03.764 HYPERVISOR: exec_cmd: vm set_con_tcp_port ABR9 2012 
Nov 26 20:49:03.766 HYPERVISOR: exec_cmd: vm set_aux_tcp_port ABR9 2512 
Nov 26 20:49:03.768 HYPERVISOR: exec_cmd: c7200 get_mac_addr ABR9 
Nov 26 20:49:03.769 HYPERVISOR: exec_cmd: vm get_status ABR9 
Nov 26 20:49:03.771 HYPERVISOR: exec_cmd: vm slot_add_binding ABR9 0 0 C7200-IO-FE 
Nov 26 20:49:03.773 HYPERVISOR: exec_cmd: vm get_status ABR9 
Nov 26 20:49:03.775 HYPERVISOR: exec_cmd: vm slot_remove_binding ABR9 0 0 
Nov 26 20:49:03.780 HYPERVISOR: exec_cmd: vm get_status ABR9 
Nov 26 20:49:03.793 HYPERVISOR: exec_cmd: vm slot_add_binding ABR9 0 0 C7200-IO-GE-E 
Nov 26 20:49:03.795 HYPERVISOR: exec_cmd: vm set_ram ABR9 512 
Nov 26 20:49:03.800 HYPERVISOR: exec_cmd: vm get_status ABR9 
Nov 26 20:49:03.811 HYPERVISOR: exec_cmd: vm set_idle_pc ABR9 0x62a29de4 
Nov 26 20:49:03.818 HYPERVISOR: exec_cmd: vm get_status ABR9 
Nov 26 20:49:03.829 HYPERVISOR: exec_cmd: vm slot_add_binding ABR9 1 0 PA-2FE-TX 
Nov 26 20:49:03.832 HYPERVISOR: exec_cmd: vm get_status ABR9 
Nov 26 20:49:03.834 HYPERVISOR: exec_cmd: vm slot_add_binding ABR9 3 0 PA-2FE-TX 
Nov 26 20:49:03.835 HYPERVISOR: exec_cmd: vm get_status ABR9 
Nov 26 20:49:03.837 HYPERVISOR: exec_cmd: vm slot_add_binding ABR9 2 0 PA-2FE-TX 
Nov 26 20:49:03.839 HYPERVISOR: exec_cmd: vm set_ios ABR9 /media/actionmystique/SAMSUNG5-VMs/Images/GNS3/IOS/c7200-adventerprisek9-mz.152-4.M2.image 
Nov 26 20:49:03.841 HYPERVISOR: exec_cmd: vm get_status ABR9 
Nov 26 20:49:03.842 HYPERVISOR: exec_cmd: vm slot_add_binding ABR9 4 0 PA-2FE-TX 
Nov 26 20:49:03.844 HYPERVISOR: exec_cmd: vm set_config ABR9 configs/i10_startup-config.cfg 
Nov 26 20:49:04.795 HYPERVISOR: exec_cmd: vm extract_config ABR9 
Nov 26 20:49:05.171 HYPERVISOR: exec_cmd: nio create_udp udp-1d8829c1-25a8-4791-bb70-e927588af69b 15030 127.0.0.1 15029 
Nov 26 20:49:05.172 HYPERVISOR: exec_cmd: vm slot_add_nio_binding ABR9 1 0 udp-1d8829c1-25a8-4791-bb70-e927588af69b 
Nov 26 20:49:05.173 HYPERVISOR: exec_cmd: vm get_status ABR9 
Nov 26 20:49:05.389 HYPERVISOR: exec_cmd: nio create_udp udp-358a8837-eea0-405a-ae5d-b9bf80c9aed5 15048 127.0.0.1 15051 
Nov 26 20:49:05.390 HYPERVISOR: exec_cmd: vm slot_add_nio_binding ABR9 0 0 udp-358a8837-eea0-405a-ae5d-b9bf80c9aed5 
Nov 26 20:49:05.390 HYPERVISOR: exec_cmd: vm get_status ABR9 
Nov 26 20:50:03.767 HYPERVISOR: exec_cmd: vm get_status ABR9 
Nov 26 20:50:03.774 HYPERVISOR: exec_cmd: vm extract_config ABR9 
Nov 26 20:50:03.779 HYPERVISOR: exec_cmd: vm delete ABR9 
Nov 26 20:50:03.779 VM: VM ABR9 destroyed.
Nov 26 20:50:03.785 HYPERVISOR: exec_cmd: hypervisor stop 
Nov 26 20:50:03.816 HYPERVISOR: Stopped.
Nov 26 20:50:03.816 GENERAL: reset done.
