Nov 26 20:49:03.696 HYPERVISOR: Release 0.2.17-amd64/Linux (tag 2017072410)
Nov 26 20:49:03.696 HYPERVISOR: Started on IP = 127.0.0.1, TCP port = 55513.
Nov 26 20:49:03.739 HYPERVISOR: exec_cmd: hypervisor version 
Nov 26 20:49:03.749 HYPERVISOR: exec_cmd: hypervisor working_dir /media/actionmystique/SAMSUNG5-VMs/Labs/GNS3/Virtual Links/project-files/dynamips 
Nov 26 20:49:03.749 GENERAL: working_dir=/media/actionmystique/SAMSUNG5-VMs/Labs/GNS3/Virtual Links/project-files/dynamips
Nov 26 20:49:03.752 HYPERVISOR: exec_cmd: vm create BR8 8 c7200 
Nov 26 20:49:03.752 VM: VM BR8 created.
Nov 26 20:49:03.754 HYPERVISOR: exec_cmd: vm set_con_tcp_port BR8 2011 
Nov 26 20:49:03.756 HYPERVISOR: exec_cmd: vm set_aux_tcp_port BR8 2511 
Nov 26 20:49:03.758 HYPERVISOR: exec_cmd: c7200 get_mac_addr BR8 
Nov 26 20:49:03.759 HYPERVISOR: exec_cmd: vm get_status BR8 
Nov 26 20:49:03.760 HYPERVISOR: exec_cmd: vm slot_add_binding BR8 0 0 C7200-IO-FE 
Nov 26 20:49:03.761 HYPERVISOR: exec_cmd: vm get_status BR8 
Nov 26 20:49:03.763 HYPERVISOR: exec_cmd: vm slot_remove_binding BR8 0 0 
Nov 26 20:49:03.765 HYPERVISOR: exec_cmd: vm get_status BR8 
Nov 26 20:49:03.767 HYPERVISOR: exec_cmd: vm slot_add_binding BR8 0 0 C7200-IO-GE-E 
Nov 26 20:49:03.768 HYPERVISOR: exec_cmd: vm get_status BR8 
Nov 26 20:49:03.770 HYPERVISOR: exec_cmd: vm slot_add_binding BR8 2 0 PA-2FE-TX 
Nov 26 20:49:03.772 HYPERVISOR: exec_cmd: vm set_ram BR8 512 
Nov 26 20:49:03.774 HYPERVISOR: exec_cmd: vm get_status BR8 
Nov 26 20:49:03.779 HYPERVISOR: exec_cmd: vm set_idle_pc BR8 0x62a29de4 
Nov 26 20:49:03.790 HYPERVISOR: exec_cmd: vm get_status BR8 
Nov 26 20:49:03.794 HYPERVISOR: exec_cmd: vm slot_add_binding BR8 1 0 PA-2FE-TX 
Nov 26 20:49:03.795 HYPERVISOR: exec_cmd: vm set_ios BR8 /media/actionmystique/SAMSUNG5-VMs/Images/GNS3/IOS/c7200-adventerprisek9-mz.152-4.M2.image 
Nov 26 20:49:03.801 HYPERVISOR: exec_cmd: vm set_config BR8 configs/i8_startup-config.cfg 
Nov 26 20:49:04.798 HYPERVISOR: exec_cmd: vm extract_config BR8 
Nov 26 20:49:05.109 HYPERVISOR: exec_cmd: nio create_udp udp-e82a2060-516a-4897-86f1-54e9fc25df4f 15023 127.0.0.1 15021 
Nov 26 20:49:05.113 HYPERVISOR: exec_cmd: vm slot_add_nio_binding BR8 1 0 udp-e82a2060-516a-4897-86f1-54e9fc25df4f 
Nov 26 20:49:05.113 HYPERVISOR: exec_cmd: vm get_status BR8 
Nov 26 20:49:05.124 HYPERVISOR: exec_cmd: nio create_udp udp-d647399e-94b8-4c05-b811-687788b65556 15025 127.0.0.1 15026 
Nov 26 20:49:05.124 HYPERVISOR: exec_cmd: vm slot_add_nio_binding BR8 1 1 udp-d647399e-94b8-4c05-b811-687788b65556 
Nov 26 20:49:05.125 HYPERVISOR: exec_cmd: vm get_status BR8 
Nov 26 20:49:05.160 HYPERVISOR: exec_cmd: nio create_udp udp-17079227-6bee-4a9b-a810-7ca6ea249507 15027 127.0.0.1 15024 
Nov 26 20:49:05.161 HYPERVISOR: exec_cmd: vm slot_add_nio_binding BR8 0 0 udp-17079227-6bee-4a9b-a810-7ca6ea249507 
Nov 26 20:49:05.161 HYPERVISOR: exec_cmd: vm get_status BR8 
Nov 26 20:49:05.167 HYPERVISOR: exec_cmd: nio create_udp udp-322fb9f0-d938-49d9-897e-a216faea5dde 15028 127.0.0.1 15031 
Nov 26 20:49:05.171 HYPERVISOR: exec_cmd: vm slot_add_nio_binding BR8 2 0 udp-322fb9f0-d938-49d9-897e-a216faea5dde 
Nov 26 20:49:05.172 HYPERVISOR: exec_cmd: vm get_status BR8 
Nov 26 20:49:05.237 HYPERVISOR: exec_cmd: nio create_udp udp-d9c63dcb-afc0-44da-ace7-63b5a9a7c488 15035 127.0.0.1 15036 
Nov 26 20:49:05.240 HYPERVISOR: exec_cmd: vm slot_add_nio_binding BR8 2 1 udp-d9c63dcb-afc0-44da-ace7-63b5a9a7c488 
Nov 26 20:49:05.240 HYPERVISOR: exec_cmd: vm get_status BR8 
Nov 26 20:50:03.766 HYPERVISOR: exec_cmd: vm get_status BR8 
Nov 26 20:50:03.774 HYPERVISOR: exec_cmd: vm extract_config BR8 
Nov 26 20:50:03.779 HYPERVISOR: exec_cmd: vm delete BR8 
Nov 26 20:50:03.779 VM: VM BR8 destroyed.
Nov 26 20:50:03.784 HYPERVISOR: exec_cmd: hypervisor stop 
Nov 26 20:50:04.278 HYPERVISOR: Stopped.
Nov 26 20:50:04.278 GENERAL: reset done.
