Nov 26 20:21:25.338 HYPERVISOR: Release 0.2.17-amd64/Linux (tag 2017072410)
Nov 26 20:21:25.338 HYPERVISOR: Started on IP = 127.0.0.1, TCP port = 43473.
Nov 26 20:21:25.356 HYPERVISOR: exec_cmd: hypervisor version 
Nov 26 20:21:25.357 HYPERVISOR: exec_cmd: hypervisor working_dir /media/actionmystique/SAMSUNG5-VMs/Labs/GNS3/git-Public-Labs-Collection/CCNP/ROUTE/EIGRP/Jean-Christophe_Manciot/1+/K2 Load Metric Weight with IOSv-linux/project-files/dynamips 
Nov 26 20:21:25.357 GENERAL: working_dir=/media/actionmystique/SAMSUNG5-VMs/Labs/GNS3/git-Public-Labs-Collection/CCNP/ROUTE/EIGRP/Jean-Christophe_Manciot/1+/K2 Load Metric Weight with IOSv-linux/project-files/dynamips
Nov 26 20:21:25.357 HYPERVISOR: exec_cmd: vm create SW0_Management 1 c3725 
Nov 26 20:21:25.357 VM: VM SW0_Management created.
Nov 26 20:21:25.358 HYPERVISOR: exec_cmd: vm set_con_tcp_port SW0_Management 2101 
Nov 26 20:21:25.359 HYPERVISOR: exec_cmd: vm set_aux_tcp_port SW0_Management 2501 
Nov 26 20:21:25.359 HYPERVISOR: exec_cmd: c3725 get_mac_addr SW0_Management 
Nov 26 20:21:25.360 HYPERVISOR: exec_cmd: vm set_ios SW0_Management /media/actionmystique/SAMSUNG5-VMs/Images/GNS3/IOS/c3725-adventerprisek9-mz.124-15.T10.image 
Nov 26 20:21:25.361 HYPERVISOR: exec_cmd: vm get_status SW0_Management 
Nov 26 20:21:25.361 HYPERVISOR: exec_cmd: vm slot_add_binding SW0_Management 1 0 NM-16ESW 
Nov 26 20:21:25.362 HYPERVISOR: exec_cmd: vm get_status SW0_Management 
Nov 26 20:21:25.363 HYPERVISOR: exec_cmd: vm set_idle_pc SW0_Management 0x60503d74 
Nov 26 20:21:25.363 HYPERVISOR: exec_cmd: c3725 set_mac_addr SW0_Management c201.2103.0000 
Nov 26 20:21:25.364 HYPERVISOR: exec_cmd: vm set_ram SW0_Management 256 
Nov 26 20:21:25.365 HYPERVISOR: exec_cmd: vm set_config SW0_Management configs/i1_startup-config.cfg 
Nov 26 20:21:25.535 HYPERVISOR: exec_cmd: nio create_udp udp-0a36c327-ec14-4c75-92a4-c49ad45cf702 15013 127.0.0.1 15014 
Nov 26 20:21:25.542 HYPERVISOR: exec_cmd: vm slot_add_nio_binding SW0_Management 1 0 udp-0a36c327-ec14-4c75-92a4-c49ad45cf702 
Nov 26 20:21:25.543 HYPERVISOR: exec_cmd: vm get_status SW0_Management 
Nov 26 20:21:25.548 HYPERVISOR: exec_cmd: nio create_udp udp-f3de6b82-4e29-47f2-b549-30b768fa24f8 15015 127.0.0.1 15012 
Nov 26 20:21:25.550 HYPERVISOR: exec_cmd: vm slot_add_nio_binding SW0_Management 1 1 udp-f3de6b82-4e29-47f2-b549-30b768fa24f8 
Nov 26 20:21:25.550 HYPERVISOR: exec_cmd: vm get_status SW0_Management 
Nov 26 20:21:46.619 HYPERVISOR: exec_cmd: vm get_status SW0_Management 
Nov 26 20:21:46.621 HYPERVISOR: exec_cmd: vm extract_config SW0_Management 
Nov 26 20:21:46.629 HYPERVISOR: exec_cmd: vm delete SW0_Management 
Nov 26 20:21:46.629 VM: VM SW0_Management destroyed.
Nov 26 20:21:46.630 HYPERVISOR: exec_cmd: hypervisor stop 
Nov 26 20:21:46.875 HYPERVISOR: Stopped.
Nov 26 20:21:46.875 GENERAL: reset done.
