Nov 26 21:55:43.190 HYPERVISOR: Release 0.2.17-amd64/Linux (tag 2017072410)
Nov 26 21:55:43.190 HYPERVISOR: Started on IP = 127.0.0.1, TCP port = 60997.
Nov 26 21:55:43.220 HYPERVISOR: exec_cmd: hypervisor version 
Nov 26 21:55:43.222 HYPERVISOR: exec_cmd: hypervisor working_dir /media/actionmystique/SAMSUNG5-VMs/Labs/GNS3/v1-linux-/project-files/dynamips 
Nov 26 21:55:43.222 GENERAL: working_dir=/media/actionmystique/SAMSUNG5-VMs/Labs/GNS3/v1-linux-/project-files/dynamips
Nov 26 21:55:43.224 HYPERVISOR: exec_cmd: frsw create FR 
Nov 26 21:55:44.116 HYPERVISOR: exec_cmd: nio create_udp udp-2b1d5b10-0a4f-4102-b00a-23165d243e09 15017 127.0.0.1 15018 
Nov 26 21:55:44.157 HYPERVISOR: exec_cmd: nio create_udp udp-5a782e57-e167-40f4-bb95-033080a70bec 15021 127.0.0.1 15020 
Nov 26 21:55:44.157 HYPERVISOR: exec_cmd: frsw create_vc FR udp-5a782e57-e167-40f4-bb95-033080a70bec 201 udp-2b1d5b10-0a4f-4102-b00a-23165d243e09 102 
Nov 26 21:55:44.173 HYPERVISOR: exec_cmd: frsw create_vc FR udp-2b1d5b10-0a4f-4102-b00a-23165d243e09 102 udp-5a782e57-e167-40f4-bb95-033080a70bec 201 
Nov 26 21:55:44.197 HYPERVISOR: exec_cmd: nio create_udp udp-7f968eb2-7c62-4575-b198-b3bfa6f32f45 15022 127.0.0.1 15023 
Nov 26 21:55:44.198 HYPERVISOR: exec_cmd: frsw create_vc FR udp-7f968eb2-7c62-4575-b198-b3bfa6f32f45 302 udp-5a782e57-e167-40f4-bb95-033080a70bec 203 
Nov 26 21:55:44.213 HYPERVISOR: exec_cmd: frsw create_vc FR udp-5a782e57-e167-40f4-bb95-033080a70bec 203 udp-7f968eb2-7c62-4575-b198-b3bfa6f32f45 302 
Nov 26 21:55:44.340 HYPERVISOR: exec_cmd: nio create_udp udp-716a0bfa-2339-4a30-80b0-69e7e0fe118c 15040 127.0.0.1 15038 
Nov 26 21:55:44.341 HYPERVISOR: exec_cmd: frsw create_vc FR udp-716a0bfa-2339-4a30-80b0-69e7e0fe118c 403 udp-7f968eb2-7c62-4575-b198-b3bfa6f32f45 304 
Nov 26 21:55:44.354 HYPERVISOR: exec_cmd: frsw create_vc FR udp-7f968eb2-7c62-4575-b198-b3bfa6f32f45 304 udp-716a0bfa-2339-4a30-80b0-69e7e0fe118c 403 
Nov 26 21:55:44.422 HYPERVISOR: exec_cmd: nio create_udp udp-b94f724c-68ec-4eba-89b4-b6537b17ff0a 15048 127.0.0.1 15046 
Nov 26 21:55:44.424 HYPERVISOR: exec_cmd: frsw create_vc FR udp-b94f724c-68ec-4eba-89b4-b6537b17ff0a 502 udp-5a782e57-e167-40f4-bb95-033080a70bec 205 
Nov 26 21:55:44.435 HYPERVISOR: exec_cmd: frsw create_vc FR udp-5a782e57-e167-40f4-bb95-033080a70bec 205 udp-b94f724c-68ec-4eba-89b4-b6537b17ff0a 502 
Nov 26 21:56:00.795 HYPERVISOR: exec_cmd: frsw delete FR 
Nov 26 21:56:00.945 HYPERVISOR: exec_cmd: hypervisor stop 
Nov 26 21:56:01.235 HYPERVISOR: Stopped.
Nov 26 21:56:01.235 GENERAL: reset done.
