Nov 26 21:54:03.006 HYPERVISOR: Release 0.2.17-amd64/Linux (tag 2017072410)
Nov 26 21:54:03.006 HYPERVISOR: Started on IP = 127.0.0.1, TCP port = 53865.
Nov 26 21:54:03.037 HYPERVISOR: exec_cmd: hypervisor version 
Nov 26 21:54:03.037 HYPERVISOR: exec_cmd: hypervisor working_dir /media/actionmystique/SAMSUNG5-VMs/Labs/GNS3/git-Public-Labs-Collection/CCNP/TBSHOOT/Exam-Topology/Jean-Christophe_Manciot/1+/v1-linux/project-files/dynamips 
Nov 26 21:54:03.037 GENERAL: working_dir=/media/actionmystique/SAMSUNG5-VMs/Labs/GNS3/git-Public-Labs-Collection/CCNP/TBSHOOT/Exam-Topology/Jean-Christophe_Manciot/1+/v1-linux/project-files/dynamips
Nov 26 21:54:03.038 HYPERVISOR: exec_cmd: vm create R5 9 c7200 
Nov 26 21:54:03.038 VM: VM R5 created.
Nov 26 21:54:03.038 HYPERVISOR: exec_cmd: vm set_con_tcp_port R5 2015 
Nov 26 21:54:03.038 HYPERVISOR: exec_cmd: c7200 get_mac_addr R5 
Nov 26 21:54:03.039 HYPERVISOR: exec_cmd: vm get_status R5 
Nov 26 21:54:03.039 HYPERVISOR: exec_cmd: vm slot_add_binding R5 0 0 C7200-IO-FE 
Nov 26 21:54:03.039 HYPERVISOR: exec_cmd: vm get_status R5 
Nov 26 21:54:03.040 HYPERVISOR: exec_cmd: vm slot_add_binding R5 2 0 PA-GE 
Nov 26 21:54:03.040 HYPERVISOR: exec_cmd: vm get_status R5 
Nov 26 21:54:03.040 HYPERVISOR: exec_cmd: vm set_idle_pc R5 0x6062f0e0 
Nov 26 21:54:03.041 HYPERVISOR: exec_cmd: vm get_status R5 
Nov 26 21:54:03.049 HYPERVISOR: exec_cmd: vm slot_add_binding R5 1 0 PA-GE 
Nov 26 21:54:03.050 HYPERVISOR: exec_cmd: vm set_nvram R5 256 
Nov 26 21:54:03.051 HYPERVISOR: exec_cmd: vm get_status R5 
Nov 26 21:54:03.051 HYPERVISOR: exec_cmd: vm slot_add_binding R5 3 0 PA-GE 
Nov 26 21:54:03.052 HYPERVISOR: exec_cmd: vm get_status R5 
Nov 26 21:54:03.052 HYPERVISOR: exec_cmd: vm slot_remove_binding R5 0 0 
Nov 26 21:54:03.052 HYPERVISOR: exec_cmd: vm get_status R5 
Nov 26 21:54:03.053 HYPERVISOR: exec_cmd: vm slot_add_binding R5 0 0 C7200-IO-GE-E 
Nov 26 21:54:03.053 HYPERVISOR: exec_cmd: vm set_disk0 R5 1 
Nov 26 21:54:03.054 HYPERVISOR: exec_cmd: vm get_status R5 
Nov 26 21:54:03.054 HYPERVISOR: exec_cmd: vm slot_add_binding R5 4 0 PA-4T+ 
Nov 26 21:54:03.063 HYPERVISOR: exec_cmd: vm set_ram R5 512 
Nov 26 21:54:03.064 HYPERVISOR: exec_cmd: vm get_status R5 
Nov 26 21:54:03.065 HYPERVISOR: exec_cmd: vm slot_add_binding R5 6 0 PA-POS-OC3 
Nov 26 21:54:03.066 HYPERVISOR: exec_cmd: vm get_status R5 
Nov 26 21:54:03.067 HYPERVISOR: exec_cmd: vm slot_add_binding R5 5 0 PA-POS-OC3 
Nov 26 21:54:03.068 HYPERVISOR: exec_cmd: c7200 set_mac_addr R5 ca09.71f1.0000 
Nov 26 21:54:03.068 HYPERVISOR: exec_cmd: vm set_ios R5 /media/actionmystique/SAMSUNG5-VMs/Images/GNS3/IOS/c7200-adventerprisek9-mz.152-4.M2.image 
Nov 26 21:54:03.069 HYPERVISOR: exec_cmd: vm set_config R5 configs/i9_startup-config.cfg 
Nov 26 21:54:03.070 HYPERVISOR: exec_cmd: vm set_config R5 configs/i9_startup-config.cfg configs/i9_private-config.cfg 
Nov 26 21:54:04.120 HYPERVISOR: exec_cmd: nio create_udp udp-557ad482-ef70-4c74-b4fd-a28047cd322e 15045 127.0.0.1 15047 
Nov 26 21:54:04.121 HYPERVISOR: exec_cmd: vm slot_add_nio_binding R5 4 0 udp-557ad482-ef70-4c74-b4fd-a28047cd322e 
Nov 26 21:54:04.122 HYPERVISOR: exec_cmd: vm get_status R5 
Nov 26 21:54:04.175 HYPERVISOR: exec_cmd: nio create_udp udp-dc55c70e-5f84-41f2-9462-0247dfe2f0d7 15048 127.0.0.1 15049 
Nov 26 21:54:04.176 HYPERVISOR: exec_cmd: vm slot_add_nio_binding R5 1 0 udp-dc55c70e-5f84-41f2-9462-0247dfe2f0d7 
Nov 26 21:54:04.177 HYPERVISOR: exec_cmd: vm get_status R5 
Nov 26 21:54:04.201 HYPERVISOR: exec_cmd: nio create_udp udp-3afddf37-f5bc-4ec2-807a-cbd82e4c4ae5 15050 127.0.0.1 15051 
Nov 26 21:54:04.201 HYPERVISOR: exec_cmd: vm slot_add_nio_binding R5 3 0 udp-3afddf37-f5bc-4ec2-807a-cbd82e4c4ae5 
Nov 26 21:54:04.202 HYPERVISOR: exec_cmd: vm get_status R5 
Nov 26 21:54:04.232 HYPERVISOR: exec_cmd: nio create_udp udp-88421b10-3081-45ae-8b5a-dc107bb731e2 15053 127.0.0.1 15052 
Nov 26 21:54:04.233 HYPERVISOR: exec_cmd: vm slot_add_nio_binding R5 2 0 udp-88421b10-3081-45ae-8b5a-dc107bb731e2 
Nov 26 21:54:04.233 HYPERVISOR: exec_cmd: vm get_status R5 
Nov 26 21:55:05.565 HYPERVISOR: exec_cmd: vm extract_config R5 
