Nov 26 21:57:05.364 HYPERVISOR: Release 0.2.17-amd64/Linux (tag 2017072410)
Nov 26 21:57:05.364 HYPERVISOR: Started on IP = 127.0.0.1, TCP port = 38985.
Nov 26 21:57:05.383 HYPERVISOR: exec_cmd: hypervisor version 
Nov 26 21:57:05.385 HYPERVISOR: exec_cmd: hypervisor working_dir /media/actionmystique/SAMSUNG5-VMs/Labs/GNS3/v2-linux-/project-files/dynamips 
Nov 26 21:57:05.385 GENERAL: working_dir=/media/actionmystique/SAMSUNG5-VMs/Labs/GNS3/v2-linux-/project-files/dynamips
Nov 26 21:57:05.386 HYPERVISOR: exec_cmd: vm create R4 8 c7200 
Nov 26 21:57:05.386 VM: VM R4 created.
Nov 26 21:57:05.387 HYPERVISOR: exec_cmd: vm set_con_tcp_port R4 2003 
Nov 26 21:57:05.388 HYPERVISOR: exec_cmd: c7200 get_mac_addr R4 
Nov 26 21:57:05.390 HYPERVISOR: exec_cmd: vm get_status R4 
Nov 26 21:57:05.391 HYPERVISOR: exec_cmd: vm slot_add_binding R4 0 0 C7200-IO-FE 
Nov 26 21:57:05.392 HYPERVISOR: exec_cmd: vm get_status R4 
Nov 26 21:57:05.393 HYPERVISOR: exec_cmd: vm set_idle_pc R4 0x6062f0e0 
Nov 26 21:57:05.395 HYPERVISOR: exec_cmd: vm get_status R4 
Nov 26 21:57:05.396 HYPERVISOR: exec_cmd: vm slot_add_binding R4 1 0 PA-GE 
Nov 26 21:57:05.398 HYPERVISOR: exec_cmd: vm set_nvram R4 256 
Nov 26 21:57:05.399 HYPERVISOR: exec_cmd: vm get_status R4 
Nov 26 21:57:05.400 HYPERVISOR: exec_cmd: vm slot_add_binding R4 3 0 PA-GE 
Nov 26 21:57:05.402 HYPERVISOR: exec_cmd: vm get_status R4 
Nov 26 21:57:05.403 HYPERVISOR: exec_cmd: vm slot_remove_binding R4 0 0 
Nov 26 21:57:05.404 HYPERVISOR: exec_cmd: vm get_status R4 
Nov 26 21:57:05.405 HYPERVISOR: exec_cmd: vm slot_add_binding R4 0 0 C7200-IO-GE-E 
Nov 26 21:57:05.407 HYPERVISOR: exec_cmd: vm get_status R4 
Nov 26 21:57:05.408 HYPERVISOR: exec_cmd: vm slot_add_binding R4 4 0 PA-4T+ 
Nov 26 21:57:05.409 HYPERVISOR: exec_cmd: vm get_status R4 
Nov 26 21:57:05.410 HYPERVISOR: exec_cmd: vm slot_add_binding R4 2 0 PA-GE 
Nov 26 21:57:05.418 HYPERVISOR: exec_cmd: vm set_ram R4 512 
Nov 26 21:57:05.420 HYPERVISOR: exec_cmd: vm get_status R4 
Nov 26 21:57:05.421 HYPERVISOR: exec_cmd: vm slot_add_binding R4 6 0 PA-POS-OC3 
Nov 26 21:57:05.423 HYPERVISOR: exec_cmd: c7200 set_mac_addr R4 ca08.2e77.0000 
Nov 26 21:57:05.424 HYPERVISOR: exec_cmd: vm set_disk0 R4 1 
Nov 26 21:57:05.426 HYPERVISOR: exec_cmd: vm set_ios R4 /media/actionmystique/SAMSUNG5-VMs/Images/GNS3/IOS/c7200-adventerprisek9-mz.152-4.M2.image 
Nov 26 21:57:05.432 HYPERVISOR: exec_cmd: vm get_status R4 
Nov 26 21:57:05.450 HYPERVISOR: exec_cmd: vm slot_add_binding R4 5 0 PA-POS-OC3 
Nov 26 21:57:05.468 HYPERVISOR: exec_cmd: vm set_config R4 configs/i8_startup-config.cfg 
Nov 26 21:57:05.471 HYPERVISOR: exec_cmd: vm set_config R4 configs/i8_startup-config.cfg configs/i8_private-config.cfg 
Nov 26 21:57:06.441 HYPERVISOR: exec_cmd: nio create_udp udp-d1c2025f-d65d-4ddc-b600-67419fd01e6c 15032 127.0.0.1 15034 
Nov 26 21:57:06.442 HYPERVISOR: exec_cmd: vm slot_add_nio_binding R4 0 0 udp-d1c2025f-d65d-4ddc-b600-67419fd01e6c 
Nov 26 21:57:06.443 HYPERVISOR: exec_cmd: vm get_status R4 
Nov 26 21:57:06.469 HYPERVISOR: exec_cmd: nio create_udp udp-fe689263-9654-4638-a34e-58cb507accc0 15033 127.0.0.1 15035 
Nov 26 21:57:06.469 HYPERVISOR: exec_cmd: vm slot_add_nio_binding R4 1 0 udp-fe689263-9654-4638-a34e-58cb507accc0 
Nov 26 21:57:06.470 HYPERVISOR: exec_cmd: vm get_status R4 
Nov 26 21:57:06.489 HYPERVISOR: exec_cmd: nio create_udp udp-127c3255-830a-4986-a165-39c67c6610bc 15036 127.0.0.1 15037 
Nov 26 21:57:06.489 HYPERVISOR: exec_cmd: vm slot_add_nio_binding R4 4 0 udp-127c3255-830a-4986-a165-39c67c6610bc 
Nov 26 21:57:06.489 HYPERVISOR: exec_cmd: vm get_status R4 
Nov 26 21:57:33.014 HYPERVISOR: exec_cmd: vm get_status R4 
Nov 26 21:57:33.018 HYPERVISOR: exec_cmd: vm extract_config R4 
Nov 26 21:57:33.022 HYPERVISOR: exec_cmd: vm delete R4 
Nov 26 21:57:33.022 VM: VM R4 destroyed.
Nov 26 21:57:33.024 HYPERVISOR: exec_cmd: hypervisor stop 
Nov 26 21:57:33.409 HYPERVISOR: Stopped.
Nov 26 21:57:33.409 GENERAL: reset done.
