Nov 29 19:07:47.776 HYPERVISOR: Release 0.2.17-amd64/Linux (tag 2017072410)
Nov 29 19:07:47.776 HYPERVISOR: Started on IP = 127.0.0.1, TCP port = 43789.
Nov 29 19:07:47.784 HYPERVISOR: exec_cmd: hypervisor version 
Nov 29 19:07:47.785 HYPERVISOR: exec_cmd: hypervisor working_dir /media/actionmystique/SAMSUNG5-VMs/Labs/GNS3/git-Public-Labs-Collection/CCNP/TBSHOOT/L3-Technologies/IPv6/Routing-Protocols/EIGRPv6/Jean-Christophe_Manciot/1+/TT 1-solutions-linux/project-files/dynamips 
Nov 29 19:07:47.785 GENERAL: working_dir=/media/actionmystique/SAMSUNG5-VMs/Labs/GNS3/git-Public-Labs-Collection/CCNP/TBSHOOT/L3-Technologies/IPv6/Routing-Protocols/EIGRPv6/Jean-Christophe_Manciot/1+/TT 1-solutions-linux/project-files/dynamips
Nov 29 19:07:47.786 HYPERVISOR: exec_cmd: vm create ESW1 1 c3725 
Nov 29 19:07:47.786 VM: VM ESW1 created.
Nov 29 19:07:47.787 HYPERVISOR: exec_cmd: vm set_con_tcp_port ESW1 2004 
Nov 29 19:07:47.787 HYPERVISOR: exec_cmd: c3725 get_mac_addr ESW1 
Nov 29 19:07:47.787 HYPERVISOR: exec_cmd: vm set_disk0 ESW1 1 
Nov 29 19:07:47.788 HYPERVISOR: exec_cmd: vm get_status ESW1 
Nov 29 19:07:47.788 HYPERVISOR: exec_cmd: vm set_idle_pc ESW1 0x60c06d20 
Nov 29 19:07:47.789 HYPERVISOR: exec_cmd: c3725 set_mac_addr ESW1 c201.1b91.0000 
Nov 29 19:07:47.789 HYPERVISOR: exec_cmd: vm set_nvram ESW1 256 
Nov 29 19:07:47.789 HYPERVISOR: exec_cmd: vm get_status ESW1 
Nov 29 19:07:47.790 HYPERVISOR: exec_cmd: vm slot_add_binding ESW1 1 0 NM-16ESW 
Nov 29 19:07:47.790 HYPERVISOR: exec_cmd: vm set_ios ESW1 /media/actionmystique/SAMSUNG5-VMs/Images/GNS3/IOS/c3725-adventerprisek9-mz.124-15.T10.image 
Nov 29 19:07:47.790 HYPERVISOR: exec_cmd: vm slot_add_binding ESW1 0 16 WIC-2T 
Nov 29 19:07:47.791 HYPERVISOR: exec_cmd: vm set_config ESW1 configs/ios_base_startup-config.txt 
Nov 29 19:07:47.791 HYPERVISOR: exec_cmd: vm set_config ESW1 configs/ios_base_startup-config.txt configs/ios_base_private-config.txt 
Nov 29 19:07:48.074 HYPERVISOR: exec_cmd: nio create_udp udp-b6f62f68-6d0f-43ea-9b12-5343386b2a2d 15007 127.0.0.1 15008 
Nov 29 19:07:48.080 HYPERVISOR: exec_cmd: vm slot_add_nio_binding ESW1 1 0 udp-b6f62f68-6d0f-43ea-9b12-5343386b2a2d 
Nov 29 19:07:48.081 HYPERVISOR: exec_cmd: vm get_status ESW1 
Nov 29 19:07:48.086 HYPERVISOR: exec_cmd: nio create_udp udp-2ea85cbe-b57a-4459-893c-5c4d131bf26d 15010 127.0.0.1 15009 
Nov 29 19:07:48.092 HYPERVISOR: exec_cmd: vm slot_add_nio_binding ESW1 1 1 udp-2ea85cbe-b57a-4459-893c-5c4d131bf26d 
Nov 29 19:07:48.093 HYPERVISOR: exec_cmd: vm get_status ESW1 
