Nov 26 20:44:10.265 HYPERVISOR: Release 0.2.17-amd64/Linux (tag 2017072410)
Nov 26 20:44:10.265 HYPERVISOR: Started on IP = 127.0.0.1, TCP port = 56377.
Nov 26 20:44:10.314 HYPERVISOR: exec_cmd: hypervisor version 
Nov 26 20:44:10.321 HYPERVISOR: exec_cmd: hypervisor working_dir /media/actionmystique/SAMSUNG5-VMs/Labs/GNS3/Redistribution/project-files/dynamips 
Nov 26 20:44:10.321 GENERAL: working_dir=/media/actionmystique/SAMSUNG5-VMs/Labs/GNS3/Redistribution/project-files/dynamips
Nov 26 20:44:10.330 HYPERVISOR: exec_cmd: vm create RD5 9 c7200 
Nov 26 20:44:10.330 VM: VM RD5 created.
Nov 26 20:44:10.333 HYPERVISOR: exec_cmd: vm set_con_tcp_port RD5 2006 
Nov 26 20:44:10.335 HYPERVISOR: exec_cmd: vm set_aux_tcp_port RD5 2106 
Nov 26 20:44:10.336 HYPERVISOR: exec_cmd: c7200 get_mac_addr RD5 
Nov 26 20:44:10.337 HYPERVISOR: exec_cmd: vm get_status RD5 
Nov 26 20:44:10.339 HYPERVISOR: exec_cmd: vm slot_add_binding RD5 0 0 C7200-IO-FE 
Nov 26 20:44:10.340 HYPERVISOR: exec_cmd: vm get_status RD5 
Nov 26 20:44:10.341 HYPERVISOR: exec_cmd: vm slot_remove_binding RD5 0 0 
Nov 26 20:44:10.343 HYPERVISOR: exec_cmd: vm get_status RD5 
Nov 26 20:44:10.345 HYPERVISOR: exec_cmd: vm slot_add_binding RD5 0 0 C7200-IO-GE-E 
Nov 26 20:44:10.352 HYPERVISOR: exec_cmd: vm set_ram RD5 512 
Nov 26 20:44:10.364 HYPERVISOR: exec_cmd: vm get_status RD5 
Nov 26 20:44:10.365 HYPERVISOR: exec_cmd: vm set_idle_pc RD5 0x60188e14 
Nov 26 20:44:10.367 HYPERVISOR: exec_cmd: vm get_status RD5 
Nov 26 20:44:10.368 HYPERVISOR: exec_cmd: vm slot_add_binding RD5 1 0 PA-8T 
Nov 26 20:44:10.369 HYPERVISOR: exec_cmd: vm set_ios RD5 /media/actionmystique/SAMSUNG5-VMs/Images/GNS3/IOS/c7200-adventerprisek9-mz.152-4.M2.image 
Nov 26 20:44:10.373 HYPERVISOR: exec_cmd: vm set_config RD5 configs/i9_startup-config.cfg 
Nov 26 20:44:11.188 HYPERVISOR: exec_cmd: vm extract_config RD5 
Nov 26 20:44:11.444 HYPERVISOR: exec_cmd: nio create_udp udp-6e7d7a51-e48f-4b50-9fbc-3607cce8f3ec 15026 127.0.0.1 15027 
Nov 26 20:44:11.445 HYPERVISOR: exec_cmd: vm slot_add_nio_binding RD5 1 0 udp-6e7d7a51-e48f-4b50-9fbc-3607cce8f3ec 
Nov 26 20:44:11.445 HYPERVISOR: exec_cmd: vm get_status RD5 
Nov 26 20:44:11.460 HYPERVISOR: exec_cmd: nio create_udp udp-72b7b89e-e8d9-48e4-b993-6ce41e67e656 15029 127.0.0.1 15028 
Nov 26 20:44:11.461 HYPERVISOR: exec_cmd: vm slot_add_nio_binding RD5 1 1 udp-72b7b89e-e8d9-48e4-b993-6ce41e67e656 
Nov 26 20:44:11.464 HYPERVISOR: exec_cmd: vm get_status RD5 
Nov 26 20:44:11.484 HYPERVISOR: exec_cmd: nio create_udp udp-dbaf943b-0e76-4876-91aa-881d2022984a 15032 127.0.0.1 15030 
Nov 26 20:44:11.484 HYPERVISOR: exec_cmd: vm slot_add_nio_binding RD5 1 2 udp-dbaf943b-0e76-4876-91aa-881d2022984a 
Nov 26 20:44:11.485 HYPERVISOR: exec_cmd: vm get_status RD5 
Nov 26 20:44:47.083 HYPERVISOR: exec_cmd: vm extract_config RD5 
Nov 26 20:45:10.989 HYPERVISOR: exec_cmd: vm get_status RD5 
Nov 26 20:45:10.994 HYPERVISOR: exec_cmd: vm extract_config RD5 
Nov 26 20:45:10.998 HYPERVISOR: exec_cmd: vm delete RD5 
Nov 26 20:45:10.998 VM: VM RD5 destroyed.
Nov 26 20:45:11.001 HYPERVISOR: exec_cmd: hypervisor stop 
Nov 26 20:45:11.354 HYPERVISOR: Stopped.
Nov 26 20:45:11.355 GENERAL: reset done.
