Nov 26 20:44:10.236 HYPERVISOR: Release 0.2.17-amd64/Linux (tag 2017072410)
Nov 26 20:44:10.236 HYPERVISOR: Started on IP = 127.0.0.1, TCP port = 54637.
Nov 26 20:44:10.269 HYPERVISOR: exec_cmd: hypervisor version 
Nov 26 20:44:10.270 HYPERVISOR: exec_cmd: hypervisor working_dir /media/actionmystique/SAMSUNG5-VMs/Labs/GNS3/Redistribution/project-files/dynamips 
Nov 26 20:44:10.270 GENERAL: working_dir=/media/actionmystique/SAMSUNG5-VMs/Labs/GNS3/Redistribution/project-files/dynamips
Nov 26 20:44:10.272 HYPERVISOR: exec_cmd: vm create R6 8 c7200 
Nov 26 20:44:10.272 VM: VM R6 created.
Nov 26 20:44:10.278 HYPERVISOR: exec_cmd: vm set_con_tcp_port R6 2008 
Nov 26 20:44:10.289 HYPERVISOR: exec_cmd: vm set_aux_tcp_port R6 2108 
Nov 26 20:44:10.292 HYPERVISOR: exec_cmd: c7200 get_mac_addr R6 
Nov 26 20:44:10.294 HYPERVISOR: exec_cmd: vm get_status R6 
Nov 26 20:44:10.301 HYPERVISOR: exec_cmd: vm slot_add_binding R6 0 0 C7200-IO-FE 
Nov 26 20:44:10.315 HYPERVISOR: exec_cmd: vm get_status R6 
Nov 26 20:44:10.321 HYPERVISOR: exec_cmd: vm slot_remove_binding R6 0 0 
Nov 26 20:44:10.331 HYPERVISOR: exec_cmd: vm get_status R6 
Nov 26 20:44:10.334 HYPERVISOR: exec_cmd: vm slot_add_binding R6 0 0 C7200-IO-GE-E 
Nov 26 20:44:10.335 HYPERVISOR: exec_cmd: vm set_ram R6 512 
Nov 26 20:44:10.337 HYPERVISOR: exec_cmd: vm get_status R6 
Nov 26 20:44:10.338 HYPERVISOR: exec_cmd: vm set_idle_pc R6 0x60188e14 
Nov 26 20:44:10.339 HYPERVISOR: exec_cmd: vm get_status R6 
Nov 26 20:44:10.340 HYPERVISOR: exec_cmd: vm slot_add_binding R6 1 0 PA-8T 
Nov 26 20:44:10.342 HYPERVISOR: exec_cmd: vm set_ios R6 /media/actionmystique/SAMSUNG5-VMs/Images/GNS3/IOS/c7200-adventerprisek9-mz.152-4.M2.image 
Nov 26 20:44:10.343 HYPERVISOR: exec_cmd: vm set_config R6 configs/i8_startup-config.cfg 
Nov 26 20:44:11.186 HYPERVISOR: exec_cmd: vm extract_config R6 
Nov 26 20:44:11.477 HYPERVISOR: exec_cmd: nio create_udp udp-3b28b9e5-88f6-493e-a4fa-96e562c04bbb 15030 127.0.0.1 15032 
Nov 26 20:44:11.477 HYPERVISOR: exec_cmd: vm slot_add_nio_binding R6 1 0 udp-3b28b9e5-88f6-493e-a4fa-96e562c04bbb 
Nov 26 20:44:11.477 HYPERVISOR: exec_cmd: vm get_status R6 
Nov 26 20:44:11.516 HYPERVISOR: exec_cmd: nio create_udp udp-3c99fece-6ef1-4633-9178-fa48f5de35d5 15034 127.0.0.1 15035 
Nov 26 20:44:11.517 HYPERVISOR: exec_cmd: vm slot_add_nio_binding R6 1 1 udp-3c99fece-6ef1-4633-9178-fa48f5de35d5 
Nov 26 20:44:11.517 HYPERVISOR: exec_cmd: vm get_status R6 
Nov 26 20:44:47.081 HYPERVISOR: exec_cmd: vm extract_config R6 
Nov 26 20:45:10.991 HYPERVISOR: exec_cmd: vm get_status R6 
Nov 26 20:45:10.995 HYPERVISOR: exec_cmd: vm extract_config R6 
Nov 26 20:45:10.999 HYPERVISOR: exec_cmd: vm delete R6 
Nov 26 20:45:10.999 VM: VM R6 destroyed.
Nov 26 20:45:11.003 HYPERVISOR: exec_cmd: hypervisor stop 
Nov 26 20:45:11.319 HYPERVISOR: Stopped.
Nov 26 20:45:11.319 GENERAL: reset done.
