Nov 26 20:44:10.362 HYPERVISOR: Release 0.2.17-amd64/Linux (tag 2017072410)
Nov 26 20:44:10.362 HYPERVISOR: Started on IP = 127.0.0.1, TCP port = 59967.
Nov 26 20:44:10.422 HYPERVISOR: exec_cmd: hypervisor version 
Nov 26 20:44:10.425 HYPERVISOR: exec_cmd: hypervisor working_dir /media/actionmystique/SAMSUNG5-VMs/Labs/GNS3/Redistribution/project-files/dynamips 
Nov 26 20:44:10.425 GENERAL: working_dir=/media/actionmystique/SAMSUNG5-VMs/Labs/GNS3/Redistribution/project-files/dynamips
Nov 26 20:44:10.427 HYPERVISOR: exec_cmd: vm create R10 13 c7200 
Nov 26 20:44:10.427 VM: VM R10 created.
Nov 26 20:44:10.433 HYPERVISOR: exec_cmd: vm set_con_tcp_port R10 2011 
Nov 26 20:44:10.446 HYPERVISOR: exec_cmd: vm set_aux_tcp_port R10 2111 
Nov 26 20:44:10.448 HYPERVISOR: exec_cmd: c7200 get_mac_addr R10 
Nov 26 20:44:10.450 HYPERVISOR: exec_cmd: vm get_status R10 
Nov 26 20:44:10.451 HYPERVISOR: exec_cmd: vm slot_add_binding R10 0 0 C7200-IO-FE 
Nov 26 20:44:10.453 HYPERVISOR: exec_cmd: vm get_status R10 
Nov 26 20:44:10.454 HYPERVISOR: exec_cmd: vm slot_remove_binding R10 0 0 
Nov 26 20:44:10.455 HYPERVISOR: exec_cmd: vm get_status R10 
Nov 26 20:44:10.456 HYPERVISOR: exec_cmd: vm slot_add_binding R10 0 0 C7200-IO-GE-E 
Nov 26 20:44:10.458 HYPERVISOR: exec_cmd: vm get_status R10 
Nov 26 20:44:10.460 HYPERVISOR: exec_cmd: vm slot_add_binding R10 2 0 PA-GE 
Nov 26 20:44:10.462 HYPERVISOR: exec_cmd: vm set_ram R10 512 
Nov 26 20:44:10.464 HYPERVISOR: exec_cmd: vm get_status R10 
Nov 26 20:44:10.465 HYPERVISOR: exec_cmd: vm set_idle_pc R10 0x60188e14 
Nov 26 20:44:10.467 HYPERVISOR: exec_cmd: vm get_status R10 
Nov 26 20:44:10.468 HYPERVISOR: exec_cmd: vm slot_add_binding R10 1 0 PA-8T 
Nov 26 20:44:10.470 HYPERVISOR: exec_cmd: vm set_ios R10 /media/actionmystique/SAMSUNG5-VMs/Images/GNS3/IOS/c7200-adventerprisek9-mz.152-4.M2.image 
Nov 26 20:44:10.472 HYPERVISOR: exec_cmd: vm set_config R10 configs/i13_startup-config.cfg 
Nov 26 20:44:11.183 HYPERVISOR: exec_cmd: vm extract_config R10 
Nov 26 20:44:11.536 HYPERVISOR: exec_cmd: nio create_udp udp-7c2a8e6f-7bc6-4547-905a-d91af517ae60 15037 127.0.0.1 15036 
Nov 26 20:44:11.537 HYPERVISOR: exec_cmd: vm slot_add_nio_binding R10 0 0 udp-7c2a8e6f-7bc6-4547-905a-d91af517ae60 
Nov 26 20:44:11.537 HYPERVISOR: exec_cmd: vm get_status R10 
Nov 26 20:44:11.565 HYPERVISOR: exec_cmd: nio create_udp udp-2fe8eec2-1634-4380-ad89-0a901b152ba0 15038 127.0.0.1 15039 
Nov 26 20:44:11.565 HYPERVISOR: exec_cmd: vm slot_add_nio_binding R10 2 0 udp-2fe8eec2-1634-4380-ad89-0a901b152ba0 
Nov 26 20:44:11.565 HYPERVISOR: exec_cmd: vm get_status R10 
Nov 26 20:44:11.580 HYPERVISOR: exec_cmd: nio create_udp udp-3b16b0ae-2612-41d0-9b77-2ebd825386db 15040 127.0.0.1 15042 
Nov 26 20:44:11.581 HYPERVISOR: exec_cmd: vm slot_add_nio_binding R10 1 0 udp-3b16b0ae-2612-41d0-9b77-2ebd825386db 
Nov 26 20:44:11.582 HYPERVISOR: exec_cmd: vm get_status R10 
Nov 26 20:44:11.597 HYPERVISOR: exec_cmd: nio create_udp udp-d7617ca3-0fbf-47e6-89d4-d6b956ec87a8 15041 127.0.0.1 15043 
Nov 26 20:44:11.598 HYPERVISOR: exec_cmd: vm slot_add_nio_binding R10 1 1 udp-d7617ca3-0fbf-47e6-89d4-d6b956ec87a8 
Nov 26 20:44:11.598 HYPERVISOR: exec_cmd: vm get_status R10 
Nov 26 20:44:47.079 HYPERVISOR: exec_cmd: vm extract_config R10 
Nov 26 20:45:10.991 HYPERVISOR: exec_cmd: vm get_status R10 
Nov 26 20:45:10.996 HYPERVISOR: exec_cmd: vm extract_config R10 
Nov 26 20:45:10.999 HYPERVISOR: exec_cmd: vm delete R10 
Nov 26 20:45:10.999 VM: VM R10 destroyed.
Nov 26 20:45:11.003 HYPERVISOR: exec_cmd: hypervisor stop 
Nov 26 20:45:11.462 HYPERVISOR: Stopped.
Nov 26 20:45:11.462 GENERAL: reset done.
