Nov 26 20:44:10.402 HYPERVISOR: Release 0.2.17-amd64/Linux (tag 2017072410)
Nov 26 20:44:10.402 HYPERVISOR: Started on IP = 127.0.0.1, TCP port = 35763.
Nov 26 20:44:10.444 HYPERVISOR: exec_cmd: hypervisor version 
Nov 26 20:44:10.448 HYPERVISOR: exec_cmd: hypervisor working_dir /media/actionmystique/SAMSUNG5-VMs/Labs/GNS3/Redistribution/project-files/dynamips 
Nov 26 20:44:10.448 GENERAL: working_dir=/media/actionmystique/SAMSUNG5-VMs/Labs/GNS3/Redistribution/project-files/dynamips
Nov 26 20:44:10.450 HYPERVISOR: exec_cmd: vm create R12 15 c7200 
Nov 26 20:44:10.450 VM: VM R12 created.
Nov 26 20:44:10.451 HYPERVISOR: exec_cmd: vm set_con_tcp_port R12 2013 
Nov 26 20:44:10.452 HYPERVISOR: exec_cmd: vm set_aux_tcp_port R12 2113 
Nov 26 20:44:10.453 HYPERVISOR: exec_cmd: c7200 get_mac_addr R12 
Nov 26 20:44:10.455 HYPERVISOR: exec_cmd: vm get_status R12 
Nov 26 20:44:10.456 HYPERVISOR: exec_cmd: vm slot_add_binding R12 0 0 C7200-IO-FE 
Nov 26 20:44:10.457 HYPERVISOR: exec_cmd: vm set_ios R12 /media/actionmystique/SAMSUNG5-VMs/Images/GNS3/IOS/c7200-adventerprisek9-mz.152-4.M2.image 
Nov 26 20:44:10.460 HYPERVISOR: exec_cmd: vm get_status R12 
Nov 26 20:44:10.461 HYPERVISOR: exec_cmd: vm slot_remove_binding R12 0 0 
Nov 26 20:44:10.464 HYPERVISOR: exec_cmd: vm get_status R12 
Nov 26 20:44:10.465 HYPERVISOR: exec_cmd: vm slot_add_binding R12 0 0 C7200-IO-2FE 
Nov 26 20:44:10.466 HYPERVISOR: exec_cmd: vm get_status R12 
Nov 26 20:44:10.468 HYPERVISOR: exec_cmd: vm set_idle_pc R12 0x60188e14 
Nov 26 20:44:10.469 HYPERVISOR: exec_cmd: vm set_ram R12 512 
Nov 26 20:44:10.471 HYPERVISOR: exec_cmd: vm set_config R12 configs/i15_startup-config.cfg 
Nov 26 20:44:11.188 HYPERVISOR: exec_cmd: vm extract_config R12 
Nov 26 20:44:11.633 HYPERVISOR: exec_cmd: nio create_udp udp-cb51ff22-e6ad-4849-93d5-d332d632856c 15045 127.0.0.1 15044 
Nov 26 20:44:11.636 HYPERVISOR: exec_cmd: vm slot_add_nio_binding R12 0 0 udp-cb51ff22-e6ad-4849-93d5-d332d632856c 
Nov 26 20:44:11.637 HYPERVISOR: exec_cmd: vm get_status R12 
Nov 26 20:44:47.082 HYPERVISOR: exec_cmd: vm extract_config R12 
Nov 26 20:45:10.990 HYPERVISOR: exec_cmd: vm get_status R12 
Nov 26 20:45:10.995 HYPERVISOR: exec_cmd: vm extract_config R12 
Nov 26 20:45:10.999 HYPERVISOR: exec_cmd: vm delete R12 
Nov 26 20:45:10.999 VM: VM R12 destroyed.
Nov 26 20:45:11.003 HYPERVISOR: exec_cmd: hypervisor stop 
Nov 26 20:45:11.486 HYPERVISOR: Stopped.
Nov 26 20:45:11.486 GENERAL: reset done.
