Nov 26 20:44:10.330 HYPERVISOR: Release 0.2.17-amd64/Linux (tag 2017072410)
Nov 26 20:44:10.330 HYPERVISOR: Started on IP = 127.0.0.1, TCP port = 51739.
Nov 26 20:44:10.366 HYPERVISOR: exec_cmd: hypervisor version 
Nov 26 20:44:10.367 HYPERVISOR: exec_cmd: hypervisor working_dir /media/actionmystique/SAMSUNG5-VMs/Labs/GNS3/Redistribution/project-files/dynamips 
Nov 26 20:44:10.367 GENERAL: working_dir=/media/actionmystique/SAMSUNG5-VMs/Labs/GNS3/Redistribution/project-files/dynamips
Nov 26 20:44:10.368 HYPERVISOR: exec_cmd: ethsw create SW2 
Nov 26 20:44:11.373 HYPERVISOR: exec_cmd: nio create_udp udp-cb20ea06-f96c-4023-9b12-0fa64a9bfc2f 15022 127.0.0.1 15019 
Nov 26 20:44:11.377 HYPERVISOR: exec_cmd: ethsw add_nio SW2 udp-cb20ea06-f96c-4023-9b12-0fa64a9bfc2f 
Nov 26 20:44:11.397 HYPERVISOR: exec_cmd: ethsw set_access_port SW2 udp-cb20ea06-f96c-4023-9b12-0fa64a9bfc2f 1 
Nov 26 20:44:11.401 HYPERVISOR: exec_cmd: nio create_udp udp-72222017-20e9-4a8d-9a11-aa283ce54d3b 15023 127.0.0.1 15021 
Nov 26 20:44:11.403 HYPERVISOR: exec_cmd: ethsw add_nio SW2 udp-72222017-20e9-4a8d-9a11-aa283ce54d3b 
Nov 26 20:44:11.414 HYPERVISOR: exec_cmd: ethsw set_access_port SW2 udp-72222017-20e9-4a8d-9a11-aa283ce54d3b 1 
Nov 26 20:44:11.421 HYPERVISOR: exec_cmd: nio create_udp udp-2f42312a-3226-4c30-b05d-86295093e9f3 15025 127.0.0.1 15024 
Nov 26 20:44:11.421 HYPERVISOR: exec_cmd: ethsw add_nio SW2 udp-2f42312a-3226-4c30-b05d-86295093e9f3 
Nov 26 20:44:11.434 HYPERVISOR: exec_cmd: ethsw set_access_port SW2 udp-2f42312a-3226-4c30-b05d-86295093e9f3 1 
Nov 26 20:44:11.705 HYPERVISOR: exec_cmd: nio create_udp udp-46955f5b-b45c-4cf8-ae92-9cb055850ceb 15051 127.0.0.1 15050 
Nov 26 20:44:11.708 HYPERVISOR: exec_cmd: ethsw add_nio SW2 udp-46955f5b-b45c-4cf8-ae92-9cb055850ceb 
Nov 26 20:44:11.716 HYPERVISOR: exec_cmd: ethsw set_access_port SW2 udp-46955f5b-b45c-4cf8-ae92-9cb055850ceb 1 
Nov 26 20:45:10.387 HYPERVISOR: exec_cmd: ethsw delete SW2 
Nov 26 20:45:10.467 HYPERVISOR: exec_cmd: hypervisor stop 
Nov 26 20:45:10.910 HYPERVISOR: Stopped.
Nov 26 20:45:10.910 GENERAL: reset done.
