Nov 27 15:45:20.552 HYPERVISOR: Release 0.2.17-amd64/Linux (tag 2017072410)
Nov 27 15:45:20.552 HYPERVISOR: Started on IP = 127.0.0.1, TCP port = 49013.
Nov 27 15:45:20.565 HYPERVISOR: exec_cmd: hypervisor version 
Nov 27 15:45:20.565 HYPERVISOR: exec_cmd: hypervisor working_dir /media/actionmystique/SAMSUNG5-VMs/Labs/GNS3/git-Public-Labs-Collection/CCNP/TBSHOOT/L2-Technologies/EtherChannel/L2/Jean-Christophe_Manciot/1+/TT 1-solutions-linux/project-files/dynamips 
Nov 27 15:45:20.565 GENERAL: working_dir=/media/actionmystique/SAMSUNG5-VMs/Labs/GNS3/git-Public-Labs-Collection/CCNP/TBSHOOT/L2-Technologies/EtherChannel/L2/Jean-Christophe_Manciot/1+/TT 1-solutions-linux/project-files/dynamips
Nov 27 15:45:20.566 HYPERVISOR: exec_cmd: vm create SW1 1 c3725 
Nov 27 15:45:20.566 VM: VM SW1 created.
Nov 27 15:45:20.566 HYPERVISOR: exec_cmd: vm set_con_tcp_port SW1 2001 
Nov 27 15:45:20.567 HYPERVISOR: exec_cmd: c3725 get_mac_addr SW1 
Nov 27 15:45:20.567 HYPERVISOR: exec_cmd: c3725 set_mac_addr SW1 aaaa.aaaa.aaaa 
Nov 27 15:45:20.567 HYPERVISOR: exec_cmd: vm get_status SW1 
Nov 27 15:45:20.568 HYPERVISOR: exec_cmd: vm slot_add_binding SW1 1 0 NM-16ESW 
Nov 27 15:45:20.568 HYPERVISOR: exec_cmd: vm get_status SW1 
Nov 27 15:45:20.568 HYPERVISOR: exec_cmd: vm set_idle_pc SW1 0x60c05928 
Nov 27 15:45:20.569 HYPERVISOR: exec_cmd: vm slot_add_binding SW1 0 16 WIC-2T 
Nov 27 15:45:20.569 HYPERVISOR: exec_cmd: vm set_ios SW1 /media/actionmystique/SAMSUNG5-VMs/Images/GNS3/IOS/c3725-adventerprisek9-mz.124-15.T10.image 
Nov 27 15:45:20.569 HYPERVISOR: exec_cmd: vm set_exec_area SW1 16 
Nov 27 15:45:20.570 HYPERVISOR: exec_cmd: vm set_disk0 SW1 1 
Nov 27 15:45:20.570 HYPERVISOR: exec_cmd: vm set_nvram SW1 256 
Nov 27 15:45:20.571 HYPERVISOR: exec_cmd: vm set_config SW1 configs/i1_startup-config.cfg 
Nov 27 15:45:20.571 HYPERVISOR: exec_cmd: vm set_config SW1 configs/i1_startup-config.cfg configs/i1_private-config.cfg 
Nov 27 15:45:20.651 HYPERVISOR: exec_cmd: nio create_null null-322aa0c5-909c-417b-862e-b31ee12e0378 
Nov 27 15:45:20.652 HYPERVISOR: exec_cmd: vm slot_add_nio_binding SW1 1 0 null-322aa0c5-909c-417b-862e-b31ee12e0378 
Nov 27 15:45:20.652 HYPERVISOR: exec_cmd: vm get_status SW1 
Nov 27 15:45:20.737 HYPERVISOR: exec_cmd: nio create_udp udp-f6332a9e-45d5-4798-8353-bcff7a474cd5 15005 127.0.0.1 15004 
Nov 27 15:45:20.740 HYPERVISOR: exec_cmd: vm slot_add_nio_binding SW1 1 5 udp-f6332a9e-45d5-4798-8353-bcff7a474cd5 
Nov 27 15:45:20.741 HYPERVISOR: exec_cmd: vm get_status SW1 
Nov 27 15:45:20.757 HYPERVISOR: exec_cmd: nio create_udp udp-1771d105-24c1-4958-8bd3-5c06a7e8e7ec 15006 127.0.0.1 15007 
Nov 27 15:45:20.757 HYPERVISOR: exec_cmd: vm slot_add_nio_binding SW1 1 6 udp-1771d105-24c1-4958-8bd3-5c06a7e8e7ec 
Nov 27 15:45:20.758 HYPERVISOR: exec_cmd: vm get_status SW1 
Nov 27 15:45:20.789 HYPERVISOR: exec_cmd: nio create_udp udp-cdc77d9e-7161-47c6-b7b8-357e9dc02feb 15009 127.0.0.1 15008 
Nov 27 15:45:20.789 HYPERVISOR: exec_cmd: vm slot_add_nio_binding SW1 1 1 udp-cdc77d9e-7161-47c6-b7b8-357e9dc02feb 
Nov 27 15:45:20.790 HYPERVISOR: exec_cmd: vm get_status SW1 
