Nov 26 21:04:08.139 HYPERVISOR: Release 0.2.17-amd64/Linux (tag 2017072410)
Nov 26 21:04:08.139 HYPERVISOR: Started on IP = 127.0.0.1, TCP port = 36329.
Nov 26 21:04:08.171 HYPERVISOR: exec_cmd: hypervisor version 
Nov 26 21:04:08.173 HYPERVISOR: exec_cmd: hypervisor working_dir /media/actionmystique/SAMSUNG5-VMs/Labs/GNS3/PVST+ GLBP/project-files/dynamips 
Nov 26 21:04:08.173 GENERAL: working_dir=/media/actionmystique/SAMSUNG5-VMs/Labs/GNS3/PVST+ GLBP/project-files/dynamips
Nov 26 21:04:08.175 HYPERVISOR: exec_cmd: vm create Server_2112 9 c2691 
Nov 26 21:04:08.175 VM: VM Server_2112 created.
Nov 26 21:04:08.176 HYPERVISOR: exec_cmd: vm set_con_tcp_port Server_2112 2053 
Nov 26 21:04:08.178 HYPERVISOR: exec_cmd: vm set_aux_tcp_port Server_2112 2553 
Nov 26 21:04:08.184 HYPERVISOR: exec_cmd: c2691 get_mac_addr Server_2112 
Nov 26 21:04:08.196 HYPERVISOR: exec_cmd: vm set_ios Server_2112 /media/actionmystique/SAMSUNG5-VMs/Images/GNS3/IOS/c2691-adventerprisek9-mz.124-15.T7.bin 
Nov 26 21:04:08.199 HYPERVISOR: exec_cmd: vm set_ram Server_2112 192 
Nov 26 21:04:08.205 HYPERVISOR: exec_cmd: vm get_status Server_2112 
Nov 26 21:04:08.221 HYPERVISOR: exec_cmd: vm set_idle_pc Server_2112 0x60264748 
Nov 26 21:04:08.234 HYPERVISOR: exec_cmd: vm get_status Server_2112 
Nov 26 21:04:08.236 HYPERVISOR: exec_cmd: vm slot_add_binding Server_2112 1 0 NM-1FE-TX 
Nov 26 21:04:08.240 HYPERVISOR: exec_cmd: vm set_config Server_2112 configs/i9_startup-config.cfg 
Nov 26 21:04:09.611 HYPERVISOR: exec_cmd: vm extract_config Server_2112 
Nov 26 21:04:10.199 HYPERVISOR: exec_cmd: nio create_udp udp-39bed062-2a4a-4932-84e8-701ab81357cb 15058 127.0.0.1 15059 
Nov 26 21:04:10.199 HYPERVISOR: exec_cmd: vm slot_add_nio_binding Server_2112 1 0 udp-39bed062-2a4a-4932-84e8-701ab81357cb 
Nov 26 21:04:10.200 HYPERVISOR: exec_cmd: vm get_status Server_2112 
Nov 26 21:04:36.146 HYPERVISOR: exec_cmd: vm get_status Server_2112 
Nov 26 21:04:36.151 HYPERVISOR: exec_cmd: vm extract_config Server_2112 
Nov 26 21:04:36.158 HYPERVISOR: exec_cmd: vm delete Server_2112 
Nov 26 21:04:36.158 VM: VM Server_2112 destroyed.
Nov 26 21:04:36.162 HYPERVISOR: exec_cmd: hypervisor stop 
Nov 26 21:04:36.193 HYPERVISOR: Stopped.
Nov 26 21:04:36.193 GENERAL: reset done.
