Nov 26 21:04:08.259 HYPERVISOR: Release 0.2.17-amd64/Linux (tag 2017072410)
Nov 26 21:04:08.259 HYPERVISOR: Started on IP = 127.0.0.1, TCP port = 57933.
Nov 26 21:04:08.297 HYPERVISOR: exec_cmd: hypervisor version 
Nov 26 21:04:08.302 HYPERVISOR: exec_cmd: hypervisor working_dir /media/actionmystique/SAMSUNG5-VMs/Labs/GNS3/PVST+ GLBP/project-files/dynamips 
Nov 26 21:04:08.302 GENERAL: working_dir=/media/actionmystique/SAMSUNG5-VMs/Labs/GNS3/PVST+ GLBP/project-files/dynamips
Nov 26 21:04:08.317 HYPERVISOR: exec_cmd: vm create Server_5131 14 c2691 
Nov 26 21:04:08.317 VM: VM Server_5131 created.
Nov 26 21:04:08.324 HYPERVISOR: exec_cmd: vm set_con_tcp_port Server_5131 2060 
Nov 26 21:04:08.337 HYPERVISOR: exec_cmd: vm set_aux_tcp_port Server_5131 2561 
Nov 26 21:04:08.339 HYPERVISOR: exec_cmd: c2691 get_mac_addr Server_5131 
Nov 26 21:04:08.347 HYPERVISOR: exec_cmd: vm set_ios Server_5131 /media/actionmystique/SAMSUNG5-VMs/Images/GNS3/IOS/c2691-adventerprisek9-mz.124-15.T7.bin 
Nov 26 21:04:08.358 HYPERVISOR: exec_cmd: vm set_ram Server_5131 192 
Nov 26 21:04:08.362 HYPERVISOR: exec_cmd: vm get_status Server_5131 
Nov 26 21:04:08.364 HYPERVISOR: exec_cmd: vm set_idle_pc Server_5131 0x60264748 
Nov 26 21:04:08.365 HYPERVISOR: exec_cmd: vm get_status Server_5131 
Nov 26 21:04:08.366 HYPERVISOR: exec_cmd: vm slot_add_binding Server_5131 1 0 NM-1FE-TX 
Nov 26 21:04:08.368 HYPERVISOR: exec_cmd: vm set_config Server_5131 configs/i14_startup-config.cfg 
Nov 26 21:04:09.613 HYPERVISOR: exec_cmd: vm extract_config Server_5131 
Nov 26 21:04:10.033 HYPERVISOR: exec_cmd: nio create_udp udp-8955c8c9-b76c-4b1b-a9ea-e1d46f8a984a 15043 127.0.0.1 15042 
Nov 26 21:04:10.033 HYPERVISOR: exec_cmd: vm slot_add_nio_binding Server_5131 1 0 udp-8955c8c9-b76c-4b1b-a9ea-e1d46f8a984a 
Nov 26 21:04:10.033 HYPERVISOR: exec_cmd: vm get_status Server_5131 
Nov 26 21:04:36.147 HYPERVISOR: exec_cmd: vm get_status Server_5131 
Nov 26 21:04:36.152 HYPERVISOR: exec_cmd: vm extract_config Server_5131 
Nov 26 21:04:36.159 HYPERVISOR: exec_cmd: vm delete Server_5131 
Nov 26 21:04:36.159 VM: VM Server_5131 destroyed.
Nov 26 21:04:36.162 HYPERVISOR: exec_cmd: hypervisor stop 
Nov 26 21:04:36.320 HYPERVISOR: Stopped.
Nov 26 21:04:36.320 GENERAL: reset done.
