Nov 27 16:15:28.212 HYPERVISOR: Release 0.2.17-amd64/Linux (tag 2017072410)
Nov 27 16:15:28.212 HYPERVISOR: Started on IP = 127.0.0.1, TCP port = 34821.
Nov 27 16:15:28.239 HYPERVISOR: exec_cmd: hypervisor version 
Nov 27 16:15:28.240 HYPERVISOR: exec_cmd: hypervisor working_dir /media/actionmystique/SAMSUNG5-VMs/Labs/GNS3/TT 3-linux-/project-files/dynamips 
Nov 27 16:15:28.240 GENERAL: working_dir=/media/actionmystique/SAMSUNG5-VMs/Labs/GNS3/TT 3-linux-/project-files/dynamips
Nov 27 16:15:28.241 HYPERVISOR: exec_cmd: vm create SW3 3 c3725 
Nov 27 16:15:28.241 VM: VM SW3 created.
Nov 27 16:15:28.242 HYPERVISOR: exec_cmd: vm set_con_tcp_port SW3 2003 
Nov 27 16:15:28.242 HYPERVISOR: exec_cmd: c3725 get_mac_addr SW3 
Nov 27 16:15:28.243 HYPERVISOR: exec_cmd: vm set_nvram SW3 256 
Nov 27 16:15:28.244 HYPERVISOR: exec_cmd: vm get_status SW3 
Nov 27 16:15:28.245 HYPERVISOR: exec_cmd: vm set_idle_pc SW3 0x614ac2c4 
Nov 27 16:15:28.246 HYPERVISOR: exec_cmd: c3725 set_mac_addr SW3 cccc.cccc.cccc 
Nov 27 16:15:28.247 HYPERVISOR: exec_cmd: vm set_exec_area SW3 16 
Nov 27 16:15:28.248 HYPERVISOR: exec_cmd: vm get_status SW3 
Nov 27 16:15:28.249 HYPERVISOR: exec_cmd: vm slot_add_binding SW3 1 0 NM-16ESW 
Nov 27 16:15:28.250 HYPERVISOR: exec_cmd: vm set_disk0 SW3 1 
Nov 27 16:15:28.251 HYPERVISOR: exec_cmd: vm set_ios SW3 /media/actionmystique/SAMSUNG5-VMs/Images/GNS3/IOS/c3725-adventerprisek9-mz.124-15.T10.image 
Nov 27 16:15:28.252 HYPERVISOR: exec_cmd: vm slot_add_binding SW3 0 16 WIC-2T 
Nov 27 16:15:28.253 HYPERVISOR: exec_cmd: vm set_config SW3 configs/i3_startup-config.cfg 
Nov 27 16:15:28.254 HYPERVISOR: exec_cmd: vm set_config SW3 configs/i3_startup-config.cfg configs/i3_private-config.cfg 
Nov 27 16:15:28.357 HYPERVISOR: exec_cmd: nio create_null null-42423869-04d6-4339-bb21-0231eed0ddf2 
Nov 27 16:15:28.361 HYPERVISOR: exec_cmd: vm slot_add_nio_binding SW3 1 0 null-42423869-04d6-4339-bb21-0231eed0ddf2 
Nov 27 16:15:28.364 HYPERVISOR: exec_cmd: vm get_status SW3 
Nov 27 16:15:28.452 HYPERVISOR: exec_cmd: nio create_udp udp-ef80fec1-0bc0-47e5-9c14-4f952a894215 15001 127.0.0.1 15000 
Nov 27 16:15:28.453 HYPERVISOR: exec_cmd: vm slot_add_nio_binding SW3 1 5 udp-ef80fec1-0bc0-47e5-9c14-4f952a894215 
Nov 27 16:15:28.453 HYPERVISOR: exec_cmd: vm get_status SW3 
Nov 27 16:15:28.465 HYPERVISOR: exec_cmd: nio create_udp udp-eadf6748-ba23-47f4-919b-08a670e627b8 15004 127.0.0.1 15003 
Nov 27 16:15:28.467 HYPERVISOR: exec_cmd: vm slot_add_nio_binding SW3 1 2 udp-eadf6748-ba23-47f4-919b-08a670e627b8 
Nov 27 16:15:28.468 HYPERVISOR: exec_cmd: vm get_status SW3 
Nov 27 16:15:28.476 HYPERVISOR: exec_cmd: nio create_udp udp-e06ca887-946a-4475-b853-40f27da3bbca 15005 127.0.0.1 15002 
Nov 27 16:15:28.478 HYPERVISOR: exec_cmd: vm slot_add_nio_binding SW3 1 6 udp-e06ca887-946a-4475-b853-40f27da3bbca 
Nov 27 16:15:28.478 HYPERVISOR: exec_cmd: vm get_status SW3 
Nov 27 16:15:44.160 HYPERVISOR: exec_cmd: vm get_status SW3 
Nov 27 16:15:44.161 HYPERVISOR: exec_cmd: vm extract_config SW3 
Nov 27 16:15:44.164 HYPERVISOR: exec_cmd: vm delete SW3 
Nov 27 16:15:44.164 VM: VM SW3 destroyed.
Nov 27 16:15:44.166 HYPERVISOR: exec_cmd: hypervisor stop 
Nov 27 16:15:44.252 HYPERVISOR: Stopped.
Nov 27 16:15:44.252 GENERAL: reset done.
