Jan 11 11:10:15.291 HYPERVISOR: Release 0.2.14-x86/Windows (tag 2014092320)
Jan 11 11:10:15.291 HYPERVISOR: Started on IP = 127.0.0.1, TCP port = 7207.
Jan 11 11:10:15.843 HYPERVISOR: exec_cmd: hypervisor version 
Jan 11 11:10:15.843 HYPERVISOR: exec_cmd: hypervisor uuid 
Jan 11 11:10:15.843 HYPERVISOR: exec_cmd: hypervisor working_dir C:/Users/ActionMystique/GNS3/projects/CCNP-Security/FIREWALL/Jean-Christophe/1+/Data Center ASA - ASDM - AAA - VMs/Data Center ASA - ASDM - AAA - VMs-files\dynamips 
Jan 11 11:10:15.843 GENERAL: working_dir=C:/Users/ActionMystique/GNS3/projects/CCNP-Security/FIREWALL/Jean-Christophe/1+/Data Center ASA - ASDM - AAA - VMs/Data Center ASA - ASDM - AAA - VMs-files\dynamips
Jan 11 11:10:15.843 HYPERVISOR: exec_cmd: vm create SW8 8 c3725 
Jan 11 11:10:15.843 VM: VM SW8 created.
Jan 11 11:10:15.843 HYPERVISOR: exec_cmd: vm set_con_tcp_port SW8 2008 
Jan 11 11:10:15.843 HYPERVISOR: exec_cmd: vm set_aux_tcp_port SW8 2508 
Jan 11 11:10:15.843 HYPERVISOR: exec_cmd: c3725 get_mac_addr SW8 
Jan 11 11:10:15.843 HYPERVISOR: exec_cmd: vm set_ios SW8 C:\Users\ActionMystique\GNS3\images\IOS\c3725-adventerprisek9-mz.124-15.T10.image 
Jan 11 11:10:15.843 HYPERVISOR: exec_cmd: vm set_sparse_mem SW8 1 
Jan 11 11:10:15.843 HYPERVISOR: exec_cmd: vm set_ram_mmap SW8 1 
Jan 11 11:10:15.843 HYPERVISOR: exec_cmd: vm set_con_tcp_port SW8 2015 
Jan 11 11:10:15.843 HYPERVISOR: exec_cmd: vm set_aux_tcp_port SW8 2515 
Jan 11 11:10:15.843 HYPERVISOR: exec_cmd: c3725 set_mac_addr SW8 c208.1264.0000 
Jan 11 11:10:15.843 HYPERVISOR: exec_cmd: vm set_ghost_status SW8 2 
Jan 11 11:10:15.843 HYPERVISOR: exec_cmd: vm set_ghost_file SW8 c3725-adventerprisek9-mz.124-15.T10.image-128.ghost 
Jan 11 11:10:28.539 HYPERVISOR: exec_cmd: vm set_config SW8 configs\i8_startup-config.cfg 
Jan 11 11:10:28.539 HYPERVISOR: exec_cmd: vm get_status SW8 
Jan 11 11:10:28.539 HYPERVISOR: exec_cmd: vm set_idle_pc SW8 0x6148b5dc 
Jan 11 11:10:28.539 HYPERVISOR: exec_cmd: vm get_status SW8 
Jan 11 11:10:28.539 HYPERVISOR: exec_cmd: vm slot_add_binding SW8 1 0 NM-16ESW 
Jan 11 11:10:28.539 HYPERVISOR: exec_cmd: vm get_status SW8 
Jan 11 11:10:28.951 HYPERVISOR: exec_cmd: nio create_udp_auto nio_udp_auto51 127.0.0.1 10001 20000 
Jan 11 11:10:28.970 HYPERVISOR: exec_cmd: nio create_udp_auto nio_udp_auto53 127.0.0.1 10001 20000 
Jan 11 11:10:28.970 HYPERVISOR: exec_cmd: nio create_udp_auto nio_udp_auto55 127.0.0.1 10001 20000 
Jan 11 11:10:29.009 HYPERVISOR: exec_cmd: nio create_udp_auto nio_udp_auto59 127.0.0.1 10001 20000 
Jan 11 11:10:29.049 HYPERVISOR: exec_cmd: nio create_udp_auto nio_udp_auto62 127.0.0.1 10001 20000 
Jan 11 11:10:31.183 HYPERVISOR: exec_cmd: nio connect_udp_auto nio_udp_auto51 127.0.0.1 10051 
Jan 11 11:10:31.183 HYPERVISOR: exec_cmd: vm slot_add_nio_binding SW8 1 11 nio_udp_auto51 
Jan 11 11:10:31.183 HYPERVISOR: exec_cmd: vm get_status SW8 
Jan 11 11:10:31.202 HYPERVISOR: exec_cmd: nio connect_udp_auto nio_udp_auto53 127.0.0.1 10053 
Jan 11 11:10:31.202 HYPERVISOR: exec_cmd: vm slot_add_nio_binding SW8 1 2 nio_udp_auto53 
Jan 11 11:10:31.202 HYPERVISOR: exec_cmd: vm get_status SW8 
Jan 11 11:10:31.241 HYPERVISOR: exec_cmd: nio connect_udp_auto nio_udp_auto55 127.0.0.1 10055 
Jan 11 11:10:31.241 HYPERVISOR: exec_cmd: vm slot_add_nio_binding SW8 1 4 nio_udp_auto55 
Jan 11 11:10:31.241 HYPERVISOR: exec_cmd: vm get_status SW8 
Jan 11 11:10:31.281 HYPERVISOR: exec_cmd: nio connect_udp_auto nio_udp_auto59 127.0.0.1 10059 
Jan 11 11:10:31.281 HYPERVISOR: exec_cmd: vm slot_add_nio_binding SW8 1 3 nio_udp_auto59 
Jan 11 11:10:31.281 HYPERVISOR: exec_cmd: vm get_status SW8 
Jan 11 11:10:31.320 HYPERVISOR: exec_cmd: nio connect_udp_auto nio_udp_auto62 127.0.0.1 10064 
Jan 11 11:10:31.320 HYPERVISOR: exec_cmd: vm slot_add_nio_binding SW8 1 1 nio_udp_auto62 
Jan 11 11:10:31.320 HYPERVISOR: exec_cmd: vm get_status SW8 
Jan 11 11:11:54.238 HYPERVISOR: exec_cmd: vm extract_config SW8 
Jan 11 11:22:55.890 HYPERVISOR: exec_cmd: vm extract_config SW8 
Jan 11 11:22:58.405 HYPERVISOR: Stopped.
Jan 11 11:22:58.405 VM: VM SW8 destroyed.
Jan 11 11:22:58.405 GENERAL: reset done.
