Jan 11 11:10:13.476 HYPERVISOR: Release 0.2.14-x86/Windows (tag 2014092320)
Jan 11 11:10:13.476 HYPERVISOR: Started on IP = 127.0.0.1, TCP port = 7204.
Jan 11 11:10:14.045 HYPERVISOR: exec_cmd: hypervisor version 
Jan 11 11:10:14.045 HYPERVISOR: exec_cmd: hypervisor uuid 
Jan 11 11:10:14.045 HYPERVISOR: exec_cmd: hypervisor working_dir C:/Users/ActionMystique/GNS3/projects/CCNP-Security/FIREWALL/Jean-Christophe/1+/Data Center ASA - ASDM - AAA - VMs/Data Center ASA - ASDM - AAA - VMs-files\dynamips 
Jan 11 11:10:14.045 GENERAL: working_dir=C:/Users/ActionMystique/GNS3/projects/CCNP-Security/FIREWALL/Jean-Christophe/1+/Data Center ASA - ASDM - AAA - VMs/Data Center ASA - ASDM - AAA - VMs-files\dynamips
Jan 11 11:10:14.045 HYPERVISOR: exec_cmd: vm create SW5 5 c3725 
Jan 11 11:10:14.045 VM: VM SW5 created.
Jan 11 11:10:14.045 HYPERVISOR: exec_cmd: vm set_con_tcp_port SW5 2005 
Jan 11 11:10:14.045 HYPERVISOR: exec_cmd: vm set_aux_tcp_port SW5 2505 
Jan 11 11:10:14.045 HYPERVISOR: exec_cmd: c3725 get_mac_addr SW5 
Jan 11 11:10:14.045 HYPERVISOR: exec_cmd: vm set_ios SW5 C:\Users\ActionMystique\GNS3\images\IOS\c3725-adventerprisek9-mz.124-15.T10.image 
Jan 11 11:10:14.045 HYPERVISOR: exec_cmd: vm set_sparse_mem SW5 1 
Jan 11 11:10:14.045 HYPERVISOR: exec_cmd: vm set_ram_mmap SW5 1 
Jan 11 11:10:14.045 HYPERVISOR: exec_cmd: c3725 set_mac_addr SW5 c205.1354.0000 
Jan 11 11:10:14.045 HYPERVISOR: exec_cmd: vm set_ghost_status SW5 2 
Jan 11 11:10:14.045 HYPERVISOR: exec_cmd: vm set_ghost_file SW5 c3725-adventerprisek9-mz.124-15.T10.image-128.ghost 
Jan 11 11:10:28.481 HYPERVISOR: exec_cmd: vm set_config SW5 configs\i5_startup-config.cfg 
Jan 11 11:10:28.481 HYPERVISOR: exec_cmd: vm get_status SW5 
Jan 11 11:10:28.481 HYPERVISOR: exec_cmd: vm set_idle_pc SW5 0x6148b5dc 
Jan 11 11:10:28.481 HYPERVISOR: exec_cmd: vm get_status SW5 
Jan 11 11:10:28.481 HYPERVISOR: exec_cmd: vm slot_add_binding SW5 1 0 NM-16ESW 
Jan 11 11:10:28.481 HYPERVISOR: exec_cmd: vm get_status SW5 
Jan 11 11:10:28.735 HYPERVISOR: exec_cmd: nio create_udp_auto nio_udp_auto31 127.0.0.1 10001 20000 
Jan 11 11:10:28.755 HYPERVISOR: exec_cmd: nio create_udp_auto nio_udp_auto33 127.0.0.1 10001 20000 
Jan 11 11:10:28.774 HYPERVISOR: exec_cmd: nio create_udp nio_udp0 30000 127.0.0.1 20000 
Jan 11 11:10:28.774 HYPERVISOR: exec_cmd: vm slot_add_nio_binding SW5 1 3 nio_udp0 
Jan 11 11:10:28.774 HYPERVISOR: exec_cmd: vm get_status SW5 
Jan 11 11:10:28.774 HYPERVISOR: exec_cmd: nio create_udp nio_udp1 30001 127.0.0.1 20001 
Jan 11 11:10:28.774 HYPERVISOR: exec_cmd: vm slot_add_nio_binding SW5 1 4 nio_udp1 
Jan 11 11:10:28.774 HYPERVISOR: exec_cmd: vm get_status SW5 
Jan 11 11:10:28.794 HYPERVISOR: exec_cmd: nio create_udp nio_udp2 30002 127.0.0.1 20002 
Jan 11 11:10:28.794 HYPERVISOR: exec_cmd: vm slot_add_nio_binding SW5 1 5 nio_udp2 
Jan 11 11:10:28.794 HYPERVISOR: exec_cmd: vm get_status SW5 
Jan 11 11:10:28.794 HYPERVISOR: exec_cmd: nio create_udp nio_udp3 30003 127.0.0.1 20003 
Jan 11 11:10:28.814 HYPERVISOR: exec_cmd: vm slot_add_nio_binding SW5 1 6 nio_udp3 
Jan 11 11:10:28.814 HYPERVISOR: exec_cmd: vm get_status SW5 
Jan 11 11:10:30.928 HYPERVISOR: exec_cmd: nio connect_udp_auto nio_udp_auto31 127.0.0.1 10031 
Jan 11 11:10:30.928 HYPERVISOR: exec_cmd: vm slot_add_nio_binding SW5 1 2 nio_udp_auto31 
Jan 11 11:10:30.928 HYPERVISOR: exec_cmd: vm get_status SW5 
Jan 11 11:10:30.967 HYPERVISOR: exec_cmd: nio connect_udp_auto nio_udp_auto33 127.0.0.1 10033 
Jan 11 11:10:30.967 HYPERVISOR: exec_cmd: vm slot_add_nio_binding SW5 1 1 nio_udp_auto33 
Jan 11 11:10:30.967 HYPERVISOR: exec_cmd: vm get_status SW5 
Jan 11 11:11:54.229 HYPERVISOR: exec_cmd: vm extract_config SW5 
Jan 11 11:22:55.890 HYPERVISOR: exec_cmd: vm extract_config SW5 
Jan 11 11:22:58.405 HYPERVISOR: Stopped.
Jan 11 11:22:58.405 VM: VM SW5 destroyed.
Jan 11 11:22:58.405 GENERAL: reset done.
