Dec 04 11:16:57.094 HYPERVISOR: Release 0.2.17-amd64/Linux (tag 2017072410)
Dec 04 11:16:57.094 HYPERVISOR: Started on IP = 127.0.0.1, TCP port = 57279.
Dec 04 11:16:57.121 HYPERVISOR: exec_cmd: hypervisor version 
Dec 04 11:16:57.122 HYPERVISOR: exec_cmd: hypervisor working_dir /media/actionmystique/SAMSUNG5-VMs/Labs/GNS3/git-Public-Labs-Collection/CCNP-Security/FIREWALL/Jean-Christophe_Manciot/1+/Data Center ASA - ASDM - AAA - VMs/project-files/dynamips 
Dec 04 11:16:57.122 GENERAL: working_dir=/media/actionmystique/SAMSUNG5-VMs/Labs/GNS3/git-Public-Labs-Collection/CCNP-Security/FIREWALL/Jean-Christophe_Manciot/1+/Data Center ASA - ASDM - AAA - VMs/project-files/dynamips
Dec 04 11:16:57.123 HYPERVISOR: exec_cmd: vm create SW3 3 c3725 
Dec 04 11:16:57.123 VM: VM SW3 created.
Dec 04 11:16:57.124 HYPERVISOR: exec_cmd: vm set_con_tcp_port SW3 2003 
Dec 04 11:16:57.125 HYPERVISOR: exec_cmd: vm set_aux_tcp_port SW3 2503 
Dec 04 11:16:57.125 HYPERVISOR: exec_cmd: c3725 get_mac_addr SW3 
Dec 04 11:16:57.126 HYPERVISOR: exec_cmd: vm get_status SW3 
Dec 04 11:16:57.127 HYPERVISOR: exec_cmd: vm slot_add_binding SW3 1 0 NM-16ESW 
Dec 04 11:16:57.129 HYPERVISOR: exec_cmd: vm set_exec_area SW3 16 
Dec 04 11:16:57.132 HYPERVISOR: exec_cmd: vm get_status SW3 
Dec 04 11:16:57.134 HYPERVISOR: exec_cmd: vm set_idle_pc SW3 0x6148b5dc 
Dec 04 11:16:57.140 HYPERVISOR: exec_cmd: vm set_ios SW3 /media/actionmystique/SAMSUNG5-VMs/Images/GNS3/IOS/c3725-adventerprisek9-mz.124-15.T10.image 
Dec 04 11:16:57.149 HYPERVISOR: exec_cmd: c3725 set_mac_addr SW3 c203.1040.0000 
Dec 04 11:16:57.151 HYPERVISOR: exec_cmd: vm set_config SW3 configs/i3_startup-config.cfg 
Dec 04 11:16:58.231 HYPERVISOR: exec_cmd: nio create_udp udp-301946ef-3862-443f-bc71-b04f5a22d4b6 15023 127.0.0.1 15019 
Dec 04 11:16:58.232 HYPERVISOR: exec_cmd: vm slot_add_nio_binding SW3 1 1 udp-301946ef-3862-443f-bc71-b04f5a22d4b6 
Dec 04 11:16:58.232 HYPERVISOR: exec_cmd: vm get_status SW3 
Dec 04 11:16:58.255 HYPERVISOR: exec_cmd: nio create_udp udp-62b16a37-8e96-493b-9ffd-2d490cae07b3 15025 127.0.0.1 15024 
Dec 04 11:16:58.255 HYPERVISOR: exec_cmd: vm slot_add_nio_binding SW3 1 11 udp-62b16a37-8e96-493b-9ffd-2d490cae07b3 
Dec 04 11:16:58.256 HYPERVISOR: exec_cmd: vm get_status SW3 
Dec 04 11:16:58.267 HYPERVISOR: exec_cmd: nio create_udp udp-a2997c90-e9cc-41f4-b082-20b1f54b8e3b 15027 127.0.0.1 15026 
Dec 04 11:16:58.268 HYPERVISOR: exec_cmd: vm slot_add_nio_binding SW3 1 3 udp-a2997c90-e9cc-41f4-b082-20b1f54b8e3b 
Dec 04 11:16:58.269 HYPERVISOR: exec_cmd: vm get_status SW3 
Dec 04 11:16:58.279 HYPERVISOR: exec_cmd: nio create_udp udp-6651c28b-1c89-4e17-8385-18382d32746e 15029 127.0.0.1 15028 
Dec 04 11:16:58.280 HYPERVISOR: exec_cmd: vm slot_add_nio_binding SW3 1 4 udp-6651c28b-1c89-4e17-8385-18382d32746e 
Dec 04 11:16:58.280 HYPERVISOR: exec_cmd: vm get_status SW3 
Dec 04 11:16:58.431 HYPERVISOR: exec_cmd: nio create_udp udp-237293b8-3d63-412c-b10c-0851bf41ba19 15042 127.0.0.1 15043 
Dec 04 11:16:58.432 HYPERVISOR: exec_cmd: vm slot_add_nio_binding SW3 1 2 udp-237293b8-3d63-412c-b10c-0851bf41ba19 
Dec 04 11:16:58.432 HYPERVISOR: exec_cmd: vm get_status SW3 
Dec 04 11:17:15.844 HYPERVISOR: exec_cmd: vm get_status SW3 
Dec 04 11:17:15.848 HYPERVISOR: exec_cmd: vm extract_config SW3 
Dec 04 11:17:15.860 HYPERVISOR: exec_cmd: vm delete SW3 
Dec 04 11:17:15.860 VM: VM SW3 destroyed.
Dec 04 11:17:15.865 HYPERVISOR: exec_cmd: hypervisor stop 
Dec 04 11:17:16.137 HYPERVISOR: Stopped.
Dec 04 11:17:16.137 GENERAL: reset done.
