Dec 04 11:16:57.186 HYPERVISOR: Release 0.2.17-amd64/Linux (tag 2017072410)
Dec 04 11:16:57.186 HYPERVISOR: Started on IP = 127.0.0.1, TCP port = 57767.
Dec 04 11:16:57.230 HYPERVISOR: exec_cmd: hypervisor version 
Dec 04 11:16:57.231 HYPERVISOR: exec_cmd: hypervisor working_dir /media/actionmystique/SAMSUNG5-VMs/Labs/GNS3/git-Public-Labs-Collection/CCNP-Security/FIREWALL/Jean-Christophe_Manciot/1+/Data Center ASA - ASDM - AAA - VMs/project-files/dynamips 
Dec 04 11:16:57.231 GENERAL: working_dir=/media/actionmystique/SAMSUNG5-VMs/Labs/GNS3/git-Public-Labs-Collection/CCNP-Security/FIREWALL/Jean-Christophe_Manciot/1+/Data Center ASA - ASDM - AAA - VMs/project-files/dynamips
Dec 04 11:16:57.233 HYPERVISOR: exec_cmd: vm create SW9 10 c3725 
Dec 04 11:16:57.233 VM: VM SW9 created.
Dec 04 11:16:57.240 HYPERVISOR: exec_cmd: vm set_con_tcp_port SW9 2017 
Dec 04 11:16:57.250 HYPERVISOR: exec_cmd: vm set_aux_tcp_port SW9 2517 
Dec 04 11:16:57.252 HYPERVISOR: exec_cmd: c3725 get_mac_addr SW9 
Dec 04 11:16:57.254 HYPERVISOR: exec_cmd: vm get_status SW9 
Dec 04 11:16:57.256 HYPERVISOR: exec_cmd: vm slot_add_binding SW9 1 0 NM-16ESW 
Dec 04 11:16:57.257 HYPERVISOR: exec_cmd: vm set_exec_area SW9 16 
Dec 04 11:16:57.259 HYPERVISOR: exec_cmd: vm get_status SW9 
Dec 04 11:16:57.264 HYPERVISOR: exec_cmd: vm set_idle_pc SW9 0x6148b5dc 
Dec 04 11:16:57.272 HYPERVISOR: exec_cmd: vm set_ios SW9 /media/actionmystique/SAMSUNG5-VMs/Images/GNS3/IOS/c3725-adventerprisek9-mz.124-15.T10.image 
Dec 04 11:16:57.275 HYPERVISOR: exec_cmd: c3725 set_mac_addr SW9 c20a.0a30.0000 
Dec 04 11:16:57.278 HYPERVISOR: exec_cmd: vm set_config SW9 configs/i10_startup-config.cfg 
Dec 04 11:16:57.971 HYPERVISOR: exec_cmd: nio create_udp udp-72434962-e213-4f2d-9081-b1cdff57c66e 30006 127.0.0.1 20006 
Dec 04 11:16:57.972 HYPERVISOR: exec_cmd: vm slot_add_nio_binding SW9 1 2 udp-72434962-e213-4f2d-9081-b1cdff57c66e 
Dec 04 11:16:57.973 HYPERVISOR: exec_cmd: vm get_status SW9 
Dec 04 11:16:57.983 HYPERVISOR: exec_cmd: nio create_udp udp-4f126fd7-f8a9-4ab7-90ad-1d8588613b3d 30007 127.0.0.1 20007 
Dec 04 11:16:57.983 HYPERVISOR: exec_cmd: vm slot_add_nio_binding SW9 1 3 udp-4f126fd7-f8a9-4ab7-90ad-1d8588613b3d 
Dec 04 11:16:57.984 HYPERVISOR: exec_cmd: vm get_status SW9 
Dec 04 11:16:58.625 HYPERVISOR: exec_cmd: nio create_udp udp-5888e9d9-85e6-4694-a778-7f880477e9f7 15057 127.0.0.1 15056 
Dec 04 11:16:58.626 HYPERVISOR: exec_cmd: vm slot_add_nio_binding SW9 1 0 udp-5888e9d9-85e6-4694-a778-7f880477e9f7 
Dec 04 11:16:58.627 HYPERVISOR: exec_cmd: vm get_status SW9 
Dec 04 11:16:58.636 HYPERVISOR: exec_cmd: nio create_udp udp-6006b443-38ea-45c0-89d1-f55afebfea95 15059 127.0.0.1 15058 
Dec 04 11:16:58.640 HYPERVISOR: exec_cmd: vm slot_add_nio_binding SW9 1 1 udp-6006b443-38ea-45c0-89d1-f55afebfea95 
Dec 04 11:16:58.640 HYPERVISOR: exec_cmd: vm get_status SW9 
Dec 04 11:17:15.840 HYPERVISOR: exec_cmd: vm get_status SW9 
Dec 04 11:17:15.847 HYPERVISOR: exec_cmd: vm extract_config SW9 
Dec 04 11:17:15.852 HYPERVISOR: exec_cmd: vm delete SW9 
Dec 04 11:17:15.852 VM: VM SW9 destroyed.
Dec 04 11:17:15.856 HYPERVISOR: exec_cmd: hypervisor stop 
Dec 04 11:17:16.237 HYPERVISOR: Stopped.
Dec 04 11:17:16.237 GENERAL: reset done.
