Nov 27 15:46:19.768 HYPERVISOR: Release 0.2.17-amd64/Linux (tag 2017072410)
Nov 27 15:46:19.768 HYPERVISOR: Started on IP = 127.0.0.1, TCP port = 33829.
Nov 27 15:46:19.773 HYPERVISOR: exec_cmd: hypervisor version 
Nov 27 15:46:19.774 HYPERVISOR: exec_cmd: hypervisor working_dir /media/actionmystique/SAMSUNG5-VMs/Labs/GNS3/git-Public-Labs-Collection/CCNP/TBSHOOT/L2-Technologies/EtherChannel/L2/Jean-Christophe_Manciot/1+/TT 2-solutions-linux/project-files/dynamips 
Nov 27 15:46:19.774 GENERAL: working_dir=/media/actionmystique/SAMSUNG5-VMs/Labs/GNS3/git-Public-Labs-Collection/CCNP/TBSHOOT/L2-Technologies/EtherChannel/L2/Jean-Christophe_Manciot/1+/TT 2-solutions-linux/project-files/dynamips
Nov 27 15:46:19.774 HYPERVISOR: exec_cmd: vm create SW3 3 c3725 
Nov 27 15:46:19.774 VM: VM SW3 created.
Nov 27 15:46:19.775 HYPERVISOR: exec_cmd: vm set_con_tcp_port SW3 2003 
Nov 27 15:46:19.776 HYPERVISOR: exec_cmd: c3725 get_mac_addr SW3 
Nov 27 15:46:19.776 HYPERVISOR: exec_cmd: c3725 set_mac_addr SW3 cccc.cccc.cccc 
Nov 27 15:46:19.777 HYPERVISOR: exec_cmd: vm get_status SW3 
Nov 27 15:46:19.778 HYPERVISOR: exec_cmd: vm slot_add_binding SW3 1 0 NM-16ESW 
Nov 27 15:46:19.778 HYPERVISOR: exec_cmd: vm get_status SW3 
Nov 27 15:46:19.779 HYPERVISOR: exec_cmd: vm set_idle_pc SW3 0x6026b804 
Nov 27 15:46:19.779 HYPERVISOR: exec_cmd: vm slot_add_binding SW3 0 16 WIC-2T 
Nov 27 15:46:19.780 HYPERVISOR: exec_cmd: vm set_ios SW3 /media/actionmystique/SAMSUNG5-VMs/Images/GNS3/IOS/c3725-adventerprisek9-mz.124-15.T10.image 
Nov 27 15:46:19.781 HYPERVISOR: exec_cmd: vm set_exec_area SW3 16 
Nov 27 15:46:19.782 HYPERVISOR: exec_cmd: vm set_disk0 SW3 1 
Nov 27 15:46:19.782 HYPERVISOR: exec_cmd: vm set_nvram SW3 256 
Nov 27 15:46:19.783 HYPERVISOR: exec_cmd: vm set_config SW3 configs/i3_startup-config.cfg 
Nov 27 15:46:19.785 HYPERVISOR: exec_cmd: vm set_config SW3 configs/i3_startup-config.cfg configs/i3_private-config.cfg 
Nov 27 15:46:19.832 HYPERVISOR: exec_cmd: nio create_null null-d42620f0-818f-473a-a17c-9e753a0a20ec 
Nov 27 15:46:19.836 HYPERVISOR: exec_cmd: vm slot_add_nio_binding SW3 1 0 null-d42620f0-818f-473a-a17c-9e753a0a20ec 
Nov 27 15:46:19.838 HYPERVISOR: exec_cmd: vm get_status SW3 
Nov 27 15:46:19.948 HYPERVISOR: exec_cmd: nio create_udp udp-a45da58f-0af8-4e4b-bca3-697172fa4ccb 15003 127.0.0.1 15002 
Nov 27 15:46:19.949 HYPERVISOR: exec_cmd: vm slot_add_nio_binding SW3 1 2 udp-a45da58f-0af8-4e4b-bca3-697172fa4ccb 
Nov 27 15:46:19.949 HYPERVISOR: exec_cmd: vm get_status SW3 
Nov 27 15:46:19.998 HYPERVISOR: exec_cmd: nio create_udp udp-5cfffedf-578d-422f-9a4a-7a22d96fde45 15007 127.0.0.1 15006 
Nov 27 15:46:20.002 HYPERVISOR: exec_cmd: vm slot_add_nio_binding SW3 1 5 udp-5cfffedf-578d-422f-9a4a-7a22d96fde45 
Nov 27 15:46:20.002 HYPERVISOR: exec_cmd: vm get_status SW3 
Nov 27 15:46:20.033 HYPERVISOR: exec_cmd: nio create_udp udp-de0c1821-f8c7-4123-94a3-677fbfd21f7e 15009 127.0.0.1 15008 
Nov 27 15:46:20.033 HYPERVISOR: exec_cmd: vm slot_add_nio_binding SW3 1 6 udp-de0c1821-f8c7-4123-94a3-677fbfd21f7e 
Nov 27 15:46:20.034 HYPERVISOR: exec_cmd: vm get_status SW3 
