Nov 26 21:04:39.928 HYPERVISOR: Release 0.2.17-amd64/Linux (tag 2017072410)
Nov 26 21:04:39.928 HYPERVISOR: Started on IP = 127.0.0.1, TCP port = 33323.
Nov 26 21:04:39.937 HYPERVISOR: exec_cmd: hypervisor version 
Nov 26 21:04:39.938 HYPERVISOR: exec_cmd: hypervisor working_dir /media/actionmystique/SAMSUNG5-VMs/Labs/GNS3/PVST+ EtherChannel VRRP/project-files/dynamips 
Nov 26 21:04:39.938 GENERAL: working_dir=/media/actionmystique/SAMSUNG5-VMs/Labs/GNS3/PVST+ EtherChannel VRRP/project-files/dynamips
Nov 26 21:04:39.940 HYPERVISOR: exec_cmd: vm create SW3 3 c3725 
Nov 26 21:04:39.940 VM: VM SW3 created.
Nov 26 21:04:39.945 HYPERVISOR: exec_cmd: vm set_con_tcp_port SW3 2003 
Nov 26 21:04:39.960 HYPERVISOR: exec_cmd: vm set_aux_tcp_port SW3 2503 
Nov 26 21:04:39.963 HYPERVISOR: exec_cmd: c3725 get_mac_addr SW3 
Nov 26 21:04:39.965 HYPERVISOR: exec_cmd: vm set_ios SW3 /media/actionmystique/SAMSUNG5-VMs/Images/GNS3/IOS/c3725-adventerprisek9-mz.124-15.T10.image 
Nov 26 21:04:39.966 HYPERVISOR: exec_cmd: vm set_ram SW3 256 
Nov 26 21:04:39.968 HYPERVISOR: exec_cmd: vm get_status SW3 
Nov 26 21:04:39.969 HYPERVISOR: exec_cmd: vm set_idle_pc SW3 0x6026b804 
Nov 26 21:04:39.970 HYPERVISOR: exec_cmd: vm get_status SW3 
Nov 26 21:04:39.971 HYPERVISOR: exec_cmd: vm slot_add_binding SW3 1 0 NM-16ESW 
Nov 26 21:04:39.972 HYPERVISOR: exec_cmd: vm set_config SW3 configs/i3_startup-config.cfg 
Nov 26 21:04:40.911 HYPERVISOR: exec_cmd: vm extract_config SW3 
Nov 26 21:04:41.112 HYPERVISOR: exec_cmd: nio create_udp udp-fc679dce-55f3-4a84-8040-b631909322f0 15019 127.0.0.1 15016 
Nov 26 21:04:41.113 HYPERVISOR: exec_cmd: vm slot_add_nio_binding SW3 1 1 udp-fc679dce-55f3-4a84-8040-b631909322f0 
Nov 26 21:04:41.113 HYPERVISOR: exec_cmd: vm get_status SW3 
Nov 26 21:04:41.120 HYPERVISOR: exec_cmd: nio create_udp udp-d4f8b4c8-2d1b-46ab-9024-2a5e81443d38 15022 127.0.0.1 15021 
Nov 26 21:04:41.121 HYPERVISOR: exec_cmd: vm slot_add_nio_binding SW3 1 2 udp-d4f8b4c8-2d1b-46ab-9024-2a5e81443d38 
Nov 26 21:04:41.121 HYPERVISOR: exec_cmd: vm get_status SW3 
Nov 26 21:04:41.152 HYPERVISOR: exec_cmd: nio create_udp udp-906d5260-dced-45ef-84ea-e6beb363d30a 15023 127.0.0.1 15020 
Nov 26 21:04:41.152 HYPERVISOR: exec_cmd: vm slot_add_nio_binding SW3 1 11 udp-906d5260-dced-45ef-84ea-e6beb363d30a 
Nov 26 21:04:41.153 HYPERVISOR: exec_cmd: vm get_status SW3 
Nov 26 21:04:41.164 HYPERVISOR: exec_cmd: nio create_udp udp-5055a610-5ef8-4e91-aa71-23c820b9c6fb 15024 127.0.0.1 15025 
Nov 26 21:04:41.165 HYPERVISOR: exec_cmd: vm slot_add_nio_binding SW3 1 3 udp-5055a610-5ef8-4e91-aa71-23c820b9c6fb 
Nov 26 21:04:41.165 HYPERVISOR: exec_cmd: vm get_status SW3 
Nov 26 21:04:41.179 HYPERVISOR: exec_cmd: nio create_udp udp-8f8ab4eb-5726-4028-b262-67ad7dc76d98 15028 127.0.0.1 15027 
Nov 26 21:04:41.180 HYPERVISOR: exec_cmd: vm slot_add_nio_binding SW3 1 4 udp-8f8ab4eb-5726-4028-b262-67ad7dc76d98 
Nov 26 21:04:41.180 HYPERVISOR: exec_cmd: vm get_status SW3 
Nov 26 21:54:01.426 HYPERVISOR: exec_cmd: vm get_status SW3 
Nov 26 21:54:01.429 HYPERVISOR: exec_cmd: vm extract_config SW3 
Nov 26 21:54:01.474 HYPERVISOR: exec_cmd: vm delete SW3 
Nov 26 21:54:01.474 VM: VM SW3 destroyed.
Nov 26 21:54:01.478 HYPERVISOR: exec_cmd: hypervisor stop 
Nov 26 21:54:01.579 HYPERVISOR: Stopped.
Nov 26 21:54:01.579 GENERAL: reset done.
