Nov 26 21:03:46.075 HYPERVISOR: Release 0.2.17-amd64/Linux (tag 2017072410)
Nov 26 21:03:46.075 HYPERVISOR: Started on IP = 127.0.0.1, TCP port = 57471.
Nov 26 21:03:46.092 HYPERVISOR: exec_cmd: hypervisor version 
Nov 26 21:03:46.097 HYPERVISOR: exec_cmd: hypervisor working_dir /media/actionmystique/SAMSUNG5-VMs/Labs/GNS3/PVST+ EtherChannel HSRP with Dual L2-L3 Links/project-files/dynamips 
Nov 26 21:03:46.097 GENERAL: working_dir=/media/actionmystique/SAMSUNG5-VMs/Labs/GNS3/PVST+ EtherChannel HSRP with Dual L2-L3 Links/project-files/dynamips
Nov 26 21:03:46.101 HYPERVISOR: exec_cmd: vm create SW5 5 c3725 
Nov 26 21:03:46.102 VM: VM SW5 created.
Nov 26 21:03:46.103 HYPERVISOR: exec_cmd: vm set_con_tcp_port SW5 2005 
Nov 26 21:03:46.105 HYPERVISOR: exec_cmd: vm set_aux_tcp_port SW5 2505 
Nov 26 21:03:46.108 HYPERVISOR: exec_cmd: c3725 get_mac_addr SW5 
Nov 26 21:03:46.109 HYPERVISOR: exec_cmd: vm set_ios SW5 /media/actionmystique/SAMSUNG5-VMs/Images/GNS3/IOS/c3725-adventerprisek9-mz.124-15.T10.image 
Nov 26 21:03:46.110 HYPERVISOR: exec_cmd: vm set_ram SW5 256 
Nov 26 21:03:46.112 HYPERVISOR: exec_cmd: vm get_status SW5 
Nov 26 21:03:46.113 HYPERVISOR: exec_cmd: vm set_idle_pc SW5 0x6026b804 
Nov 26 21:03:46.114 HYPERVISOR: exec_cmd: vm get_status SW5 
Nov 26 21:03:46.116 HYPERVISOR: exec_cmd: vm slot_add_binding SW5 1 0 NM-16ESW 
Nov 26 21:03:46.117 HYPERVISOR: exec_cmd: vm set_config SW5 configs/i5_startup-config.cfg 
Nov 26 21:03:46.311 HYPERVISOR: exec_cmd: nio create_udp udp-44e14efc-227d-4fdf-bb64-00d2759aa30a 30000 127.0.0.1 20000 
Nov 26 21:03:46.314 HYPERVISOR: exec_cmd: vm slot_add_nio_binding SW5 1 3 udp-44e14efc-227d-4fdf-bb64-00d2759aa30a 
Nov 26 21:03:46.315 HYPERVISOR: exec_cmd: vm get_status SW5 
Nov 26 21:03:46.328 HYPERVISOR: exec_cmd: nio create_udp udp-f411501d-ad4c-41e3-b35b-bfa870f254b2 30001 127.0.0.1 20001 
Nov 26 21:03:46.330 HYPERVISOR: exec_cmd: vm slot_add_nio_binding SW5 1 4 udp-f411501d-ad4c-41e3-b35b-bfa870f254b2 
Nov 26 21:03:46.335 HYPERVISOR: exec_cmd: vm get_status SW5 
Nov 26 21:03:46.366 HYPERVISOR: exec_cmd: nio create_udp udp-44b5751f-61f8-479f-9b72-dea80f08b395 30002 127.0.0.1 20002 
Nov 26 21:03:46.367 HYPERVISOR: exec_cmd: vm slot_add_nio_binding SW5 1 5 udp-44b5751f-61f8-479f-9b72-dea80f08b395 
Nov 26 21:03:46.367 HYPERVISOR: exec_cmd: vm get_status SW5 
Nov 26 21:03:46.375 HYPERVISOR: exec_cmd: nio create_udp udp-345f4d4d-3b1d-4c68-ab7e-f493237bffd7 30003 127.0.0.1 20003 
Nov 26 21:03:46.378 HYPERVISOR: exec_cmd: vm slot_add_nio_binding SW5 1 6 udp-345f4d4d-3b1d-4c68-ab7e-f493237bffd7 
Nov 26 21:03:46.379 HYPERVISOR: exec_cmd: vm get_status SW5 
Nov 26 21:03:47.139 HYPERVISOR: exec_cmd: vm extract_config SW5 
Nov 26 21:03:47.169 HYPERVISOR: exec_cmd: nio create_udp udp-500971bd-9f04-4d5e-99a2-bcd5492cd090 15000 127.0.0.1 15002 
Nov 26 21:03:47.169 HYPERVISOR: exec_cmd: vm slot_add_nio_binding SW5 1 1 udp-500971bd-9f04-4d5e-99a2-bcd5492cd090 
Nov 26 21:03:47.169 HYPERVISOR: exec_cmd: vm get_status SW5 
Nov 26 21:03:47.416 HYPERVISOR: exec_cmd: nio create_udp udp-f4bd4059-e594-4b87-89a4-895a7f628e34 15025 127.0.0.1 15022 
Nov 26 21:03:47.417 HYPERVISOR: exec_cmd: vm slot_add_nio_binding SW5 1 2 udp-f4bd4059-e594-4b87-89a4-895a7f628e34 
Nov 26 21:03:47.417 HYPERVISOR: exec_cmd: vm get_status SW5 
Nov 26 21:04:03.939 HYPERVISOR: exec_cmd: vm get_status SW5 
Nov 26 21:04:03.943 HYPERVISOR: exec_cmd: vm extract_config SW5 
Nov 26 21:04:03.991 HYPERVISOR: exec_cmd: vm delete SW5 
Nov 26 21:04:03.991 VM: VM SW5 destroyed.
Nov 26 21:04:03.995 HYPERVISOR: exec_cmd: hypervisor stop 
Nov 26 21:04:04.106 HYPERVISOR: Stopped.
Nov 26 21:04:04.106 GENERAL: reset done.
