Nov 26 21:03:46.140 HYPERVISOR: Release 0.2.17-amd64/Linux (tag 2017072410)
Nov 26 21:03:46.140 HYPERVISOR: Started on IP = 127.0.0.1, TCP port = 52225.
Nov 26 21:03:46.160 HYPERVISOR: exec_cmd: hypervisor version 
Nov 26 21:03:46.162 HYPERVISOR: exec_cmd: hypervisor working_dir /media/actionmystique/SAMSUNG5-VMs/Labs/GNS3/PVST+ EtherChannel HSRP with Dual L2-L3 Links/project-files/dynamips 
Nov 26 21:03:46.162 GENERAL: working_dir=/media/actionmystique/SAMSUNG5-VMs/Labs/GNS3/PVST+ EtherChannel HSRP with Dual L2-L3 Links/project-files/dynamips
Nov 26 21:03:46.163 HYPERVISOR: exec_cmd: vm create SW6 6 c3725 
Nov 26 21:03:46.163 VM: VM SW6 created.
Nov 26 21:03:46.165 HYPERVISOR: exec_cmd: vm set_con_tcp_port SW6 2006 
Nov 26 21:03:46.173 HYPERVISOR: exec_cmd: vm set_aux_tcp_port SW6 2506 
Nov 26 21:03:46.198 HYPERVISOR: exec_cmd: c3725 get_mac_addr SW6 
Nov 26 21:03:46.208 HYPERVISOR: exec_cmd: vm set_ios SW6 /media/actionmystique/SAMSUNG5-VMs/Images/GNS3/IOS/c3725-adventerprisek9-mz.124-15.T10.image 
Nov 26 21:03:46.209 HYPERVISOR: exec_cmd: vm set_ram SW6 256 
Nov 26 21:03:46.210 HYPERVISOR: exec_cmd: vm get_status SW6 
Nov 26 21:03:46.212 HYPERVISOR: exec_cmd: vm set_idle_pc SW6 0x6026b804 
Nov 26 21:03:46.213 HYPERVISOR: exec_cmd: vm get_status SW6 
Nov 26 21:03:46.214 HYPERVISOR: exec_cmd: vm slot_add_binding SW6 1 0 NM-16ESW 
Nov 26 21:03:46.215 HYPERVISOR: exec_cmd: vm set_config SW6 configs/i6_startup-config.cfg 
Nov 26 21:03:46.717 HYPERVISOR: exec_cmd: nio create_udp udp-fa0754af-79c1-45eb-9e7f-7797edbbe3a1 30004 127.0.0.1 20004 
Nov 26 21:03:46.719 HYPERVISOR: exec_cmd: vm slot_add_nio_binding SW6 1 4 udp-fa0754af-79c1-45eb-9e7f-7797edbbe3a1 
Nov 26 21:03:46.719 HYPERVISOR: exec_cmd: vm get_status SW6 
Nov 26 21:03:46.728 HYPERVISOR: exec_cmd: nio create_udp udp-e9b9da5e-d8eb-4bd1-a439-24001908e359 30005 127.0.0.1 20005 
Nov 26 21:03:46.729 HYPERVISOR: exec_cmd: vm slot_add_nio_binding SW6 1 5 udp-e9b9da5e-d8eb-4bd1-a439-24001908e359 
Nov 26 21:03:46.729 HYPERVISOR: exec_cmd: vm get_status SW6 
Nov 26 21:03:47.140 HYPERVISOR: exec_cmd: vm extract_config SW6 
Nov 26 21:03:47.356 HYPERVISOR: exec_cmd: nio create_udp udp-dbf9b60e-c522-41cb-aaf3-a4df5110169a 15019 127.0.0.1 15018 
Nov 26 21:03:47.357 HYPERVISOR: exec_cmd: vm slot_add_nio_binding SW6 1 0 udp-dbf9b60e-c522-41cb-aaf3-a4df5110169a 
Nov 26 21:03:47.357 HYPERVISOR: exec_cmd: vm get_status SW6 
Nov 26 21:03:47.456 HYPERVISOR: exec_cmd: nio create_udp udp-ad5e29fb-73b7-4744-9e72-4090ba5ade4e 15029 127.0.0.1 15026 
Nov 26 21:03:47.457 HYPERVISOR: exec_cmd: vm slot_add_nio_binding SW6 1 3 udp-ad5e29fb-73b7-4744-9e72-4090ba5ade4e 
Nov 26 21:03:47.457 HYPERVISOR: exec_cmd: vm get_status SW6 
Nov 26 21:04:03.939 HYPERVISOR: exec_cmd: vm get_status SW6 
Nov 26 21:04:03.943 HYPERVISOR: exec_cmd: vm extract_config SW6 
Nov 26 21:04:03.990 HYPERVISOR: exec_cmd: vm delete SW6 
Nov 26 21:04:03.990 VM: VM SW6 destroyed.
Nov 26 21:04:03.995 HYPERVISOR: exec_cmd: hypervisor stop 
Nov 26 21:04:04.174 HYPERVISOR: Stopped.
Nov 26 21:04:04.175 GENERAL: reset done.
