Nov 26 21:03:46.288 HYPERVISOR: Release 0.2.17-amd64/Linux (tag 2017072410)
Nov 26 21:03:46.288 HYPERVISOR: Started on IP = 127.0.0.1, TCP port = 58919.
Nov 26 21:03:46.324 HYPERVISOR: exec_cmd: hypervisor version 
Nov 26 21:03:46.329 HYPERVISOR: exec_cmd: hypervisor working_dir /media/actionmystique/SAMSUNG5-VMs/Labs/GNS3/PVST+ EtherChannel HSRP with Dual L2-L3 Links/project-files/dynamips 
Nov 26 21:03:46.329 GENERAL: working_dir=/media/actionmystique/SAMSUNG5-VMs/Labs/GNS3/PVST+ EtherChannel HSRP with Dual L2-L3 Links/project-files/dynamips
Nov 26 21:03:46.330 HYPERVISOR: exec_cmd: vm create VerISPon 12 c7200 
Nov 26 21:03:46.330 VM: VM VerISPon created.
Nov 26 21:03:46.336 HYPERVISOR: exec_cmd: vm set_con_tcp_port VerISPon 2014 
Nov 26 21:03:46.343 HYPERVISOR: exec_cmd: vm set_aux_tcp_port VerISPon 2514 
Nov 26 21:03:46.344 HYPERVISOR: exec_cmd: c7200 get_mac_addr VerISPon 
Nov 26 21:03:46.345 HYPERVISOR: exec_cmd: vm get_status VerISPon 
Nov 26 21:03:46.346 HYPERVISOR: exec_cmd: vm slot_add_binding VerISPon 0 0 C7200-IO-FE 
Nov 26 21:03:46.347 HYPERVISOR: exec_cmd: vm set_ram VerISPon 512 
Nov 26 21:03:46.348 HYPERVISOR: exec_cmd: vm get_status VerISPon 
Nov 26 21:03:46.352 HYPERVISOR: exec_cmd: vm set_idle_pc VerISPon 0x60188e14 
Nov 26 21:03:46.354 HYPERVISOR: exec_cmd: vm get_status VerISPon 
Nov 26 21:03:46.355 HYPERVISOR: exec_cmd: vm slot_add_binding VerISPon 1 0 PA-POS-OC3 
Nov 26 21:03:46.356 HYPERVISOR: exec_cmd: vm set_ios VerISPon /media/actionmystique/SAMSUNG5-VMs/Images/GNS3/IOS/c7200-adventerprisek9-mz.152-4.M2.image 
Nov 26 21:03:46.357 HYPERVISOR: exec_cmd: vm set_config VerISPon configs/i12_startup-config.cfg 
Nov 26 21:03:47.135 HYPERVISOR: exec_cmd: vm extract_config VerISPon 
Nov 26 21:03:47.761 HYPERVISOR: exec_cmd: nio create_udp udp-e3c600bf-db13-41e1-87b1-99cc0a938918 15059 127.0.0.1 15058 
Nov 26 21:03:47.761 HYPERVISOR: exec_cmd: vm slot_add_nio_binding VerISPon 1 0 udp-e3c600bf-db13-41e1-87b1-99cc0a938918 
Nov 26 21:03:47.761 HYPERVISOR: exec_cmd: vm get_status VerISPon 
Nov 26 21:03:47.784 HYPERVISOR: exec_cmd: nio create_udp udp-ec4383ff-7e05-45b7-b420-dda29680e945 15061 127.0.0.1 15060 
Nov 26 21:03:47.785 HYPERVISOR: exec_cmd: vm slot_add_nio_binding VerISPon 0 0 udp-ec4383ff-7e05-45b7-b420-dda29680e945 
Nov 26 21:03:47.785 HYPERVISOR: exec_cmd: vm get_status VerISPon 
Nov 26 21:04:03.938 HYPERVISOR: exec_cmd: vm get_status VerISPon 
Nov 26 21:04:03.942 HYPERVISOR: exec_cmd: vm extract_config VerISPon 
Nov 26 21:04:03.946 HYPERVISOR: exec_cmd: vm delete VerISPon 
Nov 26 21:04:03.946 VM: VM VerISPon destroyed.
Nov 26 21:04:03.948 HYPERVISOR: exec_cmd: hypervisor stop 
Nov 26 21:04:04.334 HYPERVISOR: Stopped.
Nov 26 21:04:04.334 GENERAL: reset done.
