Dec 04 11:07:56.971 HYPERVISOR: Release 0.2.17-amd64/Linux (tag 2017072410)
Dec 04 11:07:56.971 HYPERVISOR: Started on IP = 127.0.0.1, TCP port = 41943.
Dec 04 11:07:56.987 HYPERVISOR: exec_cmd: hypervisor version 
Dec 04 11:07:56.988 HYPERVISOR: exec_cmd: hypervisor working_dir /media/actionmystique/SAMSUNG5-VMs/Labs/GNS3/git-Public-Labs-Collection/CCNP/TBSHOOT/L3-Technologies/IPv6/Routing-Protocols/OSPFv3/Jean-Christophe_Manciot/1+/TT 2-solutions-linux/project-files/dynamips 
Dec 04 11:07:56.988 GENERAL: working_dir=/media/actionmystique/SAMSUNG5-VMs/Labs/GNS3/git-Public-Labs-Collection/CCNP/TBSHOOT/L3-Technologies/IPv6/Routing-Protocols/OSPFv3/Jean-Christophe_Manciot/1+/TT 2-solutions-linux/project-files/dynamips
Dec 04 11:07:56.988 HYPERVISOR: exec_cmd: vm create ESW5 5 c3725 
Dec 04 11:07:56.988 VM: VM ESW5 created.
Dec 04 11:07:56.988 HYPERVISOR: exec_cmd: vm set_con_tcp_port ESW5 2010 
Dec 04 11:07:56.989 HYPERVISOR: exec_cmd: c3725 get_mac_addr ESW5 
Dec 04 11:07:56.989 HYPERVISOR: exec_cmd: vm set_nvram ESW5 256 
Dec 04 11:07:56.989 HYPERVISOR: exec_cmd: vm set_ios ESW5 /media/actionmystique/SAMSUNG5-VMs/Images/GNS3/IOS/c3725-adventerprisek9-mz.124-15.T10.image 
Dec 04 11:07:56.990 HYPERVISOR: exec_cmd: c3725 set_mac_addr ESW5 c205.6a03.0000 
Dec 04 11:07:56.990 HYPERVISOR: exec_cmd: vm get_status ESW5 
Dec 04 11:07:56.991 HYPERVISOR: exec_cmd: vm slot_add_binding ESW5 1 0 NM-16ESW 
Dec 04 11:07:56.991 HYPERVISOR: exec_cmd: vm get_status ESW5 
Dec 04 11:07:56.991 HYPERVISOR: exec_cmd: vm set_idle_pc ESW5 0x60c05928 
Dec 04 11:07:56.991 HYPERVISOR: exec_cmd: vm set_disk0 ESW5 1 
Dec 04 11:07:56.992 HYPERVISOR: exec_cmd: vm slot_add_binding ESW5 0 16 WIC-2T 
Dec 04 11:07:56.992 HYPERVISOR: exec_cmd: vm set_config ESW5 configs/ios_base_startup-config.txt 
Dec 04 11:07:56.993 HYPERVISOR: exec_cmd: vm set_config ESW5 configs/ios_base_startup-config.txt configs/ios_base_private-config.txt 
Dec 04 11:07:57.303 HYPERVISOR: exec_cmd: nio create_udp udp-46ea859b-4b4e-4540-bb1f-63e312914966 15016 127.0.0.1 15014 
Dec 04 11:07:57.304 HYPERVISOR: exec_cmd: vm slot_add_nio_binding ESW5 1 0 udp-46ea859b-4b4e-4540-bb1f-63e312914966 
Dec 04 11:07:57.304 HYPERVISOR: exec_cmd: vm get_status ESW5 
Dec 04 11:07:57.312 HYPERVISOR: exec_cmd: nio create_udp udp-bfa8a4d0-c406-4839-80ea-051776a0e2c3 15015 127.0.0.1 15017 
Dec 04 11:07:57.312 HYPERVISOR: exec_cmd: vm slot_add_nio_binding ESW5 1 1 udp-bfa8a4d0-c406-4839-80ea-051776a0e2c3 
Dec 04 11:07:57.312 HYPERVISOR: exec_cmd: vm get_status ESW5 
