Dec 04 11:11:30.103 HYPERVISOR: Release 0.2.17-amd64/Linux (tag 2017072410)
Dec 04 11:11:30.103 HYPERVISOR: Started on IP = 127.0.0.1, TCP port = 58071.
Dec 04 11:11:30.119 HYPERVISOR: exec_cmd: hypervisor version 
Dec 04 11:11:30.119 HYPERVISOR: exec_cmd: hypervisor working_dir /media/actionmystique/SAMSUNG5-VMs/Labs/GNS3/git-Public-Labs-Collection/CCNP/TBSHOOT/L3-Technologies/IPv6/Routing-Protocols/RIPng/Jean-Christophe_Manciot/1+/TT 2-solutions-linux/project-files/dynamips 
Dec 04 11:11:30.119 GENERAL: working_dir=/media/actionmystique/SAMSUNG5-VMs/Labs/GNS3/git-Public-Labs-Collection/CCNP/TBSHOOT/L3-Technologies/IPv6/Routing-Protocols/RIPng/Jean-Christophe_Manciot/1+/TT 2-solutions-linux/project-files/dynamips
Dec 04 11:11:30.120 HYPERVISOR: exec_cmd: vm create ESW1 1 c3725 
Dec 04 11:11:30.120 VM: VM ESW1 created.
Dec 04 11:11:30.121 HYPERVISOR: exec_cmd: vm set_con_tcp_port ESW1 2004 
Dec 04 11:11:30.121 HYPERVISOR: exec_cmd: c3725 get_mac_addr ESW1 
Dec 04 11:11:30.122 HYPERVISOR: exec_cmd: vm set_nvram ESW1 256 
Dec 04 11:11:30.123 HYPERVISOR: exec_cmd: vm set_ios ESW1 /media/actionmystique/SAMSUNG5-VMs/Images/GNS3/IOS/c3725-adventerprisek9-mz.124-15.T10.image 
Dec 04 11:11:30.123 HYPERVISOR: exec_cmd: c3725 set_mac_addr ESW1 c201.1b91.0000 
Dec 04 11:11:30.124 HYPERVISOR: exec_cmd: vm get_status ESW1 
Dec 04 11:11:30.125 HYPERVISOR: exec_cmd: vm slot_add_binding ESW1 1 0 NM-16ESW 
Dec 04 11:11:30.125 HYPERVISOR: exec_cmd: vm get_status ESW1 
Dec 04 11:11:30.126 HYPERVISOR: exec_cmd: vm set_idle_pc ESW1 0x6026b804 
Dec 04 11:11:30.128 HYPERVISOR: exec_cmd: vm set_disk0 ESW1 1 
Dec 04 11:11:30.129 HYPERVISOR: exec_cmd: vm slot_add_binding ESW1 0 16 WIC-2T 
Dec 04 11:11:30.130 HYPERVISOR: exec_cmd: vm set_config ESW1 configs/ios_base_startup-config.txt 
Dec 04 11:11:30.131 HYPERVISOR: exec_cmd: vm set_config ESW1 configs/ios_base_startup-config.txt configs/ios_base_private-config.txt 
Dec 04 11:11:30.277 HYPERVISOR: exec_cmd: nio create_udp udp-af9659bf-d474-4137-8642-cee66e1737ff 15009 127.0.0.1 15010 
Dec 04 11:11:30.278 HYPERVISOR: exec_cmd: vm slot_add_nio_binding ESW1 1 1 udp-af9659bf-d474-4137-8642-cee66e1737ff 
Dec 04 11:11:30.279 HYPERVISOR: exec_cmd: vm get_status ESW1 
Dec 04 11:11:30.288 HYPERVISOR: exec_cmd: nio create_udp udp-c7680573-a41c-4e8e-b926-69dd81e3e325 15004 127.0.0.1 15011 
Dec 04 11:11:30.288 HYPERVISOR: exec_cmd: vm slot_add_nio_binding ESW1 1 0 udp-c7680573-a41c-4e8e-b926-69dd81e3e325 
Dec 04 11:11:30.289 HYPERVISOR: exec_cmd: vm get_status ESW1 
