Sep 05 15:50:02.600 HYPERVISOR: Release 0.2.16-amd64/Linux (tag 2015060118)
Sep 05 15:50:02.600 HYPERVISOR: Started on IP = 127.0.0.1, TCP port = 42823.
Sep 05 15:50:02.606 HYPERVISOR: exec_cmd: hypervisor version 
Sep 05 15:50:02.606 HYPERVISOR: exec_cmd: hypervisor working_dir /media/actionmystique/SAMSUNG-850-Ext4/Labs/GNS3/CCNP/TBSHOOT/Infrastructure-Services/Device-Management/Telnet-SSH/Jean-Christophe_Manciot/1+/TT 2-linux/project-files/dynamips 
Sep 05 15:50:02.606 GENERAL: working_dir=/media/actionmystique/SAMSUNG-850-Ext4/Labs/GNS3/CCNP/TBSHOOT/Infrastructure-Services/Device-Management/Telnet-SSH/Jean-Christophe_Manciot/1+/TT 2-linux/project-files/dynamips
Sep 05 15:50:02.607 HYPERVISOR: exec_cmd: vm create ESW1 1 c3725 
Sep 05 15:50:02.607 VM: VM ESW1 created.
Sep 05 15:50:02.607 HYPERVISOR: exec_cmd: vm set_con_tcp_port ESW1 2004 
Sep 05 15:50:02.607 HYPERVISOR: exec_cmd: c3725 get_mac_addr ESW1 
Sep 05 15:50:02.608 HYPERVISOR: exec_cmd: vm set_ios ESW1 /media/actionmystique/SAMSUNG-850-Ext4/Images/GNS3/IOS/c3725-adventerprisek9-mz.124-15.T10.image 
Sep 05 15:50:02.608 HYPERVISOR: exec_cmd: vm set_nvram ESW1 256 
Sep 05 15:50:02.608 HYPERVISOR: exec_cmd: vm slot_add_binding ESW1 0 16 WIC-2T 
Sep 05 15:50:02.609 HYPERVISOR: exec_cmd: vm set_disk0 ESW1 1 
Sep 05 15:50:02.609 HYPERVISOR: exec_cmd: vm get_status ESW1 
Sep 05 15:50:02.609 HYPERVISOR: exec_cmd: vm set_idle_pc ESW1 0x614ac27c 
Sep 05 15:50:02.610 HYPERVISOR: exec_cmd: vm get_status ESW1 
Sep 05 15:50:02.610 HYPERVISOR: exec_cmd: vm slot_add_binding ESW1 1 0 NM-16ESW 
Sep 05 15:50:02.610 HYPERVISOR: exec_cmd: c3725 set_mac_addr ESW1 c201.1a63.0000 
Sep 05 15:50:02.611 HYPERVISOR: exec_cmd: vm set_config ESW1 configs/i1_startup-config.cfg 
Sep 05 15:50:02.611 HYPERVISOR: exec_cmd: vm set_config ESW1 configs/i1_startup-config.cfg configs/i1_private-config.cfg 
Sep 05 15:50:02.673 HYPERVISOR: exec_cmd: nio create_tap tap-371c87f8-7d00-4292-9844-e9b00ba274a2 tap0 
Sep 05 15:50:02.675 HYPERVISOR: exec_cmd: vm slot_add_nio_binding ESW1 1 1 tap-371c87f8-7d00-4292-9844-e9b00ba274a2 
Sep 05 15:50:02.675 HYPERVISOR: exec_cmd: vm get_status ESW1 
Sep 05 15:50:02.715 HYPERVISOR: exec_cmd: nio create_udp udp-479623c4-fffa-4ba1-9e7a-65632d64e19f 15004 127.0.0.1 15005 
Sep 05 15:50:02.721 HYPERVISOR: exec_cmd: vm slot_add_nio_binding ESW1 1 0 udp-479623c4-fffa-4ba1-9e7a-65632d64e19f 
Sep 05 15:50:02.721 HYPERVISOR: exec_cmd: vm get_status ESW1 
Sep 05 15:50:04.009 HYPERVISOR: exec_cmd: vm create Ghost 0 c3725 
Sep 05 15:50:04.010 VM: VM Ghost created.
Sep 05 15:50:04.012 HYPERVISOR: exec_cmd: vm set_ios Ghost /media/actionmystique/SAMSUNG-850-Ext4/Images/GNS3/IOS/c3725-adventerprisek9-mz.124-15.T10.image 
Sep 05 15:50:04.013 HYPERVISOR: exec_cmd: vm set_ghost_status Ghost 1 
Sep 05 15:50:04.013 HYPERVISOR: exec_cmd: vm set_ghost_file Ghost c3725-adventerprisek9-mz.124-15.T10.image-128.ghost 
Sep 05 15:50:04.014 HYPERVISOR: exec_cmd: vm get_status Ghost 
Sep 05 15:50:04.014 HYPERVISOR: exec_cmd: vm start Ghost 
Sep 05 15:50:04.278 HYPERVISOR: exec_cmd: vm get_status Ghost 
Sep 05 15:50:04.278 HYPERVISOR: exec_cmd: vm stop Ghost 
Sep 05 15:50:04.432 VM: VM Ghost shutdown.
Sep 05 15:50:04.433 HYPERVISOR: exec_cmd: vm clean_delete Ghost 
Sep 05 15:50:04.433 VM: VM Ghost destroyed.
Sep 05 15:50:04.434 HYPERVISOR: exec_cmd: vm set_ghost_status ESW1 2 
Sep 05 15:50:04.435 HYPERVISOR: exec_cmd: vm set_ghost_file ESW1 c3725-adventerprisek9-mz.124-15.T10.image-128.ghost 
Sep 05 15:50:04.435 HYPERVISOR: exec_cmd: vm get_status ESW1 
Sep 05 15:50:04.436 HYPERVISOR: exec_cmd: vm start ESW1 
Sep 05 16:00:54.766 HYPERVISOR: exec_cmd: vm extract_config ESW1 
Sep 05 16:01:17.300 HYPERVISOR: exec_cmd: vm extract_config ESW1 
Sep 05 16:02:12.656 HYPERVISOR: exec_cmd: vm extract_config ESW1 
Sep 05 16:02:44.073 HYPERVISOR: exec_cmd: vm get_status ESW1 
Sep 05 16:02:44.073 HYPERVISOR: exec_cmd: vm stop ESW1 
Sep 05 16:02:44.168 VM: VM ESW1 shutdown.
Sep 05 16:02:44.169 HYPERVISOR: exec_cmd: vm extract_config ESW1 
Sep 05 16:02:46.263 HYPERVISOR: exec_cmd: vm get_status ESW1 
Sep 05 16:02:46.264 HYPERVISOR: exec_cmd: vm extract_config ESW1 
Sep 05 16:02:46.264 HYPERVISOR: exec_cmd: vm delete ESW1 
Sep 05 16:02:46.264 VM: VM ESW1 destroyed.
Sep 05 16:02:46.265 HYPERVISOR: exec_cmd: hypervisor stop 
Sep 05 16:02:46.727 HYPERVISOR: Stopped.
Sep 05 16:02:46.727 GENERAL: reset done.
