Nov 27 16:23:38.498 HYPERVISOR: Release 0.2.17-amd64/Linux (tag 2017072410)
Nov 27 16:23:38.498 HYPERVISOR: Started on IP = 127.0.0.1, TCP port = 51631.
Nov 27 16:23:38.523 HYPERVISOR: exec_cmd: hypervisor version 
Nov 27 16:23:38.524 HYPERVISOR: exec_cmd: hypervisor working_dir /media/actionmystique/SAMSUNG5-VMs/Labs/GNS3/TT 1-solutions-linux-/project-files/dynamips 
Nov 27 16:23:38.524 GENERAL: working_dir=/media/actionmystique/SAMSUNG5-VMs/Labs/GNS3/TT 1-solutions-linux-/project-files/dynamips
Nov 27 16:23:38.525 HYPERVISOR: exec_cmd: vm create SW2 2 c3725 
Nov 27 16:23:38.525 VM: VM SW2 created.
Nov 27 16:23:38.526 HYPERVISOR: exec_cmd: vm set_con_tcp_port SW2 2002 
Nov 27 16:23:38.527 HYPERVISOR: exec_cmd: c3725 get_mac_addr SW2 
Nov 27 16:23:38.528 HYPERVISOR: exec_cmd: vm set_nvram SW2 256 
Nov 27 16:23:38.529 HYPERVISOR: exec_cmd: vm get_status SW2 
Nov 27 16:23:38.530 HYPERVISOR: exec_cmd: vm set_idle_pc SW2 0x60c056e4 
Nov 27 16:23:38.531 HYPERVISOR: exec_cmd: c3725 set_mac_addr SW2 eeee.eeee.eeee 
Nov 27 16:23:38.532 HYPERVISOR: exec_cmd: vm set_exec_area SW2 16 
Nov 27 16:23:38.533 HYPERVISOR: exec_cmd: vm get_status SW2 
Nov 27 16:23:38.534 HYPERVISOR: exec_cmd: vm slot_add_binding SW2 1 0 NM-16ESW 
Nov 27 16:23:38.535 HYPERVISOR: exec_cmd: vm set_disk0 SW2 1 
Nov 27 16:23:38.536 HYPERVISOR: exec_cmd: vm set_ios SW2 /media/actionmystique/SAMSUNG5-VMs/Images/GNS3/IOS/c3725-adventerprisek9-mz.124-15.T10.image 
Nov 27 16:23:38.537 HYPERVISOR: exec_cmd: vm slot_add_binding SW2 0 16 WIC-2T 
Nov 27 16:23:38.538 HYPERVISOR: exec_cmd: vm set_config SW2 configs/i2_startup-config.cfg 
Nov 27 16:23:38.540 HYPERVISOR: exec_cmd: vm set_config SW2 configs/i2_startup-config.cfg configs/i2_private-config.cfg 
Nov 27 16:23:38.717 HYPERVISOR: exec_cmd: nio create_udp udp-a8c594cf-da7f-4bb4-9ea8-7e5802a26ebf 15000 127.0.0.1 15001 
Nov 27 16:23:38.718 HYPERVISOR: exec_cmd: vm slot_add_nio_binding SW2 1 0 udp-a8c594cf-da7f-4bb4-9ea8-7e5802a26ebf 
Nov 27 16:23:38.719 HYPERVISOR: exec_cmd: vm get_status SW2 
Nov 27 16:23:38.771 HYPERVISOR: exec_cmd: nio create_udp udp-0619a6cb-31d6-4f66-ab92-7924058570a7 15006 127.0.0.1 15002 
Nov 27 16:23:38.772 HYPERVISOR: exec_cmd: vm slot_add_nio_binding SW2 1 2 udp-0619a6cb-31d6-4f66-ab92-7924058570a7 
Nov 27 16:23:38.773 HYPERVISOR: exec_cmd: vm get_status SW2 
Nov 27 16:23:38.786 HYPERVISOR: exec_cmd: nio create_udp udp-ebd17673-086a-4726-97da-e31300783a52 15007 127.0.0.1 15005 
Nov 27 16:23:38.789 HYPERVISOR: exec_cmd: vm slot_add_nio_binding SW2 1 1 udp-ebd17673-086a-4726-97da-e31300783a52 
Nov 27 16:23:38.790 HYPERVISOR: exec_cmd: vm get_status SW2 
Nov 27 16:23:57.576 HYPERVISOR: exec_cmd: vm get_status SW2 
Nov 27 16:23:57.578 HYPERVISOR: exec_cmd: vm extract_config SW2 
Nov 27 16:23:57.582 HYPERVISOR: exec_cmd: vm delete SW2 
Nov 27 16:23:57.582 VM: VM SW2 destroyed.
Nov 27 16:23:57.583 HYPERVISOR: exec_cmd: hypervisor stop 
Nov 27 16:23:58.042 HYPERVISOR: Stopped.
Nov 27 16:23:58.042 GENERAL: reset done.
