Dec 04 11:16:43.400 HYPERVISOR: Release 0.2.17-amd64/Linux (tag 2017072410)
Dec 04 11:16:43.400 HYPERVISOR: Started on IP = 127.0.0.1, TCP port = 51377.
Dec 04 11:16:43.449 HYPERVISOR: exec_cmd: hypervisor version 
Dec 04 11:16:43.449 HYPERVISOR: exec_cmd: hypervisor working_dir /media/actionmystique/SAMSUNG5-VMs/Labs/GNS3/TT 3-solutions-linux-/project-files/dynamips 
Dec 04 11:16:43.449 GENERAL: working_dir=/media/actionmystique/SAMSUNG5-VMs/Labs/GNS3/TT 3-solutions-linux-/project-files/dynamips
Dec 04 11:16:43.450 HYPERVISOR: exec_cmd: vm create ESW1 1 c3725 
Dec 04 11:16:43.450 VM: VM ESW1 created.
Dec 04 11:16:43.451 HYPERVISOR: exec_cmd: vm set_con_tcp_port ESW1 2004 
Dec 04 11:16:43.457 HYPERVISOR: exec_cmd: c3725 get_mac_addr ESW1 
Dec 04 11:16:43.461 HYPERVISOR: exec_cmd: vm get_status ESW1 
Dec 04 11:16:43.461 HYPERVISOR: exec_cmd: vm slot_add_binding ESW1 1 0 NM-16ESW 
Dec 04 11:16:43.462 HYPERVISOR: exec_cmd: vm slot_add_binding ESW1 0 16 WIC-2T 
Dec 04 11:16:43.462 HYPERVISOR: exec_cmd: vm get_status ESW1 
Dec 04 11:16:43.462 HYPERVISOR: exec_cmd: vm set_idle_pc ESW1 0x6026b804 
Dec 04 11:16:43.463 HYPERVISOR: exec_cmd: vm set_disk0 ESW1 1 
Dec 04 11:16:43.463 HYPERVISOR: exec_cmd: vm set_nvram ESW1 256 
Dec 04 11:16:43.464 HYPERVISOR: exec_cmd: vm set_ios ESW1 /media/actionmystique/SAMSUNG5-VMs/Images/GNS3/IOS/c3725-adventerprisek9-mz.124-15.T10.image 
Dec 04 11:16:43.464 HYPERVISOR: exec_cmd: c3725 set_mac_addr ESW1 c201.1b91.0000 
Dec 04 11:16:43.465 HYPERVISOR: exec_cmd: vm set_config ESW1 configs/ios_base_startup-config.txt 
Dec 04 11:16:43.465 HYPERVISOR: exec_cmd: vm set_config ESW1 configs/ios_base_startup-config.txt configs/ios_base_private-config.txt 
Dec 04 11:16:43.701 HYPERVISOR: exec_cmd: nio create_udp udp-aad50252-03c0-4c8f-afbf-5ac2549b0ec7 15008 127.0.0.1 15010 
Dec 04 11:16:43.707 HYPERVISOR: exec_cmd: vm slot_add_nio_binding ESW1 1 0 udp-aad50252-03c0-4c8f-afbf-5ac2549b0ec7 
Dec 04 11:16:43.712 HYPERVISOR: exec_cmd: vm get_status ESW1 
Dec 04 11:16:43.718 HYPERVISOR: exec_cmd: nio create_udp udp-ac2fee31-d561-4079-93e5-da6d75f6aac5 15011 127.0.0.1 15009 
Dec 04 11:16:43.719 HYPERVISOR: exec_cmd: vm slot_add_nio_binding ESW1 1 1 udp-ac2fee31-d561-4079-93e5-da6d75f6aac5 
Dec 04 11:16:43.719 HYPERVISOR: exec_cmd: vm get_status ESW1 
Dec 04 11:16:55.819 HYPERVISOR: exec_cmd: vm get_status ESW1 
Dec 04 11:16:55.823 HYPERVISOR: exec_cmd: vm extract_config ESW1 
Dec 04 11:16:55.825 HYPERVISOR: exec_cmd: vm delete ESW1 
Dec 04 11:16:55.826 VM: VM ESW1 destroyed.
Dec 04 11:16:55.829 HYPERVISOR: exec_cmd: hypervisor stop 
Dec 04 11:16:55.960 HYPERVISOR: Stopped.
Dec 04 11:16:55.960 GENERAL: reset done.
