Nov 28 08:15:58.145 HYPERVISOR: Release 0.2.17-amd64/Linux (tag 2017072410)
Nov 28 08:15:58.145 HYPERVISOR: Started on IP = 127.0.0.1, TCP port = 51327.
Nov 28 08:15:58.151 HYPERVISOR: exec_cmd: hypervisor version 
Nov 28 08:15:58.152 HYPERVISOR: exec_cmd: hypervisor working_dir /media/actionmystique/SAMSUNG5-VMs/Labs/GNS3/git-Public-Labs-Collection/CCNP/TBSHOOT/L3-Technologies/IPv4/PBR/Jean-Christophe_Manciot/1+/TT 3-solutions-linux/project-files/dynamips 
Nov 28 08:15:58.152 GENERAL: working_dir=/media/actionmystique/SAMSUNG5-VMs/Labs/GNS3/git-Public-Labs-Collection/CCNP/TBSHOOT/L3-Technologies/IPv4/PBR/Jean-Christophe_Manciot/1+/TT 3-solutions-linux/project-files/dynamips
Nov 28 08:15:58.153 HYPERVISOR: exec_cmd: vm create ESW3 3 c3725 
Nov 28 08:15:58.153 VM: VM ESW3 created.
Nov 28 08:15:58.154 HYPERVISOR: exec_cmd: vm set_con_tcp_port ESW3 2006 
Nov 28 08:15:58.155 HYPERVISOR: exec_cmd: c3725 get_mac_addr ESW3 
Nov 28 08:15:58.156 HYPERVISOR: exec_cmd: vm set_disk0 ESW3 1 
Nov 28 08:15:58.158 HYPERVISOR: exec_cmd: vm get_status ESW3 
Nov 28 08:15:58.160 HYPERVISOR: exec_cmd: vm slot_add_binding ESW3 1 0 NM-16ESW 
Nov 28 08:15:58.162 HYPERVISOR: exec_cmd: vm set_ios ESW3 /media/actionmystique/SAMSUNG5-VMs/Images/GNS3/IOS/c3725-adventerprisek9-mz.124-15.T10.image 
Nov 28 08:15:58.170 HYPERVISOR: exec_cmd: c3725 set_mac_addr ESW3 c203.1bfb.0000 
Nov 28 08:15:58.179 HYPERVISOR: exec_cmd: vm slot_add_binding ESW3 0 16 WIC-2T 
Nov 28 08:15:58.181 HYPERVISOR: exec_cmd: vm get_status ESW3 
Nov 28 08:15:58.183 HYPERVISOR: exec_cmd: vm set_idle_pc ESW3 0x6026b804 
Nov 28 08:15:58.184 HYPERVISOR: exec_cmd: vm set_nvram ESW3 256 
Nov 28 08:15:58.185 HYPERVISOR: exec_cmd: vm set_config ESW3 configs/ios_base_startup-config.txt 
Nov 28 08:15:58.186 HYPERVISOR: exec_cmd: vm set_config ESW3 configs/ios_base_startup-config.txt configs/ios_base_private-config.txt 
Nov 28 08:15:58.422 HYPERVISOR: exec_cmd: nio create_udp udp-7f859932-cda4-46c1-9f4e-17e6f4bb276e 15012 127.0.0.1 15013 
Nov 28 08:15:58.423 HYPERVISOR: exec_cmd: vm slot_add_nio_binding ESW3 1 0 udp-7f859932-cda4-46c1-9f4e-17e6f4bb276e 
Nov 28 08:15:58.424 HYPERVISOR: exec_cmd: vm get_status ESW3 
Nov 28 08:16:06.606 HYPERVISOR: exec_cmd: nio create_tap tap-5ef3d180-a47f-46b0-8f82-e1257b76a170 tap0 
Nov 28 08:16:06.607 HYPERVISOR: exec_cmd: vm slot_add_nio_binding ESW3 1 1 tap-5ef3d180-a47f-46b0-8f82-e1257b76a170 
Nov 28 08:16:06.608 HYPERVISOR: exec_cmd: vm get_status ESW3 
