Nov 29 19:02:59.085 HYPERVISOR: Release 0.2.17-amd64/Linux (tag 2017072410)
Nov 29 19:02:59.085 HYPERVISOR: Started on IP = 127.0.0.1, TCP port = 36681.
Nov 29 19:02:59.113 HYPERVISOR: exec_cmd: hypervisor version 
Nov 29 19:02:59.114 HYPERVISOR: exec_cmd: hypervisor working_dir /media/actionmystique/SAMSUNG5-VMs/Labs/GNS3/git-Public-Labs-Collection/CCNP/TBSHOOT/L3-Technologies/IPv6/Routing-Protocols/EIGRPv6/Jean-Christophe_Manciot/1+/TT 1-linux/project-files/dynamips 
Nov 29 19:02:59.114 GENERAL: working_dir=/media/actionmystique/SAMSUNG5-VMs/Labs/GNS3/git-Public-Labs-Collection/CCNP/TBSHOOT/L3-Technologies/IPv6/Routing-Protocols/EIGRPv6/Jean-Christophe_Manciot/1+/TT 1-linux/project-files/dynamips
Nov 29 19:02:59.116 HYPERVISOR: exec_cmd: vm create ESW2 2 c3725 
Nov 29 19:02:59.116 VM: VM ESW2 created.
Nov 29 19:02:59.121 HYPERVISOR: exec_cmd: vm set_con_tcp_port ESW2 2005 
Nov 29 19:02:59.124 HYPERVISOR: exec_cmd: c3725 get_mac_addr ESW2 
Nov 29 19:02:59.126 HYPERVISOR: exec_cmd: vm slot_add_binding ESW2 0 16 WIC-2T 
Nov 29 19:02:59.127 HYPERVISOR: exec_cmd: vm set_ios ESW2 /media/actionmystique/SAMSUNG5-VMs/Images/GNS3/IOS/c3725-adventerprisek9-mz.124-15.T10.image 
Nov 29 19:02:59.128 HYPERVISOR: exec_cmd: vm get_status ESW2 
Nov 29 19:02:59.129 HYPERVISOR: exec_cmd: vm set_idle_pc ESW2 0x614ac27c 
Nov 29 19:02:59.130 HYPERVISOR: exec_cmd: vm get_status ESW2 
Nov 29 19:02:59.131 HYPERVISOR: exec_cmd: vm slot_add_binding ESW2 1 0 NM-16ESW 
Nov 29 19:02:59.132 HYPERVISOR: exec_cmd: c3725 set_mac_addr ESW2 c202.1bd4.0000 
Nov 29 19:02:59.133 HYPERVISOR: exec_cmd: vm set_disk0 ESW2 1 
Nov 29 19:02:59.135 HYPERVISOR: exec_cmd: vm set_nvram ESW2 256 
Nov 29 19:02:59.136 HYPERVISOR: exec_cmd: vm set_config ESW2 configs/ios_base_startup-config.txt 
Nov 29 19:02:59.142 HYPERVISOR: exec_cmd: vm set_config ESW2 configs/ios_base_startup-config.txt configs/ios_base_private-config.txt 
Nov 29 19:02:59.492 HYPERVISOR: exec_cmd: nio create_udp udp-9095cfa7-5dc9-49a7-92f8-69a5eb00651a 15018 127.0.0.1 15016 
Nov 29 19:02:59.493 HYPERVISOR: exec_cmd: vm slot_add_nio_binding ESW2 1 0 udp-9095cfa7-5dc9-49a7-92f8-69a5eb00651a 
Nov 29 19:02:59.493 HYPERVISOR: exec_cmd: vm get_status ESW2 
