Nov 29 19:02:59.093 HYPERVISOR: Release 0.2.17-amd64/Linux (tag 2017072410)
Nov 29 19:02:59.093 HYPERVISOR: Started on IP = 127.0.0.1, TCP port = 53705.
Nov 29 19:02:59.114 HYPERVISOR: exec_cmd: hypervisor version 
Nov 29 19:02:59.116 HYPERVISOR: exec_cmd: hypervisor working_dir /media/actionmystique/SAMSUNG5-VMs/Labs/GNS3/git-Public-Labs-Collection/CCNP/TBSHOOT/L3-Technologies/IPv6/Routing-Protocols/EIGRPv6/Jean-Christophe_Manciot/1+/TT 1-linux/project-files/dynamips 
Nov 29 19:02:59.116 GENERAL: working_dir=/media/actionmystique/SAMSUNG5-VMs/Labs/GNS3/git-Public-Labs-Collection/CCNP/TBSHOOT/L3-Technologies/IPv6/Routing-Protocols/EIGRPv6/Jean-Christophe_Manciot/1+/TT 1-linux/project-files/dynamips
Nov 29 19:02:59.121 HYPERVISOR: exec_cmd: vm create ESW3 3 c3725 
Nov 29 19:02:59.121 VM: VM ESW3 created.
Nov 29 19:02:59.123 HYPERVISOR: exec_cmd: vm set_con_tcp_port ESW3 2006 
Nov 29 19:02:59.125 HYPERVISOR: exec_cmd: c3725 get_mac_addr ESW3 
Nov 29 19:02:59.127 HYPERVISOR: exec_cmd: vm slot_add_binding ESW3 0 16 WIC-2T 
Nov 29 19:02:59.128 HYPERVISOR: exec_cmd: vm set_ios ESW3 /media/actionmystique/SAMSUNG5-VMs/Images/GNS3/IOS/c3725-adventerprisek9-mz.124-15.T10.image 
Nov 29 19:02:59.129 HYPERVISOR: exec_cmd: vm get_status ESW3 
Nov 29 19:02:59.130 HYPERVISOR: exec_cmd: vm set_idle_pc ESW3 0x614ac27c 
Nov 29 19:02:59.131 HYPERVISOR: exec_cmd: vm get_status ESW3 
Nov 29 19:02:59.132 HYPERVISOR: exec_cmd: vm slot_add_binding ESW3 1 0 NM-16ESW 
Nov 29 19:02:59.133 HYPERVISOR: exec_cmd: c3725 set_mac_addr ESW3 c203.1bfb.0000 
Nov 29 19:02:59.134 HYPERVISOR: exec_cmd: vm set_disk0 ESW3 1 
Nov 29 19:02:59.135 HYPERVISOR: exec_cmd: vm set_nvram ESW3 256 
Nov 29 19:02:59.141 HYPERVISOR: exec_cmd: vm set_config ESW3 configs/ios_base_startup-config.txt 
Nov 29 19:02:59.144 HYPERVISOR: exec_cmd: vm set_config ESW3 configs/ios_base_startup-config.txt configs/ios_base_private-config.txt 
Nov 29 19:02:59.301 HYPERVISOR: exec_cmd: nio create_tap tap-727467ca-3b42-4812-8ce3-b55cc0f84c0d tap0 
Nov 29 19:02:59.302 HYPERVISOR: exec_cmd: vm slot_add_nio_binding ESW3 1 1 tap-727467ca-3b42-4812-8ce3-b55cc0f84c0d 
Nov 29 19:02:59.303 HYPERVISOR: exec_cmd: vm get_status ESW3 
Nov 29 19:02:59.506 HYPERVISOR: exec_cmd: nio create_udp udp-208ba0eb-f1ce-4b0e-b55c-8d5630e00c0d 15019 127.0.0.1 15017 
Nov 29 19:02:59.508 HYPERVISOR: exec_cmd: vm slot_add_nio_binding ESW3 1 0 udp-208ba0eb-f1ce-4b0e-b55c-8d5630e00c0d 
Nov 29 19:02:59.508 HYPERVISOR: exec_cmd: vm get_status ESW3 
