Jul 18 19:13:44.488 HYPERVISOR: Release 0.2.16-amd64/Linux (tag 2015060118)
Jul 18 19:13:44.488 HYPERVISOR: Started on IP = 127.0.0.1, TCP port = 37254.
Jul 18 19:13:44.516 HYPERVISOR: exec_cmd: hypervisor version 
Jul 18 19:13:44.517 HYPERVISOR: exec_cmd: hypervisor working_dir /media/actionmystique/SAMSUNG-850-Ext4/Labs/GNS3/CCNP/TBSHOOT/L3-Technologies/IPv6/Routing-Protocols/Redistribution/Jean-Christophe_Manciot/1+/TT 1-solutions-linux/project-files/dynamips 
Jul 18 19:13:44.518 GENERAL: working_dir=/media/actionmystique/SAMSUNG-850-Ext4/Labs/GNS3/CCNP/TBSHOOT/L3-Technologies/IPv6/Routing-Protocols/Redistribution/Jean-Christophe_Manciot/1+/TT 1-solutions-linux/project-files/dynamips
Jul 18 19:13:44.518 HYPERVISOR: exec_cmd: vm create ESW2 2 c3725 
Jul 18 19:13:44.519 VM: VM ESW2 created.
Jul 18 19:13:44.520 HYPERVISOR: exec_cmd: vm set_con_tcp_port ESW2 2005 
Jul 18 19:13:44.520 HYPERVISOR: exec_cmd: c3725 get_mac_addr ESW2 
Jul 18 19:13:44.521 HYPERVISOR: exec_cmd: c3725 set_mac_addr ESW2 c202.1bd4.0000 
Jul 18 19:13:44.523 HYPERVISOR: exec_cmd: vm slot_add_binding ESW2 0 16 WIC-2T 
Jul 18 19:13:44.524 HYPERVISOR: exec_cmd: vm get_status ESW2 
Jul 18 19:13:44.525 HYPERVISOR: exec_cmd: vm set_idle_pc ESW2 0x6026b804 
Jul 18 19:13:44.526 HYPERVISOR: exec_cmd: vm get_status ESW2 
Jul 18 19:13:44.528 HYPERVISOR: exec_cmd: vm slot_add_binding ESW2 1 0 NM-16ESW 
Jul 18 19:13:44.531 HYPERVISOR: exec_cmd: vm set_nvram ESW2 256 
Jul 18 19:13:44.534 HYPERVISOR: exec_cmd: vm set_ios ESW2 /media/actionmystique/SAMSUNG-850-Ext4/Images/GNS3/IOS/c3725-adventerprisek9-mz.124-15.T10.image 
Jul 18 19:13:44.536 HYPERVISOR: exec_cmd: vm set_disk0 ESW2 1 
Jul 18 19:13:44.537 HYPERVISOR: exec_cmd: vm set_config ESW2 configs/ios_base_startup-config.txt 
Jul 18 19:13:44.538 HYPERVISOR: exec_cmd: vm set_config ESW2 configs/ios_base_startup-config.txt configs/ios_base_private-config.txt 
Jul 18 19:13:44.828 HYPERVISOR: exec_cmd: nio create_udp udp-b5678dab-ba2a-47d8-be4f-83c30d946069 15011 127.0.0.1 15010 
Jul 18 19:13:44.829 HYPERVISOR: exec_cmd: vm slot_add_nio_binding ESW2 1 0 udp-b5678dab-ba2a-47d8-be4f-83c30d946069 
Jul 18 19:13:44.830 HYPERVISOR: exec_cmd: vm get_status ESW2 
Jul 18 19:13:49.424 HYPERVISOR: exec_cmd: vm get_status ESW2 
Jul 18 19:13:49.426 HYPERVISOR: exec_cmd: vm extract_config ESW2 
Jul 18 19:13:49.441 HYPERVISOR: exec_cmd: vm delete ESW2 
Jul 18 19:13:49.441 VM: VM ESW2 destroyed.
Jul 18 19:13:49.443 HYPERVISOR: exec_cmd: hypervisor stop 
Jul 18 19:13:49.514 HYPERVISOR: Stopped.
Jul 18 19:13:49.514 GENERAL: reset done.
