Jul 18 19:13:44.486 HYPERVISOR: Release 0.2.16-amd64/Linux (tag 2015060118)
Jul 18 19:13:44.486 HYPERVISOR: Started on IP = 127.0.0.1, TCP port = 48771.
Jul 18 19:13:44.516 HYPERVISOR: exec_cmd: hypervisor version 
Jul 18 19:13:44.517 HYPERVISOR: exec_cmd: hypervisor working_dir /media/actionmystique/SAMSUNG-850-Ext4/Labs/GNS3/CCNP/TBSHOOT/L3-Technologies/IPv6/Routing-Protocols/Redistribution/Jean-Christophe_Manciot/1+/TT 1-solutions-linux/project-files/dynamips 
Jul 18 19:13:44.517 GENERAL: working_dir=/media/actionmystique/SAMSUNG-850-Ext4/Labs/GNS3/CCNP/TBSHOOT/L3-Technologies/IPv6/Routing-Protocols/Redistribution/Jean-Christophe_Manciot/1+/TT 1-solutions-linux/project-files/dynamips
Jul 18 19:13:44.518 HYPERVISOR: exec_cmd: vm create ESW3 3 c3725 
Jul 18 19:13:44.518 VM: VM ESW3 created.
Jul 18 19:13:44.519 HYPERVISOR: exec_cmd: vm set_con_tcp_port ESW3 2006 
Jul 18 19:13:44.520 HYPERVISOR: exec_cmd: c3725 get_mac_addr ESW3 
Jul 18 19:13:44.521 HYPERVISOR: exec_cmd: c3725 set_mac_addr ESW3 c203.1bfb.0000 
Jul 18 19:13:44.522 HYPERVISOR: exec_cmd: vm slot_add_binding ESW3 0 16 WIC-2T 
Jul 18 19:13:44.523 HYPERVISOR: exec_cmd: vm get_status ESW3 
Jul 18 19:13:44.524 HYPERVISOR: exec_cmd: vm set_idle_pc ESW3 0x6026b804 
Jul 18 19:13:44.525 HYPERVISOR: exec_cmd: vm get_status ESW3 
Jul 18 19:13:44.528 HYPERVISOR: exec_cmd: vm slot_add_binding ESW3 1 0 NM-16ESW 
Jul 18 19:13:44.531 HYPERVISOR: exec_cmd: vm set_nvram ESW3 256 
Jul 18 19:13:44.533 HYPERVISOR: exec_cmd: vm set_ios ESW3 /media/actionmystique/SAMSUNG-850-Ext4/Images/GNS3/IOS/c3725-adventerprisek9-mz.124-15.T10.image 
Jul 18 19:13:44.536 HYPERVISOR: exec_cmd: vm set_disk0 ESW3 1 
Jul 18 19:13:44.537 HYPERVISOR: exec_cmd: vm set_config ESW3 configs/ios_base_startup-config.txt 
Jul 18 19:13:44.538 HYPERVISOR: exec_cmd: vm set_config ESW3 configs/ios_base_startup-config.txt configs/ios_base_private-config.txt 
Jul 18 19:13:44.815 HYPERVISOR: exec_cmd: nio create_udp udp-9dfa2058-4493-46f0-8d5d-c9b7ca4227f6 15009 127.0.0.1 15008 
Jul 18 19:13:44.815 HYPERVISOR: exec_cmd: vm slot_add_nio_binding ESW3 1 0 udp-9dfa2058-4493-46f0-8d5d-c9b7ca4227f6 
Jul 18 19:13:44.815 HYPERVISOR: exec_cmd: vm get_status ESW3 
Jul 18 19:13:49.423 HYPERVISOR: exec_cmd: vm get_status ESW3 
Jul 18 19:13:49.425 HYPERVISOR: exec_cmd: vm extract_config ESW3 
Jul 18 19:13:49.440 HYPERVISOR: exec_cmd: vm delete ESW3 
Jul 18 19:13:49.440 VM: VM ESW3 destroyed.
Jul 18 19:13:49.442 HYPERVISOR: exec_cmd: hypervisor stop 
Jul 18 19:13:49.512 HYPERVISOR: Stopped.
Jul 18 19:13:49.513 GENERAL: reset done.
