Dec 04 11:18:53.034 HYPERVISOR: Release 0.2.17-amd64/Linux (tag 2017072410)
Dec 04 11:18:53.034 HYPERVISOR: Started on IP = 127.0.0.1, TCP port = 40803.
Dec 04 11:18:53.072 HYPERVISOR: exec_cmd: hypervisor version 
Dec 04 11:18:53.073 HYPERVISOR: exec_cmd: hypervisor working_dir /media/actionmystique/SAMSUNG5-VMs/Labs/GNS3/git-Public-Labs-Collection/CCNP-Security/FIREWALL/Jean-Christophe_Manciot/1+/Data Center ASA - ASDM - AAA - VMs-linux/project-files/dynamips 
Dec 04 11:18:53.073 GENERAL: working_dir=/media/actionmystique/SAMSUNG5-VMs/Labs/GNS3/git-Public-Labs-Collection/CCNP-Security/FIREWALL/Jean-Christophe_Manciot/1+/Data Center ASA - ASDM - AAA - VMs-linux/project-files/dynamips
Dec 04 11:18:53.074 HYPERVISOR: exec_cmd: vm create SW0_VirtualBox 13 c3725 
Dec 04 11:18:53.075 VM: VM SW0_VirtualBox created.
Dec 04 11:18:53.076 HYPERVISOR: exec_cmd: vm set_con_tcp_port SW0_VirtualBox 2114 
Dec 04 11:18:53.077 HYPERVISOR: exec_cmd: vm set_aux_tcp_port SW0_VirtualBox 2514 
Dec 04 11:18:53.082 HYPERVISOR: exec_cmd: c3725 get_mac_addr SW0_VirtualBox 
Dec 04 11:18:53.084 HYPERVISOR: exec_cmd: vm get_status SW0_VirtualBox 
Dec 04 11:18:53.085 HYPERVISOR: exec_cmd: vm slot_add_binding SW0_VirtualBox 1 0 NM-16ESW 
Dec 04 11:18:53.109 HYPERVISOR: exec_cmd: vm set_ios SW0_VirtualBox /media/actionmystique/SAMSUNG5-VMs/Images/GNS3/IOS/c3725-adventerprisek9-mz.124-15.T10.image 
Dec 04 11:18:53.122 HYPERVISOR: exec_cmd: vm set_exec_area SW0_VirtualBox 16 
Dec 04 11:18:53.125 HYPERVISOR: exec_cmd: c3725 set_mac_addr SW0_VirtualBox c20d.09c0.0000 
Dec 04 11:18:53.126 HYPERVISOR: exec_cmd: vm get_status SW0_VirtualBox 
Dec 04 11:18:53.126 HYPERVISOR: exec_cmd: vm set_idle_pc SW0_VirtualBox 0x602649b4 
Dec 04 11:18:53.127 HYPERVISOR: exec_cmd: vm set_config SW0_VirtualBox configs/i13_startup-config.cfg 
Dec 04 11:18:54.799 HYPERVISOR: exec_cmd: nio create_udp udp-81e033bb-6371-4eed-913e-46880e95426c 15078 127.0.0.1 15079 
Dec 04 11:18:54.799 HYPERVISOR: exec_cmd: vm slot_add_nio_binding SW0_VirtualBox 1 0 udp-81e033bb-6371-4eed-913e-46880e95426c 
Dec 04 11:18:54.799 HYPERVISOR: exec_cmd: vm get_status SW0_VirtualBox 
