Dec 04 11:18:53.011 HYPERVISOR: Release 0.2.17-amd64/Linux (tag 2017072410)
Dec 04 11:18:53.011 HYPERVISOR: Started on IP = 127.0.0.1, TCP port = 32797.
Dec 04 11:18:53.041 HYPERVISOR: exec_cmd: hypervisor version 
Dec 04 11:18:53.042 HYPERVISOR: exec_cmd: hypervisor working_dir /media/actionmystique/SAMSUNG5-VMs/Labs/GNS3/git-Public-Labs-Collection/CCNP-Security/FIREWALL/Jean-Christophe_Manciot/1+/Data Center ASA - ASDM - AAA - VMs-linux/project-files/dynamips 
Dec 04 11:18:53.042 GENERAL: working_dir=/media/actionmystique/SAMSUNG5-VMs/Labs/GNS3/git-Public-Labs-Collection/CCNP-Security/FIREWALL/Jean-Christophe_Manciot/1+/Data Center ASA - ASDM - AAA - VMs-linux/project-files/dynamips
Dec 04 11:18:53.048 HYPERVISOR: exec_cmd: vm create SW0_Management 12 c3725 
Dec 04 11:18:53.048 VM: VM SW0_Management created.
Dec 04 11:18:53.061 HYPERVISOR: exec_cmd: vm set_con_tcp_port SW0_Management 2112 
Dec 04 11:18:53.064 HYPERVISOR: exec_cmd: vm set_aux_tcp_port SW0_Management 2512 
Dec 04 11:18:53.066 HYPERVISOR: exec_cmd: c3725 get_mac_addr SW0_Management 
Dec 04 11:18:53.071 HYPERVISOR: exec_cmd: vm get_status SW0_Management 
Dec 04 11:18:53.073 HYPERVISOR: exec_cmd: vm slot_add_binding SW0_Management 1 0 NM-16ESW 
Dec 04 11:18:53.074 HYPERVISOR: exec_cmd: vm set_ios SW0_Management /media/actionmystique/SAMSUNG5-VMs/Images/GNS3/IOS/c3725-adventerprisek9-mz.124-15.T10.image 
Dec 04 11:18:53.075 HYPERVISOR: exec_cmd: vm set_exec_area SW0_Management 16 
Dec 04 11:18:53.077 HYPERVISOR: exec_cmd: c3725 set_mac_addr SW0_Management c20c.0f9c.0000 
Dec 04 11:18:53.082 HYPERVISOR: exec_cmd: vm get_status SW0_Management 
Dec 04 11:18:53.083 HYPERVISOR: exec_cmd: vm set_idle_pc SW0_Management 0x602649b4 
Dec 04 11:18:53.085 HYPERVISOR: exec_cmd: vm set_config SW0_Management configs/i12_startup-config.cfg 
Dec 04 11:18:53.831 HYPERVISOR: exec_cmd: nio create_tap tap-747e39b1-f085-40d3-8ac4-fb2899e00755 tap1 
Dec 04 11:18:53.832 HYPERVISOR: exec_cmd: vm slot_add_nio_binding SW0_Management 1 0 tap-747e39b1-f085-40d3-8ac4-fb2899e00755 
Dec 04 11:18:53.833 HYPERVISOR: exec_cmd: vm get_status SW0_Management 
Dec 04 11:18:54.683 HYPERVISOR: exec_cmd: nio create_udp udp-42c9d0d0-eb51-460a-9c14-2bffdf686428 15067 127.0.0.1 15066 
Dec 04 11:18:54.684 HYPERVISOR: exec_cmd: vm slot_add_nio_binding SW0_Management 1 1 udp-42c9d0d0-eb51-460a-9c14-2bffdf686428 
Dec 04 11:18:54.684 HYPERVISOR: exec_cmd: vm get_status SW0_Management 
Dec 04 11:18:54.788 HYPERVISOR: exec_cmd: nio create_udp udp-96fa0eda-0d9e-4b80-b18c-06e82e99de43 15077 127.0.0.1 15076 
Dec 04 11:18:54.789 HYPERVISOR: exec_cmd: vm slot_add_nio_binding SW0_Management 1 2 udp-96fa0eda-0d9e-4b80-b18c-06e82e99de43 
Dec 04 11:18:54.790 HYPERVISOR: exec_cmd: vm get_status SW0_Management 
