Dec 04 11:20:04.181 HYPERVISOR: Release 0.2.17-amd64/Linux (tag 2017072410)
Dec 04 11:20:04.181 HYPERVISOR: Started on IP = 127.0.0.1, TCP port = 35425.
Dec 04 11:20:04.213 HYPERVISOR: exec_cmd: hypervisor version 
Dec 04 11:20:04.215 HYPERVISOR: exec_cmd: hypervisor working_dir /media/actionmystique/SAMSUNG5-VMs/Labs/GNS3/Data Center ASA - ASDM - AAA - VMs-linux-/project-files/dynamips 
Dec 04 11:20:04.215 GENERAL: working_dir=/media/actionmystique/SAMSUNG5-VMs/Labs/GNS3/Data Center ASA - ASDM - AAA - VMs-linux-/project-files/dynamips
Dec 04 11:20:04.216 HYPERVISOR: exec_cmd: vm create SW9 10 c3725 
Dec 04 11:20:04.216 VM: VM SW9 created.
Dec 04 11:20:04.222 HYPERVISOR: exec_cmd: vm set_con_tcp_port SW9 2017 
Dec 04 11:20:04.233 HYPERVISOR: exec_cmd: vm set_aux_tcp_port SW9 2517 
Dec 04 11:20:04.234 HYPERVISOR: exec_cmd: c3725 get_mac_addr SW9 
Dec 04 11:20:04.237 HYPERVISOR: exec_cmd: vm get_status SW9 
Dec 04 11:20:04.238 HYPERVISOR: exec_cmd: vm slot_add_binding SW9 1 0 NM-16ESW 
Dec 04 11:20:04.239 HYPERVISOR: exec_cmd: vm set_ios SW9 /media/actionmystique/SAMSUNG5-VMs/Images/GNS3/IOS/c3725-adventerprisek9-mz.124-15.T10.image 
Dec 04 11:20:04.250 HYPERVISOR: exec_cmd: vm set_exec_area SW9 16 
Dec 04 11:20:04.272 HYPERVISOR: exec_cmd: c3725 set_mac_addr SW9 c20a.0a30.0000 
Dec 04 11:20:04.275 HYPERVISOR: exec_cmd: vm get_status SW9 
Dec 04 11:20:04.276 HYPERVISOR: exec_cmd: vm set_idle_pc SW9 0x6148b5dc 
Dec 04 11:20:04.278 HYPERVISOR: exec_cmd: vm set_config SW9 configs/i10_startup-config.cfg 
Dec 04 11:20:04.970 HYPERVISOR: exec_cmd: nio create_udp udp-7c81ef9c-7017-44c8-a30b-b5c1ca25d849 20506 127.0.0.1 20006 
Dec 04 11:20:04.970 HYPERVISOR: exec_cmd: vm slot_add_nio_binding SW9 1 2 udp-7c81ef9c-7017-44c8-a30b-b5c1ca25d849 
Dec 04 11:20:04.971 HYPERVISOR: exec_cmd: vm get_status SW9 
Dec 04 11:20:04.980 HYPERVISOR: exec_cmd: nio create_udp udp-3056166b-e0db-43d8-82f4-7ba54e336a00 20507 127.0.0.1 20007 
Dec 04 11:20:04.980 HYPERVISOR: exec_cmd: vm slot_add_nio_binding SW9 1 3 udp-3056166b-e0db-43d8-82f4-7ba54e336a00 
Dec 04 11:20:04.986 HYPERVISOR: exec_cmd: vm get_status SW9 
Dec 04 11:20:05.823 HYPERVISOR: exec_cmd: nio create_udp udp-314662b9-bf75-4734-83c4-babb710b1a6f 15061 127.0.0.1 15060 
Dec 04 11:20:05.824 HYPERVISOR: exec_cmd: vm slot_add_nio_binding SW9 1 0 udp-314662b9-bf75-4734-83c4-babb710b1a6f 
Dec 04 11:20:05.829 HYPERVISOR: exec_cmd: vm get_status SW9 
Dec 04 11:20:05.841 HYPERVISOR: exec_cmd: nio create_udp udp-7cf297b0-86ec-4a71-8880-d780558520c2 15063 127.0.0.1 15062 
Dec 04 11:20:05.841 HYPERVISOR: exec_cmd: vm slot_add_nio_binding SW9 1 1 udp-7cf297b0-86ec-4a71-8880-d780558520c2 
Dec 04 11:20:05.842 HYPERVISOR: exec_cmd: vm get_status SW9 
Dec 04 11:20:55.991 HYPERVISOR: exec_cmd: vm get_status SW9 
Dec 04 11:20:55.995 HYPERVISOR: exec_cmd: vm extract_config SW9 
Dec 04 11:20:56.004 HYPERVISOR: exec_cmd: vm delete SW9 
Dec 04 11:20:56.004 VM: VM SW9 destroyed.
Dec 04 11:20:56.010 HYPERVISOR: exec_cmd: hypervisor stop 
Dec 04 11:20:56.265 HYPERVISOR: Stopped.
Dec 04 11:20:56.265 GENERAL: reset done.
