Apr 10 15:30:18.976 HYPERVISOR: Release 0.2.14-amd64/Linux (tag 2014092320)
Apr 10 15:30:18.976 HYPERVISOR: Started on IP = 127.0.0.1, TCP port = 7205.
Apr 10 15:30:18.983 HYPERVISOR: exec_cmd: hypervisor version 
Apr 10 15:30:18.983 HYPERVISOR: exec_cmd: hypervisor uuid 
Apr 10 15:30:18.983 HYPERVISOR: exec_cmd: hypervisor working_dir /home/actionmystique/Google Drive/Missions/Certifications/Cisco/Labs/GNS3/CCNP-Security/FIREWALL/Jean-Christophe/1+/Data Center ASA - ASDM - AAA - VMs-linux/Data Center ASA - ASDM - AAA - VMs-linux-files/dynamips 
Apr 10 15:30:18.983 GENERAL: working_dir=/home/actionmystique/Google Drive/Missions/Certifications/Cisco/Labs/GNS3/CCNP-Security/FIREWALL/Jean-Christophe/1+/Data Center ASA - ASDM - AAA - VMs-linux/Data Center ASA - ASDM - AAA - VMs-linux-files/dynamips
Apr 10 15:30:18.983 HYPERVISOR: exec_cmd: vm create SW6 6 c3725 
Apr 10 15:30:18.983 VM: VM SW6 created.
Apr 10 15:30:18.983 HYPERVISOR: exec_cmd: vm set_con_tcp_port SW6 2006 
Apr 10 15:30:18.984 HYPERVISOR: exec_cmd: vm set_aux_tcp_port SW6 2506 
Apr 10 15:30:18.984 HYPERVISOR: exec_cmd: c3725 get_mac_addr SW6 
Apr 10 15:30:18.984 HYPERVISOR: exec_cmd: vm set_ios SW6 /media/actionmystique/SAMSUNG-Ext4/Images/GNS3/IOS/c3725-adventerprisek9-mz.124-15.T10.image 
Apr 10 15:30:18.984 HYPERVISOR: exec_cmd: vm set_sparse_mem SW6 1 
Apr 10 15:30:18.984 HYPERVISOR: exec_cmd: vm set_ram_mmap SW6 1 
Apr 10 15:30:18.984 HYPERVISOR: exec_cmd: c3725 set_mac_addr SW6 c206.0170.0000 
Apr 10 15:30:18.984 HYPERVISOR: exec_cmd: vm set_ghost_status SW6 2 
Apr 10 15:30:18.985 HYPERVISOR: exec_cmd: vm set_ghost_file SW6 c3725-adventerprisek9-mz.124-15.T10.image-128.ghost 
