Dec 04 11:18:52.847 HYPERVISOR: Release 0.2.17-amd64/Linux (tag 2017072410)
Dec 04 11:18:52.847 HYPERVISOR: Started on IP = 127.0.0.1, TCP port = 35643.
Dec 04 11:18:52.859 HYPERVISOR: exec_cmd: hypervisor version 
Dec 04 11:18:52.861 HYPERVISOR: exec_cmd: hypervisor working_dir /media/actionmystique/SAMSUNG5-VMs/Labs/GNS3/git-Public-Labs-Collection/CCNP-Security/FIREWALL/Jean-Christophe_Manciot/1+/Data Center ASA - ASDM - AAA - VMs-linux/project-files/dynamips 
Dec 04 11:18:52.861 GENERAL: working_dir=/media/actionmystique/SAMSUNG5-VMs/Labs/GNS3/git-Public-Labs-Collection/CCNP-Security/FIREWALL/Jean-Christophe_Manciot/1+/Data Center ASA - ASDM - AAA - VMs-linux/project-files/dynamips
Dec 04 11:18:52.862 HYPERVISOR: exec_cmd: vm create SW1 1 c3725 
Dec 04 11:18:52.862 VM: VM SW1 created.
Dec 04 11:18:52.863 HYPERVISOR: exec_cmd: vm set_con_tcp_port SW1 2001 
Dec 04 11:18:52.864 HYPERVISOR: exec_cmd: vm set_aux_tcp_port SW1 2501 
Dec 04 11:18:52.865 HYPERVISOR: exec_cmd: c3725 get_mac_addr SW1 
Dec 04 11:18:52.866 HYPERVISOR: exec_cmd: vm get_status SW1 
Dec 04 11:18:52.867 HYPERVISOR: exec_cmd: vm slot_add_binding SW1 1 0 NM-16ESW 
Dec 04 11:18:52.869 HYPERVISOR: exec_cmd: vm set_ios SW1 /media/actionmystique/SAMSUNG5-VMs/Images/GNS3/IOS/c3725-adventerprisek9-mz.124-15.T10.image 
Dec 04 11:18:52.872 HYPERVISOR: exec_cmd: vm set_exec_area SW1 16 
Dec 04 11:18:52.874 HYPERVISOR: exec_cmd: c3725 set_mac_addr SW1 c201.068c.0000 
Dec 04 11:18:52.876 HYPERVISOR: exec_cmd: vm get_status SW1 
Dec 04 11:18:52.877 HYPERVISOR: exec_cmd: vm set_idle_pc SW1 0x6148b5dc 
Dec 04 11:18:52.878 HYPERVISOR: exec_cmd: vm set_config SW1 configs/i1_startup-config.cfg 
Dec 04 11:18:53.852 HYPERVISOR: exec_cmd: nio create_udp udp-64c4bcce-8b17-4016-8ed2-7a647ffa69d1 15001 127.0.0.1 15000 
Dec 04 11:18:53.856 HYPERVISOR: exec_cmd: vm slot_add_nio_binding SW1 1 10 udp-64c4bcce-8b17-4016-8ed2-7a647ffa69d1 
Dec 04 11:18:53.857 HYPERVISOR: exec_cmd: vm get_status SW1 
Dec 04 11:18:53.981 HYPERVISOR: exec_cmd: nio create_udp udp-c54adfdd-9480-491e-8756-55fcfabcc5b3 15004 127.0.0.1 15003 
Dec 04 11:18:53.982 HYPERVISOR: exec_cmd: vm slot_add_nio_binding SW1 1 2 udp-c54adfdd-9480-491e-8756-55fcfabcc5b3 
Dec 04 11:18:53.983 HYPERVISOR: exec_cmd: vm get_status SW1 
Dec 04 11:18:54.019 HYPERVISOR: exec_cmd: nio create_udp udp-a49b2409-f207-47dc-95b8-3424880898fe 15007 127.0.0.1 15006 
Dec 04 11:18:54.023 HYPERVISOR: exec_cmd: vm slot_add_nio_binding SW1 1 0 udp-a49b2409-f207-47dc-95b8-3424880898fe 
Dec 04 11:18:54.027 HYPERVISOR: exec_cmd: vm get_status SW1 
Dec 04 11:18:54.056 HYPERVISOR: exec_cmd: nio create_udp udp-86da3588-62a4-4a65-8e9f-0300de5847e8 15008 127.0.0.1 15009 
Dec 04 11:18:54.057 HYPERVISOR: exec_cmd: vm slot_add_nio_binding SW1 1 4 udp-86da3588-62a4-4a65-8e9f-0300de5847e8 
Dec 04 11:18:54.057 HYPERVISOR: exec_cmd: vm get_status SW1 
Dec 04 11:18:54.076 HYPERVISOR: exec_cmd: nio create_udp udp-819149c0-0916-4154-b597-cbbf0e07d350 15010 127.0.0.1 15012 
Dec 04 11:18:54.080 HYPERVISOR: exec_cmd: vm slot_add_nio_binding SW1 1 5 udp-819149c0-0916-4154-b597-cbbf0e07d350 
Dec 04 11:18:54.081 HYPERVISOR: exec_cmd: vm get_status SW1 
Dec 04 11:18:54.091 HYPERVISOR: exec_cmd: nio create_udp udp-ac9a0c12-74ea-4e2d-ad7e-b656a83ca4b1 15011 127.0.0.1 15013 
Dec 04 11:18:54.092 HYPERVISOR: exec_cmd: vm slot_add_nio_binding SW1 1 6 udp-ac9a0c12-74ea-4e2d-ad7e-b656a83ca4b1 
Dec 04 11:18:54.092 HYPERVISOR: exec_cmd: vm get_status SW1 
Dec 04 11:18:54.203 HYPERVISOR: exec_cmd: nio create_udp udp-67edf2cd-27de-4f0c-a757-500f4d363a9a 15022 127.0.0.1 15023 
Dec 04 11:18:54.204 HYPERVISOR: exec_cmd: vm slot_add_nio_binding SW1 1 1 udp-67edf2cd-27de-4f0c-a757-500f4d363a9a 
Dec 04 11:18:54.204 HYPERVISOR: exec_cmd: vm get_status SW1 
Dec 04 11:18:54.227 HYPERVISOR: exec_cmd: nio create_udp udp-f3473747-5d1f-4e1b-875c-e78b4789719a 15024 127.0.0.1 15025 
Dec 04 11:18:54.228 HYPERVISOR: exec_cmd: vm slot_add_nio_binding SW1 1 11 udp-f3473747-5d1f-4e1b-875c-e78b4789719a 
Dec 04 11:18:54.228 HYPERVISOR: exec_cmd: vm get_status SW1 
Dec 04 11:18:54.296 HYPERVISOR: exec_cmd: nio create_udp udp-665d0792-ade9-43a0-bc64-02cb0a71730b 15030 127.0.0.1 15031 
Dec 04 11:18:54.297 HYPERVISOR: exec_cmd: vm slot_add_nio_binding SW1 1 3 udp-665d0792-ade9-43a0-bc64-02cb0a71730b 
Dec 04 11:18:54.297 HYPERVISOR: exec_cmd: vm get_status SW1 
Dec 04 11:18:54.311 HYPERVISOR: exec_cmd: nio create_udp udp-dd1b61c6-fb45-43c8-b5cc-61c4633cd402 15032 127.0.0.1 15033 
Dec 04 11:18:54.312 HYPERVISOR: exec_cmd: vm slot_add_nio_binding SW1 1 7 udp-dd1b61c6-fb45-43c8-b5cc-61c4633cd402 
Dec 04 11:18:54.316 HYPERVISOR: exec_cmd: vm get_status SW1 
Dec 04 11:18:54.326 HYPERVISOR: exec_cmd: nio create_udp udp-a8c3c49f-d2e9-4a8d-bbfe-9d7207f8ef55 15034 127.0.0.1 15035 
Dec 04 11:18:54.327 HYPERVISOR: exec_cmd: vm slot_add_nio_binding SW1 1 8 udp-a8c3c49f-d2e9-4a8d-bbfe-9d7207f8ef55 
Dec 04 11:18:54.330 HYPERVISOR: exec_cmd: vm get_status SW1 
Dec 04 11:18:54.360 HYPERVISOR: exec_cmd: nio create_udp udp-38a35471-1e46-4bc6-83e9-8463b99d9f68 15036 127.0.0.1 15037 
Dec 04 11:18:54.361 HYPERVISOR: exec_cmd: vm slot_add_nio_binding SW1 1 9 udp-38a35471-1e46-4bc6-83e9-8463b99d9f68 
Dec 04 11:18:54.361 HYPERVISOR: exec_cmd: vm get_status SW1 
Dec 04 11:18:54.580 HYPERVISOR: exec_cmd: nio create_udp udp-581d8293-e2d2-4c7a-9315-5d46afff8057 15057 127.0.0.1 15056 
Dec 04 11:18:54.580 HYPERVISOR: exec_cmd: vm slot_add_nio_binding SW1 1 12 udp-581d8293-e2d2-4c7a-9315-5d46afff8057 
Dec 04 11:18:54.581 HYPERVISOR: exec_cmd: vm get_status SW1 
Dec 04 11:18:54.716 HYPERVISOR: exec_cmd: nio create_udp udp-b8768f19-b97e-4c45-b146-c7287b76d8d8 15072 127.0.0.1 15070 
Dec 04 11:18:54.717 HYPERVISOR: exec_cmd: vm slot_add_nio_binding SW1 1 13 udp-b8768f19-b97e-4c45-b146-c7287b76d8d8 
Dec 04 11:18:54.717 HYPERVISOR: exec_cmd: vm get_status SW1 
