Apr 10 15:30:18.461 HYPERVISOR: Release 0.2.14-amd64/Linux (tag 2014092320)
Apr 10 15:30:18.461 HYPERVISOR: Started on IP = 127.0.0.1, TCP port = 7200.
Apr 10 15:30:18.465 HYPERVISOR: exec_cmd: hypervisor version 
Apr 10 15:30:18.465 HYPERVISOR: exec_cmd: hypervisor uuid 
Apr 10 15:30:18.465 HYPERVISOR: exec_cmd: hypervisor working_dir /home/actionmystique/Google Drive/Missions/Certifications/Cisco/Labs/GNS3/CCNP-Security/FIREWALL/Jean-Christophe/1+/Data Center ASA - ASDM - AAA - VMs-linux/Data Center ASA - ASDM - AAA - VMs-linux-files/dynamips 
Apr 10 15:30:18.465 GENERAL: working_dir=/home/actionmystique/Google Drive/Missions/Certifications/Cisco/Labs/GNS3/CCNP-Security/FIREWALL/Jean-Christophe/1+/Data Center ASA - ASDM - AAA - VMs-linux/Data Center ASA - ASDM - AAA - VMs-linux-files/dynamips
Apr 10 15:30:18.466 HYPERVISOR: exec_cmd: vm create SW1 1 c3725 
Apr 10 15:30:18.466 VM: VM SW1 created.
Apr 10 15:30:18.466 HYPERVISOR: exec_cmd: vm set_con_tcp_port SW1 2001 
Apr 10 15:30:18.466 HYPERVISOR: exec_cmd: vm set_aux_tcp_port SW1 2501 
Apr 10 15:30:18.466 HYPERVISOR: exec_cmd: c3725 get_mac_addr SW1 
Apr 10 15:30:18.466 HYPERVISOR: exec_cmd: vm set_ios SW1 /media/actionmystique/SAMSUNG-Ext4/Images/GNS3/IOS/c3725-adventerprisek9-mz.124-15.T10.image 
Apr 10 15:30:18.467 HYPERVISOR: exec_cmd: vm set_sparse_mem SW1 1 
Apr 10 15:30:18.467 HYPERVISOR: exec_cmd: vm set_ram_mmap SW1 1 
Apr 10 15:30:18.467 HYPERVISOR: exec_cmd: c3725 set_mac_addr SW1 c201.068c.0000 
Apr 10 15:30:18.467 HYPERVISOR: exec_cmd: vm create Ghost 0 c7200 
Apr 10 15:30:18.467 VM: VM Ghost created.
Apr 10 15:30:18.467 HYPERVISOR: exec_cmd: vm set_ios Ghost /media/actionmystique/SAMSUNG-Ext4/Images/GNS3/IOS/c3725-adventerprisek9-mz.124-15.T10.image 
Apr 10 15:30:18.467 HYPERVISOR: exec_cmd: vm set_ghost_status Ghost 1 
Apr 10 15:30:18.467 HYPERVISOR: exec_cmd: vm set_ghost_file Ghost c3725-adventerprisek9-mz.124-15.T10.image-128.ghost 
Apr 10 15:30:18.468 HYPERVISOR: exec_cmd: vm get_status Ghost 
Apr 10 15:30:18.468 HYPERVISOR: exec_cmd: vm start Ghost 
Apr 10 15:30:18.737 HYPERVISOR: exec_cmd: vm get_status Ghost 
Apr 10 15:30:18.737 HYPERVISOR: exec_cmd: vm stop Ghost 
Apr 10 15:30:18.893 VM: VM Ghost shutdown.
Apr 10 15:30:18.894 HYPERVISOR: exec_cmd: vm clean_delete Ghost 
Apr 10 15:30:18.894 VM: VM Ghost destroyed.
Apr 10 15:30:18.895 HYPERVISOR: exec_cmd: vm set_ghost_status SW1 2 
Apr 10 15:30:18.895 HYPERVISOR: exec_cmd: vm set_ghost_file SW1 c3725-adventerprisek9-mz.124-15.T10.image-128.ghost 
