Nov 29 19:09:46.458 HYPERVISOR: Release 0.2.17-amd64/Linux (tag 2017072410)
Nov 29 19:09:46.458 HYPERVISOR: Started on IP = 127.0.0.1, TCP port = 45091.
Nov 29 19:09:46.470 HYPERVISOR: exec_cmd: hypervisor version 
Nov 29 19:09:46.471 HYPERVISOR: exec_cmd: hypervisor working_dir /media/actionmystique/SAMSUNG5-VMs/Labs/GNS3/TT 1-solutions-linux-/project-files/dynamips 
Nov 29 19:09:46.471 GENERAL: working_dir=/media/actionmystique/SAMSUNG5-VMs/Labs/GNS3/TT 1-solutions-linux-/project-files/dynamips
Nov 29 19:09:46.471 HYPERVISOR: exec_cmd: vm create ESW1 1 c3725 
Nov 29 19:09:46.471 VM: VM ESW1 created.
Nov 29 19:09:46.471 HYPERVISOR: exec_cmd: vm set_con_tcp_port ESW1 2004 
Nov 29 19:09:46.472 HYPERVISOR: exec_cmd: c3725 get_mac_addr ESW1 
Nov 29 19:09:46.472 HYPERVISOR: exec_cmd: vm set_disk0 ESW1 1 
Nov 29 19:09:46.472 HYPERVISOR: exec_cmd: vm get_status ESW1 
Nov 29 19:09:46.473 HYPERVISOR: exec_cmd: vm set_idle_pc ESW1 0x6026b804 
Nov 29 19:09:46.473 HYPERVISOR: exec_cmd: c3725 set_mac_addr ESW1 c201.62e1.0000 
Nov 29 19:09:46.473 HYPERVISOR: exec_cmd: vm set_nvram ESW1 256 
Nov 29 19:09:46.474 HYPERVISOR: exec_cmd: vm get_status ESW1 
Nov 29 19:09:46.474 HYPERVISOR: exec_cmd: vm slot_add_binding ESW1 1 0 NM-16ESW 
Nov 29 19:09:46.474 HYPERVISOR: exec_cmd: vm set_ios ESW1 /media/actionmystique/SAMSUNG5-VMs/Images/GNS3/IOS/c3725-adventerprisek9-mz.124-15.T10.image 
Nov 29 19:09:46.475 HYPERVISOR: exec_cmd: vm slot_add_binding ESW1 0 16 WIC-2T 
Nov 29 19:09:46.475 HYPERVISOR: exec_cmd: vm set_config ESW1 configs/i1_startup-config.cfg 
Nov 29 19:09:46.476 HYPERVISOR: exec_cmd: vm set_config ESW1 configs/i1_startup-config.cfg configs/i1_private-config.cfg 
Nov 29 19:09:46.597 HYPERVISOR: exec_cmd: nio create_udp udp-1b6da77d-46b6-4ea5-8980-6fcc1f6991f6 15002 127.0.0.1 15003 
Nov 29 19:09:46.603 HYPERVISOR: exec_cmd: vm slot_add_nio_binding ESW1 1 0 udp-1b6da77d-46b6-4ea5-8980-6fcc1f6991f6 
Nov 29 19:09:46.604 HYPERVISOR: exec_cmd: vm get_status ESW1 
Nov 29 19:10:00.056 HYPERVISOR: exec_cmd: vm get_status ESW1 
Nov 29 19:10:00.056 HYPERVISOR: exec_cmd: vm extract_config ESW1 
Nov 29 19:10:00.057 HYPERVISOR: exec_cmd: vm delete ESW1 
Nov 29 19:10:00.057 VM: VM ESW1 destroyed.
Nov 29 19:10:00.058 HYPERVISOR: exec_cmd: hypervisor stop 
Nov 29 19:10:00.484 HYPERVISOR: Stopped.
Nov 29 19:10:00.484 GENERAL: reset done.
