Nov 27 16:13:47.650 HYPERVISOR: Release 0.2.17-amd64/Linux (tag 2017072410)
Nov 27 16:13:47.650 HYPERVISOR: Started on IP = 127.0.0.1, TCP port = 38443.
Nov 27 16:13:47.676 HYPERVISOR: exec_cmd: hypervisor version 
Nov 27 16:13:47.677 HYPERVISOR: exec_cmd: hypervisor working_dir /media/actionmystique/SAMSUNG5-VMs/Labs/GNS3/TT 1-linux-/project-files/dynamips 
Nov 27 16:13:47.677 GENERAL: working_dir=/media/actionmystique/SAMSUNG5-VMs/Labs/GNS3/TT 1-linux-/project-files/dynamips
Nov 27 16:13:47.678 HYPERVISOR: exec_cmd: vm create SW2 2 c3725 
Nov 27 16:13:47.678 VM: VM SW2 created.
Nov 27 16:13:47.679 HYPERVISOR: exec_cmd: vm set_con_tcp_port SW2 2002 
Nov 27 16:13:47.680 HYPERVISOR: exec_cmd: c3725 get_mac_addr SW2 
Nov 27 16:13:47.681 HYPERVISOR: exec_cmd: vm set_nvram SW2 256 
Nov 27 16:13:47.682 HYPERVISOR: exec_cmd: vm get_status SW2 
Nov 27 16:13:47.682 HYPERVISOR: exec_cmd: vm set_idle_pc SW2 0x614ac2c4 
Nov 27 16:13:47.683 HYPERVISOR: exec_cmd: c3725 set_mac_addr SW2 eeee.eeee.eeee 
Nov 27 16:13:47.684 HYPERVISOR: exec_cmd: vm set_exec_area SW2 16 
Nov 27 16:13:47.685 HYPERVISOR: exec_cmd: vm get_status SW2 
Nov 27 16:13:47.686 HYPERVISOR: exec_cmd: vm slot_add_binding SW2 1 0 NM-16ESW 
Nov 27 16:13:47.687 HYPERVISOR: exec_cmd: vm set_disk0 SW2 1 
Nov 27 16:13:47.688 HYPERVISOR: exec_cmd: vm set_ios SW2 /media/actionmystique/SAMSUNG5-VMs/Images/GNS3/IOS/c3725-adventerprisek9-mz.124-15.T10.image 
Nov 27 16:13:47.689 HYPERVISOR: exec_cmd: vm slot_add_binding SW2 0 16 WIC-2T 
Nov 27 16:13:47.690 HYPERVISOR: exec_cmd: vm set_config SW2 configs/i2_startup-config.cfg 
Nov 27 16:13:47.691 HYPERVISOR: exec_cmd: vm set_config SW2 configs/i2_startup-config.cfg configs/i2_private-config.cfg 
Nov 27 16:13:47.881 HYPERVISOR: exec_cmd: nio create_udp udp-054840bb-45d4-464a-a8ff-2613631bb0b4 15002 127.0.0.1 15001 
Nov 27 16:13:47.881 HYPERVISOR: exec_cmd: vm slot_add_nio_binding SW2 1 2 udp-054840bb-45d4-464a-a8ff-2613631bb0b4 
Nov 27 16:13:47.882 HYPERVISOR: exec_cmd: vm get_status SW2 
Nov 27 16:13:47.894 HYPERVISOR: exec_cmd: nio create_udp udp-89396d0e-f4d0-45fd-9335-50fdd3938575 15003 127.0.0.1 15000 
Nov 27 16:13:47.899 HYPERVISOR: exec_cmd: vm slot_add_nio_binding SW2 1 0 udp-89396d0e-f4d0-45fd-9335-50fdd3938575 
Nov 27 16:13:47.902 HYPERVISOR: exec_cmd: vm get_status SW2 
Nov 27 16:13:47.957 HYPERVISOR: exec_cmd: nio create_udp udp-9de9f046-f6c2-49f9-8f78-99effe677f97 15009 127.0.0.1 15007 
Nov 27 16:13:47.957 HYPERVISOR: exec_cmd: vm slot_add_nio_binding SW2 1 1 udp-9de9f046-f6c2-49f9-8f78-99effe677f97 
Nov 27 16:13:47.958 HYPERVISOR: exec_cmd: vm get_status SW2 
Nov 27 16:14:00.100 HYPERVISOR: exec_cmd: vm get_status SW2 
Nov 27 16:14:00.101 HYPERVISOR: exec_cmd: vm extract_config SW2 
Nov 27 16:14:00.103 HYPERVISOR: exec_cmd: vm delete SW2 
Nov 27 16:14:00.103 VM: VM SW2 destroyed.
Nov 27 16:14:00.105 HYPERVISOR: exec_cmd: hypervisor stop 
Nov 27 16:14:00.185 HYPERVISOR: Stopped.
Nov 27 16:14:00.185 GENERAL: reset done.
