Nov 27 16:13:15.413 HYPERVISOR: Release 0.2.17-amd64/Linux (tag 2017072410)
Nov 27 16:13:15.413 HYPERVISOR: Started on IP = 127.0.0.1, TCP port = 36299.
Nov 27 16:13:15.426 HYPERVISOR: exec_cmd: hypervisor version 
Nov 27 16:13:15.426 HYPERVISOR: exec_cmd: hypervisor working_dir /media/actionmystique/SAMSUNG5-VMs/Labs/GNS3/git-Public-Labs-Collection/CCNP/TBSHOOT/L2-Technologies/STP/Jean-Christophe_Manciot/1+/TT 1-linux/project-files/dynamips 
Nov 27 16:13:15.426 GENERAL: working_dir=/media/actionmystique/SAMSUNG5-VMs/Labs/GNS3/git-Public-Labs-Collection/CCNP/TBSHOOT/L2-Technologies/STP/Jean-Christophe_Manciot/1+/TT 1-linux/project-files/dynamips
Nov 27 16:13:15.427 HYPERVISOR: exec_cmd: vm create SW1 1 c3725 
Nov 27 16:13:15.427 VM: VM SW1 created.
Nov 27 16:13:15.427 HYPERVISOR: exec_cmd: vm set_con_tcp_port SW1 2001 
Nov 27 16:13:15.427 HYPERVISOR: exec_cmd: c3725 get_mac_addr SW1 
Nov 27 16:13:15.427 HYPERVISOR: exec_cmd: vm set_nvram SW1 256 
Nov 27 16:13:15.428 HYPERVISOR: exec_cmd: vm get_status SW1 
Nov 27 16:13:15.428 HYPERVISOR: exec_cmd: vm set_idle_pc SW1 0x614ac2c4 
Nov 27 16:13:15.429 HYPERVISOR: exec_cmd: c3725 set_mac_addr SW1 aaaa.aaaa.aaaa 
Nov 27 16:13:15.429 HYPERVISOR: exec_cmd: vm set_exec_area SW1 16 
Nov 27 16:13:15.429 HYPERVISOR: exec_cmd: vm get_status SW1 
Nov 27 16:13:15.430 HYPERVISOR: exec_cmd: vm slot_add_binding SW1 1 0 NM-16ESW 
Nov 27 16:13:15.430 HYPERVISOR: exec_cmd: vm set_ios SW1 /media/actionmystique/SAMSUNG5-VMs/Images/GNS3/IOS/c3725-adventerprisek9-mz.124-15.T10.image 
Nov 27 16:13:15.430 HYPERVISOR: exec_cmd: vm slot_add_binding SW1 0 16 WIC-2T 
Nov 27 16:13:15.431 HYPERVISOR: exec_cmd: vm set_disk0 SW1 1 
Nov 27 16:13:15.431 HYPERVISOR: exec_cmd: vm set_config SW1 configs/i1_startup-config.cfg 
Nov 27 16:13:15.432 HYPERVISOR: exec_cmd: vm set_config SW1 configs/i1_startup-config.cfg configs/i1_private-config.cfg 
Nov 27 16:13:15.455 HYPERVISOR: exec_cmd: nio create_null null-0844587f-143c-452b-9693-6daaf904c502 
Nov 27 16:13:15.458 HYPERVISOR: exec_cmd: vm slot_add_nio_binding SW1 1 0 null-0844587f-143c-452b-9693-6daaf904c502 
Nov 27 16:13:15.459 HYPERVISOR: exec_cmd: vm get_status SW1 
Nov 27 16:13:15.573 HYPERVISOR: exec_cmd: nio create_udp udp-7074af5e-b9c9-4c6b-8d7c-2f7476aa38b0 15003 127.0.0.1 15002 
Nov 27 16:13:15.574 HYPERVISOR: exec_cmd: vm slot_add_nio_binding SW1 1 5 udp-7074af5e-b9c9-4c6b-8d7c-2f7476aa38b0 
Nov 27 16:13:15.574 HYPERVISOR: exec_cmd: vm get_status SW1 
Nov 27 16:13:15.583 HYPERVISOR: exec_cmd: nio create_udp udp-db202ae2-e0c4-448c-a68b-46a1fe581c6d 15000 127.0.0.1 15004 
Nov 27 16:13:15.584 HYPERVISOR: exec_cmd: vm slot_add_nio_binding SW1 1 6 udp-db202ae2-e0c4-448c-a68b-46a1fe581c6d 
Nov 27 16:13:15.585 HYPERVISOR: exec_cmd: vm get_status SW1 
Nov 27 16:13:15.646 HYPERVISOR: exec_cmd: nio create_udp udp-478ea5bd-d030-45b2-961c-cfe85536b7b1 15007 127.0.0.1 15009 
Nov 27 16:13:15.649 HYPERVISOR: exec_cmd: vm slot_add_nio_binding SW1 1 1 udp-478ea5bd-d030-45b2-961c-cfe85536b7b1 
Nov 27 16:13:15.650 HYPERVISOR: exec_cmd: vm get_status SW1 
