Nov 27 16:16:14.794 HYPERVISOR: Release 0.2.17-amd64/Linux (tag 2017072410)
Nov 27 16:16:14.794 HYPERVISOR: Started on IP = 127.0.0.1, TCP port = 56133.
Nov 27 16:16:14.811 HYPERVISOR: exec_cmd: hypervisor version 
Nov 27 16:16:14.811 HYPERVISOR: exec_cmd: hypervisor working_dir /media/actionmystique/SAMSUNG5-VMs/Labs/GNS3/git-Public-Labs-Collection/CCNP/TBSHOOT/L3-Technologies/BFD/Jean-Christophe_Manciot/1+/TT 1-linux/project-files/dynamips 
Nov 27 16:16:14.811 GENERAL: working_dir=/media/actionmystique/SAMSUNG5-VMs/Labs/GNS3/git-Public-Labs-Collection/CCNP/TBSHOOT/L3-Technologies/BFD/Jean-Christophe_Manciot/1+/TT 1-linux/project-files/dynamips
Nov 27 16:16:14.812 HYPERVISOR: exec_cmd: vm create ESW4 4 c3725 
Nov 27 16:16:14.812 VM: VM ESW4 created.
Nov 27 16:16:14.813 HYPERVISOR: exec_cmd: vm set_con_tcp_port ESW4 2009 
Nov 27 16:16:14.813 HYPERVISOR: exec_cmd: c3725 get_mac_addr ESW4 
Nov 27 16:16:14.817 HYPERVISOR: exec_cmd: vm set_nvram ESW4 256 
Nov 27 16:16:14.820 HYPERVISOR: exec_cmd: vm get_status ESW4 
Nov 27 16:16:14.822 HYPERVISOR: exec_cmd: vm set_idle_pc ESW4 0x60c06d20 
Nov 27 16:16:14.823 HYPERVISOR: exec_cmd: c3725 set_mac_addr ESW4 c204.68ae.0000 
Nov 27 16:16:14.825 HYPERVISOR: exec_cmd: vm get_status ESW4 
Nov 27 16:16:14.826 HYPERVISOR: exec_cmd: vm slot_add_binding ESW4 1 0 NM-16ESW 
Nov 27 16:16:14.827 HYPERVISOR: exec_cmd: vm set_disk0 ESW4 1 
Nov 27 16:16:14.828 HYPERVISOR: exec_cmd: vm set_ios ESW4 /media/actionmystique/SAMSUNG5-VMs/Images/GNS3/IOS/c3725-adventerprisek9-mz.124-15.T10.image 
Nov 27 16:16:14.829 HYPERVISOR: exec_cmd: vm slot_add_binding ESW4 0 16 WIC-2T 
Nov 27 16:16:14.830 HYPERVISOR: exec_cmd: vm set_config ESW4 configs/ios_base_startup-config.txt 
Nov 27 16:16:14.832 HYPERVISOR: exec_cmd: vm set_config ESW4 configs/ios_base_startup-config.txt configs/ios_base_private-config.txt 
Nov 27 16:16:15.146 HYPERVISOR: exec_cmd: nio create_udp udp-d1f1465b-ec93-4277-a6ed-5924e2bcd829 15011 127.0.0.1 15010 
Nov 27 16:16:15.148 HYPERVISOR: exec_cmd: vm slot_add_nio_binding ESW4 1 0 udp-d1f1465b-ec93-4277-a6ed-5924e2bcd829 
Nov 27 16:16:15.148 HYPERVISOR: exec_cmd: vm get_status ESW4 
Nov 27 16:16:15.161 HYPERVISOR: exec_cmd: nio create_udp udp-054adff8-6988-4bc9-b841-b8560f236602 15012 127.0.0.1 15013 
Nov 27 16:16:15.161 HYPERVISOR: exec_cmd: vm slot_add_nio_binding ESW4 1 1 udp-054adff8-6988-4bc9-b841-b8560f236602 
Nov 27 16:16:15.161 HYPERVISOR: exec_cmd: vm get_status ESW4 
