Nov 27 16:17:05.163 HYPERVISOR: Release 0.2.17-amd64/Linux (tag 2017072410)
Nov 27 16:17:05.163 HYPERVISOR: Started on IP = 127.0.0.1, TCP port = 44733.
Nov 27 16:17:05.217 HYPERVISOR: exec_cmd: hypervisor version 
Nov 27 16:17:05.217 HYPERVISOR: exec_cmd: hypervisor working_dir /media/actionmystique/SAMSUNG5-VMs/Labs/GNS3/TT 1-linux-/project-files/dynamips 
Nov 27 16:17:05.217 GENERAL: working_dir=/media/actionmystique/SAMSUNG5-VMs/Labs/GNS3/TT 1-linux-/project-files/dynamips
Nov 27 16:17:05.218 HYPERVISOR: exec_cmd: vm create ESW3 3 c3725 
Nov 27 16:17:05.218 VM: VM ESW3 created.
Nov 27 16:17:05.219 HYPERVISOR: exec_cmd: vm set_con_tcp_port ESW3 2006 
Nov 27 16:17:05.219 HYPERVISOR: exec_cmd: c3725 get_mac_addr ESW3 
Nov 27 16:17:05.219 HYPERVISOR: exec_cmd: vm set_nvram ESW3 256 
Nov 27 16:17:05.220 HYPERVISOR: exec_cmd: vm get_status ESW3 
Nov 27 16:17:05.220 HYPERVISOR: exec_cmd: vm set_idle_pc ESW3 0x60c06d20 
Nov 27 16:17:05.221 HYPERVISOR: exec_cmd: c3725 set_mac_addr ESW3 c203.1bfb.0000 
Nov 27 16:17:05.221 HYPERVISOR: exec_cmd: vm get_status ESW3 
Nov 27 16:17:05.222 HYPERVISOR: exec_cmd: vm slot_add_binding ESW3 1 0 NM-16ESW 
Nov 27 16:17:05.222 HYPERVISOR: exec_cmd: vm set_disk0 ESW3 1 
Nov 27 16:17:05.223 HYPERVISOR: exec_cmd: vm set_ios ESW3 /media/actionmystique/SAMSUNG5-VMs/Images/GNS3/IOS/c3725-adventerprisek9-mz.124-15.T10.image 
Nov 27 16:17:05.223 HYPERVISOR: exec_cmd: vm slot_add_binding ESW3 0 16 WIC-2T 
Nov 27 16:17:05.224 HYPERVISOR: exec_cmd: vm set_config ESW3 configs/ios_base_startup-config.txt 
Nov 27 16:17:05.224 HYPERVISOR: exec_cmd: vm set_config ESW3 configs/ios_base_startup-config.txt configs/ios_base_private-config.txt 
Nov 27 16:17:05.371 HYPERVISOR: exec_cmd: nio create_tap tap-3c7e8d41-7d55-4992-882b-6da745b63e9e tap0 
Nov 27 16:17:05.373 HYPERVISOR: exec_cmd: vm slot_add_nio_binding ESW3 1 1 tap-3c7e8d41-7d55-4992-882b-6da745b63e9e 
Nov 27 16:17:05.373 HYPERVISOR: exec_cmd: vm get_status ESW3 
Nov 27 16:17:05.570 HYPERVISOR: exec_cmd: nio create_udp udp-4e307230-74d7-47d5-af37-77edc2743140 15012 127.0.0.1 15010 
Nov 27 16:17:05.576 HYPERVISOR: exec_cmd: vm slot_add_nio_binding ESW3 1 0 udp-4e307230-74d7-47d5-af37-77edc2743140 
Nov 27 16:17:05.576 HYPERVISOR: exec_cmd: vm get_status ESW3 
Nov 27 16:17:23.666 HYPERVISOR: exec_cmd: vm get_status ESW3 
Nov 27 16:17:23.669 HYPERVISOR: exec_cmd: vm extract_config ESW3 
Nov 27 16:17:23.671 HYPERVISOR: exec_cmd: vm delete ESW3 
Nov 27 16:17:23.671 VM: VM ESW3 destroyed.
Nov 27 16:17:23.674 HYPERVISOR: exec_cmd: hypervisor stop 
Nov 27 16:17:23.704 HYPERVISOR: Stopped.
Nov 27 16:17:23.704 GENERAL: reset done.
