Nov 28 08:40:15.692 HYPERVISOR: Release 0.2.17-amd64/Linux (tag 2017072410)
Nov 28 08:40:15.692 HYPERVISOR: Started on IP = 127.0.0.1, TCP port = 44765.
Nov 28 08:40:15.723 HYPERVISOR: exec_cmd: hypervisor version 
Nov 28 08:40:15.735 HYPERVISOR: exec_cmd: hypervisor working_dir /media/actionmystique/SAMSUNG5-VMs/Labs/GNS3/TT 1-solutions-linux-/project-files/dynamips 
Nov 28 08:40:15.735 GENERAL: working_dir=/media/actionmystique/SAMSUNG5-VMs/Labs/GNS3/TT 1-solutions-linux-/project-files/dynamips
Nov 28 08:40:15.736 HYPERVISOR: exec_cmd: vm create ESW3 3 c3725 
Nov 28 08:40:15.737 VM: VM ESW3 created.
Nov 28 08:40:15.737 HYPERVISOR: exec_cmd: vm set_con_tcp_port ESW3 2006 
Nov 28 08:40:15.738 HYPERVISOR: exec_cmd: c3725 get_mac_addr ESW3 
Nov 28 08:40:15.738 HYPERVISOR: exec_cmd: vm set_disk0 ESW3 1 
Nov 28 08:40:15.739 HYPERVISOR: exec_cmd: vm get_status ESW3 
Nov 28 08:40:15.739 HYPERVISOR: exec_cmd: vm slot_add_binding ESW3 1 0 NM-16ESW 
Nov 28 08:40:15.740 HYPERVISOR: exec_cmd: vm set_ios ESW3 /media/actionmystique/SAMSUNG5-VMs/Images/GNS3/IOS/c3725-adventerprisek9-mz.124-15.T10.image 
Nov 28 08:40:15.740 HYPERVISOR: exec_cmd: c3725 set_mac_addr ESW3 c203.1bfb.0000 
Nov 28 08:40:15.741 HYPERVISOR: exec_cmd: vm slot_add_binding ESW3 0 16 WIC-2T 
Nov 28 08:40:15.741 HYPERVISOR: exec_cmd: vm get_status ESW3 
Nov 28 08:40:15.741 HYPERVISOR: exec_cmd: vm set_idle_pc ESW3 0x6026b804 
Nov 28 08:40:15.742 HYPERVISOR: exec_cmd: vm set_nvram ESW3 256 
Nov 28 08:40:15.742 HYPERVISOR: exec_cmd: vm set_config ESW3 configs/ios_base_startup-config.txt 
Nov 28 08:40:15.742 HYPERVISOR: exec_cmd: vm set_config ESW3 configs/ios_base_startup-config.txt configs/ios_base_private-config.txt 
Nov 28 08:40:15.876 HYPERVISOR: exec_cmd: nio create_tap tap-9d58b08a-5665-48fa-8895-9d36797e2923 tap0 
Nov 28 08:40:15.877 HYPERVISOR: exec_cmd: vm slot_add_nio_binding ESW3 1 1 tap-9d58b08a-5665-48fa-8895-9d36797e2923 
Nov 28 08:40:15.877 HYPERVISOR: exec_cmd: vm get_status ESW3 
Nov 28 08:40:16.051 HYPERVISOR: exec_cmd: nio create_udp udp-4f974d5c-583c-4956-8b2c-4187d09a9c4e 15012 127.0.0.1 15013 
Nov 28 08:40:16.052 HYPERVISOR: exec_cmd: vm slot_add_nio_binding ESW3 1 0 udp-4f974d5c-583c-4956-8b2c-4187d09a9c4e 
Nov 28 08:40:16.052 HYPERVISOR: exec_cmd: vm get_status ESW3 
Nov 28 08:53:21.887 HYPERVISOR: exec_cmd: vm get_status ESW3 
Nov 28 08:53:21.891 HYPERVISOR: exec_cmd: vm extract_config ESW3 
Nov 28 08:53:21.893 HYPERVISOR: exec_cmd: vm delete ESW3 
Nov 28 08:53:21.893 VM: VM ESW3 destroyed.
Nov 28 08:53:21.895 HYPERVISOR: exec_cmd: hypervisor stop 
Nov 28 08:53:22.058 HYPERVISOR: Stopped.
Nov 28 08:53:22.058 GENERAL: reset done.
