Nov 29 15:29:35.589 HYPERVISOR: Release 0.2.17-amd64/Linux (tag 2017072410)
Nov 29 15:29:35.589 HYPERVISOR: Started on IP = 127.0.0.1, TCP port = 37149.
Nov 29 15:29:35.609 HYPERVISOR: exec_cmd: hypervisor version 
Nov 29 15:29:35.609 HYPERVISOR: exec_cmd: hypervisor working_dir /media/actionmystique/SAMSUNG5-VMs/Labs/GNS3/git-Public-Labs-Collection/CCNP/TBSHOOT/L3-Technologies/IPv4/Routing-Protocols/Redistribution/Jean-Christophe_Manciot/1+/TT 4-solutions-linux/project-files/dynamips 
Nov 29 15:29:35.609 GENERAL: working_dir=/media/actionmystique/SAMSUNG5-VMs/Labs/GNS3/git-Public-Labs-Collection/CCNP/TBSHOOT/L3-Technologies/IPv4/Routing-Protocols/Redistribution/Jean-Christophe_Manciot/1+/TT 4-solutions-linux/project-files/dynamips
Nov 29 15:29:35.610 HYPERVISOR: exec_cmd: vm create ESW7 7 c3725 
Nov 29 15:29:35.610 VM: VM ESW7 created.
Nov 29 15:29:35.611 HYPERVISOR: exec_cmd: vm set_con_tcp_port ESW7 2019 
Nov 29 15:29:35.612 HYPERVISOR: exec_cmd: c3725 get_mac_addr ESW7 
Nov 29 15:29:35.613 HYPERVISOR: exec_cmd: vm set_nvram ESW7 256 
Nov 29 15:29:35.613 HYPERVISOR: exec_cmd: vm slot_add_binding ESW7 0 16 WIC-2T 
Nov 29 15:29:35.616 HYPERVISOR: exec_cmd: c3725 set_mac_addr ESW7 c207.26fa.0000 
Nov 29 15:29:35.617 HYPERVISOR: exec_cmd: vm set_disk0 ESW7 1 
Nov 29 15:29:35.618 HYPERVISOR: exec_cmd: vm set_ios ESW7 /media/actionmystique/SAMSUNG5-VMs/Images/GNS3/IOS/c3725-adventerprisek9-mz.124-15.T10.image 
Nov 29 15:29:35.619 HYPERVISOR: exec_cmd: vm get_status ESW7 
Nov 29 15:29:35.620 HYPERVISOR: exec_cmd: vm set_idle_pc ESW7 0x6026b804 
Nov 29 15:29:35.622 HYPERVISOR: exec_cmd: vm get_status ESW7 
Nov 29 15:29:35.623 HYPERVISOR: exec_cmd: vm slot_add_binding ESW7 1 0 NM-16ESW 
Nov 29 15:29:35.624 HYPERVISOR: exec_cmd: vm set_config ESW7 configs/i7_startup-config.cfg 
Nov 29 15:29:36.284 HYPERVISOR: exec_cmd: nio create_udp udp-40db88f7-bfba-4660-848b-10b6c53793eb 15033 127.0.0.1 15032 
Nov 29 15:29:36.284 HYPERVISOR: exec_cmd: vm slot_add_nio_binding ESW7 1 3 udp-40db88f7-bfba-4660-848b-10b6c53793eb 
Nov 29 15:29:36.285 HYPERVISOR: exec_cmd: vm get_status ESW7 
Nov 29 15:29:36.292 HYPERVISOR: exec_cmd: nio create_udp udp-7c3c6212-c106-499c-a8ef-30b241237f49 15034 127.0.0.1 15035 
Nov 29 15:29:36.293 HYPERVISOR: exec_cmd: vm slot_add_nio_binding ESW7 1 1 udp-7c3c6212-c106-499c-a8ef-30b241237f49 
Nov 29 15:29:36.293 HYPERVISOR: exec_cmd: vm get_status ESW7 
Nov 29 15:29:36.328 HYPERVISOR: exec_cmd: nio create_udp udp-d014607c-06da-4493-90ed-811895b2f7e8 15037 127.0.0.1 15036 
Nov 29 15:29:36.329 HYPERVISOR: exec_cmd: vm slot_add_nio_binding ESW7 1 4 udp-d014607c-06da-4493-90ed-811895b2f7e8 
Nov 29 15:29:36.329 HYPERVISOR: exec_cmd: vm get_status ESW7 
