Nov 29 15:29:35.399 HYPERVISOR: Release 0.2.17-amd64/Linux (tag 2017072410)
Nov 29 15:29:35.399 HYPERVISOR: Started on IP = 127.0.0.1, TCP port = 49365.
Nov 29 15:29:35.411 HYPERVISOR: exec_cmd: hypervisor version 
Nov 29 15:29:35.412 HYPERVISOR: exec_cmd: hypervisor working_dir /media/actionmystique/SAMSUNG5-VMs/Labs/GNS3/git-Public-Labs-Collection/CCNP/TBSHOOT/L3-Technologies/IPv4/Routing-Protocols/Redistribution/Jean-Christophe_Manciot/1+/TT 4-solutions-linux/project-files/dynamips 
Nov 29 15:29:35.412 GENERAL: working_dir=/media/actionmystique/SAMSUNG5-VMs/Labs/GNS3/git-Public-Labs-Collection/CCNP/TBSHOOT/L3-Technologies/IPv4/Routing-Protocols/Redistribution/Jean-Christophe_Manciot/1+/TT 4-solutions-linux/project-files/dynamips
Nov 29 15:29:35.413 HYPERVISOR: exec_cmd: vm create ESW3 3 c3725 
Nov 29 15:29:35.413 VM: VM ESW3 created.
Nov 29 15:29:35.414 HYPERVISOR: exec_cmd: vm set_con_tcp_port ESW3 2006 
Nov 29 15:29:35.415 HYPERVISOR: exec_cmd: c3725 get_mac_addr ESW3 
Nov 29 15:29:35.416 HYPERVISOR: exec_cmd: vm set_nvram ESW3 256 
Nov 29 15:29:35.418 HYPERVISOR: exec_cmd: vm slot_add_binding ESW3 0 16 WIC-2T 
Nov 29 15:29:35.421 HYPERVISOR: exec_cmd: c3725 set_mac_addr ESW3 c203.1bfb.0000 
Nov 29 15:29:35.425 HYPERVISOR: exec_cmd: vm set_disk0 ESW3 1 
Nov 29 15:29:35.429 HYPERVISOR: exec_cmd: vm set_ios ESW3 /media/actionmystique/SAMSUNG5-VMs/Images/GNS3/IOS/c3725-adventerprisek9-mz.124-15.T10.image 
Nov 29 15:29:35.432 HYPERVISOR: exec_cmd: vm get_status ESW3 
Nov 29 15:29:35.434 HYPERVISOR: exec_cmd: vm set_idle_pc ESW3 0x6026b804 
Nov 29 15:29:35.436 HYPERVISOR: exec_cmd: vm get_status ESW3 
Nov 29 15:29:35.438 HYPERVISOR: exec_cmd: vm slot_add_binding ESW3 1 0 NM-16ESW 
Nov 29 15:29:35.440 HYPERVISOR: exec_cmd: vm set_config ESW3 configs/ios_base_startup-config.txt 
Nov 29 15:29:35.442 HYPERVISOR: exec_cmd: vm set_config ESW3 configs/ios_base_startup-config.txt configs/ios_base_private-config.txt 
Nov 29 15:29:35.639 HYPERVISOR: exec_cmd: nio create_tap tap-6c571643-cc9a-4318-a9d7-f6afb3cc81f7 tap0 
Nov 29 15:29:35.642 HYPERVISOR: exec_cmd: vm slot_add_nio_binding ESW3 1 1 tap-6c571643-cc9a-4318-a9d7-f6afb3cc81f7 
Nov 29 15:29:35.643 HYPERVISOR: exec_cmd: vm get_status ESW3 
Nov 29 15:29:36.008 HYPERVISOR: exec_cmd: nio create_udp udp-0a974a1c-03a8-46c0-8e5b-6388183afab4 15006 127.0.0.1 15005 
Nov 29 15:29:36.009 HYPERVISOR: exec_cmd: vm slot_add_nio_binding ESW3 1 0 udp-0a974a1c-03a8-46c0-8e5b-6388183afab4 
Nov 29 15:29:36.009 HYPERVISOR: exec_cmd: vm get_status ESW3 
