Nov 26 20:48:29.790 HYPERVISOR: Release 0.2.17-amd64/Linux (tag 2017072410)
Nov 26 20:48:29.790 HYPERVISOR: Started on IP = 127.0.0.1, TCP port = 39833.
Nov 26 20:48:29.849 HYPERVISOR: exec_cmd: hypervisor version 
Nov 26 20:48:29.850 HYPERVISOR: exec_cmd: hypervisor working_dir /media/actionmystique/SAMSUNG5-VMs/Labs/GNS3/Multi-Areas/project-files/dynamips 
Nov 26 20:48:29.850 GENERAL: working_dir=/media/actionmystique/SAMSUNG5-VMs/Labs/GNS3/Multi-Areas/project-files/dynamips
Nov 26 20:48:29.854 HYPERVISOR: exec_cmd: vm create ASBR5 6 c7200 
Nov 26 20:48:29.854 VM: VM ASBR5 created.
Nov 26 20:48:29.857 HYPERVISOR: exec_cmd: vm set_con_tcp_port ASBR5 2004 
Nov 26 20:48:29.858 HYPERVISOR: exec_cmd: vm set_aux_tcp_port ASBR5 2100 
Nov 26 20:48:29.860 HYPERVISOR: exec_cmd: c7200 get_mac_addr ASBR5 
Nov 26 20:48:29.862 HYPERVISOR: exec_cmd: vm get_status ASBR5 
Nov 26 20:48:29.864 HYPERVISOR: exec_cmd: vm slot_add_binding ASBR5 0 0 C7200-IO-FE 
Nov 26 20:48:29.865 HYPERVISOR: exec_cmd: vm get_status ASBR5 
Nov 26 20:48:29.866 HYPERVISOR: exec_cmd: vm slot_remove_binding ASBR5 0 0 
Nov 26 20:48:29.868 HYPERVISOR: exec_cmd: vm get_status ASBR5 
Nov 26 20:48:29.870 HYPERVISOR: exec_cmd: vm slot_add_binding ASBR5 0 0 C7200-IO-GE-E 
Nov 26 20:48:29.873 HYPERVISOR: exec_cmd: vm set_ram ASBR5 512 
Nov 26 20:48:29.874 HYPERVISOR: exec_cmd: vm get_status ASBR5 
Nov 26 20:48:29.880 HYPERVISOR: exec_cmd: vm set_idle_pc ASBR5 0x60188e14 
Nov 26 20:48:29.892 HYPERVISOR: exec_cmd: vm get_status ASBR5 
Nov 26 20:48:29.893 HYPERVISOR: exec_cmd: vm slot_add_binding ASBR5 1 0 PA-8T 
Nov 26 20:48:29.895 HYPERVISOR: exec_cmd: vm set_con_tcp_port ASBR5 2004 
Nov 26 20:48:29.897 HYPERVISOR: exec_cmd: vm set_ios ASBR5 /media/actionmystique/SAMSUNG5-VMs/Images/GNS3/IOS/c7200-adventerprisek9-mz.152-4.M2.image 
Nov 26 20:48:29.898 HYPERVISOR: exec_cmd: vm set_config ASBR5 configs/i6_startup-config.cfg 
Nov 26 20:48:30.819 HYPERVISOR: exec_cmd: vm extract_config ASBR5 
Nov 26 20:48:30.931 HYPERVISOR: exec_cmd: nio create_udp udp-32de9c71-3951-4654-a72a-7b9e1f076ea5 15012 127.0.0.1 15013 
Nov 26 20:48:30.935 HYPERVISOR: exec_cmd: vm slot_add_nio_binding ASBR5 1 0 udp-32de9c71-3951-4654-a72a-7b9e1f076ea5 
Nov 26 20:48:30.936 HYPERVISOR: exec_cmd: vm get_status ASBR5 
Nov 26 20:48:31.285 HYPERVISOR: exec_cmd: nio create_udp udp-223edc40-9f57-468e-ae74-b7fc1c972d3b 15041 127.0.0.1 15040 
Nov 26 20:48:31.285 HYPERVISOR: exec_cmd: vm slot_add_nio_binding ASBR5 0 0 udp-223edc40-9f57-468e-ae74-b7fc1c972d3b 
Nov 26 20:48:31.285 HYPERVISOR: exec_cmd: vm get_status ASBR5 
Nov 26 20:48:38.510 HYPERVISOR: exec_cmd: vm extract_config ASBR5 
Nov 26 20:49:00.819 HYPERVISOR: exec_cmd: vm get_status ASBR5 
Nov 26 20:49:00.825 HYPERVISOR: exec_cmd: vm extract_config ASBR5 
Nov 26 20:49:00.830 HYPERVISOR: exec_cmd: vm delete ASBR5 
Nov 26 20:49:00.830 VM: VM ASBR5 destroyed.
Nov 26 20:49:00.834 HYPERVISOR: exec_cmd: hypervisor stop 
Nov 26 20:49:00.866 HYPERVISOR: Stopped.
Nov 26 20:49:00.866 GENERAL: reset done.
