Nov 26 20:48:30.071 HYPERVISOR: Release 0.2.17-amd64/Linux (tag 2017072410)
Nov 26 20:48:30.071 HYPERVISOR: Started on IP = 127.0.0.1, TCP port = 39633.
Nov 26 20:48:30.107 HYPERVISOR: exec_cmd: hypervisor version 
Nov 26 20:48:30.112 HYPERVISOR: exec_cmd: hypervisor working_dir /media/actionmystique/SAMSUNG5-VMs/Labs/GNS3/Multi-Areas/project-files/dynamips 
Nov 26 20:48:30.113 GENERAL: working_dir=/media/actionmystique/SAMSUNG5-VMs/Labs/GNS3/Multi-Areas/project-files/dynamips
Nov 26 20:48:30.116 HYPERVISOR: exec_cmd: vm create IR17 17 c7200 
Nov 26 20:48:30.116 VM: VM IR17 created.
Nov 26 20:48:30.119 HYPERVISOR: exec_cmd: vm set_con_tcp_port IR17 2018 
Nov 26 20:48:30.121 HYPERVISOR: exec_cmd: vm set_aux_tcp_port IR17 2518 
Nov 26 20:48:30.123 HYPERVISOR: exec_cmd: c7200 get_mac_addr IR17 
Nov 26 20:48:30.125 HYPERVISOR: exec_cmd: vm get_status IR17 
Nov 26 20:48:30.126 HYPERVISOR: exec_cmd: vm slot_add_binding IR17 0 0 C7200-IO-FE 
Nov 26 20:48:30.127 HYPERVISOR: exec_cmd: vm set_ios IR17 /media/actionmystique/SAMSUNG5-VMs/Images/GNS3/IOS/c7200-adventerprisek9-mz.152-4.M2.image 
Nov 26 20:48:30.129 HYPERVISOR: exec_cmd: vm get_status IR17 
Nov 26 20:48:30.130 HYPERVISOR: exec_cmd: vm slot_remove_binding IR17 0 0 
Nov 26 20:48:30.132 HYPERVISOR: exec_cmd: vm get_status IR17 
Nov 26 20:48:30.133 HYPERVISOR: exec_cmd: vm slot_add_binding IR17 0 0 C7200-IO-GE-E 
Nov 26 20:48:30.135 HYPERVISOR: exec_cmd: vm get_status IR17 
Nov 26 20:48:30.141 HYPERVISOR: exec_cmd: vm set_idle_pc IR17 0x60188e14 
Nov 26 20:48:30.143 HYPERVISOR: exec_cmd: vm set_ram IR17 512 
Nov 26 20:48:30.145 HYPERVISOR: exec_cmd: vm set_config IR17 configs/i17_startup-config.cfg 
Nov 26 20:48:30.821 HYPERVISOR: exec_cmd: vm extract_config IR17 
Nov 26 20:48:31.392 HYPERVISOR: exec_cmd: nio create_udp udp-abeacd3e-2b09-4d5b-986c-1d055ca337e4 15051 127.0.0.1 15048 
Nov 26 20:48:31.392 HYPERVISOR: exec_cmd: vm slot_add_nio_binding IR17 0 0 udp-abeacd3e-2b09-4d5b-986c-1d055ca337e4 
Nov 26 20:48:31.393 HYPERVISOR: exec_cmd: vm get_status IR17 
Nov 26 20:48:38.511 HYPERVISOR: exec_cmd: vm extract_config IR17 
Nov 26 20:49:00.822 HYPERVISOR: exec_cmd: vm get_status IR17 
Nov 26 20:49:00.827 HYPERVISOR: exec_cmd: vm extract_config IR17 
Nov 26 20:49:00.831 HYPERVISOR: exec_cmd: vm delete IR17 
Nov 26 20:49:00.831 VM: VM IR17 destroyed.
Nov 26 20:49:00.836 HYPERVISOR: exec_cmd: hypervisor stop 
Nov 26 20:49:01.131 HYPERVISOR: Stopped.
Nov 26 20:49:01.131 GENERAL: reset done.
