Nov 26 20:48:30.097 HYPERVISOR: Release 0.2.17-amd64/Linux (tag 2017072410)
Nov 26 20:48:30.097 HYPERVISOR: Started on IP = 127.0.0.1, TCP port = 33113.
Nov 26 20:48:30.124 HYPERVISOR: exec_cmd: hypervisor version 
Nov 26 20:48:30.126 HYPERVISOR: exec_cmd: hypervisor working_dir /media/actionmystique/SAMSUNG5-VMs/Labs/GNS3/Multi-Areas/project-files/dynamips 
Nov 26 20:48:30.126 GENERAL: working_dir=/media/actionmystique/SAMSUNG5-VMs/Labs/GNS3/Multi-Areas/project-files/dynamips
Nov 26 20:48:30.127 HYPERVISOR: exec_cmd: vm create IR18 18 c7200 
Nov 26 20:48:30.127 VM: VM IR18 created.
Nov 26 20:48:30.128 HYPERVISOR: exec_cmd: vm set_con_tcp_port IR18 2017 
Nov 26 20:48:30.130 HYPERVISOR: exec_cmd: vm set_aux_tcp_port IR18 2517 
Nov 26 20:48:30.131 HYPERVISOR: exec_cmd: c7200 get_mac_addr IR18 
Nov 26 20:48:30.133 HYPERVISOR: exec_cmd: vm get_status IR18 
Nov 26 20:48:30.134 HYPERVISOR: exec_cmd: vm slot_add_binding IR18 0 0 C7200-IO-FE 
Nov 26 20:48:30.140 HYPERVISOR: exec_cmd: vm set_ios IR18 /media/actionmystique/SAMSUNG5-VMs/Images/GNS3/IOS/c7200-adventerprisek9-mz.152-4.M2.image 
Nov 26 20:48:30.143 HYPERVISOR: exec_cmd: vm get_status IR18 
Nov 26 20:48:30.144 HYPERVISOR: exec_cmd: vm slot_remove_binding IR18 0 0 
Nov 26 20:48:30.146 HYPERVISOR: exec_cmd: vm get_status IR18 
Nov 26 20:48:30.156 HYPERVISOR: exec_cmd: vm slot_add_binding IR18 0 0 C7200-IO-GE-E 
Nov 26 20:48:30.159 HYPERVISOR: exec_cmd: vm get_status IR18 
Nov 26 20:48:30.160 HYPERVISOR: exec_cmd: vm set_idle_pc IR18 0x60188e14 
Nov 26 20:48:30.160 HYPERVISOR: exec_cmd: vm set_ram IR18 512 
Nov 26 20:48:30.161 HYPERVISOR: exec_cmd: vm set_config IR18 configs/i18_startup-config.cfg 
Nov 26 20:48:30.824 HYPERVISOR: exec_cmd: vm extract_config IR18 
Nov 26 20:48:31.437 HYPERVISOR: exec_cmd: nio create_udp udp-29716db2-64a4-4cb8-a327-f0214d7bc921 15054 127.0.0.1 15055 
Nov 26 20:48:31.438 HYPERVISOR: exec_cmd: vm slot_add_nio_binding IR18 0 0 udp-29716db2-64a4-4cb8-a327-f0214d7bc921 
Nov 26 20:48:31.438 HYPERVISOR: exec_cmd: vm get_status IR18 
Nov 26 20:48:38.516 HYPERVISOR: exec_cmd: vm extract_config IR18 
Nov 26 20:49:00.820 HYPERVISOR: exec_cmd: vm get_status IR18 
Nov 26 20:49:00.826 HYPERVISOR: exec_cmd: vm extract_config IR18 
Nov 26 20:49:00.830 HYPERVISOR: exec_cmd: vm delete IR18 
Nov 26 20:49:00.830 VM: VM IR18 destroyed.
Nov 26 20:49:00.834 HYPERVISOR: exec_cmd: hypervisor stop 
Nov 26 20:49:01.149 HYPERVISOR: Stopped.
Nov 26 20:49:01.149 GENERAL: reset done.
