Nov 26 20:48:29.763 HYPERVISOR: Release 0.2.17-amd64/Linux (tag 2017072410)
Nov 26 20:48:29.763 HYPERVISOR: Started on IP = 127.0.0.1, TCP port = 33749.
Nov 26 20:48:29.790 HYPERVISOR: exec_cmd: hypervisor version 
Nov 26 20:48:29.792 HYPERVISOR: exec_cmd: hypervisor working_dir /media/actionmystique/SAMSUNG5-VMs/Labs/GNS3/Multi-Areas/project-files/dynamips 
Nov 26 20:48:29.792 GENERAL: working_dir=/media/actionmystique/SAMSUNG5-VMs/Labs/GNS3/Multi-Areas/project-files/dynamips
Nov 26 20:48:29.794 HYPERVISOR: exec_cmd: vm create ASBR4 4 c7200 
Nov 26 20:48:29.794 VM: VM ASBR4 created.
Nov 26 20:48:29.796 HYPERVISOR: exec_cmd: vm set_con_tcp_port ASBR4 2003 
Nov 26 20:48:29.807 HYPERVISOR: exec_cmd: vm set_aux_tcp_port ASBR4 2103 
Nov 26 20:48:29.832 HYPERVISOR: exec_cmd: c7200 get_mac_addr ASBR4 
Nov 26 20:48:29.834 HYPERVISOR: exec_cmd: vm get_status ASBR4 
Nov 26 20:48:29.845 HYPERVISOR: exec_cmd: vm slot_add_binding ASBR4 0 0 C7200-IO-FE 
Nov 26 20:48:29.848 HYPERVISOR: exec_cmd: vm get_status ASBR4 
Nov 26 20:48:29.850 HYPERVISOR: exec_cmd: vm slot_remove_binding ASBR4 0 0 
Nov 26 20:48:29.852 HYPERVISOR: exec_cmd: vm get_status ASBR4 
Nov 26 20:48:29.855 HYPERVISOR: exec_cmd: vm slot_add_binding ASBR4 0 0 C7200-IO-GE-E 
Nov 26 20:48:29.857 HYPERVISOR: exec_cmd: vm get_status ASBR4 
Nov 26 20:48:29.858 HYPERVISOR: exec_cmd: vm slot_add_binding ASBR4 2 0 PA-GE 
Nov 26 20:48:29.860 HYPERVISOR: exec_cmd: vm set_ram ASBR4 512 
Nov 26 20:48:29.862 HYPERVISOR: exec_cmd: vm get_status ASBR4 
Nov 26 20:48:29.864 HYPERVISOR: exec_cmd: vm set_idle_pc ASBR4 0x60188e14 
Nov 26 20:48:29.865 HYPERVISOR: exec_cmd: vm get_status ASBR4 
Nov 26 20:48:29.867 HYPERVISOR: exec_cmd: vm slot_add_binding ASBR4 1 0 PA-8T 
Nov 26 20:48:29.868 HYPERVISOR: exec_cmd: vm set_con_tcp_port ASBR4 2003 
Nov 26 20:48:29.871 HYPERVISOR: exec_cmd: vm set_ios ASBR4 /media/actionmystique/SAMSUNG5-VMs/Images/GNS3/IOS/c7200-adventerprisek9-mz.152-4.M2.image 
Nov 26 20:48:29.873 HYPERVISOR: exec_cmd: vm set_config ASBR4 configs/i4_startup-config.cfg 
Nov 26 20:48:30.823 HYPERVISOR: exec_cmd: vm extract_config ASBR4 
Nov 26 20:48:30.935 HYPERVISOR: exec_cmd: nio create_udp udp-8cd089a0-7bea-43ac-a459-35aa771ab099 15009 127.0.0.1 15008 
Nov 26 20:48:30.936 HYPERVISOR: exec_cmd: vm slot_add_nio_binding ASBR4 0 0 udp-8cd089a0-7bea-43ac-a459-35aa771ab099 
Nov 26 20:48:30.936 HYPERVISOR: exec_cmd: vm get_status ASBR4 
Nov 26 20:48:30.961 HYPERVISOR: exec_cmd: nio create_udp udp-61e01924-851a-4b04-b60e-1232d56066c5 15010 127.0.0.1 15011 
Nov 26 20:48:30.961 HYPERVISOR: exec_cmd: vm slot_add_nio_binding ASBR4 1 0 udp-61e01924-851a-4b04-b60e-1232d56066c5 
Nov 26 20:48:30.961 HYPERVISOR: exec_cmd: vm get_status ASBR4 
Nov 26 20:48:31.265 HYPERVISOR: exec_cmd: nio create_udp udp-b3ecd7dc-c4d1-4d02-9ef8-56289a2c7d3c 15038 127.0.0.1 15039 
Nov 26 20:48:31.265 HYPERVISOR: exec_cmd: vm slot_add_nio_binding ASBR4 2 0 udp-b3ecd7dc-c4d1-4d02-9ef8-56289a2c7d3c 
Nov 26 20:48:31.266 HYPERVISOR: exec_cmd: vm get_status ASBR4 
Nov 26 20:48:38.513 HYPERVISOR: exec_cmd: vm extract_config ASBR4 
Nov 26 20:49:00.819 HYPERVISOR: exec_cmd: vm get_status ASBR4 
Nov 26 20:49:00.825 HYPERVISOR: exec_cmd: vm extract_config ASBR4 
Nov 26 20:49:00.830 HYPERVISOR: exec_cmd: vm delete ASBR4 
Nov 26 20:49:00.830 VM: VM ASBR4 destroyed.
Nov 26 20:49:00.834 HYPERVISOR: exec_cmd: hypervisor stop 
Nov 26 20:49:01.305 HYPERVISOR: Stopped.
Nov 26 20:49:01.305 GENERAL: reset done.
