autostart = False
version = 0.8.3
[127.0.0.1:7200]
    workingdir = C:\Users\ActionMystique\Documents\Missions\GNS3\Temp
    udp = 10000
    [[3640]]
        image = C:\Users\ActionMystique\Documents\Missions\IOS\Binaries\c3640-jk9o3s-mz.124-16a.bin
        ram = 192
        idlepc = 0x6307ad74
        sparsemem = True
        ghostios = True
        chassis = 3640
    [[ROUTER Twist]]
        model = 3640
        console = 2000
        aux = 2113
        cnfg = configs\Twist.cfg
        slot0 = NM-1FE-TX
        f0/0 = SW1 1
        x = -433.535533906
        y = -64.2426406871
        z = 1.0
    [[ROUTER Turn]]
        model = 3640
        console = 2001
        aux = 2114
        cnfg = configs\Turn.cfg
        slot0 = NM-1FE-TX
        f0/0 = SW1 2
        x = -119.523340597
        y = -202.857864376
        z = 1.0
    [[ROUTER Rotate]]
        model = 3640
        console = 2002
        aux = 2112
        cnfg = configs\Rotate.cfg
        slot0 = NM-1FE-TX
        f0/0 = SW1 3
        x = -120.715728753
        y = 63.7071067812
        z = 1.0
        hx = 4.70710678119
        hy = 41.4680374315
    [[ETHSW SW1]]
        1 = access 1 Twist f0/0
        2 = access 1 Turn f0/0
        3 = access 1 Rotate f0/0
        x = -255.5
        y = -59.0
        z = 1.0
[GNS3-DATA]
    configs = configs
    m11 = 1.41421356237
    m22 = 1.41421356237
    [[NOTE 1]]
        text = "192.168.123.0 /24"
        x = -324.562012565
        y = -134.329473145
        color = "#0000ff"
    [[NOTE 2]]
        text = ".3"
        x = -147.078210487
        y = 51.7436867076
        color = "#0000ff"
    [[NOTE 3]]
        text = ".1"
        x = -364.159992311
        y = -67.3553390593
        color = "#0000ff"
    [[NOTE 4]]
        text = ".2"
        x = -140.007142675
        y = -172.915259583
        color = "#0000ff"
