Nov 26 20:45:44.551 HYPERVISOR: Release 0.2.17-amd64/Linux (tag 2017072410)
Nov 26 20:45:44.551 HYPERVISOR: Started on IP = 127.0.0.1, TCP port = 60225.
Nov 26 20:45:44.951 HYPERVISOR: exec_cmd: hypervisor version 
Nov 26 20:45:44.953 HYPERVISOR: exec_cmd: hypervisor working_dir /media/actionmystique/SAMSUNG5-VMs/Labs/GNS3/RIPng/project-files/dynamips 
Nov 26 20:45:44.953 GENERAL: working_dir=/media/actionmystique/SAMSUNG5-VMs/Labs/GNS3/RIPng/project-files/dynamips
Nov 26 20:45:44.954 HYPERVISOR: exec_cmd: vm create WAN1 3 c7200 
Nov 26 20:45:44.954 VM: VM WAN1 created.
Nov 26 20:45:44.955 HYPERVISOR: exec_cmd: vm set_con_tcp_port WAN1 2001 
Nov 26 20:45:44.958 HYPERVISOR: exec_cmd: vm set_aux_tcp_port WAN1 2101 
Nov 26 20:45:44.968 HYPERVISOR: exec_cmd: c7200 get_mac_addr WAN1 
Nov 26 20:45:44.971 HYPERVISOR: exec_cmd: vm get_status WAN1 
Nov 26 20:45:44.973 HYPERVISOR: exec_cmd: vm slot_add_binding WAN1 0 0 C7200-IO-FE 
Nov 26 20:45:44.975 HYPERVISOR: exec_cmd: vm get_status WAN1 
Nov 26 20:45:44.976 HYPERVISOR: exec_cmd: vm slot_remove_binding WAN1 0 0 
Nov 26 20:45:44.978 HYPERVISOR: exec_cmd: vm get_status WAN1 
Nov 26 20:45:44.979 HYPERVISOR: exec_cmd: vm slot_add_binding WAN1 0 0 C7200-IO-GE-E 
Nov 26 20:45:44.980 HYPERVISOR: exec_cmd: vm get_status WAN1 
Nov 26 20:45:44.982 HYPERVISOR: exec_cmd: vm slot_add_binding WAN1 2 0 PA-2FE-TX 
Nov 26 20:45:44.984 HYPERVISOR: exec_cmd: vm set_ram WAN1 512 
Nov 26 20:45:44.985 HYPERVISOR: exec_cmd: vm get_status WAN1 
Nov 26 20:45:44.987 HYPERVISOR: exec_cmd: vm set_idle_pc WAN1 0x62a29de4 
Nov 26 20:45:44.989 HYPERVISOR: exec_cmd: vm get_status WAN1 
Nov 26 20:45:44.990 HYPERVISOR: exec_cmd: vm slot_add_binding WAN1 1 0 PA-8T 
Nov 26 20:45:44.996 HYPERVISOR: exec_cmd: vm set_ios WAN1 /media/actionmystique/SAMSUNG5-VMs/Images/GNS3/IOS/c7200-adventerprisek9-mz.152-4.S.image 
Nov 26 20:45:45.007 HYPERVISOR: exec_cmd: vm set_config WAN1 configs/i3_startup-config.cfg 
Nov 26 20:45:45.397 HYPERVISOR: exec_cmd: vm extract_config WAN1 
Nov 26 20:45:45.453 HYPERVISOR: exec_cmd: nio create_udp udp-af8e18ed-8ac7-45be-b48d-dc5d80538171 15008 127.0.0.1 15004 
Nov 26 20:45:45.454 HYPERVISOR: exec_cmd: vm slot_add_nio_binding WAN1 1 0 udp-af8e18ed-8ac7-45be-b48d-dc5d80538171 
Nov 26 20:45:45.454 HYPERVISOR: exec_cmd: vm get_status WAN1 
Nov 26 20:45:45.468 HYPERVISOR: exec_cmd: nio create_udp udp-c77974e4-16e9-47c3-9a77-846d4c87c358 15006 127.0.0.1 15009 
Nov 26 20:45:45.472 HYPERVISOR: exec_cmd: vm slot_add_nio_binding WAN1 2 0 udp-c77974e4-16e9-47c3-9a77-846d4c87c358 
Nov 26 20:45:45.473 HYPERVISOR: exec_cmd: vm get_status WAN1 
Nov 26 20:45:45.553 HYPERVISOR: exec_cmd: nio create_udp udp-cab77089-2346-4195-a43b-24a7e9f5afa9 15016 127.0.0.1 15015 
Nov 26 20:45:45.554 HYPERVISOR: exec_cmd: vm slot_add_nio_binding WAN1 0 0 udp-cab77089-2346-4195-a43b-24a7e9f5afa9 
Nov 26 20:45:45.558 HYPERVISOR: exec_cmd: vm get_status WAN1 
Nov 26 20:45:45.656 HYPERVISOR: exec_cmd: nio create_udp udp-d27f2eb0-d4d7-473b-a813-a2ae1e56a377 15023 127.0.0.1 15020 
Nov 26 20:45:45.657 HYPERVISOR: exec_cmd: vm slot_add_nio_binding WAN1 2 1 udp-d27f2eb0-d4d7-473b-a813-a2ae1e56a377 
Nov 26 20:45:45.657 HYPERVISOR: exec_cmd: vm get_status WAN1 
Nov 26 20:45:49.342 HYPERVISOR: exec_cmd: vm extract_config WAN1 
Nov 26 20:47:04.618 HYPERVISOR: exec_cmd: vm get_status WAN1 
Nov 26 20:47:04.620 HYPERVISOR: exec_cmd: vm extract_config WAN1 
Nov 26 20:47:04.623 HYPERVISOR: exec_cmd: vm delete WAN1 
Nov 26 20:47:04.623 VM: VM WAN1 destroyed.
Nov 26 20:47:04.625 HYPERVISOR: exec_cmd: hypervisor stop 
Nov 26 20:47:05.032 HYPERVISOR: Stopped.
Nov 26 20:47:05.032 GENERAL: reset done.
