Nov 26 20:45:44.754 HYPERVISOR: Release 0.2.17-amd64/Linux (tag 2017072410)
Nov 26 20:45:44.754 HYPERVISOR: Started on IP = 127.0.0.1, TCP port = 33039.
Nov 26 20:45:44.952 HYPERVISOR: exec_cmd: hypervisor version 
Nov 26 20:45:44.953 HYPERVISOR: exec_cmd: hypervisor working_dir /media/actionmystique/SAMSUNG5-VMs/Labs/GNS3/RIPng/project-files/dynamips 
Nov 26 20:45:44.953 GENERAL: working_dir=/media/actionmystique/SAMSUNG5-VMs/Labs/GNS3/RIPng/project-files/dynamips
Nov 26 20:45:44.954 HYPERVISOR: exec_cmd: vm create R6 2 c7200 
Nov 26 20:45:44.954 VM: VM R6 created.
Nov 26 20:45:44.955 HYPERVISOR: exec_cmd: vm set_con_tcp_port R6 2006 
Nov 26 20:45:44.959 HYPERVISOR: exec_cmd: vm set_aux_tcp_port R6 2106 
Nov 26 20:45:44.969 HYPERVISOR: exec_cmd: c7200 get_mac_addr R6 
Nov 26 20:45:44.971 HYPERVISOR: exec_cmd: vm get_status R6 
Nov 26 20:45:44.973 HYPERVISOR: exec_cmd: vm slot_add_binding R6 0 0 C7200-IO-FE 
Nov 26 20:45:44.975 HYPERVISOR: exec_cmd: vm get_status R6 
Nov 26 20:45:44.976 HYPERVISOR: exec_cmd: vm slot_remove_binding R6 0 0 
Nov 26 20:45:44.978 HYPERVISOR: exec_cmd: vm get_status R6 
Nov 26 20:45:44.979 HYPERVISOR: exec_cmd: vm slot_add_binding R6 0 0 C7200-IO-GE-E 
Nov 26 20:45:44.980 HYPERVISOR: exec_cmd: vm get_status R6 
Nov 26 20:45:44.982 HYPERVISOR: exec_cmd: vm slot_add_binding R6 2 0 PA-2FE-TX 
Nov 26 20:45:44.984 HYPERVISOR: exec_cmd: vm set_ram R6 512 
Nov 26 20:45:44.986 HYPERVISOR: exec_cmd: vm get_status R6 
Nov 26 20:45:44.987 HYPERVISOR: exec_cmd: vm set_idle_pc R6 0x62a29de4 
Nov 26 20:45:44.989 HYPERVISOR: exec_cmd: vm get_status R6 
Nov 26 20:45:44.991 HYPERVISOR: exec_cmd: vm slot_add_binding R6 1 0 PA-8T 
Nov 26 20:45:44.997 HYPERVISOR: exec_cmd: vm set_ios R6 /media/actionmystique/SAMSUNG5-VMs/Images/GNS3/IOS/c7200-adventerprisek9-mz.152-4.S.image 
Nov 26 20:45:45.008 HYPERVISOR: exec_cmd: vm set_config R6 configs/i2_startup-config.cfg 
Nov 26 20:45:45.416 HYPERVISOR: exec_cmd: vm extract_config R6 
Nov 26 20:45:45.464 HYPERVISOR: exec_cmd: nio create_udp udp-11c09dbd-f4d7-492e-a4e1-068db5ccaecc 15009 127.0.0.1 15006 
Nov 26 20:45:45.465 HYPERVISOR: exec_cmd: vm slot_add_nio_binding R6 2 0 udp-11c09dbd-f4d7-492e-a4e1-068db5ccaecc 
Nov 26 20:45:45.465 HYPERVISOR: exec_cmd: vm get_status R6 
Nov 26 20:45:45.568 HYPERVISOR: exec_cmd: nio create_udp udp-0a9dafc6-4e91-4eb1-8da8-96cef2fb1d3b 15014 127.0.0.1 15017 
Nov 26 20:45:45.569 HYPERVISOR: exec_cmd: vm slot_add_nio_binding R6 2 1 udp-0a9dafc6-4e91-4eb1-8da8-96cef2fb1d3b 
Nov 26 20:45:45.569 HYPERVISOR: exec_cmd: vm get_status R6 
Nov 26 20:45:45.575 HYPERVISOR: exec_cmd: nio create_udp udp-bae83586-0d1a-4271-b8ae-6faa5973e01c 15018 127.0.0.1 15019 
Nov 26 20:45:45.579 HYPERVISOR: exec_cmd: vm slot_add_nio_binding R6 0 0 udp-bae83586-0d1a-4271-b8ae-6faa5973e01c 
Nov 26 20:45:45.580 HYPERVISOR: exec_cmd: vm get_status R6 
Nov 26 20:45:45.664 HYPERVISOR: exec_cmd: nio create_udp udp-4984a294-39f1-4454-889d-c7db1d326e03 15024 127.0.0.1 15025 
Nov 26 20:45:45.665 HYPERVISOR: exec_cmd: vm slot_add_nio_binding R6 1 0 udp-4984a294-39f1-4454-889d-c7db1d326e03 
Nov 26 20:45:45.665 HYPERVISOR: exec_cmd: vm get_status R6 
Nov 26 20:45:49.344 HYPERVISOR: exec_cmd: vm extract_config R6 
Nov 26 20:47:04.618 HYPERVISOR: exec_cmd: vm get_status R6 
Nov 26 20:47:04.620 HYPERVISOR: exec_cmd: vm extract_config R6 
Nov 26 20:47:04.622 HYPERVISOR: exec_cmd: vm delete R6 
Nov 26 20:47:04.622 VM: VM R6 destroyed.
Nov 26 20:47:04.624 HYPERVISOR: exec_cmd: hypervisor stop 
Nov 26 20:47:05.029 HYPERVISOR: Stopped.
Nov 26 20:47:05.030 GENERAL: reset done.
