Nov 28 08:22:05.035 HYPERVISOR: Release 0.2.17-amd64/Linux (tag 2017072410)
Nov 28 08:22:05.035 HYPERVISOR: Started on IP = 127.0.0.1, TCP port = 52705.
Nov 28 08:22:05.057 HYPERVISOR: exec_cmd: hypervisor version 
Nov 28 08:22:05.057 HYPERVISOR: exec_cmd: hypervisor working_dir /media/actionmystique/SAMSUNG5-VMs/Labs/GNS3/TT 1-solutions-linux-/project-files/dynamips 
Nov 28 08:22:05.057 GENERAL: working_dir=/media/actionmystique/SAMSUNG5-VMs/Labs/GNS3/TT 1-solutions-linux-/project-files/dynamips
Nov 28 08:22:05.058 HYPERVISOR: exec_cmd: vm create ESW1 1 c3725 
Nov 28 08:22:05.058 VM: VM ESW1 created.
Nov 28 08:22:05.058 HYPERVISOR: exec_cmd: vm set_con_tcp_port ESW1 2001 
Nov 28 08:22:05.058 HYPERVISOR: exec_cmd: vm set_aux_tcp_port ESW1 2501 
Nov 28 08:22:05.059 HYPERVISOR: exec_cmd: c3725 get_mac_addr ESW1 
Nov 28 08:22:05.059 HYPERVISOR: exec_cmd: vm set_disk0 ESW1 1 
Nov 28 08:22:05.059 HYPERVISOR: exec_cmd: vm get_status ESW1 
Nov 28 08:22:05.060 HYPERVISOR: exec_cmd: vm slot_add_binding ESW1 1 0 NM-16ESW 
Nov 28 08:22:05.060 HYPERVISOR: exec_cmd: vm set_ios ESW1 /media/actionmystique/SAMSUNG5-VMs/Images/GNS3/IOS/c3725-adventerprisek9-mz.124-15.T10.image 
Nov 28 08:22:05.060 HYPERVISOR: exec_cmd: c3725 set_mac_addr ESW1 c201.3297.0000 
Nov 28 08:22:05.061 HYPERVISOR: exec_cmd: vm slot_add_binding ESW1 0 16 WIC-2T 
Nov 28 08:22:05.061 HYPERVISOR: exec_cmd: vm get_status ESW1 
Nov 28 08:22:05.061 HYPERVISOR: exec_cmd: vm set_idle_pc ESW1 0x60c06d20 
Nov 28 08:22:05.062 HYPERVISOR: exec_cmd: vm set_nvram ESW1 256 
Nov 28 08:22:05.062 HYPERVISOR: exec_cmd: vm set_config ESW1 configs/i1_startup-config.cfg 
Nov 28 08:22:05.063 HYPERVISOR: exec_cmd: vm set_config ESW1 configs/i1_startup-config.cfg configs/i1_private-config.cfg 
Nov 28 08:22:05.176 HYPERVISOR: exec_cmd: nio create_udp udp-9c3dcb4b-7e20-49fe-8e21-ff66402dc478 15000 127.0.0.1 15002 
Nov 28 08:22:05.189 HYPERVISOR: exec_cmd: vm slot_add_nio_binding ESW1 1 1 udp-9c3dcb4b-7e20-49fe-8e21-ff66402dc478 
Nov 28 08:22:05.189 HYPERVISOR: exec_cmd: vm get_status ESW1 
Nov 28 08:22:05.194 HYPERVISOR: exec_cmd: nio create_udp udp-0f4d64cb-1b27-4bde-a002-652b6c2c2613 15003 127.0.0.1 15004 
Nov 28 08:22:05.195 HYPERVISOR: exec_cmd: vm slot_add_nio_binding ESW1 1 2 udp-0f4d64cb-1b27-4bde-a002-652b6c2c2613 
Nov 28 08:22:05.195 HYPERVISOR: exec_cmd: vm get_status ESW1 
Nov 28 08:22:05.219 HYPERVISOR: exec_cmd: nio create_udp udp-04aa6623-415e-40b9-8e2b-68e0e9f42ea4 15005 127.0.0.1 15001 
Nov 28 08:22:05.219 HYPERVISOR: exec_cmd: vm slot_add_nio_binding ESW1 1 0 udp-04aa6623-415e-40b9-8e2b-68e0e9f42ea4 
Nov 28 08:22:05.220 HYPERVISOR: exec_cmd: vm get_status ESW1 
Nov 28 08:22:18.387 HYPERVISOR: exec_cmd: vm get_status ESW1 
Nov 28 08:22:18.387 HYPERVISOR: exec_cmd: vm extract_config ESW1 
Nov 28 08:22:18.389 HYPERVISOR: exec_cmd: vm delete ESW1 
Nov 28 08:22:18.389 VM: VM ESW1 destroyed.
Nov 28 08:22:18.389 HYPERVISOR: exec_cmd: hypervisor stop 
Nov 28 08:22:18.570 HYPERVISOR: Stopped.
Nov 28 08:22:18.570 GENERAL: reset done.
