Nov 26 20:50:06.278 HYPERVISOR: Release 0.2.17-amd64/Linux (tag 2017072410)
Nov 26 20:50:06.278 HYPERVISOR: Started on IP = 127.0.0.1, TCP port = 40291.
Nov 26 20:50:06.289 HYPERVISOR: exec_cmd: hypervisor version 
Nov 26 20:50:06.291 HYPERVISOR: exec_cmd: hypervisor working_dir /media/actionmystique/SAMSUNG5-VMs/Labs/GNS3/OSPF - EIGRP - RIP/project-files/dynamips 
Nov 26 20:50:06.291 GENERAL: working_dir=/media/actionmystique/SAMSUNG5-VMs/Labs/GNS3/OSPF - EIGRP - RIP/project-files/dynamips
Nov 26 20:50:06.292 HYPERVISOR: exec_cmd: vm create R8 2 c7200 
Nov 26 20:50:06.292 VM: VM R8 created.
Nov 26 20:50:06.293 HYPERVISOR: exec_cmd: vm set_con_tcp_port R8 2003 
Nov 26 20:50:06.295 HYPERVISOR: exec_cmd: vm set_aux_tcp_port R8 2100 
Nov 26 20:50:06.295 HYPERVISOR: exec_cmd: c7200 get_mac_addr R8 
Nov 26 20:50:06.297 HYPERVISOR: exec_cmd: vm get_status R8 
Nov 26 20:50:06.298 HYPERVISOR: exec_cmd: vm slot_add_binding R8 0 0 C7200-IO-FE 
Nov 26 20:50:06.300 HYPERVISOR: exec_cmd: vm get_status R8 
Nov 26 20:50:06.302 HYPERVISOR: exec_cmd: vm slot_remove_binding R8 0 0 
Nov 26 20:50:06.304 HYPERVISOR: exec_cmd: vm get_status R8 
Nov 26 20:50:06.306 HYPERVISOR: exec_cmd: vm slot_add_binding R8 0 0 C7200-IO-GE-E 
Nov 26 20:50:06.309 HYPERVISOR: exec_cmd: vm set_ram R8 512 
Nov 26 20:50:06.311 HYPERVISOR: exec_cmd: vm get_status R8 
Nov 26 20:50:06.312 HYPERVISOR: exec_cmd: vm set_idle_pc R8 0x60188e14 
Nov 26 20:50:06.314 HYPERVISOR: exec_cmd: vm get_status R8 
Nov 26 20:50:06.319 HYPERVISOR: exec_cmd: vm slot_add_binding R8 1 0 PA-8T 
Nov 26 20:50:06.331 HYPERVISOR: exec_cmd: vm set_con_tcp_port R8 2003 
Nov 26 20:50:06.332 HYPERVISOR: exec_cmd: vm set_ios R8 /media/actionmystique/SAMSUNG5-VMs/Images/GNS3/IOS/c7200-adventerprisek9-mz.152-4.M2.image 
Nov 26 20:50:06.334 HYPERVISOR: exec_cmd: vm set_config R8 configs/i2_startup-config.cfg 
Nov 26 20:50:07.246 HYPERVISOR: exec_cmd: vm extract_config R8 
Nov 26 20:50:07.286 HYPERVISOR: exec_cmd: nio create_udp udp-92c7e56c-fb9d-41d0-9c85-cc54e529b811 15007 127.0.0.1 15002 
Nov 26 20:50:07.287 HYPERVISOR: exec_cmd: vm slot_add_nio_binding R8 0 0 udp-92c7e56c-fb9d-41d0-9c85-cc54e529b811 
Nov 26 20:50:07.294 HYPERVISOR: exec_cmd: vm get_status R8 
Nov 26 20:50:07.347 HYPERVISOR: exec_cmd: nio create_udp udp-66dce943-444a-4f1e-be0b-3f8aede6d997 15003 127.0.0.1 15009 
Nov 26 20:50:07.352 HYPERVISOR: exec_cmd: vm slot_add_nio_binding R8 1 0 udp-66dce943-444a-4f1e-be0b-3f8aede6d997 
Nov 26 20:50:07.353 HYPERVISOR: exec_cmd: vm get_status R8 
Nov 26 20:50:07.539 HYPERVISOR: exec_cmd: nio create_udp udp-47bff69d-df07-4ce8-bc07-78a398f7a625 15025 127.0.0.1 15026 
Nov 26 20:50:07.540 HYPERVISOR: exec_cmd: vm slot_add_nio_binding R8 1 1 udp-47bff69d-df07-4ce8-bc07-78a398f7a625 
Nov 26 20:50:07.541 HYPERVISOR: exec_cmd: vm get_status R8 
Nov 26 20:50:07.685 HYPERVISOR: exec_cmd: nio create_udp udp-06177abd-28d5-4fc4-b92c-ac3869b6af1c 15039 127.0.0.1 15038 
Nov 26 20:50:07.688 HYPERVISOR: exec_cmd: vm slot_add_nio_binding R8 1 2 udp-06177abd-28d5-4fc4-b92c-ac3869b6af1c 
Nov 26 20:50:07.689 HYPERVISOR: exec_cmd: vm get_status R8 
Nov 26 20:53:18.111 HYPERVISOR: exec_cmd: vm get_status R8 
Nov 26 20:53:18.117 HYPERVISOR: exec_cmd: vm extract_config R8 
Nov 26 20:53:18.121 HYPERVISOR: exec_cmd: vm delete R8 
Nov 26 20:53:18.121 VM: VM R8 destroyed.
Nov 26 20:53:18.126 HYPERVISOR: exec_cmd: hypervisor stop 
Nov 26 20:53:18.483 HYPERVISOR: Stopped.
Nov 26 20:53:18.483 GENERAL: reset done.
