Nov 26 20:50:06.419 HYPERVISOR: Release 0.2.17-amd64/Linux (tag 2017072410)
Nov 26 20:50:06.419 HYPERVISOR: Started on IP = 127.0.0.1, TCP port = 35769.
Nov 26 20:50:06.465 HYPERVISOR: exec_cmd: hypervisor version 
Nov 26 20:50:06.470 HYPERVISOR: exec_cmd: hypervisor working_dir /media/actionmystique/SAMSUNG5-VMs/Labs/GNS3/OSPF - EIGRP - RIP/project-files/dynamips 
Nov 26 20:50:06.470 GENERAL: working_dir=/media/actionmystique/SAMSUNG5-VMs/Labs/GNS3/OSPF - EIGRP - RIP/project-files/dynamips
Nov 26 20:50:06.481 HYPERVISOR: exec_cmd: vm create R10 11 c7200 
Nov 26 20:50:06.481 VM: VM R10 created.
Nov 26 20:50:06.484 HYPERVISOR: exec_cmd: vm set_con_tcp_port R10 2011 
Nov 26 20:50:06.492 HYPERVISOR: exec_cmd: vm set_aux_tcp_port R10 2111 
Nov 26 20:50:06.504 HYPERVISOR: exec_cmd: c7200 get_mac_addr R10 
Nov 26 20:50:06.507 HYPERVISOR: exec_cmd: vm get_status R10 
Nov 26 20:50:06.510 HYPERVISOR: exec_cmd: vm slot_add_binding R10 0 0 C7200-IO-FE 
Nov 26 20:50:06.512 HYPERVISOR: exec_cmd: vm get_status R10 
Nov 26 20:50:06.513 HYPERVISOR: exec_cmd: vm slot_remove_binding R10 0 0 
Nov 26 20:50:06.514 HYPERVISOR: exec_cmd: vm get_status R10 
Nov 26 20:50:06.519 HYPERVISOR: exec_cmd: vm slot_add_binding R10 0 0 C7200-IO-GE-E 
Nov 26 20:50:06.531 HYPERVISOR: exec_cmd: vm set_ram R10 512 
Nov 26 20:50:06.535 HYPERVISOR: exec_cmd: vm get_status R10 
Nov 26 20:50:06.537 HYPERVISOR: exec_cmd: vm set_idle_pc R10 0x60188e14 
Nov 26 20:50:06.539 HYPERVISOR: exec_cmd: vm get_status R10 
Nov 26 20:50:06.541 HYPERVISOR: exec_cmd: vm slot_add_binding R10 1 0 PA-8T 
Nov 26 20:50:06.542 HYPERVISOR: exec_cmd: vm set_ios R10 /media/actionmystique/SAMSUNG5-VMs/Images/GNS3/IOS/c7200-adventerprisek9-mz.152-4.M2.image 
Nov 26 20:50:06.544 HYPERVISOR: exec_cmd: vm set_config R10 configs/i11_startup-config.cfg 
Nov 26 20:50:07.245 HYPERVISOR: exec_cmd: vm extract_config R10 
Nov 26 20:50:07.521 HYPERVISOR: exec_cmd: nio create_udp udp-f8303580-1ce6-4692-9847-c1ebc5acf1b0 15026 127.0.0.1 15025 
Nov 26 20:50:07.524 HYPERVISOR: exec_cmd: vm slot_add_nio_binding R10 1 0 udp-f8303580-1ce6-4692-9847-c1ebc5acf1b0 
Nov 26 20:50:07.525 HYPERVISOR: exec_cmd: vm get_status R10 
Nov 26 20:50:07.537 HYPERVISOR: exec_cmd: nio create_udp udp-cdb156c2-0226-41dd-86c7-5b12fe5ceb65 15023 127.0.0.1 15027 
Nov 26 20:50:07.540 HYPERVISOR: exec_cmd: vm slot_add_nio_binding R10 0 0 udp-cdb156c2-0226-41dd-86c7-5b12fe5ceb65 
Nov 26 20:50:07.541 HYPERVISOR: exec_cmd: vm get_status R10 
Nov 26 20:50:07.577 HYPERVISOR: exec_cmd: nio create_udp udp-24b4cf6c-0d1d-4c05-9287-e1e37bf4c8a0 15029 127.0.0.1 15028 
Nov 26 20:50:07.580 HYPERVISOR: exec_cmd: vm slot_add_nio_binding R10 1 1 udp-24b4cf6c-0d1d-4c05-9287-e1e37bf4c8a0 
Nov 26 20:50:07.580 HYPERVISOR: exec_cmd: vm get_status R10 
Nov 26 20:53:18.112 HYPERVISOR: exec_cmd: vm get_status R10 
Nov 26 20:53:18.118 HYPERVISOR: exec_cmd: vm extract_config R10 
Nov 26 20:53:18.122 HYPERVISOR: exec_cmd: vm delete R10 
Nov 26 20:53:18.122 VM: VM R10 destroyed.
Nov 26 20:53:18.127 HYPERVISOR: exec_cmd: hypervisor stop 
Nov 26 20:53:18.138 HYPERVISOR: Stopped.
Nov 26 20:53:18.138 GENERAL: reset done.
