Nov 27 16:22:05.001 HYPERVISOR: Release 0.2.17-amd64/Linux (tag 2017072410)
Nov 27 16:22:05.001 HYPERVISOR: Started on IP = 127.0.0.1, TCP port = 46921.
Nov 27 16:22:05.012 HYPERVISOR: exec_cmd: hypervisor version 
Nov 27 16:22:05.017 HYPERVISOR: exec_cmd: hypervisor working_dir /media/actionmystique/SAMSUNG5-VMs/Labs/GNS3/git-Public-Labs-Collection/CCNP/TBSHOOT/L3-Technologies/IPv4/High-Availability/HSRP/Jean-Christophe_Manciot/1+/TT 3-linux/project-files/dynamips 
Nov 27 16:22:05.017 GENERAL: working_dir=/media/actionmystique/SAMSUNG5-VMs/Labs/GNS3/git-Public-Labs-Collection/CCNP/TBSHOOT/L3-Technologies/IPv4/High-Availability/HSRP/Jean-Christophe_Manciot/1+/TT 3-linux/project-files/dynamips
Nov 27 16:22:05.018 HYPERVISOR: exec_cmd: vm create Core 4 c3725 
Nov 27 16:22:05.018 VM: VM Core created.
Nov 27 16:22:05.023 HYPERVISOR: exec_cmd: vm set_con_tcp_port Core 2005 
Nov 27 16:22:05.023 HYPERVISOR: exec_cmd: c3725 get_mac_addr Core 
Nov 27 16:22:05.024 HYPERVISOR: exec_cmd: vm set_ram Core 256 
Nov 27 16:22:05.024 HYPERVISOR: exec_cmd: vm set_nvram Core 256 
Nov 27 16:22:05.024 HYPERVISOR: exec_cmd: vm get_status Core 
Nov 27 16:22:05.025 HYPERVISOR: exec_cmd: vm set_idle_pc Core 0x614ac21c 
Nov 27 16:22:05.025 HYPERVISOR: exec_cmd: c3725 set_mac_addr Core c204.0c3e.0000 
Nov 27 16:22:05.025 HYPERVISOR: exec_cmd: vm get_status Core 
Nov 27 16:22:05.026 HYPERVISOR: exec_cmd: vm slot_add_binding Core 1 0 NM-16ESW 
Nov 27 16:22:05.026 HYPERVISOR: exec_cmd: vm set_ios Core /media/actionmystique/SAMSUNG5-VMs/Images/GNS3/IOS/c3725-adventerprisek9-mz.124-15.T10.image 
Nov 27 16:22:05.027 HYPERVISOR: exec_cmd: vm slot_add_binding Core 0 16 WIC-2T 
Nov 27 16:22:05.027 HYPERVISOR: exec_cmd: vm set_disk0 Core 1 
Nov 27 16:22:05.028 HYPERVISOR: exec_cmd: vm set_config Core configs/i4_startup-config.cfg 
Nov 27 16:22:05.028 HYPERVISOR: exec_cmd: vm set_config Core configs/i4_startup-config.cfg configs/i4_private-config.cfg 
Nov 27 16:22:05.242 HYPERVISOR: exec_cmd: nio create_udp udp-e7fbcc1e-21c0-41fc-aa75-99efef58650b 15005 127.0.0.1 15003 
Nov 27 16:22:05.243 HYPERVISOR: exec_cmd: vm slot_add_nio_binding Core 1 1 udp-e7fbcc1e-21c0-41fc-aa75-99efef58650b 
Nov 27 16:22:05.243 HYPERVISOR: exec_cmd: vm get_status Core 
Nov 27 16:22:05.268 HYPERVISOR: exec_cmd: nio create_udp udp-560f8c8b-fed8-4c6b-bdad-84a54a3fbfa1 15007 127.0.0.1 15008 
Nov 27 16:22:05.269 HYPERVISOR: exec_cmd: vm slot_add_nio_binding Core 1 0 udp-560f8c8b-fed8-4c6b-bdad-84a54a3fbfa1 
Nov 27 16:22:05.269 HYPERVISOR: exec_cmd: vm get_status Core 
